12262.4	11857.9
1650
28743.5	18022.7
15
0	2	28
1	0	28
2	0	28
3	0	28
4	0	28
5	6	28
6	0	28
7	4	28
8	0	28
9	0	28
10	0	28
11	0	28
12	0	28
13	0	28
14	0	28
44
0	5	70217.000000	162195.900000	1.000000
0	6	51866.500000	110170.800000	1.000000
0	7	23324.000000	66306.500000	1.000000
1	2	55307.000000	136693.400000	1.000000
1	4	11504.500000	44884.400000	1.000000
1	5	97020.000000	216261.200000	1.000000
2	1	63689.500000	136693.400000	1.000000
2	4	0.000000	17341.700000	0.000000
2	7	44639.000000	136693.400000	1.000000
3	4	0.000000	38763.800000	0.000000
3	5	29151.500000	51005.000000	1.000000
4	1	12561.500000	44884.400000	1.000000
4	2	0.000000	17341.700000	0.000000
4	3	0.000000	38763.800000	0.000000
5	0	73129.000000	162195.900000	1.000000
5	1	100747.500000	216261.200000	1.000000
5	3	30236.500000	51005.000000	1.000000
5	12	26999.000000	70386.900000	1.000000
6	0	56080.500000	110170.800000	1.000000
6	9	32336.500000	91809.000000	1.000000
6	13	17262.000000	64266.300000	1.000000
7	0	26432.000000	66306.500000	1.000000
7	2	52776.500000	136693.400000	1.000000
7	8	26848.500000	38763.800000	1.000000
7	14	22869.000000	57125.600000	1.000000
8	7	29386.000000	38763.800000	1.000000
8	9	0.000000	19381.900000	0.000000
8	11	19537.000000	31623.100000	1.000000
8	14	0.000000	23462.300000	0.000000
9	6	32256.000000	91809.000000	1.000000
9	8	0.000000	19381.900000	0.000000
9	11	0.000000	32643.200000	0.000000
10	12	13944.000000	25502.500000	1.000000
10	13	0.000000	14281.400000	0.000000
11	8	21672.000000	31623.100000	1.000000
11	9	0.000000	32643.200000	0.000000
12	5	30492.000000	70386.900000	1.000000
12	10	13373.500000	25502.500000	1.000000
12	13	0.000000	25502.500000	0.000000
13	6	20475.000000	64266.300000	1.000000
13	10	0.000000	14281.400000	0.000000
13	12	0.000000	25502.500000	0.000000
14	7	27342.000000	57125.600000	1.000000
14	8	0.000000	23462.300000	0.000000
840
5	1	2	7	8	11	7	0	7	1	7	2	7	3	7	4	
5	1	5	0	6	9	9	0	9	1	9	2	9	5	9	4	
5	7	2	1	5	12	2	0	2	1	2	2	2	3	2	4	
2	3	5	3	0	3	1	3	2	3	5	3	4	
5	7	2	1	5	3	2	0	3	1	3	5	3	3	3	4	
6	11	8	7	0	5	3	0	0	0	1	0	5	0	3	0	4	
5	3	5	0	6	13	3	0	3	1	3	2	3	5	13	4	
2	6	13	6	0	6	1	6	5	6	3	6	4	
6	10	12	5	1	2	7	10	0	2	1	2	2	2	3	2	4	
4	3	5	0	6	0	0	0	1	0	5	0	3	0	4	
4	4	1	2	7	7	0	7	1	7	2	7	5	7	4	
4	1	2	7	8	2	0	2	1	2	2	2	1	2	0	
6	14	7	2	1	5	12	14	0	2	1	2	2	2	1	2	0	
4	7	2	1	4	7	0	7	1	7	2	7	3	7	4	
4	2	1	5	12	5	0	5	1	5	2	5	5	5	4	
4	0	5	1	2	2	0	2	1	2	2	2	5	2	4	
5	13	6	0	5	1	13	0	13	1	13	2	13	5	13	4	
5	7	2	1	5	3	2	0	2	1	3	2	3	1	3	0	
3	5	12	10	10	0	10	1	10	5	10	3	10	4	
2	12	5	5	0	5	1	5	2	5	1	5	0	
3	5	1	2	5	0	5	1	5	2	5	5	5	4	
4	8	7	2	1	2	0	2	1	2	2	2	1	2	0	
2	8	7	7	0	7	1	7	2	7	3	7	4	
6	10	12	5	0	6	9	0	0	0	1	0	2	0	3	0	4	
2	6	0	0	0	0	1	0	5	0	3	0	4	
3	14	7	0	0	0	0	1	0	5	0	3	0	4	
4	4	1	5	12	4	0	4	1	4	2	4	1	4	0	
3	2	1	5	5	0	5	1	5	5	5	3	5	4	
4	7	2	1	5	2	0	2	1	2	2	2	5	2	4	
3	0	7	14	0	0	0	1	0	5	0	3	0	4	
4	5	1	2	7	2	0	2	1	2	2	2	1	2	0	
5	8	7	0	6	9	0	0	0	1	0	5	0	3	0	4	
5	4	1	5	12	10	4	0	10	1	10	2	10	5	10	4	
3	5	12	10	5	0	5	1	5	2	5	5	5	4	
3	14	7	0	0	0	0	1	0	2	0	3	0	4	
6	3	5	0	7	8	11	0	0	0	1	0	5	0	3	0	4	
2	6	13	6	0	6	1	6	2	6	1	6	0	
7	8	7	2	1	5	12	10	2	0	2	1	2	2	2	1	10	0	
4	10	12	5	1	10	0	10	1	10	2	10	5	10	4	
2	0	5	0	0	0	1	0	2	0	3	0	4	
4	3	5	1	2	3	0	3	1	2	2	2	5	2	4	
5	7	2	1	5	12	2	0	2	1	2	2	2	1	2	0	
3	1	2	7	2	0	2	1	2	5	2	3	2	4	
7	10	12	5	1	2	7	14	10	0	14	1	14	2	14	3	14	4	
5	8	7	2	1	4	7	0	7	1	7	5	7	3	7	4	
5	2	1	5	12	10	5	0	5	1	5	5	5	3	5	4	
4	2	1	5	3	5	0	5	1	5	2	5	5	5	4	
2	4	1	4	0	4	1	4	5	4	3	4	4	
5	9	6	0	5	3	9	0	9	1	9	2	9	3	3	4	
5	7	2	1	5	12	2	0	2	1	2	2	2	5	2	4	
3	0	5	3	0	0	0	1	0	2	0	1	0	0	
5	9	6	0	5	3	0	0	0	1	0	2	0	5	0	4	
2	6	13	6	0	6	1	6	2	6	5	6	4	
3	12	5	0	0	0	0	1	0	2	0	3	0	4	
4	11	8	7	0	0	0	0	1	0	2	0	3	0	4	
5	10	12	5	1	2	5	0	5	1	5	2	5	3	5	4	
6	13	6	0	7	8	11	0	0	0	1	0	5	0	3	0	4	
4	7	2	1	4	7	0	7	1	7	2	7	1	7	0	
3	12	5	3	3	0	3	1	3	5	3	3	3	4	
5	12	5	1	2	7	2	0	2	1	2	2	2	3	2	4	
4	6	0	5	3	0	0	0	1	0	2	0	3	0	4	
4	9	6	0	5	0	0	0	1	0	5	0	3	0	4	
2	11	8	8	0	8	1	8	5	8	3	8	4	
2	12	10	10	0	10	1	10	2	10	1	10	0	
4	4	1	5	0	4	0	4	1	4	2	4	5	4	4	
4	0	7	8	11	0	0	0	1	0	2	0	1	0	0	
2	12	10	10	0	10	1	10	5	10	3	10	4	
3	9	6	13	6	0	6	1	6	2	6	5	6	4	
2	2	7	2	0	2	1	2	2	2	3	2	4	
4	14	7	0	6	14	0	14	1	14	2	14	1	14	0	
2	8	11	8	0	8	1	8	2	8	5	8	4	
2	5	1	5	0	5	1	5	2	5	5	5	4	
7	10	12	5	1	2	7	8	10	0	10	1	10	2	10	5	10	4	
5	3	5	1	2	7	3	0	2	1	2	2	2	1	2	0	
3	6	0	7	0	0	0	1	0	5	0	3	0	4	
6	2	1	5	0	6	13	2	0	13	1	13	2	13	3	13	4	
4	12	5	1	2	5	0	5	1	5	2	5	1	5	0	
4	3	5	1	4	5	0	5	1	5	2	5	1	5	0	
3	13	6	0	0	0	0	1	0	2	0	1	0	0	
5	5	1	2	7	8	2	0	2	1	2	2	2	1	2	0	
6	9	6	0	7	8	11	0	0	0	1	0	2	0	5	0	4	
5	9	6	0	7	8	0	0	0	1	0	2	0	5	0	4	
5	3	5	0	6	13	0	0	0	1	0	2	0	1	0	0	
3	1	5	0	5	0	5	1	5	5	5	3	5	4	
3	1	5	3	5	0	5	1	5	2	5	1	5	0	
5	2	1	5	12	10	5	0	5	1	5	2	5	1	5	0	
6	8	7	2	1	5	12	2	0	2	1	2	5	2	3	2	4	
5	8	7	0	6	13	13	0	13	1	13	2	13	3	13	4	
6	13	6	0	5	1	4	13	0	13	1	13	2	13	5	4	4	
3	1	5	3	3	0	3	1	3	2	3	3	3	4	
7	10	12	5	0	7	8	11	0	0	0	1	0	2	0	1	0	0	
4	4	1	2	7	7	0	7	1	7	2	7	3	7	4	
6	13	6	0	5	1	2	13	0	13	1	13	5	13	3	2	4	
6	9	6	0	7	8	11	0	0	0	1	0	2	0	3	0	4	
7	11	8	7	0	5	12	10	0	0	0	1	0	2	0	3	0	4	
4	4	1	5	12	5	0	5	1	5	5	5	3	5	4	
5	12	5	0	6	9	0	0	0	1	0	2	0	5	0	4	
5	14	7	2	1	5	14	0	2	1	2	2	2	5	2	4	
6	12	5	1	2	7	14	2	0	14	1	14	2	14	5	14	4	
3	3	5	12	3	0	3	1	3	2	3	3	3	4	
4	0	5	12	10	0	0	0	1	0	2	0	5	0	4	
7	14	7	2	1	5	12	10	14	0	10	1	10	2	10	3	10	4	
5	5	1	2	7	8	2	0	2	1	2	2	2	5	2	4	
3	8	7	2	7	0	7	1	7	2	7	5	7	4	
4	14	7	8	11	7	0	7	1	7	5	7	3	7	4	
2	14	7	14	0	14	1	14	5	14	3	14	4	
2	6	9	6	0	6	1	6	2	6	3	6	4	
5	14	7	0	6	9	0	0	0	1	0	5	0	3	0	4	
2	6	0	0	0	0	1	0	2	0	1	0	0	
5	14	7	2	1	5	14	0	14	1	2	5	2	3	2	4	
3	1	5	12	5	0	5	1	5	2	5	5	5	4	
3	5	0	6	0	0	0	1	0	2	0	3	0	4	
5	3	5	1	2	7	3	0	3	1	3	2	3	5	3	4	
3	0	5	12	0	0	0	1	0	2	0	3	0	4	
5	11	8	7	2	1	7	0	7	1	7	5	7	3	7	4	
5	9	6	0	5	1	0	0	0	1	0	2	0	5	0	4	
4	5	0	6	13	13	0	13	1	13	2	13	1	13	0	
4	11	8	7	0	7	0	7	1	7	5	7	3	7	4	
4	10	12	5	0	0	0	0	1	0	2	0	1	0	0	
7	10	12	5	1	2	7	14	10	0	14	1	14	2	14	5	14	4	
5	11	8	7	0	6	0	0	0	1	0	2	0	5	0	4	
3	7	2	1	2	0	2	1	2	2	2	1	2	0	
2	8	7	7	0	7	1	7	5	7	3	7	4	
4	3	5	12	10	5	0	5	1	5	2	5	5	5	4	
4	3	5	1	4	5	0	5	1	5	2	5	5	5	4	
2	9	6	9	0	9	1	9	5	9	3	9	4	
5	2	1	5	0	6	2	0	2	1	2	2	2	3	2	4	
5	8	7	2	1	5	2	0	2	1	2	2	2	3	2	4	
4	3	5	1	4	5	0	5	1	5	5	5	3	5	4	
5	14	7	2	1	5	14	0	14	1	2	2	2	3	2	4	
5	12	5	0	6	13	5	0	5	1	5	5	5	3	5	4	
3	7	0	6	0	0	0	1	0	2	0	3	0	4	
3	0	5	1	5	0	5	1	5	5	5	3	5	4	
4	5	0	6	13	13	0	13	1	13	5	13	3	13	4	
5	9	6	0	7	14	9	0	9	1	9	5	9	3	14	4	
2	10	12	10	0	10	1	10	5	10	3	10	4	
5	13	6	0	5	3	0	0	0	1	0	2	0	1	0	0	
6	4	1	5	0	6	13	0	0	0	1	0	2	0	1	0	0	
5	6	0	5	1	2	2	0	2	1	2	5	2	3	2	4	
5	14	7	2	1	4	7	0	7	1	7	2	7	1	7	0	
4	14	7	0	6	14	0	14	1	14	5	14	3	14	4	
2	1	2	2	0	2	1	2	2	2	1	2	0	
4	10	12	5	3	5	0	5	1	5	2	5	5	5	4	
5	10	12	5	0	6	5	0	5	1	5	5	5	3	5	4	
3	1	5	3	3	0	3	1	3	2	3	5	3	4	
3	1	5	0	0	0	0	1	0	2	0	3	0	4	
2	1	5	5	0	5	1	5	5	5	3	5	4	
5	4	1	5	0	6	0	0	0	1	0	2	0	3	0	4	
5	5	0	7	8	11	0	0	0	1	0	2	0	5	0	4	
4	8	7	0	6	7	0	7	1	7	5	7	3	7	4	
4	7	0	6	9	9	0	9	1	9	5	9	3	9	4	
2	2	1	1	0	1	1	1	2	1	5	1	4	
4	3	5	12	10	3	0	3	1	3	5	3	3	10	4	
5	6	0	5	12	10	0	0	0	1	0	2	0	1	0	0	
4	4	1	5	3	5	0	5	1	5	5	5	3	5	4	
4	0	5	1	4	0	0	0	1	0	2	0	5	0	4	
6	3	5	1	2	7	8	3	0	3	1	3	2	3	3	2	4	
4	2	7	8	11	7	0	7	1	7	5	7	3	7	4	
5	13	6	0	7	8	0	0	0	1	0	2	0	3	0	4	
2	9	6	9	0	9	1	9	2	9	5	9	4	
4	10	12	5	0	0	0	0	1	0	2	0	3	0	4	
4	7	0	6	13	0	0	0	1	0	2	0	5	0	4	
2	6	9	9	0	9	1	9	2	9	1	9	0	
6	14	7	2	1	5	3	14	0	2	1	2	2	2	3	3	4	
3	3	5	1	3	0	3	1	3	2	3	1	3	0	
4	1	2	7	8	7	0	7	1	7	2	7	5	7	4	
4	6	0	5	12	0	0	0	1	0	2	0	5	0	4	
3	3	5	1	3	0	3	1	3	5	3	3	3	4	
6	14	7	2	1	5	12	14	0	14	1	2	2	2	3	2	4	
3	4	1	2	4	0	4	1	4	2	4	1	4	0	
3	14	7	0	0	0	0	1	0	2	0	5	0	4	
6	13	6	0	5	12	10	5	0	5	1	5	5	5	3	5	4	
2	2	1	1	0	1	1	1	2	1	3	1	4	
3	0	7	8	0	0	0	1	0	2	0	3	0	4	
2	5	12	5	0	5	1	5	2	5	3	5	4	
4	11	8	7	2	7	0	7	1	7	5	7	3	7	4	
5	5	1	2	7	8	2	0	2	1	2	5	2	3	2	4	
6	12	5	0	7	8	11	0	0	0	1	0	2	0	1	0	0	
3	0	5	12	0	0	0	1	0	2	0	1	0	0	
4	1	2	7	14	7	0	7	1	7	2	7	1	7	0	
5	4	1	5	0	6	0	0	0	1	0	2	0	5	0	4	
6	4	1	5	0	6	9	4	0	9	1	9	2	9	3	9	4	
4	12	5	1	4	5	0	5	1	5	2	5	1	5	0	
3	0	7	8	0	0	0	1	0	2	0	1	0	0	
7	8	7	2	1	5	12	10	2	0	2	1	2	2	2	5	2	4	
2	13	6	13	0	13	1	13	2	13	3	13	4	
4	11	8	7	2	7	0	7	1	7	2	7	1	7	0	
2	7	2	2	0	2	1	2	2	2	1	2	0	
3	2	1	4	1	0	1	1	1	5	1	3	1	4	
5	5	1	2	7	8	2	0	2	1	2	2	2	3	2	4	
4	2	1	5	12	5	0	5	1	5	2	5	3	5	4	
4	8	7	0	6	0	0	0	1	0	2	0	3	0	4	
4	9	6	0	7	0	0	0	1	0	2	0	1	0	0	
5	3	5	0	6	9	0	0	0	1	0	2	0	5	0	4	
4	6	0	5	1	0	0	0	1	0	2	0	5	0	4	
5	9	6	0	5	12	0	0	0	1	0	2	0	5	0	4	
2	7	2	7	0	7	1	7	2	7	5	7	4	
3	3	5	12	3	0	3	1	3	2	3	1	3	0	
4	2	7	8	11	7	0	7	1	7	2	7	1	7	0	
5	8	7	0	6	13	13	0	13	1	13	5	13	3	13	4	
2	14	7	7	0	7	1	7	2	7	5	7	4	
6	8	7	2	1	5	12	2	0	2	1	2	2	2	3	2	4	
6	3	5	1	2	7	8	2	0	2	1	2	2	2	1	2	0	
2	9	6	9	0	9	1	9	2	9	3	9	4	
4	5	1	2	7	2	0	2	1	2	2	2	5	2	4	
4	8	7	0	6	0	0	0	1	0	2	0	1	0	0	
5	10	12	5	1	2	5	0	5	1	5	2	5	5	5	4	
4	11	8	7	14	7	0	7	1	7	5	7	3	7	4	
3	2	7	8	2	0	2	1	2	2	2	3	2	4	
5	14	7	0	6	13	14	0	13	1	13	2	13	3	13	4	
5	3	5	0	6	13	3	0	3	1	3	2	3	3	13	4	
4	4	1	5	0	5	0	5	1	5	5	5	3	5	4	
4	11	8	7	14	7	0	7	1	7	2	7	3	7	4	
5	11	8	7	0	5	0	0	0	1	0	2	0	5	0	4	
2	6	9	9	0	9	1	9	5	9	3	9	4	
4	14	7	8	11	7	0	7	1	7	2	7	1	7	0	
6	11	8	7	2	1	4	7	0	7	1	7	2	7	1	7	0	
3	2	7	14	7	0	7	1	7	2	7	5	7	4	
6	13	6	0	5	1	4	5	0	5	1	5	5	5	3	5	4	
7	14	7	2	1	5	12	10	14	0	10	1	10	2	10	1	10	0	
4	9	6	0	7	9	0	9	1	9	2	9	5	9	4	
4	10	12	5	3	5	0	5	1	5	2	5	3	5	4	
2	12	5	5	0	5	1	5	2	5	3	5	4	
5	1	5	0	6	13	0	0	0	1	0	2	0	5	0	4	
7	11	8	7	0	5	12	10	0	0	0	1	0	2	0	1	0	0	
4	11	8	7	0	0	0	0	1	0	2	0	1	0	0	
5	12	5	0	6	9	0	0	0	1	0	2	0	3	0	4	
2	0	6	0	0	0	1	0	2	0	5	0	4	
4	6	0	7	8	0	0	0	1	0	2	0	5	0	4	
5	4	1	2	7	14	4	0	14	1	14	2	14	1	14	0	
4	4	1	5	3	5	0	5	1	5	2	5	1	5	0	
2	5	12	5	0	5	1	5	2	5	1	5	0	
6	10	12	5	0	6	13	0	0	0	1	0	2	0	5	0	4	
2	2	1	1	0	1	1	1	5	1	3	1	4	
3	0	5	3	3	0	3	1	3	5	3	3	3	4	
6	3	5	0	7	8	11	0	0	0	1	0	2	0	5	0	4	
2	1	5	5	0	5	1	5	2	5	5	5	4	
5	14	7	2	1	4	7	0	7	1	7	2	7	5	7	4	
6	12	5	1	2	7	14	2	0	14	1	14	5	14	3	14	4	
3	6	0	5	0	0	0	1	0	2	0	3	0	4	
2	5	12	5	0	5	1	5	5	5	3	5	4	
5	11	8	7	0	6	0	0	0	1	0	2	0	1	0	0	
2	7	0	0	0	0	1	0	2	0	3	0	4	
3	0	5	1	0	0	0	1	0	2	0	3	0	4	
6	11	8	7	0	6	9	0	0	0	1	0	2	0	3	0	4	
7	10	12	5	1	2	7	8	10	0	10	1	10	5	10	3	10	4	
2	3	5	3	0	3	1	3	2	3	3	3	4	
5	4	1	2	7	8	2	0	2	1	2	2	2	1	2	0	
4	6	0	7	14	0	0	0	1	0	2	0	3	0	4	
3	1	5	3	5	0	5	1	5	5	5	3	5	4	
3	5	0	6	0	0	0	1	0	2	0	5	0	4	
5	9	6	0	5	12	0	0	0	1	0	2	0	3	0	4	
3	0	5	12	5	0	5	1	5	5	5	3	5	4	
3	5	0	6	5	0	5	1	5	5	5	3	5	4	
6	2	1	5	0	6	9	2	0	2	1	9	2	9	1	9	0	
5	4	1	2	7	14	7	0	7	1	7	5	7	3	7	4	
4	9	6	0	7	0	0	0	1	0	2	0	3	0	4	
3	7	2	1	7	0	7	1	7	2	7	5	7	4	
2	5	3	5	0	5	1	5	2	5	1	5	0	
5	9	6	0	7	8	7	0	7	1	7	5	7	3	7	4	
2	5	12	5	0	5	1	5	2	5	5	5	4	
2	0	5	5	0	5	1	5	5	5	3	5	4	
4	4	1	5	0	0	0	0	1	0	2	0	3	0	4	
5	6	0	7	8	11	0	0	0	1	0	2	0	1	0	0	
2	7	0	0	0	0	1	0	2	0	1	0	0	
5	2	1	5	0	6	2	0	2	1	2	2	2	1	2	0	
5	9	6	0	7	14	0	0	0	1	0	2	0	1	0	0	
4	6	0	7	8	7	0	7	1	7	5	7	3	7	4	
3	12	5	1	5	0	5	1	5	5	5	3	5	4	
5	1	5	0	6	13	13	0	13	1	13	2	13	1	13	0	
2	1	4	4	0	4	1	4	2	4	1	4	0	
5	11	8	7	2	1	7	0	7	1	7	2	7	5	7	4	
4	2	1	5	12	5	0	5	1	5	5	5	3	5	4	
6	13	6	0	7	8	11	0	0	0	1	0	2	0	1	0	0	
4	3	5	0	6	0	0	0	1	0	2	0	5	0	4	
4	2	1	5	3	5	0	5	1	5	2	5	3	5	4	
5	12	5	0	6	9	0	0	0	1	0	2	0	1	0	0	
6	7	2	1	5	12	10	2	0	10	1	10	2	10	5	10	4	
4	5	1	2	7	2	0	2	1	2	2	2	3	2	4	
5	14	7	0	6	9	0	0	0	1	0	2	0	5	0	4	
5	1	2	7	8	11	7	0	7	1	7	5	7	3	7	4	
3	4	1	5	5	0	5	1	5	5	5	3	5	4	
6	4	1	2	7	8	11	7	0	7	1	7	2	7	3	7	4	
2	0	7	0	0	0	1	0	2	0	1	0	0	
4	5	0	6	13	13	0	13	1	13	2	13	3	13	4	
4	12	5	0	6	0	0	0	1	0	2	0	1	0	0	
2	7	2	2	0	2	1	2	5	2	3	2	4	
3	13	6	0	0	0	0	1	0	2	0	5	0	4	
6	13	6	0	5	12	10	0	0	0	1	0	2	0	3	0	4	
5	13	6	0	7	14	0	0	0	1	0	2	0	5	0	4	
3	0	6	13	0	0	0	1	0	2	0	1	0	0	
3	0	5	1	0	0	0	1	0	2	0	5	0	4	
3	2	7	8	2	0	2	1	2	2	2	5	2	4	
2	6	0	0	0	0	1	0	2	0	3	0	4	
4	12	5	1	4	5	0	5	1	5	5	5	3	5	4	
3	14	7	2	7	0	7	1	7	2	7	1	7	0	
5	11	8	7	0	5	5	0	5	1	5	5	5	3	5	4	
4	2	7	8	11	7	0	7	1	7	2	7	3	7	4	
5	2	1	5	0	6	2	0	2	1	2	5	2	3	2	4	
6	11	8	7	2	1	4	7	0	7	1	7	2	7	5	7	4	
5	8	7	2	1	4	7	0	7	1	7	2	7	1	7	0	
5	10	12	5	1	4	10	0	4	1	4	2	4	5	4	4	
6	9	6	0	5	12	10	5	0	5	1	5	5	5	3	5	4	
4	6	0	5	3	3	0	3	1	3	5	3	3	3	4	
6	11	8	7	0	5	12	0	0	0	1	0	2	0	5	0	4	
4	8	7	0	6	0	0	0	1	0	2	0	5	0	4	
4	1	2	7	14	7	0	7	1	7	2	7	5	7	4	
7	8	7	2	1	5	12	10	2	0	2	1	2	5	10	3	10	4	
6	13	6	0	5	1	4	0	0	0	1	0	2	0	1	0	0	
3	5	1	4	5	0	5	1	5	2	5	1	5	0	
6	10	12	5	1	2	7	10	0	2	1	2	5	2	3	2	4	
3	4	1	2	4	0	4	1	4	5	4	3	4	4	
5	13	6	0	7	8	0	0	0	1	0	2	0	1	0	0	
6	9	6	0	5	1	4	0	0	0	1	0	2	0	3	0	4	
3	5	1	2	5	0	5	1	5	2	5	3	5	4	
4	7	0	6	13	13	0	13	1	13	5	13	3	13	4	
4	1	2	7	14	7	0	7	1	7	2	7	3	7	4	
4	4	1	5	3	5	0	5	1	5	2	5	3	5	4	
2	13	6	13	0	13	1	13	5	13	3	13	4	
6	3	5	1	2	7	14	3	0	14	1	14	2	14	3	14	4	
4	0	5	1	2	2	0	2	1	2	2	2	1	2	0	
4	9	6	0	5	9	0	9	1	9	2	9	5	9	4	
4	10	12	5	1	5	0	5	1	5	2	5	3	5	4	
4	11	8	7	14	7	0	7	1	7	2	7	1	7	0	
3	9	6	0	0	0	0	1	0	2	0	5	0	4	
4	7	2	1	5	2	0	2	1	2	2	2	1	2	0	
4	12	5	0	6	0	0	0	1	0	2	0	5	0	4	
2	4	1	1	0	1	1	1	2	1	1	1	0	
6	10	12	5	0	6	9	0	0	0	1	0	2	0	1	0	0	
4	14	7	0	6	0	0	0	1	0	2	0	3	0	4	
2	7	8	7	0	7	1	7	2	7	5	7	4	
4	5	0	6	9	5	0	5	1	5	5	5	3	5	4	
2	4	1	4	0	4	1	4	2	4	5	4	4	
2	8	11	8	0	8	1	8	2	8	1	8	0	
2	7	14	14	0	14	1	14	5	14	3	14	4	
3	0	7	14	14	0	14	1	14	2	14	3	14	4	
4	3	5	1	2	3	0	3	1	2	2	2	1	2	0	
5	5	0	7	8	11	0	0	0	1	0	2	0	1	0	0	
3	9	6	0	0	0	0	1	0	2	0	1	0	0	
4	14	7	8	11	7	0	7	1	7	2	7	3	7	4	
6	12	5	1	2	7	8	2	0	2	1	2	5	2	3	2	4	
3	8	7	14	7	0	7	1	7	2	7	5	7	4	
2	10	12	10	0	10	1	10	2	10	5	10	4	
2	12	5	5	0	5	1	5	5	5	3	5	4	
4	14	7	2	1	7	0	7	1	7	2	7	3	7	4	
5	10	12	5	1	4	5	0	5	1	5	2	5	1	5	0	
3	14	7	2	14	0	14	1	14	2	2	5	2	4	
6	12	5	1	2	7	14	2	0	14	1	14	2	14	3	14	4	
4	5	0	6	9	0	0	0	1	0	2	0	1	0	0	
4	13	6	0	7	13	0	13	1	13	2	13	5	13	4	
6	3	5	1	2	7	8	3	0	3	1	3	2	3	5	2	4	
2	0	5	0	0	0	1	0	2	0	5	0	4	
3	9	6	13	6	0	6	1	6	2	6	1	6	0	
3	5	1	4	5	0	5	1	5	5	5	3	5	4	
5	8	7	0	6	9	0	0	0	1	0	2	0	3	0	4	
3	10	12	5	10	0	10	1	10	5	10	3	10	4	
6	3	5	1	2	7	8	3	0	3	1	3	5	3	3	2	4	
3	10	12	5	10	0	10	1	10	2	10	3	10	4	
2	7	2	2	0	2	1	2	2	2	3	2	4	
2	6	13	6	0	6	1	6	2	6	3	6	4	
6	4	1	2	7	8	11	7	0	7	1	7	5	7	3	7	4	
3	0	6	13	13	0	13	1	13	5	13	3	13	4	
5	13	6	0	5	1	5	0	5	1	5	5	5	3	5	4	
5	11	8	7	0	6	0	0	0	1	0	2	0	3	0	4	
4	13	6	0	7	0	0	0	1	0	2	0	1	0	0	
6	8	7	2	1	5	12	2	0	2	1	2	2	2	1	2	0	
5	6	0	5	1	4	0	0	0	1	0	2	0	3	0	4	
7	10	12	5	0	7	8	11	0	0	0	1	0	2	0	3	0	4	
4	5	0	6	13	0	0	0	1	0	2	0	5	0	4	
3	0	5	1	0	0	0	1	0	2	0	1	0	0	
3	12	5	1	5	0	5	1	5	2	5	5	5	4	
5	12	5	0	6	13	0	0	0	1	0	2	0	5	0	4	
6	7	2	1	5	12	10	2	0	10	1	10	2	10	3	10	4	
5	8	7	0	6	13	13	0	13	1	13	2	13	1	13	0	
5	4	1	5	0	6	0	0	0	1	0	2	0	1	0	0	
3	4	1	2	4	0	4	1	4	2	4	3	4	4	
4	8	7	2	1	7	0	7	1	7	2	7	5	7	4	
2	5	1	5	0	5	1	5	2	5	3	5	4	
3	1	5	12	5	0	5	1	5	2	5	1	5	0	
4	4	1	2	7	7	0	7	1	7	5	7	3	7	4	
6	2	1	5	0	6	13	2	0	13	1	13	5	13	3	13	4	
5	9	6	0	5	3	9	0	9	1	9	5	9	3	3	4	
5	11	8	7	0	5	0	0	0	1	0	2	0	1	0	0	
5	14	7	0	6	13	0	0	0	1	0	2	0	5	0	4	
4	14	7	2	1	7	0	7	1	7	2	7	5	7	4	
3	7	8	11	7	0	7	1	7	2	7	5	7	4	
4	7	0	6	9	0	0	0	1	0	2	0	3	0	4	
4	1	5	12	10	10	0	10	1	10	5	10	3	10	4	
6	13	6	0	5	1	2	13	0	13	1	13	2	13	5	2	4	
5	4	1	5	12	10	4	0	10	1	10	2	10	3	10	4	
3	7	0	6	0	0	0	1	0	2	0	1	0	0	
5	1	5	0	6	9	0	0	0	1	0	2	0	1	0	0	
4	2	1	5	0	2	0	2	1	2	5	2	3	2	4	
2	3	5	3	0	3	1	3	2	3	1	3	0	
3	5	12	10	5	0	5	1	5	2	5	3	5	4	
3	6	0	5	5	0	5	1	5	5	5	3	5	4	
2	1	4	1	0	1	1	1	2	1	5	1	4	
2	3	5	5	0	5	1	5	5	5	3	5	4	
6	13	6	0	7	8	11	0	0	0	1	0	2	0	3	0	4	
2	7	0	7	0	7	1	7	5	7	3	7	4	
3	0	7	14	0	0	0	1	0	2	0	1	0	0	
3	9	6	0	9	0	9	1	9	5	9	3	9	4	
5	9	6	0	7	14	0	0	0	1	0	2	0	3	0	4	
3	8	7	2	2	0	2	1	2	2	2	1	2	0	
4	12	5	1	2	5	0	5	1	5	2	5	3	5	4	
5	11	8	7	0	6	7	0	7	1	7	5	7	3	7	4	
4	3	5	1	4	5	0	5	1	5	2	5	3	5	4	
3	4	1	5	5	0	5	1	5	2	5	3	5	4	
6	4	1	5	0	6	9	4	0	9	1	9	5	9	3	9	4	
2	7	14	14	0	14	1	14	2	14	3	14	4	
5	2	1	5	12	10	5	0	5	1	5	2	5	3	5	4	
4	5	1	2	7	2	0	2	1	2	5	2	3	2	4	
3	2	7	8	2	0	2	1	2	2	2	1	2	0	
4	14	7	2	1	7	0	7	1	7	2	7	1	7	0	
7	11	8	7	0	5	12	10	5	0	5	1	5	5	5	3	5	4	
3	9	6	13	6	0	6	1	6	5	6	3	6	4	
3	6	0	5	0	0	0	1	0	2	0	1	0	0	
6	3	5	1	2	7	14	3	0	14	1	14	2	14	1	14	0	
5	2	1	5	0	6	2	0	2	1	2	2	2	5	2	4	
2	8	11	8	0	8	1	8	5	8	3	8	4	
3	8	7	14	7	0	7	1	7	2	7	3	7	4	
5	9	6	0	7	8	0	0	0	1	0	2	0	1	0	0	
4	0	5	1	4	0	0	0	1	0	2	0	3	0	4	
5	7	2	1	5	12	2	0	2	1	2	5	2	3	2	4	
4	11	8	7	0	0	0	0	1	0	2	0	5	0	4	
5	11	8	7	0	5	0	0	0	1	0	2	0	3	0	4	
3	12	5	3	3	0	3	1	3	2	3	3	3	4	
4	4	1	2	7	4	0	2	1	2	2	2	1	2	0	
4	6	0	7	8	0	0	0	1	0	2	0	1	0	0	
5	13	6	0	5	12	0	0	0	1	0	2	0	3	0	4	
6	12	5	1	2	7	8	2	0	2	1	2	2	2	1	2	0	
3	2	1	5	5	0	5	1	5	2	5	1	5	0	
5	12	5	0	6	13	0	0	0	1	0	2	0	3	0	4	
4	10	12	5	1	10	0	10	1	10	5	10	3	10	4	
6	12	5	1	2	7	8	2	0	2	1	2	2	2	5	2	4	
2	0	7	7	0	7	1	7	5	7	3	7	4	
4	8	7	2	1	2	0	2	1	2	5	2	3	2	4	
3	5	1	4	5	0	5	1	5	2	5	3	5	4	
5	5	1	2	7	14	2	0	14	1	14	5	14	3	14	4	
5	1	5	0	6	9	0	0	0	1	0	2	0	3	0	4	
4	12	5	0	6	5	0	5	1	5	5	5	3	5	4	
6	9	6	0	5	1	4	5	0	5	1	5	5	5	3	5	4	
5	13	6	0	7	8	7	0	7	1	7	5	7	3	7	4	
3	12	5	3	5	0	5	1	5	2	5	5	5	4	
5	10	12	5	1	2	5	0	5	1	5	2	5	1	5	0	
3	13	6	9	6	0	6	1	6	2	6	3	6	4	
3	5	12	10	10	0	10	1	10	2	10	1	10	0	
6	10	12	5	0	6	9	0	0	0	1	0	2	0	5	0	4	
2	14	7	14	0	14	1	14	2	14	1	14	0	
3	3	5	1	3	0	3	1	3	2	3	3	3	4	
4	1	5	0	6	0	0	0	1	0	2	0	3	0	4	
7	10	12	5	0	7	8	11	0	0	0	1	0	2	0	5	0	4	
2	9	6	9	0	9	1	9	2	9	1	9	0	
5	13	6	0	5	1	13	0	13	1	13	2	13	1	13	0	
3	2	1	4	2	0	2	1	4	2	4	3	4	4	
6	9	6	0	5	1	2	9	0	9	1	9	2	9	1	2	0	
5	9	6	0	5	12	0	0	0	1	0	2	0	1	0	0	
5	13	6	0	5	12	0	0	0	1	0	2	0	1	0	0	
5	13	6	0	5	3	13	0	13	1	13	5	13	3	3	4	
7	11	8	7	0	5	12	10	0	0	0	1	0	2	0	5	0	4	
7	10	12	5	0	7	8	11	5	0	5	1	5	5	5	3	5	4	
4	6	0	5	12	0	0	0	1	0	2	0	3	0	4	
5	14	7	0	6	9	14	0	9	1	9	2	9	3	9	4	
3	1	5	0	0	0	0	1	0	2	0	1	0	0	
4	0	5	12	10	5	0	5	1	5	5	5	3	5	4	
5	4	1	2	7	8	4	0	4	1	4	2	2	5	2	4	
5	10	12	5	1	4	10	0	4	1	4	5	4	3	4	4	
5	4	1	2	7	14	4	0	14	1	14	2	14	5	14	4	
5	6	0	5	1	4	0	0	0	1	0	2	0	5	0	4	
6	8	7	2	1	5	3	2	0	2	1	2	2	2	5	3	4	
2	5	3	5	0	5	1	5	2	5	3	5	4	
3	5	1	2	5	0	5	1	5	5	5	3	5	4	
5	10	12	5	1	2	5	0	5	1	5	5	5	3	5	4	
5	5	1	2	7	14	2	0	14	1	14	2	14	5	14	4	
3	14	7	8	7	0	7	1	7	5	7	3	7	4	
4	5	0	6	9	0	0	0	1	0	2	0	5	0	4	
3	7	8	11	7	0	7	1	7	2	7	3	7	4	
3	8	7	14	7	0	7	1	7	2	7	1	7	0	
6	12	5	1	2	7	14	2	0	14	1	14	2	14	1	14	0	
5	1	2	7	8	11	7	0	7	1	7	2	7	1	7	0	
3	7	0	6	7	0	7	1	7	5	7	3	7	4	
6	11	8	7	0	5	3	0	0	0	1	0	2	0	1	0	0	
3	2	7	14	7	0	7	1	7	5	7	3	7	4	
6	14	7	2	1	5	12	14	0	2	1	2	2	2	5	2	4	
6	11	8	7	0	5	12	0	0	0	1	0	2	0	1	0	0	
4	0	5	1	4	5	0	5	1	5	5	5	3	5	4	
3	8	7	0	0	0	0	1	0	2	0	3	0	4	
5	1	5	0	6	13	13	0	13	1	13	5	13	3	13	4	
6	4	1	5	0	6	13	0	0	0	1	0	2	0	3	0	4	
3	14	7	8	7	0	7	1	7	2	7	1	7	0	
4	11	8	7	14	7	0	7	1	7	2	7	5	7	4	
5	5	0	7	8	11	0	0	0	1	0	2	0	3	0	4	
3	2	7	14	7	0	7	1	7	2	7	1	7	0	
3	8	7	0	0	0	0	1	0	2	0	1	0	0	
6	11	8	7	2	1	4	7	0	7	1	7	5	7	3	7	4	
5	6	0	5	12	10	0	0	0	1	0	2	0	5	0	4	
4	1	5	0	6	0	0	0	1	0	2	0	5	0	4	
4	7	2	1	4	7	0	7	1	7	2	7	5	7	4	
2	11	8	8	0	8	1	8	2	8	3	8	4	
4	14	7	2	1	7	0	7	1	7	5	7	3	7	4	
5	13	6	0	7	8	0	0	0	1	0	2	0	5	0	4	
5	9	6	0	7	8	0	0	0	1	0	2	0	3	0	4	
3	6	0	7	0	0	0	1	0	2	0	1	0	0	
3	0	7	14	0	0	0	1	0	2	0	5	0	4	
3	2	1	4	1	0	1	1	1	2	1	5	1	4	
4	3	5	0	6	0	0	0	1	0	2	0	3	0	4	
5	9	6	0	5	1	0	0	0	1	0	2	0	1	0	0	
5	7	2	1	5	3	2	0	2	1	3	2	3	3	3	4	
5	9	6	0	5	12	9	0	9	1	9	5	9	3	9	4	
2	14	7	14	0	14	1	14	2	14	3	14	4	
7	10	12	5	1	2	7	8	2	0	2	1	2	2	2	1	2	0	
3	11	8	7	7	0	7	1	7	2	7	3	7	4	
5	13	6	0	5	12	0	0	0	1	0	2	0	5	0	4	
4	10	12	5	0	0	0	0	1	0	2	0	5	0	4	
4	7	0	6	9	0	0	0	1	0	2	0	1	0	0	
3	4	1	5	5	0	5	1	5	2	5	1	5	0	
4	13	6	0	7	13	0	13	1	13	2	13	3	13	4	
3	6	0	7	0	0	0	1	0	2	0	5	0	4	
2	2	7	2	0	2	1	2	2	2	1	2	0	
2	0	6	0	0	0	1	0	2	0	3	0	4	
3	7	8	11	7	0	7	1	7	5	7	3	7	4	
4	10	12	5	3	5	0	5	1	5	5	5	3	5	4	
3	1	5	12	5	0	5	1	5	2	5	3	5	4	
4	1	2	7	8	2	0	2	1	2	5	2	3	2	4	
3	0	6	9	9	0	9	1	9	5	9	3	9	4	
4	11	8	7	2	7	0	7	1	7	2	7	5	7	4	
6	8	7	2	1	5	3	2	0	2	1	2	5	2	3	3	4	
5	6	0	5	12	10	5	0	5	1	5	5	5	3	5	4	
3	13	6	0	13	0	13	1	13	2	13	3	13	4	
6	13	6	0	5	12	10	0	0	0	1	0	2	0	1	0	0	
2	0	6	0	0	0	1	0	2	0	1	0	0	
4	2	7	8	11	7	0	7	1	7	2	7	5	7	4	
5	8	7	0	6	9	0	0	0	1	0	2	0	1	0	0	
5	14	7	0	6	13	0	0	0	1	0	2	0	1	0	0	
6	8	7	2	1	5	3	2	0	2	1	2	2	2	1	3	0	
5	14	7	2	1	5	2	0	2	1	2	2	2	1	2	0	
2	5	0	0	0	0	1	0	2	0	5	0	4	
3	14	7	2	7	0	7	1	7	2	7	3	7	4	
3	7	2	1	7	0	7	1	7	5	7	3	7	4	
6	2	1	5	0	6	9	2	0	2	1	9	2	9	5	9	4	
4	12	5	1	4	5	0	5	1	5	2	5	3	5	4	
4	6	0	5	1	0	0	0	1	0	2	0	3	0	4	
2	7	14	14	0	14	1	14	2	14	1	14	0	
6	4	1	5	0	6	13	4	0	4	1	4	5	4	3	13	4	
6	4	1	5	0	6	13	0	0	0	1	0	2	0	5	0	4	
4	3	5	0	6	0	0	0	1	0	2	0	1	0	0	
6	9	6	0	5	1	4	0	0	0	1	0	2	0	1	0	0	
6	3	5	1	2	7	14	3	0	14	1	14	2	14	5	14	4	
7	10	12	5	1	2	7	8	10	0	10	1	10	2	10	3	10	4	
6	11	8	7	0	6	9	7	0	7	1	7	5	7	3	7	4	
6	9	6	0	7	8	11	0	0	0	1	0	2	0	1	0	0	
5	3	5	0	6	9	0	0	0	1	0	2	0	1	0	0	
2	2	7	2	0	2	1	2	5	2	3	2	4	
5	7	2	1	5	3	2	0	2	1	2	2	2	5	2	4	
3	7	8	11	7	0	7	1	7	2	7	1	7	0	
6	10	12	5	0	6	13	0	0	0	1	0	2	0	3	0	4	
6	9	6	0	5	1	2	9	0	9	1	9	2	9	5	2	4	
4	6	0	7	14	7	0	7	1	7	5	7	3	7	4	
4	6	0	7	14	0	0	0	1	0	2	0	5	0	4	
6	2	1	5	0	6	9	2	0	2	1	9	2	9	3	9	4	
3	12	5	1	5	0	5	1	5	2	5	3	5	4	
2	8	7	7	0	7	1	7	2	7	1	7	0	
5	6	0	7	8	11	0	0	0	1	0	2	0	3	0	4	
2	5	0	5	0	5	1	5	5	5	3	5	4	
4	0	7	8	11	7	0	7	1	7	5	7	3	7	4	
3	11	8	7	7	0	7	1	7	2	7	5	7	4	
4	13	6	0	5	13	0	13	1	13	2	13	5	13	4	
2	0	7	0	0	0	1	0	2	0	3	0	4	
5	14	7	0	6	9	0	0	0	1	0	2	0	1	0	0	
2	10	12	10	0	10	1	10	2	10	1	10	0	
4	13	6	0	5	5	0	5	1	5	5	5	3	5	4	
5	9	6	0	7	14	0	0	0	1	0	2	0	5	0	4	
4	11	8	7	2	7	0	7	1	7	2	7	3	7	4	
6	10	12	5	0	6	13	5	0	5	1	5	5	5	3	5	4	
3	2	1	4	2	0	2	1	4	2	4	1	4	0	
4	12	5	1	4	4	0	4	1	4	2	4	5	4	4	
6	3	5	1	2	7	14	3	0	14	1	14	5	14	3	14	4	
4	6	0	7	14	0	0	0	1	0	2	0	1	0	0	
2	0	6	6	0	6	1	6	5	6	3	6	4	
5	9	6	0	5	1	0	0	0	1	0	2	0	3	0	4	
2	0	5	0	0	0	1	0	2	0	1	0	0	
4	1	5	12	10	10	0	10	1	10	2	10	1	10	0	
6	11	8	7	0	6	9	0	0	0	1	0	2	0	1	0	0	
2	6	9	9	0	9	1	9	2	9	5	9	4	
2	5	0	0	0	0	1	0	2	0	1	0	0	
4	1	2	7	8	7	0	7	1	7	2	7	3	7	4	
4	0	5	1	2	2	0	2	1	2	5	2	3	2	4	
3	11	8	7	7	0	7	1	7	2	7	1	7	0	
4	7	2	1	4	7	0	7	1	7	5	7	3	7	4	
4	14	7	8	11	7	0	7	1	7	2	7	5	7	4	
6	12	5	0	7	8	11	0	0	0	1	0	2	0	5	0	4	
2	8	7	7	0	7	1	7	2	7	5	7	4	
4	10	12	5	1	5	0	5	1	5	2	5	1	5	0	
5	13	6	0	5	3	13	0	13	1	13	2	13	3	3	4	
4	9	6	0	7	7	0	7	1	7	5	7	3	7	4	
5	4	1	5	0	6	5	0	5	1	5	5	5	3	5	4	
3	0	5	3	0	0	0	1	0	2	0	5	0	4	
3	1	5	12	5	0	5	1	5	5	5	3	5	4	
3	3	5	0	3	0	3	1	3	2	3	3	3	4	
4	4	1	5	12	5	0	5	1	5	2	5	3	5	4	
5	6	0	5	1	2	2	0	2	1	2	2	2	3	2	4	
4	7	2	1	5	2	0	2	1	2	2	2	3	2	4	
5	13	6	0	7	14	13	0	13	1	13	5	13	3	14	4	
2	13	6	6	0	6	1	6	2	6	5	6	4	
3	12	5	0	0	0	0	1	0	2	0	5	0	4	
5	14	7	0	6	13	14	0	13	1	13	5	13	3	13	4	
4	6	0	5	1	0	0	0	1	0	2	0	1	0	0	
3	0	7	8	0	0	0	1	0	2	0	5	0	4	
4	6	0	5	1	5	0	5	1	5	5	5	3	5	4	
3	1	5	0	5	0	5	1	5	2	5	5	5	4	
2	1	5	5	0	5	1	5	2	5	3	5	4	
5	3	5	0	6	9	3	0	3	1	3	5	3	3	9	4	
3	9	6	0	0	0	0	1	0	2	0	3	0	4	
6	13	6	0	5	1	2	13	0	13	1	13	2	13	1	2	0	
3	5	0	6	0	0	0	1	0	2	0	1	0	0	
3	0	6	13	0	0	0	1	0	2	0	5	0	4	
2	11	8	8	0	8	1	8	2	8	1	8	0	
5	14	7	2	1	4	7	0	7	1	7	5	7	3	7	4	
4	12	5	0	6	0	0	0	1	0	2	0	3	0	4	
6	14	7	2	1	5	12	14	0	14	1	2	5	2	3	2	4	
2	4	1	1	0	1	1	1	2	1	3	1	4	
5	8	7	0	6	9	7	0	7	1	7	2	7	5	7	4	
2	5	3	5	0	5	1	5	5	5	3	5	4	
4	1	5	0	6	5	0	5	1	5	5	5	3	5	4	
2	1	5	5	0	5	1	5	2	5	1	5	0	
3	14	7	0	14	0	14	1	14	2	14	1	14	0	
5	8	7	2	1	5	2	0	2	1	2	5	2	3	2	4	
2	5	0	0	0	0	1	0	2	0	3	0	4	
4	0	7	8	11	0	0	0	1	0	2	0	3	0	4	
3	3	5	1	5	0	5	1	5	2	5	5	5	4	
4	12	5	1	2	5	0	5	1	5	5	5	3	5	4	
6	7	2	1	5	12	10	2	0	10	1	10	5	10	3	10	4	
5	1	5	0	6	13	0	0	0	1	0	2	0	3	0	4	
5	12	5	1	2	7	2	0	2	1	2	2	2	5	2	4	
4	3	5	1	2	5	0	5	1	5	5	5	3	5	4	
4	4	1	5	3	5	0	5	1	5	2	5	5	5	4	
2	7	8	7	0	7	1	7	2	7	3	7	4	
3	3	5	0	0	0	0	1	0	2	0	1	0	0	
3	0	6	9	0	0	0	1	0	2	0	3	0	4	
5	11	8	7	2	1	7	0	7	1	7	2	7	3	7	4	
5	6	0	7	8	11	7	0	7	1	7	5	7	3	7	4	
3	14	7	8	7	0	7	1	7	2	7	5	7	4	
6	12	5	0	7	8	11	0	0	0	1	0	2	0	3	0	4	
4	10	12	5	3	5	0	5	1	5	2	5	1	5	0	
5	2	1	5	12	10	2	0	10	1	10	2	10	5	10	4	
4	2	1	5	0	2	0	2	1	2	2	2	3	2	4	
6	8	7	2	1	5	3	2	0	2	1	2	2	2	3	3	4	
5	6	0	5	1	4	5	0	5	1	5	5	5	3	5	4	
2	2	1	2	0	2	1	2	2	2	1	2	0	
2	11	8	8	0	8	1	8	2	8	5	8	4	
5	4	1	2	7	8	7	0	7	1	7	5	7	3	7	4	
5	4	1	2	7	8	7	0	7	1	7	2	7	3	7	4	
5	4	1	5	12	10	4	0	10	1	10	2	10	1	10	0	
5	10	12	5	0	6	5	0	5	1	5	2	5	5	5	4	
3	11	8	7	7	0	7	1	7	5	7	3	7	4	
2	12	10	10	0	10	1	10	2	10	5	10	4	
5	4	1	5	12	10	5	0	5	1	5	5	5	3	5	4	
4	4	1	5	12	5	0	5	1	5	2	5	5	5	4	
5	10	12	5	0	6	0	0	0	1	0	2	0	1	0	0	
6	11	8	7	0	6	9	7	0	7	1	7	2	7	5	7	4	
3	10	12	5	5	0	5	1	5	2	5	5	5	4	
6	14	7	2	1	5	3	14	0	2	1	2	2	2	1	3	0	
2	1	2	1	0	1	1	1	2	1	3	1	4	
2	6	0	6	0	6	1	6	2	6	5	6	4	
5	3	5	0	6	13	3	0	3	1	3	5	3	3	13	4	
3	12	5	1	5	0	5	1	5	2	5	1	5	0	
5	6	0	5	1	4	0	0	0	1	0	2	0	1	0	0	
5	8	7	2	1	5	2	0	2	1	2	2	2	1	2	0	
4	13	6	0	5	0	0	0	1	0	2	0	1	0	0	
6	9	6	0	5	12	10	0	0	0	1	0	2	0	1	0	0	
2	2	7	7	0	7	1	7	2	7	5	7	4	
6	7	2	1	5	12	10	2	0	10	1	10	2	10	1	10	0	
2	10	12	10	0	10	1	10	2	10	3	10	4	
6	2	1	5	0	6	9	2	0	2	1	9	5	9	3	9	4	
5	6	0	5	12	10	0	0	0	1	0	2	0	3	0	4	
6	11	8	7	0	6	13	0	0	0	1	0	2	0	1	0	0	
4	13	6	0	7	7	0	7	1	7	5	7	3	7	4	
2	7	8	7	0	7	1	7	2	7	1	7	0	
2	7	14	14	0	14	1	14	2	14	5	14	4	
6	9	6	0	5	1	4	5	0	5	1	5	2	5	5	5	4	
5	13	6	0	5	3	13	0	13	1	13	2	13	5	3	4	
5	6	0	7	8	11	7	0	7	1	7	2	7	5	7	4	
3	0	6	9	6	0	6	1	6	2	6	5	6	4	
6	10	12	5	0	6	13	0	0	0	1	0	2	0	1	0	0	
4	6	0	7	8	0	0	0	1	0	2	0	3	0	4	
4	10	12	5	0	5	0	5	1	5	5	5	3	5	4	
4	4	1	5	0	0	0	0	1	0	2	0	1	0	0	
5	11	8	7	2	1	7	0	7	1	7	2	7	1	7	0	
4	7	0	6	13	13	0	13	1	13	2	13	3	13	4	
3	8	7	0	7	0	7	1	7	5	7	3	7	4	
5	9	6	0	5	1	5	0	5	1	5	5	5	3	5	4	
6	12	5	1	2	7	8	2	0	2	1	2	2	2	3	2	4	
3	0	7	8	7	0	7	1	7	5	7	3	7	4	
4	7	0	6	9	9	0	9	1	9	2	9	5	9	4	
5	3	5	1	2	7	3	0	3	1	3	5	3	3	3	4	
4	13	6	0	5	0	0	0	1	0	2	0	3	0	4	
5	12	5	1	2	7	2	0	2	1	2	2	2	1	2	0	
5	12	5	0	6	9	5	0	5	1	5	5	5	3	5	4	
5	10	12	5	0	6	0	0	0	1	0	2	0	3	0	4	
5	6	0	5	1	2	2	0	2	1	2	2	2	1	2	0	
4	6	0	5	3	0	0	0	1	0	2	0	1	0	0	
5	8	7	2	1	4	7	0	7	1	7	2	7	3	7	4	
4	3	5	1	2	5	0	5	1	5	2	5	3	5	4	
3	1	2	7	7	0	7	1	7	2	7	3	7	4	
6	3	5	0	7	8	11	0	0	0	1	0	2	0	1	0	0	
6	11	8	7	0	5	12	5	0	5	1	5	5	5	3	5	4	
4	9	6	0	5	0	0	0	1	0	2	0	1	0	0	
4	2	1	5	12	5	0	5	1	5	2	5	1	5	0	
5	13	6	0	7	14	0	0	0	1	0	2	0	1	0	0	
3	8	7	14	7	0	7	1	7	5	7	3	7	4	
2	8	11	8	0	8	1	8	2	8	3	8	4	
5	13	6	0	7	14	13	0	13	1	13	2	13	3	14	4	
5	8	7	2	1	4	7	0	7	1	7	2	7	5	7	4	
6	10	12	5	1	2	7	10	0	2	1	2	2	2	1	2	0	
3	9	6	13	9	0	9	1	9	2	13	3	13	4	
6	11	8	7	0	5	12	0	0	0	1	0	2	0	3	0	4	
6	11	8	7	0	6	13	7	0	7	1	7	5	7	3	7	4	
6	11	8	7	0	6	13	7	0	7	1	7	2	7	5	7	4	
2	1	2	1	0	1	1	1	2	1	5	1	4	
6	4	1	5	0	6	9	0	0	0	1	0	2	0	1	0	0	
4	6	0	5	3	3	0	3	1	3	2	3	5	3	4	
4	3	5	12	10	5	0	5	1	5	2	5	3	5	4	
2	7	0	7	0	7	1	7	2	7	5	7	4	
3	0	5	12	5	0	5	1	5	2	5	5	5	4	
2	5	1	5	0	5	1	5	5	5	3	5	4	
4	0	5	1	2	2	0	2	1	2	2	2	3	2	4	
6	4	1	5	0	6	9	5	0	5	1	5	2	5	5	5	4	
5	14	7	2	1	4	7	0	7	1	7	2	7	3	7	4	
2	1	4	4	0	4	1	4	5	4	3	4	4	
3	1	2	7	2	0	2	1	2	2	2	1	2	0	
6	13	6	0	5	1	2	13	0	13	1	13	2	13	3	2	4	
3	4	1	5	4	0	4	1	4	2	4	5	4	4	
4	2	1	5	0	2	0	2	1	2	2	2	5	2	4	
3	12	5	0	5	0	5	1	5	5	5	3	5	4	
4	1	5	12	10	10	0	10	1	10	2	10	5	10	4	
6	13	6	0	5	12	10	5	0	5	1	5	2	5	5	5	4	
2	12	5	5	0	5	1	5	2	5	5	5	4	
2	13	6	6	0	6	1	6	2	6	1	6	0	
4	0	5	12	10	0	0	0	1	0	2	0	3	0	4	
6	11	8	7	0	5	3	0	0	0	1	0	2	0	3	0	4	
6	11	8	7	2	1	4	7	0	7	1	7	2	7	3	7	4	
4	1	5	12	10	5	0	5	1	5	2	5	3	5	4	
6	9	6	0	5	1	2	9	0	9	1	9	5	9	3	2	4	
4	7	2	1	5	2	0	2	1	2	5	2	3	2	4	
4	8	7	2	1	2	0	2	1	2	2	2	3	2	4	
4	2	1	5	3	5	0	5	1	5	2	5	1	5	0	
3	3	5	0	3	0	3	1	3	5	3	3	3	4	
3	3	5	12	3	0	3	1	3	2	3	5	3	4	
3	6	0	7	0	0	0	1	0	2	0	3	0	4	
4	6	0	5	12	5	0	5	1	5	5	5	3	5	4	
2	12	10	10	0	10	1	10	2	10	3	10	4	
6	2	1	5	0	6	13	2	0	13	1	13	2	13	5	13	4	
6	12	5	0	7	8	11	5	0	5	1	5	5	5	3	5	4	
5	5	0	7	8	11	5	0	5	1	5	5	5	3	5	4	
6	9	6	0	7	8	11	7	0	7	1	7	5	7	3	7	4	
3	14	7	2	7	0	7	1	7	5	7	3	7	4	
2	7	8	7	0	7	1	7	5	7	3	7	4	
4	2	1	5	3	5	0	5	1	5	5	5	3	5	4	
7	10	12	5	1	2	7	14	10	0	14	1	14	5	14	3	14	4	
3	0	6	9	0	0	0	1	0	2	0	1	0	0	
6	10	12	5	1	2	7	10	0	2	1	2	2	2	5	2	4	
6	4	1	2	7	8	11	7	0	7	1	7	2	7	1	7	0	
3	1	2	7	7	0	7	1	7	2	7	5	7	4	
2	1	4	4	0	4	1	4	2	4	3	4	4	
3	12	5	3	3	0	3	1	3	2	3	1	3	0	
3	5	1	4	4	0	4	1	4	2	4	5	4	4	
4	5	0	6	9	0	0	0	1	0	2	0	3	0	4	
6	4	1	2	7	8	11	7	0	7	1	7	2	7	5	7	4	
3	2	1	5	5	0	5	1	5	2	5	5	5	4	
5	13	6	0	5	1	0	0	0	1	0	2	0	3	0	4	
3	0	5	3	0	0	0	1	0	2	0	3	0	4	
3	3	5	12	3	0	3	1	3	5	3	3	3	4	
4	6	0	5	12	0	0	0	1	0	2	0	1	0	0	
5	3	5	1	2	7	3	0	3	1	3	2	3	3	3	4	
5	6	0	5	1	2	2	0	2	1	2	2	2	5	2	4	
4	7	0	6	13	13	0	13	1	13	2	13	1	13	0	
5	8	7	0	6	13	7	0	7	1	7	2	7	5	7	4	
7	14	7	2	1	5	12	10	14	0	10	1	10	2	10	5	10	4	
4	1	5	0	6	0	0	0	1	0	2	0	1	0	0	
4	9	6	0	5	0	0	0	1	0	2	0	3	0	4	
2	5	1	5	0	5	1	5	2	5	1	5	0	
6	13	6	0	5	1	4	0	0	0	1	0	2	0	3	0	4	
3	3	5	0	5	0	5	1	5	2	5	5	5	4	
5	1	5	0	6	9	5	0	5	1	5	5	5	3	5	4	
3	13	6	9	6	0	6	1	6	2	6	5	6	4	
3	8	7	2	2	0	2	1	2	5	2	3	2	4	
5	4	1	2	7	14	7	0	7	1	7	2	7	3	7	4	
7	10	12	5	1	2	7	14	10	0	14	1	14	2	14	1	14	0	
5	13	6	0	5	12	5	0	5	1	5	5	5	3	5	4	
2	0	7	7	0	7	1	7	2	7	5	7	4	
6	11	8	7	0	5	3	5	0	5	1	5	2	5	5	5	4	
3	4	1	2	1	0	1	1	1	2	1	5	1	4	
5	9	6	0	5	3	0	0	0	1	0	2	0	1	0	0	
5	12	5	0	6	13	0	0	0	1	0	2	0	1	0	0	
3	13	6	9	6	0	6	1	6	5	6	3	6	4	
4	0	5	12	10	0	0	0	1	0	2	0	1	0	0	
4	2	1	5	0	2	0	2	1	2	2	2	1	2	0	
5	10	12	5	1	4	5	0	5	1	5	2	5	3	5	4	
5	12	5	1	2	7	2	0	2	1	2	5	2	3	2	4	
6	8	7	2	1	5	12	2	0	2	1	2	2	2	5	2	4	
3	8	7	2	7	0	7	1	7	2	7	3	7	4	
3	7	0	6	7	0	7	1	7	2	7	5	7	4	
4	12	5	1	2	5	0	5	1	5	2	5	5	5	4	
3	2	1	5	5	0	5	1	5	2	5	3	5	4	
4	1	2	7	14	7	0	7	1	7	5	7	3	7	4	
6	14	7	2	1	5	3	14	0	2	1	2	5	2	3	3	4	
6	14	7	2	1	5	3	14	0	2	1	2	2	2	5	3	4	
3	10	12	5	5	0	5	1	5	2	5	1	5	0	
6	9	6	0	5	12	10	9	0	9	1	9	2	9	5	10	4	
2	5	3	3	0	3	1	3	2	3	5	3	4	
4	3	5	12	10	3	0	3	1	3	2	3	1	10	0	
5	5	1	2	7	14	2	0	14	1	14	2	14	3	14	4	
6	2	1	5	0	6	13	2	0	13	1	13	2	13	1	13	0	
7	8	7	2	1	5	12	10	2	0	2	1	2	2	2	3	10	4	
3	12	5	0	0	0	0	1	0	2	0	1	0	0	
3	7	2	1	7	0	7	1	7	2	7	3	7	4	
6	10	12	5	0	6	9	5	0	5	1	5	5	5	3	5	4	
6	9	6	0	5	12	10	0	0	0	1	0	2	0	3	0	4	
6	11	8	7	0	6	13	0	0	0	1	0	2	0	3	0	4	
2	1	2	2	0	2	1	2	5	2	3	2	4	
3	2	7	8	2	0	2	1	2	5	2	3	2	4	
4	14	7	0	6	7	0	7	1	7	2	7	5	7	4	
6	3	5	0	7	8	11	0	0	0	1	0	2	0	3	0	4	
4	0	7	8	11	7	0	7	1	7	2	7	5	7	4	
3	14	7	8	7	0	7	1	7	2	7	3	7	4	
3	6	0	5	5	0	5	1	5	2	5	5	5	4	
3	13	6	0	13	0	13	1	13	5	13	3	13	4	
3	2	7	14	7	0	7	1	7	2	7	3	7	4	
3	5	1	2	5	0	5	1	5	2	5	1	5	0	
7	14	7	2	1	5	12	10	14	0	10	1	10	5	10	3	10	4	
5	8	7	2	1	5	2	0	2	1	2	2	2	5	2	4	
6	9	6	0	5	1	2	9	0	9	1	9	2	9	3	2	4	
5	3	5	0	6	9	0	0	0	1	0	2	0	3	0	4	
5	1	2	7	8	11	7	0	7	1	7	2	7	5	7	4	
6	13	6	0	7	8	11	7	0	7	1	7	2	7	5	7	4	
3	13	6	9	13	0	13	1	13	2	9	1	9	0	
3	8	7	0	7	0	7	1	7	2	7	5	7	4	
4	0	5	1	4	0	0	0	1	0	2	0	1	0	0	
3	0	6	13	0	0	0	1	0	2	0	3	0	4	
5	5	1	2	7	14	2	0	14	1	14	2	14	1	14	0	
