84006.6	-1
840
33.442	34.8615
15
0	59	320
1	0	320
2	35	320
3	12	320
4	0	320
5	220	320
6	12	320
7	153	320
8	6	320
9	4	320
10	0	320
11	0	320
12	20	320
13	2	320
14	0	320
44
0	5	63172.401127	162195.900000	1.000000
0	6	21932.011403	110170.800000	1.000000
0	7	22900.500000	66306.500000	1.000000
1	2	49182.000000	136693.400000	1.000000
1	4	0.000000	44884.400000	0.000000
1	5	68295.500000	216261.200000	1.000000
2	1	49770.000000	136693.400000	1.000000
2	4	6342.000000	17341.700000	1.000000
2	7	46781.592702	136693.400000	1.000000
3	4	7549.500000	38763.800000	1.000000
3	5	27418.407298	51005.000000	1.000000
4	1	0.000000	44884.400000	0.000000
4	2	6738.092702	17341.700000	1.000000
4	3	8210.407298	38763.800000	1.000000
5	0	57409.907298	162195.900000	1.000000
5	1	80874.500000	216261.200000	1.000000
5	3	27842.500000	51005.000000	1.000000
5	12	20783.901127	70386.900000	1.000000
6	0	33260.500000	110170.800000	1.000000
6	9	19819.907298	91809.000000	1.000000
6	13	18118.598873	64266.300000	1.000000
7	0	27568.505232	66306.500000	1.000000
7	2	46728.500000	136693.400000	1.000000
7	8	28508.092702	38763.800000	1.000000
7	14	22869.000000	57125.600000	1.000000
8	7	24415.005232	38763.800000	1.000000
8	9	19377.587470	19381.900000	1.000000
8	11	13412.000000	31623.100000	1.000000
8	14	0.000000	23462.300000	0.000000
9	6	26369.994768	91809.000000	1.000000
9	8	6622.000000	19381.900000	1.000000
9	11	6125.000000	32643.200000	1.000000
10	12	13944.000000	25502.500000	1.000000
10	13	0.000000	14281.400000	1.000000
11	8	21672.000000	31623.100000	1.000000
11	9	0.000000	32643.200000	1.000000
12	5	23793.000000	70386.900000	1.000000
12	10	8733.401127	25502.500000	1.000000
12	13	13576.500000	25502.500000	1.000000
13	6	21815.500000	64266.300000	1.000000
13	10	4640.098873	14281.400000	1.000000
13	12	8452.500000	25502.500000	1.000000
14	7	27342.000000	57125.600000	1.000000
14	8	0.000000	23462.300000	0.000000
840
5	1	2	7	8	11	7	0	7	1	7	2	7	3	7	4	
5	1	2	7	8	9	7	0	7	1	7	2	7	5	7	4	
4	7	0	5	12	5	0	5	1	5	2	5	3	5	4	
2	3	5	5	0	5	1	5	2	5	5	5	4	
4	7	0	5	3	5	0	5	1	5	5	5	3	5	4	
6	11	8	7	0	5	3	5	0	5	1	5	5	5	3	5	4	
4	3	5	12	13	5	0	5	1	5	2	5	5	5	4	
2	6	13	6	0	6	1	6	5	6	3	6	4	
5	10	12	5	0	7	5	0	5	1	5	2	5	3	5	4	
4	3	5	0	6	5	0	5	1	5	5	5	3	5	4	
3	4	2	7	7	0	7	1	7	2	7	5	7	4	
4	1	2	7	8	7	0	7	1	7	2	7	1	7	0	
5	14	7	0	5	12	5	0	5	1	5	2	5	1	5	0	
3	7	2	4	7	0	7	1	7	2	7	3	7	4	
4	2	1	5	12	5	0	5	1	5	2	5	5	5	4	
3	0	7	2	7	0	7	1	7	2	7	5	7	4	
4	13	12	5	1	5	0	5	1	5	2	5	5	5	4	
4	7	0	5	3	5	0	5	1	5	2	5	1	5	0	
3	5	12	10	5	0	5	1	5	5	5	3	5	4	
2	12	5	5	0	5	1	5	2	5	1	5	0	
3	5	1	2	5	0	5	1	5	2	5	5	5	4	
4	8	7	2	1	7	0	7	1	7	2	7	1	7	0	
2	8	7	7	0	7	1	7	2	7	3	7	4	
5	10	12	13	6	9	12	0	12	1	12	2	12	3	12	4	
2	6	0	0	0	0	1	0	5	0	3	0	4	
3	14	7	0	7	0	7	1	7	5	7	3	7	4	
4	4	3	5	12	5	0	5	1	5	2	5	1	5	0	
3	2	1	5	5	0	5	1	5	5	5	3	5	4	
3	7	0	5	5	0	5	1	5	2	5	5	5	4	
3	0	7	14	7	0	7	1	7	5	7	3	7	4	
3	5	0	7	5	0	5	1	5	2	5	1	5	0	
2	8	9	8	0	8	1	8	5	8	3	8	4	
5	4	3	5	12	10	5	0	5	1	5	2	5	5	5	4	
3	5	12	10	5	0	5	1	5	2	5	5	5	4	
3	14	7	0	7	0	7	1	7	2	7	3	7	4	
6	3	5	0	7	8	11	5	0	5	1	5	5	5	3	5	4	
2	6	13	6	0	6	1	6	2	6	1	6	0	
5	8	9	6	13	10	6	0	6	1	6	2	6	1	6	0	
4	10	12	5	1	5	0	5	1	5	2	5	5	5	4	
2	0	5	5	0	5	1	5	2	5	3	5	4	
3	3	4	2	2	0	2	1	2	2	2	5	2	4	
4	7	0	5	12	5	0	5	1	5	2	5	1	5	0	
3	1	2	7	7	0	7	1	7	5	7	3	7	4	
6	10	12	5	0	7	14	5	0	5	1	5	2	5	3	5	4	
4	8	7	2	4	7	0	7	1	7	5	7	3	7	4	
5	2	1	5	12	10	5	0	5	1	5	5	5	3	5	4	
3	2	4	3	2	0	2	1	2	2	2	5	2	4	
3	4	2	1	2	0	2	1	2	5	2	3	2	4	
5	9	6	0	5	3	5	0	5	1	5	2	5	3	5	4	
4	7	0	5	12	5	0	5	1	5	2	5	5	5	4	
3	0	5	3	5	0	5	1	5	2	5	1	5	0	
5	9	6	0	5	3	5	0	5	1	5	2	5	5	5	4	
2	6	13	6	0	6	1	6	2	6	5	6	4	
3	12	5	0	5	0	5	1	5	2	5	3	5	4	
4	11	8	7	0	7	0	7	1	7	2	7	3	7	4	
5	10	12	5	1	2	5	0	5	1	5	2	5	3	5	4	
4	13	6	9	11	6	0	6	1	6	5	6	3	6	4	
3	7	2	4	7	0	7	1	7	2	7	1	7	0	
3	12	5	3	5	0	5	1	5	5	5	3	5	4	
4	12	5	0	7	5	0	5	1	5	2	5	3	5	4	
4	6	0	5	3	5	0	5	1	5	2	5	3	5	4	
4	9	6	0	5	5	0	5	1	5	5	5	3	5	4	
2	11	8	8	0	8	1	8	5	8	3	8	4	
2	12	10	12	0	12	1	12	2	12	1	12	0	
4	4	3	5	0	5	0	5	1	5	2	5	5	5	4	
4	0	7	8	11	7	0	7	1	7	2	7	1	7	0	
2	12	10	12	0	12	1	12	5	12	3	12	4	
3	9	6	13	6	0	6	1	6	2	6	5	6	4	
2	2	7	7	0	7	1	7	2	7	3	7	4	
4	14	7	0	6	7	0	7	1	7	2	7	1	7	0	
2	8	11	8	0	8	1	8	2	8	5	8	4	
2	5	1	5	0	5	1	5	2	5	5	5	4	
6	10	12	13	6	9	8	12	0	12	1	12	2	12	5	12	4	
4	3	5	0	7	5	0	5	1	5	2	5	1	5	0	
3	6	0	7	7	0	7	1	7	5	7	3	7	4	
5	2	1	5	12	13	5	0	5	1	5	2	5	3	5	4	
4	12	5	1	2	5	0	5	1	5	2	5	1	5	0	
2	3	4	3	0	3	1	3	2	3	1	3	0	
3	13	6	0	0	0	0	1	0	2	0	1	0	0	
4	5	0	7	8	5	0	5	1	5	2	5	1	5	0	
2	9	11	9	0	9	1	9	2	9	5	9	4	
2	9	8	8	0	8	1	8	2	8	5	8	4	
4	3	5	12	13	5	0	5	1	5	2	5	1	5	0	
3	1	5	0	5	0	5	1	5	5	5	3	5	4	
3	1	5	3	5	0	5	1	5	2	5	1	5	0	
5	2	1	5	12	10	5	0	5	1	5	2	5	1	5	0	
5	8	7	0	5	12	5	0	5	1	5	5	5	3	5	4	
4	8	9	6	13	8	0	8	1	8	2	8	3	8	4	
5	13	12	5	3	4	5	0	5	1	5	2	5	5	5	4	
3	1	5	3	5	0	5	1	5	2	5	3	5	4	
6	10	12	13	6	9	11	12	0	12	1	12	2	12	1	12	0	
3	4	2	7	7	0	7	1	7	2	7	3	7	4	
5	13	12	5	1	2	5	0	5	1	5	5	5	3	5	4	
2	9	11	9	0	9	1	9	2	9	3	9	4	
6	11	8	9	6	13	10	8	0	8	1	8	2	8	3	8	4	
4	4	3	5	12	5	0	5	1	5	5	5	3	5	4	
4	12	13	6	9	12	0	12	1	12	2	12	5	12	4	
4	14	7	0	5	5	0	5	1	5	2	5	5	5	4	
5	12	5	0	7	14	5	0	5	1	5	2	5	5	5	4	
3	3	5	12	5	0	5	1	5	2	5	3	5	4	
4	0	5	12	10	5	0	5	1	5	2	5	5	5	4	
6	14	7	0	5	12	10	5	0	5	1	5	2	5	3	5	4	
4	5	0	7	8	5	0	5	1	5	2	5	5	5	4	
3	8	7	2	7	0	7	1	7	2	7	5	7	4	
4	14	7	8	11	7	0	7	1	7	5	7	3	7	4	
2	14	7	7	0	7	1	7	5	7	3	7	4	
2	6	9	6	0	6	1	6	2	6	3	6	4	
4	14	7	8	9	7	0	7	1	7	5	7	3	7	4	
2	6	0	0	0	0	1	0	2	0	1	0	0	
4	14	7	0	5	5	0	5	1	5	5	5	3	5	4	
3	1	5	12	5	0	5	1	5	2	5	5	5	4	
3	5	0	6	5	0	5	1	5	2	5	3	5	4	
4	3	5	0	7	5	0	5	1	5	2	5	5	5	4	
3	0	5	12	5	0	5	1	5	2	5	3	5	4	
5	11	8	7	2	1	7	0	7	1	7	5	7	3	7	4	
5	9	6	0	5	1	5	0	5	1	5	2	5	5	5	4	
3	5	12	13	5	0	5	1	5	2	5	1	5	0	
4	11	8	7	0	7	0	7	1	7	5	7	3	7	4	
4	10	12	5	0	5	0	5	1	5	2	5	1	5	0	
6	10	12	5	0	7	14	5	0	5	1	5	2	5	5	5	4	
4	11	8	9	6	6	0	6	1	6	2	6	5	6	4	
3	7	2	1	7	0	7	1	7	2	7	1	7	0	
2	8	7	7	0	7	1	7	5	7	3	7	4	
4	3	5	12	10	5	0	5	1	5	2	5	5	5	4	
2	3	4	3	0	3	1	3	2	3	5	3	4	
2	9	6	6	0	6	1	6	5	6	3	6	4	
4	2	7	0	6	7	0	7	1	7	2	7	3	7	4	
4	8	7	0	5	5	0	5	1	5	2	5	3	5	4	
2	3	4	3	0	3	1	3	5	3	3	3	4	
4	14	7	0	5	5	0	5	1	5	2	5	3	5	4	
2	12	13	12	0	12	1	12	5	12	3	12	4	
3	7	0	6	7	0	7	1	7	2	7	3	7	4	
3	0	5	1	5	0	5	1	5	5	5	3	5	4	
3	5	12	13	5	0	5	1	5	5	5	3	5	4	
4	9	8	7	14	7	0	7	1	7	5	7	3	7	4	
2	10	12	12	0	12	1	12	5	12	3	12	4	
4	13	12	5	3	5	0	5	1	5	2	5	1	5	0	
5	4	3	5	12	13	5	0	5	1	5	2	5	1	5	0	
4	6	0	7	2	7	0	7	1	7	5	7	3	7	4	
4	14	7	2	4	7	0	7	1	7	2	7	1	7	0	
4	14	7	0	6	7	0	7	1	7	5	7	3	7	4	
2	1	2	2	0	2	1	2	2	2	1	2	0	
4	10	12	5	3	5	0	5	1	5	2	5	5	5	4	
4	10	12	13	6	12	0	12	1	12	5	12	3	12	4	
3	1	5	3	5	0	5	1	5	2	5	5	5	4	
3	1	5	0	5	0	5	1	5	2	5	3	5	4	
2	1	5	5	0	5	1	5	5	5	3	5	4	
5	4	3	5	0	6	5	0	5	1	5	2	5	3	5	4	
5	5	0	7	8	11	5	0	5	1	5	2	5	5	5	4	
3	8	9	6	8	0	8	1	8	5	8	3	8	4	
3	7	8	9	7	0	7	1	7	5	7	3	7	4	
2	2	1	2	0	2	1	2	2	2	5	2	4	
4	3	5	12	10	5	0	5	1	5	5	5	3	5	4	
3	6	13	10	6	0	6	1	6	2	6	1	6	0	
2	4	3	3	0	3	1	3	5	3	3	3	4	
4	0	5	3	4	5	0	5	1	5	2	5	5	5	4	
5	3	5	0	7	8	5	0	5	1	5	2	5	3	5	4	
4	2	7	8	11	7	0	7	1	7	5	7	3	7	4	
4	13	6	9	8	8	0	8	1	8	2	8	3	8	4	
2	9	6	6	0	6	1	6	2	6	5	6	4	
4	10	12	5	0	5	0	5	1	5	2	5	3	5	4	
4	7	0	6	13	7	0	7	1	7	2	7	5	7	4	
2	6	9	6	0	6	1	6	2	6	1	6	0	
5	14	7	0	5	3	5	0	5	1	5	2	5	3	5	4	
3	3	5	1	5	0	5	1	5	2	5	1	5	0	
4	1	2	7	8	7	0	7	1	7	2	7	5	7	4	
3	6	13	12	12	0	12	1	12	2	12	5	12	4	
3	3	5	1	5	0	5	1	5	5	5	3	5	4	
5	14	7	0	5	12	5	0	5	1	5	2	5	3	5	4	
2	4	2	2	0	2	1	2	2	2	1	2	0	
3	14	7	0	7	0	7	1	7	2	7	5	7	4	
2	13	10	13	0	13	1	13	5	13	3	13	4	
2	2	1	2	0	2	1	2	2	2	3	2	4	
3	0	7	8	7	0	7	1	7	2	7	3	7	4	
2	5	12	5	0	5	1	5	2	5	3	5	4	
4	11	8	7	2	7	0	7	1	7	5	7	3	7	4	
4	5	0	7	8	5	0	5	1	5	5	5	3	5	4	
5	12	13	6	9	11	12	0	12	1	12	2	12	1	12	0	
3	0	5	12	5	0	5	1	5	2	5	1	5	0	
4	1	2	7	14	7	0	7	1	7	2	7	1	7	0	
5	4	3	5	0	6	5	0	5	1	5	2	5	5	5	4	
5	4	2	7	8	9	7	0	7	1	7	2	7	3	7	4	
4	12	5	3	4	5	0	5	1	5	2	5	1	5	0	
3	0	7	8	7	0	7	1	7	2	7	1	7	0	
5	8	9	6	13	10	6	0	6	1	6	2	6	5	6	4	
2	13	6	6	0	6	1	6	2	6	3	6	4	
4	11	8	7	2	7	0	7	1	7	2	7	1	7	0	
2	7	2	7	0	7	1	7	2	7	1	7	0	
2	2	4	2	0	2	1	2	5	2	3	2	4	
4	5	0	7	8	5	0	5	1	5	2	5	3	5	4	
4	2	1	5	12	5	0	5	1	5	2	5	3	5	4	
3	8	9	6	8	0	8	1	8	2	8	3	8	4	
3	9	8	7	7	0	7	1	7	2	7	1	7	0	
5	3	5	0	6	9	5	0	5	1	5	2	5	5	5	4	
4	6	0	5	1	5	0	5	1	5	2	5	5	5	4	
4	9	6	13	12	12	0	12	1	12	2	12	5	12	4	
2	7	2	7	0	7	1	7	2	7	5	7	4	
3	3	5	12	5	0	5	1	5	2	5	1	5	0	
4	2	7	8	11	7	0	7	1	7	2	7	1	7	0	
4	8	9	6	13	8	0	8	1	8	5	8	3	8	4	
2	14	7	7	0	7	1	7	2	7	5	7	4	
5	8	7	0	5	12	5	0	5	1	5	2	5	3	5	4	
5	3	5	0	7	8	5	0	5	1	5	2	5	1	5	0	
2	9	6	6	0	6	1	6	2	6	3	6	4	
3	5	0	7	5	0	5	1	5	2	5	5	5	4	
3	8	9	6	6	0	6	1	6	2	6	1	6	0	
5	10	12	5	1	2	5	0	5	1	5	2	5	5	5	4	
4	11	8	7	14	7	0	7	1	7	5	7	3	7	4	
3	2	7	8	7	0	7	1	7	2	7	3	7	4	
5	14	7	0	6	13	7	0	7	1	7	2	7	3	7	4	
4	3	5	12	13	5	0	5	1	5	2	5	3	5	4	
4	4	3	5	0	5	0	5	1	5	5	5	3	5	4	
4	11	8	7	14	7	0	7	1	7	2	7	3	7	4	
5	11	8	7	0	5	5	0	5	1	5	2	5	5	5	4	
2	6	9	6	0	6	1	6	5	6	3	6	4	
4	14	7	8	11	7	0	7	1	7	2	7	1	7	0	
5	11	8	7	2	4	7	0	7	1	7	2	7	1	7	0	
3	2	7	14	7	0	7	1	7	2	7	5	7	4	
5	13	12	5	3	4	5	0	5	1	5	5	5	3	5	4	
6	14	7	0	5	12	10	5	0	5	1	5	2	5	1	5	0	
3	9	8	7	7	0	7	1	7	2	7	5	7	4	
4	10	12	5	3	5	0	5	1	5	2	5	3	5	4	
2	12	5	5	0	5	1	5	2	5	3	5	4	
4	1	5	12	13	5	0	5	1	5	2	5	5	5	4	
6	11	8	9	6	13	10	6	0	6	1	6	2	6	1	6	0	
4	11	8	7	0	7	0	7	1	7	2	7	1	7	0	
4	12	13	6	9	12	0	12	1	12	2	12	3	12	4	
2	0	6	0	0	0	1	0	2	0	5	0	4	
3	6	9	8	6	0	6	1	6	2	6	5	6	4	
4	4	2	7	14	7	0	7	1	7	2	7	1	7	0	
2	4	3	3	0	3	1	3	2	3	1	3	0	
2	5	12	5	0	5	1	5	2	5	1	5	0	
3	10	12	13	12	0	12	1	12	2	12	5	12	4	
2	2	1	2	0	2	1	2	5	2	3	2	4	
3	0	5	3	5	0	5	1	5	5	5	3	5	4	
6	3	5	0	7	8	11	5	0	5	1	5	2	5	5	5	4	
2	1	5	5	0	5	1	5	2	5	5	5	4	
4	14	7	2	4	7	0	7	1	7	2	7	5	7	4	
5	12	5	0	7	14	5	0	5	1	5	5	5	3	5	4	
3	6	0	5	5	0	5	1	5	2	5	3	5	4	
2	5	12	5	0	5	1	5	5	5	3	5	4	
4	11	8	9	6	6	0	6	1	6	2	6	1	6	0	
2	7	0	7	0	7	1	7	2	7	3	7	4	
3	0	5	1	5	0	5	1	5	2	5	3	5	4	
3	11	8	9	8	0	8	1	8	2	8	3	8	4	
6	10	12	13	6	9	8	12	0	12	1	12	5	12	3	12	4	
2	3	5	5	0	5	1	5	2	5	3	5	4	
4	4	2	7	8	7	0	7	1	7	2	7	1	7	0	
4	6	0	7	14	7	0	7	1	7	2	7	3	7	4	
3	1	5	3	5	0	5	1	5	5	5	3	5	4	
3	5	0	6	5	0	5	1	5	2	5	5	5	4	
4	9	6	13	12	12	0	12	1	12	2	12	3	12	4	
3	0	5	12	5	0	5	1	5	5	5	3	5	4	
3	5	0	6	5	0	5	1	5	5	5	3	5	4	
4	2	7	8	9	7	0	7	1	7	2	7	1	7	0	
4	4	2	7	14	7	0	7	1	7	5	7	3	7	4	
3	9	8	7	7	0	7	1	7	2	7	3	7	4	
3	7	2	1	7	0	7	1	7	2	7	5	7	4	
2	5	3	5	0	5	1	5	2	5	1	5	0	
2	9	8	8	0	8	1	8	5	8	3	8	4	
2	5	12	5	0	5	1	5	2	5	5	5	4	
2	0	5	5	0	5	1	5	5	5	3	5	4	
4	4	3	5	0	5	0	5	1	5	2	5	3	5	4	
3	6	9	11	6	0	6	1	6	2	6	1	6	0	
2	7	0	7	0	7	1	7	2	7	1	7	0	
4	2	7	0	6	7	0	7	1	7	2	7	1	7	0	
4	9	8	7	14	7	0	7	1	7	2	7	1	7	0	
3	6	9	8	8	0	8	1	8	5	8	3	8	4	
3	12	5	1	5	0	5	1	5	5	5	3	5	4	
4	1	5	12	13	5	0	5	1	5	2	5	1	5	0	
3	1	2	4	2	0	2	1	2	2	2	1	2	0	
5	11	8	7	2	1	7	0	7	1	7	2	7	5	7	4	
4	2	1	5	12	5	0	5	1	5	5	5	3	5	4	
4	13	6	9	11	6	0	6	1	6	2	6	1	6	0	
4	3	5	0	6	5	0	5	1	5	2	5	5	5	4	
3	2	4	3	2	0	2	1	2	2	2	3	2	4	
4	12	13	6	9	12	0	12	1	12	2	12	1	12	0	
5	7	0	5	12	10	5	0	5	1	5	2	5	5	5	4	
3	5	0	7	5	0	5	1	5	2	5	3	5	4	
4	14	7	8	9	7	0	7	1	7	2	7	5	7	4	
5	1	2	7	8	11	7	0	7	1	7	5	7	3	7	4	
3	4	3	5	5	0	5	1	5	5	5	3	5	4	
5	4	2	7	8	11	7	0	7	1	7	2	7	3	7	4	
2	0	7	7	0	7	1	7	2	7	1	7	0	
3	5	12	13	5	0	5	1	5	2	5	3	5	4	
3	12	13	6	12	0	12	1	12	2	12	1	12	0	
2	7	2	7	0	7	1	7	5	7	3	7	4	
3	13	6	0	0	0	0	1	0	2	0	5	0	4	
2	13	10	13	0	13	1	13	2	13	3	13	4	
5	13	6	0	7	14	7	0	7	1	7	2	7	5	7	4	
3	0	6	13	0	0	0	1	0	2	0	1	0	0	
3	0	5	1	5	0	5	1	5	2	5	5	5	4	
3	2	7	8	7	0	7	1	7	2	7	5	7	4	
2	6	0	0	0	0	1	0	2	0	3	0	4	
4	12	5	3	4	5	0	5	1	5	5	5	3	5	4	
3	14	7	2	7	0	7	1	7	2	7	1	7	0	
5	11	8	7	0	5	5	0	5	1	5	5	5	3	5	4	
4	2	7	8	11	7	0	7	1	7	2	7	3	7	4	
4	2	7	0	6	7	0	7	1	7	5	7	3	7	4	
5	11	8	7	2	4	7	0	7	1	7	2	7	5	7	4	
4	8	7	2	4	7	0	7	1	7	2	7	1	7	0	
5	10	12	5	3	4	5	0	5	1	5	2	5	5	5	4	
4	9	6	13	10	6	0	6	1	6	5	6	3	6	4	
4	6	0	5	3	5	0	5	1	5	5	5	3	5	4	
6	11	8	7	0	5	12	5	0	5	1	5	2	5	5	5	4	
3	8	9	6	6	0	6	1	6	2	6	5	6	4	
4	1	2	7	14	7	0	7	1	7	2	7	5	7	4	
5	8	9	6	13	10	8	0	8	1	8	5	8	3	8	4	
5	13	12	5	3	4	5	0	5	1	5	2	5	1	5	0	
3	5	3	4	5	0	5	1	5	2	5	1	5	0	
5	10	12	5	0	7	5	0	5	1	5	5	5	3	5	4	
2	4	2	2	0	2	1	2	5	2	3	2	4	
4	13	6	9	8	6	0	6	1	6	2	6	1	6	0	
5	9	8	7	2	4	7	0	7	1	7	2	7	3	7	4	
3	5	1	2	5	0	5	1	5	2	5	3	5	4	
4	7	0	6	13	7	0	7	1	7	5	7	3	7	4	
4	1	2	7	14	7	0	7	1	7	2	7	3	7	4	
2	4	3	3	0	3	1	3	2	3	3	3	4	
2	13	6	6	0	6	1	6	5	6	3	6	4	
5	3	5	0	7	14	5	0	5	1	5	2	5	3	5	4	
3	0	7	2	7	0	7	1	7	2	7	1	7	0	
4	9	6	0	5	5	0	5	1	5	2	5	5	5	4	
4	10	12	5	1	5	0	5	1	5	2	5	3	5	4	
4	11	8	7	14	7	0	7	1	7	2	7	1	7	0	
3	9	6	0	0	0	0	1	0	2	0	5	0	4	
3	7	0	5	5	0	5	1	5	2	5	1	5	0	
3	12	13	6	12	0	12	1	12	2	12	5	12	4	
3	4	2	1	2	0	2	1	2	2	2	1	2	0	
5	10	12	13	6	9	12	0	12	1	12	2	12	1	12	0	
4	14	7	0	6	7	0	7	1	7	2	7	3	7	4	
2	7	8	7	0	7	1	7	2	7	5	7	4	
4	5	0	6	9	5	0	5	1	5	5	5	3	5	4	
3	4	2	1	2	0	2	1	2	2	2	5	2	4	
2	8	11	8	0	8	1	8	2	8	1	8	0	
2	7	14	7	0	7	1	7	5	7	3	7	4	
3	0	7	14	7	0	7	1	7	2	7	3	7	4	
3	3	4	2	2	0	2	1	2	2	2	1	2	0	
5	5	0	7	8	11	5	0	5	1	5	2	5	1	5	0	
3	9	6	0	0	0	0	1	0	2	0	1	0	0	
4	14	7	8	11	7	0	7	1	7	2	7	3	7	4	
5	12	13	6	9	8	12	0	12	1	12	5	12	3	12	4	
3	8	7	14	7	0	7	1	7	2	7	5	7	4	
2	10	12	12	0	12	1	12	2	12	5	12	4	
2	12	5	5	0	5	1	5	5	5	3	5	4	
4	14	7	2	1	7	0	7	1	7	2	7	3	7	4	
5	10	12	5	3	4	5	0	5	1	5	2	5	1	5	0	
3	14	7	2	7	0	7	1	7	2	7	5	7	4	
5	12	5	0	7	14	5	0	5	1	5	2	5	3	5	4	
4	5	0	6	9	5	0	5	1	5	2	5	1	5	0	
4	13	6	0	7	7	0	7	1	7	2	7	5	7	4	
5	3	5	0	7	8	5	0	5	1	5	2	5	5	5	4	
2	0	5	5	0	5	1	5	2	5	5	5	4	
3	9	6	13	6	0	6	1	6	2	6	1	6	0	
3	5	3	4	5	0	5	1	5	5	5	3	5	4	
2	8	9	8	0	8	1	8	2	8	3	8	4	
3	10	12	5	5	0	5	1	5	5	5	3	5	4	
5	3	5	0	7	8	5	0	5	1	5	5	5	3	5	4	
3	10	12	5	5	0	5	1	5	2	5	3	5	4	
2	7	2	7	0	7	1	7	2	7	3	7	4	
2	6	13	6	0	6	1	6	2	6	3	6	4	
5	4	2	7	8	11	7	0	7	1	7	5	7	3	7	4	
3	0	6	13	0	0	0	1	0	5	0	3	0	4	
4	13	12	5	1	5	0	5	1	5	5	5	3	5	4	
4	11	8	9	6	8	0	8	1	8	2	8	3	8	4	
4	13	6	0	7	7	0	7	1	7	2	7	1	7	0	
5	8	7	0	5	12	5	0	5	1	5	2	5	1	5	0	
5	6	0	5	3	4	5	0	5	1	5	2	5	3	5	4	
6	10	12	13	6	9	11	12	0	12	1	12	2	12	3	12	4	
3	5	12	13	5	0	5	1	5	2	5	5	5	4	
3	0	5	1	5	0	5	1	5	2	5	1	5	0	
3	12	5	1	5	0	5	1	5	2	5	5	5	4	
2	12	13	12	0	12	1	12	2	12	5	12	4	
5	7	0	5	12	10	5	0	5	1	5	2	5	3	5	4	
4	8	9	6	13	6	0	6	1	6	2	6	1	6	0	
5	4	3	5	0	6	5	0	5	1	5	2	5	1	5	0	
2	4	2	2	0	2	1	2	2	2	3	2	4	
4	8	7	2	1	7	0	7	1	7	2	7	5	7	4	
2	5	1	5	0	5	1	5	2	5	3	5	4	
3	1	5	12	5	0	5	1	5	2	5	1	5	0	
3	4	2	7	7	0	7	1	7	5	7	3	7	4	
5	2	1	5	12	13	5	0	5	1	5	5	5	3	5	4	
5	9	6	0	5	3	5	0	5	1	5	5	5	3	5	4	
5	11	8	7	0	5	5	0	5	1	5	2	5	1	5	0	
5	14	7	0	6	13	7	0	7	1	7	2	7	5	7	4	
4	14	7	2	1	7	0	7	1	7	2	7	5	7	4	
3	7	8	11	7	0	7	1	7	2	7	5	7	4	
3	7	8	9	7	0	7	1	7	2	7	3	7	4	
4	1	5	12	10	5	0	5	1	5	5	5	3	5	4	
5	13	12	5	1	2	5	0	5	1	5	2	5	5	5	4	
5	4	3	5	12	10	5	0	5	1	5	2	5	3	5	4	
3	7	0	6	7	0	7	1	7	2	7	1	7	0	
5	1	2	7	8	9	7	0	7	1	7	2	7	1	7	0	
3	2	7	0	7	0	7	1	7	5	7	3	7	4	
2	3	5	5	0	5	1	5	2	5	1	5	0	
3	5	12	10	5	0	5	1	5	2	5	3	5	4	
3	6	0	5	5	0	5	1	5	5	5	3	5	4	
3	1	2	4	2	0	2	1	2	2	2	5	2	4	
2	3	5	5	0	5	1	5	5	5	3	5	4	
4	13	6	9	11	6	0	6	1	6	2	6	3	6	4	
2	7	0	7	0	7	1	7	5	7	3	7	4	
3	0	7	14	7	0	7	1	7	2	7	1	7	0	
3	9	6	0	0	0	0	1	0	5	0	3	0	4	
4	9	8	7	14	7	0	7	1	7	2	7	3	7	4	
3	8	7	2	7	0	7	1	7	2	7	1	7	0	
4	12	5	1	2	5	0	5	1	5	2	5	3	5	4	
4	11	8	9	6	8	0	8	1	8	5	8	3	8	4	
2	3	4	3	0	3	1	3	2	3	3	3	4	
3	4	3	5	5	0	5	1	5	2	5	3	5	4	
5	4	2	7	8	9	7	0	7	1	7	5	7	3	7	4	
2	7	14	7	0	7	1	7	2	7	3	7	4	
5	2	1	5	12	10	5	0	5	1	5	2	5	3	5	4	
3	5	0	7	5	0	5	1	5	5	5	3	5	4	
3	2	7	8	7	0	7	1	7	2	7	1	7	0	
4	14	7	2	1	7	0	7	1	7	2	7	1	7	0	
6	11	8	9	6	13	10	8	0	8	1	8	5	8	3	8	4	
3	9	6	13	6	0	6	1	6	5	6	3	6	4	
3	6	0	5	5	0	5	1	5	2	5	1	5	0	
5	3	5	0	7	14	5	0	5	1	5	2	5	1	5	0	
4	2	7	0	6	7	0	7	1	7	2	7	5	7	4	
2	8	11	8	0	8	1	8	5	8	3	8	4	
3	8	7	14	7	0	7	1	7	2	7	3	7	4	
2	9	8	8	0	8	1	8	2	8	1	8	0	
4	0	5	3	4	5	0	5	1	5	2	5	3	5	4	
4	7	0	5	12	5	0	5	1	5	5	5	3	5	4	
4	11	8	7	0	7	0	7	1	7	2	7	5	7	4	
5	11	8	7	0	5	5	0	5	1	5	2	5	3	5	4	
3	12	5	3	5	0	5	1	5	2	5	3	5	4	
3	4	2	7	7	0	7	1	7	2	7	1	7	0	
3	6	9	8	6	0	6	1	6	2	6	1	6	0	
2	13	12	12	0	12	1	12	2	12	3	12	4	
5	12	13	6	9	8	12	0	12	1	12	2	12	1	12	0	
3	2	1	5	5	0	5	1	5	2	5	1	5	0	
2	12	13	12	0	12	1	12	2	12	3	12	4	
4	10	12	5	1	5	0	5	1	5	5	5	3	5	4	
5	12	13	6	9	8	12	0	12	1	12	2	12	5	12	4	
2	0	7	7	0	7	1	7	5	7	3	7	4	
4	8	7	2	1	7	0	7	1	7	5	7	3	7	4	
3	5	3	4	5	0	5	1	5	2	5	3	5	4	
4	5	0	7	14	5	0	5	1	5	5	5	3	5	4	
5	1	2	7	8	9	7	0	7	1	7	2	7	3	7	4	
3	12	13	6	12	0	12	1	12	5	12	3	12	4	
5	9	8	7	2	4	7	0	7	1	7	5	7	3	7	4	
4	13	6	9	8	8	0	8	1	8	5	8	3	8	4	
3	12	5	3	5	0	5	1	5	2	5	5	5	4	
5	10	12	5	1	2	5	0	5	1	5	2	5	1	5	0	
3	13	6	9	6	0	6	1	6	2	6	3	6	4	
3	5	12	10	5	0	5	1	5	2	5	1	5	0	
5	10	12	13	6	9	12	0	12	1	12	2	12	5	12	4	
2	14	7	7	0	7	1	7	2	7	1	7	0	
3	3	5	1	5	0	5	1	5	2	5	3	5	4	
4	1	5	0	6	5	0	5	1	5	2	5	3	5	4	
6	10	12	13	6	9	11	12	0	12	1	12	2	12	5	12	4	
2	9	6	6	0	6	1	6	2	6	1	6	0	
4	13	12	5	1	5	0	5	1	5	2	5	1	5	0	
2	2	4	2	0	2	1	2	2	2	3	2	4	
4	9	8	7	2	7	0	7	1	7	2	7	1	7	0	
4	9	6	13	12	12	0	12	1	12	2	12	1	12	0	
2	13	12	12	0	12	1	12	2	12	1	12	0	
4	13	12	5	3	5	0	5	1	5	5	5	3	5	4	
6	11	8	9	6	13	10	6	0	6	1	6	2	6	5	6	4	
6	10	12	13	6	9	11	12	0	12	1	12	5	12	3	12	4	
3	6	13	12	12	0	12	1	12	2	12	3	12	4	
4	14	7	8	9	7	0	7	1	7	2	7	3	7	4	
3	1	5	0	5	0	5	1	5	2	5	1	5	0	
4	0	5	12	10	5	0	5	1	5	5	5	3	5	4	
4	4	2	7	8	7	0	7	1	7	2	7	5	7	4	
5	10	12	5	3	4	5	0	5	1	5	5	5	3	5	4	
4	4	2	7	14	7	0	7	1	7	2	7	5	7	4	
5	6	0	5	3	4	5	0	5	1	5	2	5	5	5	4	
5	8	7	0	5	3	5	0	5	1	5	2	5	5	5	4	
2	5	3	5	0	5	1	5	2	5	3	5	4	
3	5	1	2	5	0	5	1	5	5	5	3	5	4	
5	10	12	5	1	2	5	0	5	1	5	5	5	3	5	4	
4	5	0	7	14	5	0	5	1	5	2	5	5	5	4	
3	14	7	8	7	0	7	1	7	5	7	3	7	4	
4	5	0	6	9	5	0	5	1	5	2	5	5	5	4	
3	7	8	11	7	0	7	1	7	2	7	3	7	4	
3	8	7	14	7	0	7	1	7	2	7	1	7	0	
5	12	5	0	7	14	5	0	5	1	5	2	5	1	5	0	
5	1	2	7	8	11	7	0	7	1	7	2	7	1	7	0	
3	7	0	6	7	0	7	1	7	5	7	3	7	4	
6	11	8	7	0	5	3	5	0	5	1	5	2	5	1	5	0	
3	2	7	14	7	0	7	1	7	5	7	3	7	4	
5	14	7	0	5	12	5	0	5	1	5	2	5	5	5	4	
6	11	8	7	0	5	12	5	0	5	1	5	2	5	1	5	0	
4	0	5	3	4	5	0	5	1	5	5	5	3	5	4	
3	8	7	0	7	0	7	1	7	2	7	3	7	4	
4	1	5	12	13	5	0	5	1	5	5	5	3	5	4	
5	4	3	5	12	13	5	0	5	1	5	2	5	3	5	4	
3	14	7	8	7	0	7	1	7	2	7	1	7	0	
4	11	8	7	14	7	0	7	1	7	2	7	5	7	4	
5	5	0	7	8	11	5	0	5	1	5	2	5	3	5	4	
3	2	7	14	7	0	7	1	7	2	7	1	7	0	
3	8	7	0	7	0	7	1	7	2	7	1	7	0	
5	11	8	7	2	4	7	0	7	1	7	5	7	3	7	4	
3	6	13	10	6	0	6	1	6	2	6	5	6	4	
4	1	5	0	6	5	0	5	1	5	2	5	5	5	4	
3	7	2	4	7	0	7	1	7	2	7	5	7	4	
2	11	8	8	0	8	1	8	2	8	3	8	4	
4	14	7	2	1	7	0	7	1	7	5	7	3	7	4	
4	13	6	9	8	6	0	6	1	6	2	6	5	6	4	
2	9	8	8	0	8	1	8	2	8	3	8	4	
3	6	0	7	7	0	7	1	7	2	7	1	7	0	
3	0	7	14	7	0	7	1	7	2	7	5	7	4	
2	2	4	2	0	2	1	2	2	2	5	2	4	
4	3	5	0	6	5	0	5	1	5	2	5	3	5	4	
5	9	6	0	5	1	5	0	5	1	5	2	5	1	5	0	
4	7	0	5	3	5	0	5	1	5	2	5	3	5	4	
4	9	6	13	12	12	0	12	1	12	5	12	3	12	4	
2	14	7	7	0	7	1	7	2	7	3	7	4	
6	10	12	13	6	9	8	12	0	12	1	12	2	12	1	12	0	
3	11	8	7	7	0	7	1	7	2	7	3	7	4	
2	13	12	12	0	12	1	12	2	12	5	12	4	
4	10	12	5	0	5	0	5	1	5	2	5	5	5	4	
3	7	8	9	7	0	7	1	7	2	7	1	7	0	
3	4	3	5	5	0	5	1	5	2	5	1	5	0	
4	13	6	0	7	7	0	7	1	7	2	7	3	7	4	
3	6	0	7	7	0	7	1	7	2	7	5	7	4	
2	2	7	7	0	7	1	7	2	7	1	7	0	
2	0	6	0	0	0	1	0	2	0	3	0	4	
3	7	8	11	7	0	7	1	7	5	7	3	7	4	
4	10	12	5	3	5	0	5	1	5	5	5	3	5	4	
3	1	5	12	5	0	5	1	5	2	5	3	5	4	
4	1	2	7	8	7	0	7	1	7	5	7	3	7	4	
3	0	6	9	0	0	0	1	0	5	0	3	0	4	
4	11	8	7	2	7	0	7	1	7	2	7	5	7	4	
5	8	7	0	5	3	5	0	5	1	5	5	5	3	5	4	
3	6	13	10	6	0	6	1	6	5	6	3	6	4	
3	13	6	0	0	0	0	1	0	2	0	3	0	4	
2	13	10	13	0	13	1	13	2	13	1	13	0	
2	0	6	0	0	0	1	0	2	0	1	0	0	
4	2	7	8	11	7	0	7	1	7	2	7	5	7	4	
2	8	9	8	0	8	1	8	2	8	1	8	0	
5	14	7	0	6	13	7	0	7	1	7	2	7	1	7	0	
5	8	7	0	5	3	5	0	5	1	5	2	5	1	5	0	
4	14	7	0	5	5	0	5	1	5	2	5	1	5	0	
2	5	0	5	0	5	1	5	2	5	5	5	4	
3	14	7	2	7	0	7	1	7	2	7	3	7	4	
3	7	2	1	7	0	7	1	7	5	7	3	7	4	
4	2	7	8	9	7	0	7	1	7	2	7	5	7	4	
4	12	5	3	4	5	0	5	1	5	2	5	3	5	4	
4	6	0	5	1	5	0	5	1	5	2	5	3	5	4	
2	7	14	7	0	7	1	7	2	7	1	7	0	
5	4	3	5	12	13	5	0	5	1	5	5	5	3	5	4	
5	4	3	5	12	13	5	0	5	1	5	2	5	5	5	4	
4	3	5	0	6	5	0	5	1	5	2	5	1	5	0	
5	9	8	7	2	4	7	0	7	1	7	2	7	1	7	0	
5	3	5	0	7	14	5	0	5	1	5	2	5	5	5	4	
6	10	12	13	6	9	8	12	0	12	1	12	2	12	3	12	4	
3	11	8	9	8	0	8	1	8	5	8	3	8	4	
2	9	11	9	0	9	1	9	2	9	1	9	0	
5	3	5	0	6	9	5	0	5	1	5	2	5	1	5	0	
2	2	7	7	0	7	1	7	5	7	3	7	4	
4	7	0	5	3	5	0	5	1	5	2	5	5	5	4	
3	7	8	11	7	0	7	1	7	2	7	1	7	0	
3	10	12	13	12	0	12	1	12	2	12	3	12	4	
4	9	8	7	2	7	0	7	1	7	2	7	5	7	4	
4	6	0	7	14	7	0	7	1	7	5	7	3	7	4	
4	6	0	7	14	7	0	7	1	7	2	7	5	7	4	
4	2	7	8	9	7	0	7	1	7	2	7	3	7	4	
3	12	5	1	5	0	5	1	5	2	5	3	5	4	
2	8	7	7	0	7	1	7	2	7	1	7	0	
3	6	9	11	6	0	6	1	6	2	6	3	6	4	
2	5	0	5	0	5	1	5	5	5	3	5	4	
4	0	7	8	11	7	0	7	1	7	5	7	3	7	4	
3	11	8	7	7	0	7	1	7	2	7	5	7	4	
3	13	12	5	5	0	5	1	5	2	5	5	5	4	
2	0	7	7	0	7	1	7	2	7	3	7	4	
4	14	7	8	9	7	0	7	1	7	2	7	1	7	0	
2	10	12	12	0	12	1	12	2	12	1	12	0	
3	13	12	5	5	0	5	1	5	5	5	3	5	4	
4	9	8	7	14	7	0	7	1	7	2	7	5	7	4	
4	11	8	7	2	7	0	7	1	7	2	7	3	7	4	
3	10	12	13	12	0	12	1	12	5	12	3	12	4	
2	2	4	2	0	2	1	2	2	2	1	2	0	
4	12	5	3	4	5	0	5	1	5	2	5	5	5	4	
5	3	5	0	7	14	5	0	5	1	5	5	5	3	5	4	
4	6	0	7	14	7	0	7	1	7	2	7	1	7	0	
2	0	6	0	0	0	1	0	5	0	3	0	4	
5	9	6	0	5	1	5	0	5	1	5	2	5	3	5	4	
2	0	5	5	0	5	1	5	2	5	1	5	0	
4	1	5	12	10	5	0	5	1	5	2	5	1	5	0	
3	11	8	9	8	0	8	1	8	2	8	1	8	0	
2	6	9	6	0	6	1	6	2	6	5	6	4	
2	5	0	5	0	5	1	5	2	5	1	5	0	
4	1	2	7	8	7	0	7	1	7	2	7	3	7	4	
3	0	7	2	7	0	7	1	7	5	7	3	7	4	
3	11	8	7	7	0	7	1	7	2	7	1	7	0	
3	7	2	4	7	0	7	1	7	5	7	3	7	4	
4	14	7	8	11	7	0	7	1	7	2	7	5	7	4	
5	12	13	6	9	11	12	0	12	1	12	2	12	5	12	4	
2	8	7	7	0	7	1	7	2	7	5	7	4	
4	10	12	5	1	5	0	5	1	5	2	5	1	5	0	
4	13	12	5	3	5	0	5	1	5	2	5	3	5	4	
3	9	8	7	7	0	7	1	7	5	7	3	7	4	
5	4	3	5	0	6	5	0	5	1	5	5	5	3	5	4	
3	0	5	3	5	0	5	1	5	2	5	5	5	4	
3	1	5	12	5	0	5	1	5	5	5	3	5	4	
3	3	5	0	5	0	5	1	5	2	5	3	5	4	
4	4	3	5	12	5	0	5	1	5	2	5	3	5	4	
4	6	0	7	2	7	0	7	1	7	2	7	3	7	4	
3	7	0	5	5	0	5	1	5	2	5	3	5	4	
5	13	6	0	7	14	7	0	7	1	7	5	7	3	7	4	
2	13	6	6	0	6	1	6	2	6	5	6	4	
3	12	5	0	5	0	5	1	5	2	5	5	5	4	
5	14	7	0	6	13	7	0	7	1	7	5	7	3	7	4	
4	6	0	5	1	5	0	5	1	5	2	5	1	5	0	
3	0	7	8	7	0	7	1	7	2	7	5	7	4	
4	6	0	5	1	0	0	0	1	0	5	0	3	0	4	
3	1	5	0	0	0	0	1	0	2	0	5	0	4	
2	1	5	5	0	5	1	5	2	5	3	5	4	
5	3	5	0	6	9	0	0	0	1	0	5	0	3	0	4	
3	9	6	0	0	0	0	1	0	2	0	3	0	4	
5	13	12	5	1	2	5	0	5	1	5	2	5	1	5	0	
3	5	0	6	5	0	5	1	5	2	5	1	5	0	
3	0	6	13	0	0	0	1	0	2	0	5	0	4	
2	11	8	8	0	8	1	8	2	8	1	8	0	
4	14	7	2	4	7	0	7	1	7	5	7	3	7	4	
3	12	13	6	12	0	12	1	12	2	12	3	12	4	
5	14	7	0	5	12	7	0	7	1	7	5	7	3	7	4	
3	4	2	1	2	0	2	1	2	2	2	3	2	4	
2	8	9	8	0	8	1	8	2	8	5	8	4	
2	5	3	3	0	3	1	3	5	3	3	3	4	
4	1	5	0	6	0	0	0	1	0	5	0	3	0	4	
2	1	5	5	0	5	1	5	2	5	1	5	0	
3	14	7	0	7	0	7	1	7	2	7	1	7	0	
4	8	7	0	5	5	0	5	1	5	5	5	3	5	4	
2	5	0	5	0	5	1	5	2	5	3	5	4	
4	0	7	8	11	7	0	7	1	7	2	7	3	7	4	
3	3	5	1	5	0	5	1	5	2	5	5	5	4	
4	12	5	1	2	12	0	12	1	12	5	12	3	12	4	
5	7	0	5	12	10	7	0	7	1	7	5	7	3	7	4	
4	1	5	12	13	5	0	5	1	5	2	5	3	5	4	
4	12	5	0	7	5	0	5	1	5	2	5	5	5	4	
3	3	4	2	2	0	2	1	2	5	2	3	2	4	
2	4	3	3	0	3	1	3	2	3	5	3	4	
2	7	8	7	0	7	1	7	2	7	3	7	4	
3	3	5	0	5	0	5	1	5	2	5	1	5	0	
3	0	6	9	0	0	0	1	0	2	0	3	0	4	
5	11	8	7	2	1	7	0	7	1	7	2	7	3	7	4	
3	6	9	11	6	0	6	1	6	5	6	3	6	4	
3	14	7	8	7	0	7	1	7	2	7	5	7	4	
5	12	13	6	9	11	12	0	12	1	12	2	12	3	12	4	
4	10	12	5	3	5	0	5	1	5	2	5	1	5	0	
5	2	1	5	12	10	5	0	5	1	5	2	5	5	5	4	
3	2	7	0	7	0	7	1	7	2	7	3	7	4	
5	8	7	0	5	3	5	0	5	1	5	2	5	3	5	4	
5	6	0	5	3	4	0	0	0	1	0	5	0	3	0	4	
2	2	1	2	0	2	1	2	2	2	1	2	0	
2	11	8	8	0	8	1	8	2	8	5	8	4	
4	4	2	7	8	7	0	7	1	7	5	7	3	7	4	
4	4	2	7	8	7	0	7	1	7	2	7	3	7	4	
5	4	3	5	12	10	5	0	5	1	5	2	5	1	5	0	
4	10	12	13	6	12	0	12	1	12	2	12	5	12	4	
3	11	8	7	7	0	7	1	7	5	7	3	7	4	
2	12	10	12	0	12	1	12	2	12	5	12	4	
5	4	3	5	12	10	12	0	12	1	12	5	12	3	12	4	
4	4	3	5	12	5	0	5	1	5	2	5	5	5	4	
4	10	12	13	6	12	0	12	1	12	2	12	1	12	0	
3	11	8	9	8	0	8	1	8	2	8	5	8	4	
3	10	12	5	5	0	5	1	5	2	5	5	5	4	
5	14	7	0	5	3	5	0	5	1	5	2	5	1	5	0	
2	1	2	2	0	2	1	2	2	2	3	2	4	
2	6	0	0	0	0	1	0	2	0	5	0	4	
4	3	5	12	13	12	0	12	1	12	5	12	3	12	4	
3	12	5	1	5	0	5	1	5	2	5	1	5	0	
5	6	0	5	3	4	5	0	5	1	5	2	5	1	5	0	
4	8	7	0	5	5	0	5	1	5	2	5	1	5	0	
3	13	12	5	5	0	5	1	5	2	5	1	5	0	
4	9	6	13	10	6	0	6	1	6	2	6	1	6	0	
2	2	7	7	0	7	1	7	2	7	5	7	4	
5	7	0	5	12	10	5	0	5	1	5	2	5	1	5	0	
2	10	12	12	0	12	1	12	2	12	3	12	4	
4	2	7	8	9	7	0	7	1	7	5	7	3	7	4	
3	6	13	10	6	0	6	1	6	2	6	3	6	4	
5	11	8	9	6	13	6	0	6	1	6	2	6	1	6	0	
4	13	6	0	7	7	0	7	1	7	5	7	3	7	4	
2	7	8	7	0	7	1	7	2	7	1	7	0	
2	7	14	7	0	7	1	7	2	7	5	7	4	
5	9	8	7	2	4	7	0	7	1	7	2	7	5	7	4	
4	13	12	5	3	5	0	5	1	5	2	5	5	5	4	
3	6	9	11	6	0	6	1	6	2	6	5	6	4	
3	0	6	9	0	0	0	1	0	2	0	5	0	4	
3	10	12	13	12	0	12	1	12	2	12	1	12	0	
3	6	9	8	8	0	8	1	8	2	8	3	8	4	
4	10	12	5	0	0	0	0	1	0	5	0	3	0	4	
4	4	3	5	0	5	0	5	1	5	2	5	1	5	0	
5	11	8	7	2	1	7	0	7	1	7	2	7	1	7	0	
4	7	0	6	13	7	0	7	1	7	2	7	3	7	4	
3	8	7	0	7	0	7	1	7	5	7	3	7	4	
5	9	6	0	5	1	0	0	0	1	0	5	0	3	0	4	
5	12	13	6	9	8	12	0	12	1	12	2	12	3	12	4	
3	0	7	8	7	0	7	1	7	5	7	3	7	4	
3	7	8	9	7	0	7	1	7	2	7	5	7	4	
4	3	5	0	7	7	0	7	1	7	5	7	3	7	4	
3	13	12	5	5	0	5	1	5	2	5	3	5	4	
4	12	5	0	7	5	0	5	1	5	2	5	1	5	0	
4	12	13	6	9	12	0	12	1	12	5	12	3	12	4	
4	10	12	13	6	12	0	12	1	12	2	12	3	12	4	
4	6	0	7	2	7	0	7	1	7	2	7	1	7	0	
4	6	0	5	3	5	0	5	1	5	2	5	1	5	0	
4	8	7	2	4	7	0	7	1	7	2	7	3	7	4	
3	3	4	2	2	0	2	1	2	2	2	3	2	4	
3	1	2	7	7	0	7	1	7	2	7	3	7	4	
6	3	5	0	7	8	11	5	0	5	1	5	2	5	1	5	0	
6	11	8	7	0	5	12	7	0	7	1	7	5	7	3	7	4	
4	9	6	0	5	5	0	5	1	5	2	5	1	5	0	
4	2	1	5	12	5	0	5	1	5	2	5	1	5	0	
5	13	6	0	7	14	7	0	7	1	7	2	7	1	7	0	
3	8	7	14	7	0	7	1	7	5	7	3	7	4	
2	8	11	8	0	8	1	8	2	8	3	8	4	
5	13	6	0	7	14	7	0	7	1	7	2	7	3	7	4	
4	8	7	2	4	7	0	7	1	7	2	7	5	7	4	
5	10	12	5	0	7	5	0	5	1	5	2	5	1	5	0	
3	9	6	13	6	0	6	1	6	2	6	3	6	4	
6	11	8	7	0	5	12	5	0	5	1	5	2	5	3	5	4	
5	11	8	9	6	13	8	0	8	1	8	5	8	3	8	4	
5	11	8	9	6	13	6	0	6	1	6	2	6	5	6	4	
2	1	2	2	0	2	1	2	2	2	5	2	4	
6	4	3	5	0	6	9	5	0	5	1	5	2	5	1	5	0	
4	6	0	5	3	5	0	5	1	5	2	5	5	5	4	
4	3	5	12	10	5	0	5	1	5	2	5	3	5	4	
2	7	0	7	0	7	1	7	2	7	5	7	4	
3	0	5	12	5	0	5	1	5	2	5	5	5	4	
2	5	1	1	0	1	1	1	5	1	3	1	4	
3	0	7	2	7	0	7	1	7	2	7	3	7	4	
6	4	3	5	0	6	9	5	0	5	1	5	2	5	5	5	4	
4	14	7	2	4	7	0	7	1	7	2	7	3	7	4	
3	1	2	4	2	0	2	1	2	5	2	3	2	4	
3	1	2	7	7	0	7	1	7	2	7	1	7	0	
5	13	12	5	1	2	5	0	5	1	5	2	5	3	5	4	
3	4	3	5	5	0	5	1	5	2	5	5	5	4	
3	2	7	0	7	0	7	1	7	2	7	5	7	4	
3	12	5	0	0	0	0	1	0	5	0	3	0	4	
4	1	5	12	10	5	0	5	1	5	2	5	5	5	4	
2	13	10	13	0	13	1	13	2	13	5	13	4	
2	12	5	5	0	5	1	5	2	5	5	5	4	
2	13	6	6	0	6	1	6	2	6	1	6	0	
4	0	5	12	10	5	0	5	1	5	2	5	3	5	4	
6	11	8	7	0	5	3	5	0	5	1	5	2	5	3	5	4	
5	11	8	7	2	4	7	0	7	1	7	2	7	3	7	4	
4	1	5	12	10	5	0	5	1	5	2	5	3	5	4	
4	9	8	7	2	7	0	7	1	7	5	7	3	7	4	
3	7	0	5	7	0	7	1	7	5	7	3	7	4	
4	8	7	2	1	7	0	7	1	7	2	7	3	7	4	
3	2	4	3	2	0	2	1	2	2	2	1	2	0	
3	3	5	0	0	0	0	1	0	5	0	3	0	4	
3	3	5	12	12	0	12	1	12	2	12	5	12	4	
3	6	0	7	7	0	7	1	7	2	7	3	7	4	
3	6	13	12	12	0	12	1	12	5	12	3	12	4	
2	12	10	12	0	12	1	12	2	12	3	12	4	
5	2	1	5	12	13	5	0	5	1	5	2	5	5	5	4	
5	12	13	6	9	11	12	0	12	1	12	5	12	3	12	4	
5	5	0	7	8	11	7	0	7	1	7	5	7	3	7	4	
2	9	11	9	0	9	1	9	5	9	3	9	4	
3	14	7	2	7	0	7	1	7	5	7	3	7	4	
2	7	8	7	0	7	1	7	5	7	3	7	4	
3	2	4	3	2	0	2	1	2	5	2	3	2	4	
6	10	12	5	0	7	14	7	0	7	1	7	5	7	3	7	4	
3	0	6	9	0	0	0	1	0	2	0	1	0	0	
5	10	12	5	0	7	5	0	5	1	5	2	5	5	5	4	
5	4	2	7	8	11	7	0	7	1	7	2	7	1	7	0	
3	1	2	7	7	0	7	1	7	2	7	5	7	4	
3	1	2	4	2	0	2	1	2	2	2	3	2	4	
3	12	5	3	5	0	5	1	5	2	5	1	5	0	
3	5	3	4	5	0	5	1	5	2	5	5	5	4	
4	5	0	6	9	5	0	5	1	5	2	5	3	5	4	
5	4	2	7	8	11	7	0	7	1	7	2	7	5	7	4	
3	2	1	5	5	0	5	1	5	2	5	5	5	4	
4	13	12	5	1	5	0	5	1	5	2	5	3	5	4	
3	0	5	3	5	0	5	1	5	2	5	3	5	4	
3	3	5	12	12	0	12	1	12	5	12	3	12	4	
3	6	13	12	12	0	12	1	12	2	12	1	12	0	
4	3	5	0	7	5	0	5	1	5	2	5	3	5	4	
4	6	0	7	2	7	0	7	1	7	2	7	5	7	4	
4	7	0	6	13	7	0	7	1	7	2	7	1	7	0	
5	8	7	0	6	13	7	0	7	1	7	2	7	5	7	4	
6	14	7	0	5	12	10	5	0	5	1	5	2	5	5	5	4	
4	1	5	0	6	5	0	5	1	5	2	5	1	5	0	
4	9	6	0	5	5	0	5	1	5	2	5	3	5	4	
2	5	1	5	0	5	1	5	2	5	1	5	0	
5	13	12	5	3	4	5	0	5	1	5	2	5	3	5	4	
3	3	5	0	0	0	0	1	0	2	0	5	0	4	
5	1	2	7	8	9	7	0	7	1	7	5	7	3	7	4	
3	13	6	9	6	0	6	1	6	2	6	5	6	4	
3	8	7	2	7	0	7	1	7	5	7	3	7	4	
4	4	2	7	14	7	0	7	1	7	2	7	3	7	4	
6	10	12	5	0	7	14	5	0	5	1	5	2	5	1	5	0	
2	13	12	12	0	12	1	12	5	12	3	12	4	
2	0	7	7	0	7	1	7	2	7	5	7	4	
6	11	8	7	0	5	3	5	0	5	1	5	2	5	5	5	4	
2	4	2	2	0	2	1	2	2	2	5	2	4	
5	9	6	0	5	3	5	0	5	1	5	2	5	1	5	0	
2	12	13	12	0	12	1	12	2	12	1	12	0	
3	13	6	9	6	0	6	1	6	5	6	3	6	4	
4	0	5	12	10	5	0	5	1	5	2	5	1	5	0	
3	2	7	0	7	0	7	1	7	2	7	1	7	0	
5	10	12	5	3	4	5	0	5	1	5	2	5	3	5	4	
4	12	5	0	7	7	0	7	1	7	5	7	3	7	4	
5	8	7	0	5	12	5	0	5	1	5	2	5	5	5	4	
3	8	7	2	7	0	7	1	7	2	7	3	7	4	
3	7	0	6	7	0	7	1	7	2	7	5	7	4	
4	12	5	1	2	5	0	5	1	5	2	5	5	5	4	
3	2	1	5	5	0	5	1	5	2	5	3	5	4	
4	1	2	7	14	7	0	7	1	7	5	7	3	7	4	
5	14	7	0	5	3	7	0	7	1	7	5	7	3	7	4	
5	14	7	0	5	3	7	0	7	1	7	2	7	5	7	4	
3	10	12	5	5	0	5	1	5	2	5	1	5	0	
4	9	6	13	10	6	0	6	1	6	2	6	5	6	4	
2	5	3	3	0	3	1	3	2	3	5	3	4	
4	3	5	12	10	5	0	5	1	5	2	5	1	5	0	
4	5	0	7	14	5	0	5	1	5	2	5	3	5	4	
5	2	1	5	12	13	5	0	5	1	5	2	5	1	5	0	
6	8	7	0	5	12	10	5	0	5	1	5	2	5	3	5	4	
3	12	5	0	5	0	5	1	5	2	5	1	5	0	
3	7	2	1	7	0	7	1	7	2	7	3	7	4	
5	10	12	13	6	9	12	0	12	1	12	5	12	3	12	4	
4	9	6	13	10	6	0	6	1	6	2	6	3	6	4	
6	11	8	7	0	6	13	7	0	7	1	7	2	7	3	7	4	
2	1	2	2	0	2	1	2	5	2	3	2	4	
3	2	7	8	7	0	7	1	7	5	7	3	7	4	
4	14	7	0	6	7	0	7	1	7	2	7	5	7	4	
6	3	5	0	7	8	11	5	0	5	1	5	2	5	3	5	4	
4	0	7	8	11	7	0	7	1	7	2	7	5	7	4	
3	14	7	8	7	0	7	1	7	2	7	3	7	4	
3	6	0	5	0	0	0	1	0	2	0	5	0	4	
3	13	6	0	0	0	0	1	0	5	0	3	0	4	
3	2	7	14	7	0	7	1	7	2	7	3	7	4	
3	5	1	2	5	0	5	1	5	2	5	1	5	0	
6	14	7	0	5	12	10	7	0	7	1	7	5	7	3	7	4	
4	8	7	0	5	7	0	7	1	7	2	7	5	7	4	
4	9	8	7	2	7	0	7	1	7	2	7	3	7	4	
5	3	5	0	6	9	5	0	5	1	5	2	5	3	5	4	
5	1	2	7	8	11	7	0	7	1	7	2	7	5	7	4	
4	13	6	9	11	6	0	6	1	6	2	6	5	6	4	
3	13	6	9	6	0	6	1	6	2	6	1	6	0	
3	8	7	0	7	0	7	1	7	2	7	5	7	4	
4	0	5	3	4	5	0	5	1	5	2	5	1	5	0	
3	0	6	13	0	0	0	1	0	2	0	3	0	4	
4	5	0	7	14	5	0	5	1	5	2	5	1	5	0	
