54687.4	53825.6
1728
49880.3	38855.6
15
0	114	320
1	22	320
2	0	320
3	27	320
4	4	320
5	54	320
6	6	320
7	50	320
8	4	320
9	0	320
10	2	320
11	0	320
12	0	320
13	0	320
14	10	320
44
0	5	44971.109807	162195.900000	1.000000
0	6	33342.750000	110170.800000	1.000000
0	7	16378.515495	66306.500000	1.000000
1	2	34558.139992	136693.400000	1.000000
1	4	8036.011652	44884.400000	1.000000
1	5	61488.223887	216261.200000	1.000000
2	1	39818.473887	136693.400000	1.000000
2	4	920.550040	17341.700000	1.000000
2	7	28362.150811	136693.400000	1.000000
3	4	0.000000	38763.800000	0.000000
3	5	18740.250000	51005.000000	1.000000
4	1	9346.667139	44884.400000	1.000000
4	2	289.394553	17341.700000	1.000000
4	3	0.000000	38763.800000	0.000000
5	0	47345.849189	162195.900000	1.000000
5	1	63381.734505	216261.200000	1.000000
5	3	19437.750000	51005.000000	1.000000
5	12	17356.500000	70386.900000	1.000000
6	0	36051.750000	110170.800000	1.000000
6	9	20787.750000	91809.000000	1.000000
6	13	11097.000000	64266.300000	1.000000
7	0	17873.776113	66306.500000	1.000000
7	2	34096.140193	136693.400000	1.000000
7	8	14071.500000	38763.800000	1.000000
7	14	12033.000000	57125.600000	1.000000
8	7	16222.500000	38763.800000	1.000000
8	9	0.000000	19381.900000	0.000000
8	11	12559.500000	31623.100000	1.000000
8	14	2668.500000	23462.300000	1.000000
9	6	20736.000000	91809.000000	1.000000
9	8	0.000000	19381.900000	0.000000
9	11	0.000000	32643.200000	0.000000
10	12	8964.000000	25502.500000	1.000000
10	13	0.000000	14281.400000	0.000000
11	8	13932.000000	31623.100000	1.000000
11	9	0.000000	32643.200000	0.000000
12	5	19602.000000	70386.900000	1.000000
12	10	8597.250000	25502.500000	1.000000
12	13	0.000000	25502.500000	0.000000
13	6	13162.500000	64266.300000	1.000000
13	10	0.000000	14281.400000	0.000000
13	12	0.000000	25502.500000	0.000000
14	7	14388.750000	57125.600000	1.000000
14	8	3188.250000	23462.300000	1.000000
840
5	1	2	7	8	11	7	0	7	1	7	2	7	3	7	4	
5	1	5	0	6	9	0	0	0	1	0	2	0	5	0	4	
4	7	0	5	12	0	0	0	1	0	2	0	3	0	4	
2	3	5	3	0	3	1	3	2	3	5	3	4	
5	7	2	1	5	3	3	0	3	1	3	5	3	3	3	4	
6	11	8	7	0	5	3	0	0	0	1	0	5	0	3	0	4	
5	3	5	0	6	13	0	0	0	1	0	2	0	5	0	4	
2	6	13	13	0	13	1	13	5	13	3	13	4	
6	10	12	5	1	2	7	10	0	10	1	10	2	10	3	10	4	
4	3	5	0	6	0	0	0	1	0	5	0	3	0	4	
4	4	1	2	7	4	0	4	1	4	2	4	5	4	4	
4	1	2	7	8	7	0	7	1	7	2	7	1	7	0	
6	14	7	2	1	5	12	14	0	14	1	14	2	14	1	14	0	
4	7	2	1	4	4	0	4	1	4	2	4	3	4	4	
4	2	1	5	12	5	0	5	1	5	2	5	5	5	4	
4	0	5	1	2	5	0	5	1	5	2	1	5	1	4	
5	13	6	0	5	1	0	0	0	1	0	2	0	5	0	4	
5	7	2	1	5	3	3	0	3	1	3	2	3	1	3	0	
3	5	12	10	10	0	10	1	10	5	10	3	10	4	
2	12	5	5	0	5	1	5	2	5	1	5	0	
3	5	1	2	5	0	5	1	5	2	5	5	5	4	
4	8	7	2	1	7	0	7	1	7	2	7	1	7	0	
2	8	7	7	0	7	1	7	2	7	3	7	4	
6	10	12	5	0	6	9	0	0	0	1	0	2	0	3	0	4	
2	6	0	0	0	0	1	0	5	0	3	0	4	
3	14	7	0	0	0	0	1	0	5	0	3	0	4	
4	4	1	5	12	5	0	5	1	5	2	5	1	5	0	
3	2	1	5	5	0	5	1	5	5	5	3	5	4	
4	7	2	1	5	7	0	1	1	1	2	1	5	1	4	
3	0	7	14	0	0	0	1	0	5	0	3	0	4	
4	5	1	2	7	5	0	5	1	5	2	5	1	5	0	
5	8	7	0	6	9	0	0	0	1	0	5	0	3	0	4	
5	4	1	5	12	10	5	0	5	1	5	2	5	5	5	4	
3	5	12	10	5	0	5	1	5	2	5	5	5	4	
3	14	7	0	0	0	0	1	0	2	0	3	0	4	
6	3	5	0	7	8	11	0	0	0	1	0	5	0	3	0	4	
2	6	13	13	0	13	1	13	2	13	1	13	0	
7	8	7	2	1	5	12	10	10	0	10	1	10	2	10	1	10	0	
4	10	12	5	1	5	0	5	1	5	2	5	5	5	4	
2	0	5	0	0	0	1	0	2	0	3	0	4	
4	3	5	1	2	3	0	3	1	3	2	3	5	3	4	
5	7	2	1	5	12	5	0	12	1	12	2	12	1	12	0	
3	1	2	7	7	0	7	1	7	5	7	3	7	4	
7	10	12	5	1	2	7	14	10	0	14	1	14	2	14	3	14	4	
5	8	7	2	1	4	4	0	4	1	4	5	4	3	4	4	
5	2	1	5	12	10	10	0	10	1	10	5	10	3	10	4	
4	2	1	5	3	3	0	3	1	3	2	3	5	3	4	
2	4	1	1	0	1	1	1	5	1	3	1	4	
5	9	6	0	5	3	0	0	0	1	0	2	0	3	0	4	
4	7	0	5	12	0	0	0	1	0	2	0	5	0	4	
3	0	5	3	0	0	0	1	0	2	0	1	0	0	
5	9	6	0	5	3	0	0	0	1	0	2	0	5	0	4	
2	6	13	13	0	13	1	13	2	13	5	13	4	
3	12	5	0	0	0	0	1	0	2	0	3	0	4	
4	11	8	7	0	0	0	0	1	0	2	0	3	0	4	
5	10	12	5	1	2	10	0	10	1	10	2	10	3	10	4	
6	13	6	0	7	8	11	0	0	0	1	0	5	0	3	0	4	
4	7	2	1	4	4	0	4	1	4	2	4	1	4	0	
3	12	5	3	3	0	3	1	3	5	3	3	3	4	
5	12	5	1	2	7	12	0	12	1	12	2	12	3	7	4	
4	6	0	5	3	0	0	0	1	0	2	0	3	0	4	
4	9	6	0	5	0	0	0	1	0	5	0	3	0	4	
2	11	8	8	0	8	1	8	5	8	3	8	4	
2	12	10	12	0	12	1	12	2	12	1	12	0	
4	4	1	5	0	4	0	4	1	4	2	4	5	4	4	
4	0	7	8	11	0	0	0	1	0	2	0	1	0	0	
2	12	10	12	0	12	1	12	5	12	3	12	4	
3	9	6	13	6	0	6	1	6	2	6	5	6	4	
2	2	7	7	0	7	1	7	2	7	3	7	4	
4	14	7	0	6	14	0	14	1	14	2	14	1	14	0	
2	8	11	11	0	11	1	11	2	11	5	11	4	
2	5	1	5	0	5	1	5	2	5	5	5	4	
7	10	12	5	1	2	7	8	10	0	10	1	10	2	10	5	10	4	
5	3	5	1	2	7	3	0	3	1	3	2	3	1	3	0	
3	6	0	7	0	0	0	1	0	5	0	3	0	4	
6	2	1	5	0	6	13	13	0	13	1	13	2	13	3	13	4	
4	12	5	1	2	5	0	5	1	5	2	5	1	5	0	
4	3	5	1	4	5	0	5	1	5	2	5	1	5	0	
3	13	6	0	0	0	0	1	0	2	0	1	0	0	
4	5	0	7	8	0	0	0	1	0	2	0	1	0	0	
6	9	6	0	7	8	11	0	0	0	1	0	2	0	5	0	4	
5	9	6	0	7	8	0	0	0	1	0	2	0	5	0	4	
5	3	5	0	6	13	0	0	0	1	0	2	0	1	0	0	
3	1	5	0	0	0	0	1	0	5	0	3	0	4	
3	1	5	3	3	0	3	1	3	2	3	1	3	0	
5	2	1	5	12	10	10	0	10	1	10	2	10	1	10	0	
6	8	7	2	1	5	12	5	0	5	1	12	5	12	3	12	4	
5	8	7	0	6	13	0	0	0	1	0	2	0	3	0	4	
6	13	6	0	5	1	4	0	0	0	1	0	2	0	5	0	4	
3	1	5	3	5	0	5	1	5	2	5	3	5	4	
7	10	12	5	0	7	8	11	0	0	0	1	0	2	0	1	0	0	
4	4	1	2	7	4	0	4	1	4	2	4	3	4	4	
6	13	6	0	5	1	2	13	0	13	1	13	5	13	3	13	4	
6	9	6	0	7	8	11	0	0	0	1	0	2	0	3	0	4	
7	11	8	7	0	5	12	10	0	0	0	1	0	2	0	3	0	4	
4	4	1	5	12	5	0	5	1	5	5	5	3	5	4	
5	12	5	0	6	9	0	0	0	1	0	2	0	5	0	4	
5	14	7	2	1	5	14	0	14	1	14	2	14	5	14	4	
6	12	5	1	2	7	14	14	0	14	1	14	2	14	5	14	4	
3	3	5	12	3	0	3	1	3	2	3	3	3	4	
4	0	5	12	10	0	0	0	1	0	2	0	5	0	4	
7	14	7	2	1	5	12	10	14	0	14	1	10	2	10	3	10	4	
5	5	1	2	7	8	5	0	5	1	5	2	5	5	7	4	
3	8	7	2	7	0	7	1	7	2	7	5	7	4	
3	14	8	11	14	0	11	1	11	5	11	3	11	4	
2	14	7	14	0	14	1	14	5	14	3	14	4	
2	6	9	9	0	9	1	9	2	9	3	9	4	
5	14	7	0	6	9	0	0	0	1	0	5	0	3	0	4	
2	6	0	0	0	0	1	0	2	0	1	0	0	
5	14	7	2	1	5	14	0	14	1	14	5	14	3	14	4	
3	1	5	12	5	0	5	1	5	2	5	5	5	4	
3	5	0	6	0	0	0	1	0	2	0	3	0	4	
5	3	5	1	2	7	3	0	3	1	3	2	3	5	3	4	
3	0	5	12	0	0	0	1	0	2	0	3	0	4	
5	11	8	7	2	1	7	0	7	1	7	5	7	3	7	4	
5	9	6	0	5	1	0	0	0	1	0	2	0	5	0	4	
4	5	0	6	13	0	0	0	1	0	2	0	1	0	0	
4	11	8	7	0	0	0	0	1	0	5	0	3	0	4	
4	10	12	5	0	10	0	10	1	10	2	10	1	10	0	
7	10	12	5	1	2	7	14	10	0	14	1	14	2	14	5	14	4	
5	11	8	7	0	6	0	0	0	1	0	2	0	5	0	4	
3	7	2	1	7	0	7	1	7	2	7	1	7	0	
2	8	7	7	0	7	1	7	5	7	3	7	4	
4	3	5	12	10	5	0	5	1	5	2	5	5	5	4	
4	3	5	1	4	5	0	5	1	5	2	5	5	5	4	
2	9	6	9	0	9	1	9	5	9	3	9	4	
4	2	7	0	6	0	0	0	1	0	2	0	3	0	4	
4	8	7	0	5	0	0	0	1	0	2	0	3	0	4	
4	3	5	1	4	5	0	5	1	5	5	5	3	5	4	
5	14	7	2	1	5	14	0	14	1	14	2	14	3	14	4	
5	12	5	0	6	13	0	0	0	1	0	5	0	3	0	4	
3	7	0	6	0	0	0	1	0	2	0	3	0	4	
3	0	5	1	0	0	0	1	0	5	0	3	0	4	
4	5	0	6	13	0	0	0	1	0	5	0	3	0	4	
5	9	6	0	7	14	0	0	0	1	0	5	0	3	0	4	
2	10	12	12	0	12	1	12	5	12	3	12	4	
5	13	6	0	5	3	0	0	0	1	0	2	0	1	0	0	
6	4	1	5	0	6	13	0	0	0	1	0	2	0	1	0	0	
5	6	0	5	1	2	5	0	5	1	5	5	5	3	5	4	
5	14	7	2	1	4	14	0	14	1	14	2	14	1	4	0	
4	14	7	0	6	14	0	14	1	14	5	14	3	14	4	
4	1	4	1	2	4	0	4	1	4	2	4	1	4	0	
4	10	12	5	3	5	0	5	1	5	2	5	5	5	4	
5	10	12	5	0	6	10	0	10	1	10	5	10	3	10	4	
3	1	5	3	3	0	3	1	3	2	3	5	3	4	
3	1	5	0	0	0	0	1	0	2	0	3	0	4	
2	1	5	5	0	5	1	5	5	5	3	5	4	
5	4	1	5	0	6	0	0	0	1	0	2	0	3	0	4	
5	5	0	7	8	11	0	0	0	1	0	2	0	5	0	4	
4	8	7	0	6	0	0	0	1	0	5	0	3	0	4	
4	7	0	6	9	0	0	0	1	0	5	0	3	0	4	
2	2	1	1	0	1	1	1	2	1	5	1	4	
4	3	5	12	10	5	0	5	1	5	5	5	3	5	4	
5	6	0	5	12	10	0	0	0	1	0	2	0	1	0	0	
4	4	1	5	3	5	0	5	1	5	5	5	3	5	4	
4	0	7	2	4	0	0	0	1	0	2	0	5	0	4	
6	3	5	1	2	7	8	3	0	3	1	3	2	3	3	3	4	
4	2	7	8	11	7	0	7	1	7	5	7	3	7	4	
5	13	6	0	7	8	0	0	0	1	0	2	0	3	0	4	
2	9	6	9	0	9	1	9	2	9	5	9	4	
4	10	12	5	0	0	0	0	1	0	2	0	3	0	4	
4	7	0	6	13	0	0	0	1	0	2	0	5	0	4	
2	6	9	9	0	9	1	9	2	9	1	9	0	
6	14	7	2	1	5	3	14	0	14	1	14	2	14	3	3	4	
3	3	5	1	3	0	3	1	3	2	3	1	3	0	
4	1	2	7	8	7	0	7	1	7	2	7	5	7	4	
4	6	0	5	12	0	0	0	1	0	2	0	5	0	4	
3	3	5	1	3	0	3	1	3	5	3	3	3	4	
6	14	7	2	1	5	12	14	0	14	1	14	2	14	3	14	4	
3	4	1	2	4	0	4	1	4	2	4	1	4	0	
3	14	7	0	0	0	0	1	0	2	0	5	0	4	
6	13	6	0	5	12	10	0	0	0	1	0	5	0	3	0	4	
2	2	1	1	0	1	1	1	2	1	3	1	4	
3	0	7	8	0	0	0	1	0	2	0	3	0	4	
2	5	12	5	0	5	1	5	2	5	3	5	4	
4	11	8	7	2	11	0	11	1	11	5	11	3	11	4	
5	5	1	2	7	8	1	0	1	1	1	5	7	3	7	4	
6	12	5	0	7	8	11	0	0	0	1	0	2	0	1	0	0	
3	0	5	12	0	0	0	1	0	2	0	1	0	0	
4	1	2	7	14	14	0	14	1	14	2	14	1	14	0	
5	4	1	5	0	6	0	0	0	1	0	2	0	5	0	4	
6	4	1	5	0	6	9	0	0	0	1	0	2	0	3	0	4	
4	12	5	1	4	5	0	5	1	5	2	5	1	5	0	
3	0	7	8	0	0	0	1	0	2	0	1	0	0	
7	8	7	2	1	5	12	10	10	0	10	1	10	2	10	5	10	4	
2	13	6	13	0	13	1	13	2	13	3	13	4	
4	11	8	7	2	11	0	11	1	11	2	11	1	11	0	
2	7	2	7	0	7	1	7	2	7	1	7	0	
3	2	1	4	4	0	4	1	4	5	4	3	4	4	
4	5	0	7	8	0	0	0	1	0	2	0	3	0	4	
4	2	1	5	12	5	0	5	1	5	2	5	3	5	4	
4	8	7	0	6	0	0	0	1	0	2	0	3	0	4	
4	9	6	0	7	0	0	0	1	0	2	0	1	0	0	
5	3	5	0	6	9	0	0	0	1	0	2	0	5	0	4	
4	6	0	5	1	0	0	0	1	0	2	0	5	0	4	
5	9	6	0	5	12	0	0	0	1	0	2	0	5	0	4	
2	7	2	7	0	7	1	7	2	7	5	7	4	
3	3	5	12	3	0	3	1	3	2	3	1	3	0	
4	2	7	8	11	7	0	7	1	7	2	7	1	7	0	
5	8	7	0	6	13	0	0	0	1	0	5	0	3	0	4	
2	14	7	14	0	14	1	14	2	14	5	14	4	
5	8	7	0	5	12	0	0	0	1	0	2	0	3	0	4	
6	3	5	1	2	7	8	3	0	3	1	3	2	3	1	3	0	
2	9	6	9	0	9	1	9	2	9	3	9	4	
4	5	1	2	7	1	0	1	1	1	2	7	5	7	4	
4	8	7	0	6	0	0	0	1	0	2	0	1	0	0	
5	10	12	5	1	2	5	0	5	1	5	2	5	5	5	4	
3	11	8	14	11	0	14	1	14	5	14	3	14	4	
3	2	7	8	7	0	7	1	7	2	7	3	7	4	
5	14	7	0	6	13	0	0	0	1	0	2	0	3	0	4	
5	3	5	0	6	13	0	0	0	1	0	2	0	3	0	4	
4	4	1	5	0	4	0	4	1	4	5	4	3	4	4	
3	11	8	14	11	0	14	1	14	2	14	3	14	4	
5	11	8	7	0	5	0	0	0	1	0	2	0	5	0	4	
2	6	9	9	0	9	1	9	5	9	3	9	4	
3	14	8	11	14	0	11	1	11	2	11	1	11	0	
5	11	8	7	2	4	7	0	7	1	7	2	7	1	7	0	
3	2	7	14	14	0	14	1	14	2	14	5	14	4	
6	13	6	0	5	1	4	0	0	0	1	0	5	0	3	0	4	
7	14	7	2	1	5	12	10	14	0	14	1	10	2	10	1	10	0	
4	9	6	0	7	0	0	0	1	0	2	0	5	0	4	
4	10	12	5	3	5	0	5	1	5	2	5	3	5	4	
2	12	5	5	0	5	1	5	2	5	3	5	4	
5	1	5	0	6	13	0	0	0	1	0	2	0	5	0	4	
7	11	8	7	0	5	12	10	0	0	0	1	0	2	0	1	0	0	
4	11	8	7	0	0	0	0	1	0	2	0	1	0	0	
5	12	5	0	6	9	0	0	0	1	0	2	0	3	0	4	
2	0	6	0	0	0	1	0	2	0	5	0	4	
4	6	0	7	8	0	0	0	1	0	2	0	5	0	4	
5	4	1	2	7	14	4	0	14	1	14	2	14	1	14	0	
4	4	1	5	3	5	0	5	1	5	2	5	1	5	0	
2	5	12	5	0	5	1	5	2	5	1	5	0	
6	10	12	5	0	6	13	0	0	0	1	0	2	0	5	0	4	
4	2	1	4	1	4	0	4	1	4	5	4	3	4	4	
3	0	5	3	0	0	0	1	0	5	0	3	0	4	
6	3	5	0	7	8	11	0	0	0	1	0	2	0	5	0	4	
2	1	5	5	0	5	1	5	2	5	5	5	4	
5	14	7	2	1	4	14	0	14	1	14	2	14	5	4	4	
6	12	5	1	2	7	14	14	0	14	1	14	5	14	3	14	4	
3	6	0	5	0	0	0	1	0	2	0	3	0	4	
2	5	12	5	0	5	1	5	5	5	3	5	4	
5	11	8	7	0	6	0	0	0	1	0	2	0	1	0	0	
2	7	0	0	0	0	1	0	2	0	3	0	4	
3	0	5	1	0	0	0	1	0	2	0	3	0	4	
6	11	8	7	0	6	9	0	0	0	1	0	2	0	3	0	4	
7	10	12	5	1	2	7	8	10	0	10	1	10	5	10	3	10	4	
2	3	5	3	0	3	1	3	2	3	3	3	4	
5	4	1	2	7	8	4	0	4	1	4	2	4	1	4	0	
4	6	0	7	14	0	0	0	1	0	2	0	3	0	4	
3	1	5	3	3	0	3	1	3	5	3	3	3	4	
3	5	0	6	0	0	0	1	0	2	0	5	0	4	
5	9	6	0	5	12	0	0	0	1	0	2	0	3	0	4	
3	0	5	12	0	0	0	1	0	5	0	3	0	4	
3	5	0	6	0	0	0	1	0	5	0	3	0	4	
6	2	1	5	0	6	9	9	0	9	1	9	2	9	1	9	0	
5	4	1	2	7	14	4	0	14	1	14	5	14	3	14	4	
4	9	6	0	7	0	0	0	1	0	2	0	3	0	4	
3	7	2	1	7	0	7	1	7	2	7	5	7	4	
2	5	3	3	0	3	1	3	2	3	1	3	0	
5	9	6	0	7	8	0	0	0	1	0	5	0	3	0	4	
2	5	12	5	0	5	1	5	2	5	5	5	4	
2	0	5	0	0	0	1	0	5	0	3	0	4	
4	4	1	5	0	0	0	0	1	0	2	0	3	0	4	
5	6	0	7	8	11	0	0	0	1	0	2	0	1	0	0	
2	7	0	0	0	0	1	0	2	0	1	0	0	
5	2	1	5	0	6	1	0	1	1	1	2	0	1	6	0	
5	9	6	0	7	14	0	0	0	1	0	2	0	1	0	0	
4	6	0	7	8	0	0	0	1	0	5	0	3	0	4	
3	12	5	1	5	0	5	1	5	5	5	3	5	4	
5	1	5	0	6	13	0	0	0	1	0	2	0	1	0	0	
2	1	4	4	0	4	1	4	2	4	1	4	0	
5	11	8	7	2	1	7	0	7	1	7	2	7	5	7	4	
4	2	1	5	12	5	0	5	1	5	5	5	3	5	4	
6	13	6	0	7	8	11	0	0	0	1	0	2	0	1	0	0	
4	3	5	0	6	0	0	0	1	0	2	0	5	0	4	
4	2	1	5	3	3	0	3	1	3	2	3	3	3	4	
5	12	5	0	6	9	0	0	0	1	0	2	0	1	0	0	
6	7	2	1	5	12	10	10	0	10	1	10	2	10	5	10	4	
4	5	1	2	7	1	0	1	1	1	2	1	3	7	4	
5	14	7	0	6	9	0	0	0	1	0	2	0	5	0	4	
5	1	2	7	8	11	7	0	7	1	7	5	7	3	7	4	
3	4	1	5	5	0	5	1	5	5	5	3	5	4	
5	4	2	7	8	11	7	0	7	1	7	2	7	3	7	4	
2	0	7	0	0	0	1	0	2	0	1	0	0	
4	5	0	6	13	0	0	0	1	0	2	0	3	0	4	
4	12	5	0	6	0	0	0	1	0	2	0	1	0	0	
2	7	2	7	0	7	1	7	5	7	3	7	4	
3	13	6	0	0	0	0	1	0	2	0	5	0	4	
6	13	6	0	5	12	10	0	0	0	1	0	2	0	3	0	4	
5	13	6	0	7	14	0	0	0	1	0	2	0	5	0	4	
3	0	6	13	0	0	0	1	0	2	0	1	0	0	
3	0	5	1	0	0	0	1	0	2	0	5	0	4	
3	2	7	8	7	0	7	1	7	2	7	5	7	4	
2	6	0	0	0	0	1	0	2	0	3	0	4	
4	12	5	1	4	5	0	5	1	5	5	5	3	5	4	
3	14	7	2	14	0	14	1	14	2	14	1	14	0	
5	11	8	7	0	5	0	0	0	1	0	5	0	3	0	4	
4	2	7	8	11	11	0	11	1	11	2	11	3	11	4	
5	2	1	5	0	6	1	0	5	1	5	5	5	3	6	4	
5	11	8	7	2	4	7	0	7	1	7	2	7	5	7	4	
5	8	7	2	1	4	4	0	4	1	4	2	4	1	4	0	
5	10	12	5	1	4	5	0	5	1	5	2	5	5	5	4	
6	9	6	0	5	12	10	0	0	0	1	0	5	0	3	0	4	
4	6	0	5	3	0	0	0	1	0	5	0	3	0	4	
6	11	8	7	0	5	12	0	0	0	1	0	2	0	5	0	4	
4	8	7	0	6	0	0	0	1	0	2	0	5	0	4	
4	1	2	7	14	14	0	14	1	14	2	14	5	14	4	
7	8	7	2	1	5	12	10	10	0	10	1	10	5	10	3	10	4	
6	13	6	0	5	1	4	0	0	0	1	0	2	0	1	0	0	
3	5	1	4	4	0	4	1	4	2	4	1	4	0	
6	10	12	5	1	2	7	10	0	10	1	10	5	10	3	10	4	
3	4	1	2	4	0	4	1	4	5	4	3	4	4	
5	13	6	0	7	8	0	0	0	1	0	2	0	1	0	0	
6	9	6	0	5	1	4	0	0	0	1	0	2	0	3	0	4	
3	5	1	2	5	0	5	1	5	2	5	3	5	4	
4	7	0	6	13	0	0	0	1	0	5	0	3	0	4	
4	1	2	7	14	14	0	14	1	14	2	14	3	14	4	
4	4	1	5	3	5	0	5	1	5	2	5	3	5	4	
2	13	6	13	0	13	1	13	5	13	3	13	4	
6	3	5	1	2	7	14	3	0	14	1	14	2	14	3	14	4	
3	0	7	2	0	0	0	1	0	2	0	1	0	0	
4	9	6	0	5	0	0	0	1	0	2	0	5	0	4	
4	10	12	5	1	10	0	10	1	10	2	10	3	10	4	
3	11	8	14	8	0	8	1	8	2	8	1	8	0	
3	9	6	0	0	0	0	1	0	2	0	5	0	4	
3	7	0	5	0	0	0	1	0	2	0	1	0	0	
4	12	5	0	6	0	0	0	1	0	2	0	5	0	4	
2	4	1	1	0	1	1	1	2	1	1	1	0	
6	10	12	5	0	6	9	0	0	0	1	0	2	0	1	0	0	
4	14	7	0	6	14	0	14	1	14	2	14	3	14	4	
2	7	8	7	0	7	1	7	2	7	5	7	4	
4	5	0	6	9	0	0	0	1	0	5	0	3	0	4	
2	4	1	4	0	4	1	4	2	4	5	4	4	
2	8	11	8	0	8	1	8	2	8	1	8	0	
2	7	14	14	0	14	1	14	5	14	3	14	4	
3	0	7	14	0	0	0	1	0	2	0	3	0	4	
4	3	5	1	2	3	0	3	1	3	2	3	1	3	0	
5	5	0	7	8	11	0	0	0	1	0	2	0	1	0	0	
3	9	6	0	0	0	0	1	0	2	0	1	0	0	
3	14	8	11	14	0	11	1	11	2	11	3	11	4	
5	12	5	0	7	8	0	0	0	1	0	5	0	3	0	4	
2	8	14	14	0	14	1	14	2	14	5	14	4	
2	10	12	10	0	10	1	10	2	10	5	10	4	
2	12	5	5	0	5	1	5	5	5	3	5	4	
4	14	7	2	1	14	0	14	1	14	2	14	3	14	4	
5	10	12	5	1	4	5	0	5	1	5	2	5	1	5	0	
3	14	7	2	14	0	14	1	14	2	14	5	14	4	
6	12	5	1	2	7	14	14	0	14	1	14	2	14	3	14	4	
4	5	0	6	9	0	0	0	1	0	2	0	1	0	0	
4	13	6	0	7	0	0	0	1	0	2	0	5	0	4	
6	3	5	1	2	7	8	3	0	3	1	3	2	3	5	3	4	
2	0	5	0	0	0	1	0	2	0	5	0	4	
3	9	6	13	9	0	9	1	9	2	13	1	13	0	
3	5	1	4	4	0	4	1	4	5	4	3	4	4	
5	8	7	0	6	9	0	0	0	1	0	2	0	3	0	4	
3	10	12	5	10	0	10	1	10	5	10	3	10	4	
6	3	5	1	2	7	8	3	0	3	1	3	5	3	3	3	4	
3	10	12	5	10	0	10	1	10	2	10	3	10	4	
2	7	2	7	0	7	1	7	2	7	3	7	4	
2	6	13	13	0	13	1	13	2	13	3	13	4	
5	4	2	7	8	11	7	0	7	1	7	5	7	3	7	4	
3	0	6	13	0	0	0	1	0	5	0	3	0	4	
5	13	6	0	5	1	0	0	0	1	0	5	0	3	0	4	
5	11	8	7	0	6	0	0	0	1	0	2	0	3	0	4	
4	13	6	0	7	0	0	0	1	0	2	0	1	0	0	
5	8	7	0	5	12	0	0	0	1	0	2	0	1	0	0	
5	6	0	5	1	4	4	0	4	1	4	2	4	3	4	4	
7	10	12	5	0	7	8	11	0	0	0	1	0	2	0	3	0	4	
4	5	0	6	13	0	0	0	1	0	2	0	5	0	4	
3	0	5	1	0	0	0	1	0	2	0	1	0	0	
3	12	5	1	5	0	5	1	5	2	5	5	5	4	
5	12	5	0	6	13	0	0	0	1	0	2	0	5	0	4	
6	7	2	1	5	12	10	10	0	10	1	10	2	10	3	10	4	
5	8	7	0	6	13	0	0	0	1	0	2	0	1	0	0	
5	4	1	5	0	6	0	0	0	1	0	2	0	1	0	0	
3	4	1	2	4	0	4	1	4	2	4	3	4	4	
4	8	7	2	1	7	0	7	1	7	2	7	5	7	4	
2	5	1	5	0	5	1	5	2	5	3	5	4	
3	1	5	12	5	0	5	1	5	2	5	1	5	0	
4	4	1	2	7	4	0	4	1	4	5	4	3	4	4	
6	2	1	5	0	6	13	13	0	13	1	13	5	13	3	13	4	
5	9	6	0	5	3	0	0	0	1	0	5	0	3	0	4	
5	11	8	7	0	5	0	0	0	1	0	2	0	1	0	0	
5	14	7	0	6	13	0	0	0	1	0	2	0	5	0	4	
4	14	7	2	1	14	0	14	1	14	2	14	5	14	4	
3	7	8	11	7	0	7	1	7	2	7	5	7	4	
4	7	0	6	9	0	0	0	1	0	2	0	3	0	4	
4	1	5	12	10	10	0	10	1	10	5	10	3	10	4	
6	13	6	0	5	1	2	13	0	13	1	13	2	13	5	13	4	
5	4	1	5	12	10	5	0	5	1	5	2	5	3	5	4	
3	7	0	6	0	0	0	1	0	2	0	1	0	0	
5	1	5	0	6	9	0	0	0	1	0	2	0	1	0	0	
3	2	7	0	0	0	0	1	0	5	0	3	0	4	
2	3	5	3	0	3	1	3	2	3	1	3	0	
3	5	12	10	5	0	5	1	5	2	5	3	5	4	
3	6	0	5	0	0	0	1	0	5	0	3	0	4	
2	1	4	4	0	4	1	4	2	4	5	4	4	
2	3	5	3	0	3	1	3	5	3	3	3	4	
6	13	6	0	7	8	11	0	0	0	1	0	2	0	3	0	4	
2	7	0	0	0	0	1	0	5	0	3	0	4	
3	0	7	14	0	0	0	1	0	2	0	1	0	0	
3	9	6	0	0	0	0	1	0	5	0	3	0	4	
5	9	6	0	7	14	0	0	0	1	0	2	0	3	0	4	
3	8	7	2	7	0	7	1	7	2	7	1	7	0	
4	12	5	1	2	5	0	5	1	5	2	5	3	5	4	
5	11	8	7	0	6	0	0	0	1	0	5	0	3	0	4	
4	3	5	1	4	5	0	5	1	5	2	5	3	5	4	
3	4	1	5	5	0	5	1	5	2	5	3	5	4	
6	4	1	5	0	6	9	0	0	0	1	0	5	0	3	0	4	
2	7	14	14	0	14	1	14	2	14	3	14	4	
5	2	1	5	12	10	10	0	10	1	10	2	10	3	10	4	
3	5	0	7	0	0	0	1	0	5	0	3	0	4	
3	2	7	8	7	0	7	1	7	2	7	1	7	0	
4	14	7	2	1	14	0	14	1	14	2	14	1	14	0	
7	11	8	7	0	5	12	10	0	0	0	1	0	5	0	3	0	4	
3	9	6	13	9	0	9	1	9	5	13	3	13	4	
3	6	0	5	0	0	0	1	0	2	0	1	0	0	
6	3	5	1	2	7	14	3	0	14	1	14	2	14	1	14	0	
4	2	7	0	6	0	0	0	1	0	2	0	5	0	4	
2	8	11	8	0	8	1	8	5	8	3	8	4	
2	8	14	14	0	14	1	14	2	14	3	14	4	
5	9	6	0	7	8	0	0	0	1	0	2	0	1	0	0	
4	0	5	1	4	4	0	4	1	4	2	4	3	4	4	
5	7	2	1	5	12	5	0	5	1	5	5	12	3	12	4	
4	11	8	7	0	0	0	0	1	0	2	0	5	0	4	
5	11	8	7	0	5	0	0	0	1	0	2	0	3	0	4	
3	12	5	3	3	0	3	1	3	2	3	3	3	4	
4	4	1	2	7	4	0	4	1	4	2	4	1	4	0	
4	6	0	7	8	0	0	0	1	0	2	0	1	0	0	
5	13	6	0	5	12	0	0	0	1	0	2	0	3	0	4	
6	12	5	1	2	7	8	8	0	8	1	8	2	8	1	8	0	
3	2	1	5	5	0	5	1	5	2	5	1	5	0	
5	12	5	0	6	13	0	0	0	1	0	2	0	3	0	4	
4	10	12	5	1	10	0	10	1	10	5	10	3	10	4	
6	12	5	1	2	7	8	1	0	1	1	1	2	7	5	7	4	
2	0	7	0	0	0	1	0	5	0	3	0	4	
4	8	7	2	1	7	0	7	1	7	5	7	3	7	4	
3	5	1	4	4	0	4	1	4	2	4	3	4	4	
5	5	1	2	7	14	14	0	14	1	14	5	14	3	14	4	
5	1	5	0	6	9	0	0	0	1	0	2	0	3	0	4	
4	12	5	0	6	0	0	0	1	0	5	0	3	0	4	
6	9	6	0	5	1	4	0	0	0	1	0	5	0	3	0	4	
5	13	6	0	7	8	0	0	0	1	0	5	0	3	0	4	
3	12	5	3	3	0	3	1	3	2	3	5	3	4	
5	10	12	5	1	2	10	0	10	1	10	2	10	1	10	0	
3	13	6	9	13	0	13	1	13	2	9	3	9	4	
3	5	12	10	5	0	5	1	5	2	5	1	5	0	
6	10	12	5	0	6	9	0	0	0	1	0	2	0	5	0	4	
2	14	7	14	0	14	1	14	2	14	1	14	0	
3	3	5	1	3	0	3	1	3	2	3	3	3	4	
4	1	5	0	6	0	0	0	1	0	2	0	3	0	4	
7	10	12	5	0	7	8	11	0	0	0	1	0	2	0	5	0	4	
2	9	6	9	0	9	1	9	2	9	1	9	0	
5	13	6	0	5	1	0	0	0	1	0	2	0	1	0	0	
3	2	1	4	4	0	4	1	4	2	4	3	4	4	
6	9	6	0	5	1	2	9	0	9	1	9	2	9	1	9	0	
5	9	6	0	5	12	0	0	0	1	0	2	0	1	0	0	
5	13	6	0	5	12	0	0	0	1	0	2	0	1	0	0	
5	13	6	0	5	3	0	0	0	1	0	5	0	3	0	4	
7	11	8	7	0	5	12	10	0	0	0	1	0	2	0	5	0	4	
7	10	12	5	0	7	8	11	0	0	0	1	0	5	0	3	0	4	
4	6	0	5	12	0	0	0	1	0	2	0	3	0	4	
5	14	7	0	6	9	0	0	0	1	0	2	0	3	0	4	
3	1	5	0	0	0	0	1	0	2	0	1	0	0	
4	0	5	12	10	0	0	0	1	0	5	0	3	0	4	
4	4	2	7	8	7	0	7	1	7	2	7	5	7	4	
5	10	12	5	1	4	10	0	4	1	4	5	4	3	4	4	
5	4	1	2	7	14	4	0	14	1	14	2	14	5	14	4	
5	6	0	5	1	4	4	0	4	1	4	2	4	5	4	4	
6	8	7	2	1	5	3	3	0	3	1	3	2	3	5	3	4	
2	5	3	3	0	3	1	3	2	3	3	3	4	
3	5	1	2	5	0	5	1	5	5	5	3	5	4	
5	10	12	5	1	2	10	0	10	1	10	5	10	3	10	4	
5	5	1	2	7	14	14	0	14	1	14	2	14	5	14	4	
2	14	8	14	0	14	1	14	5	14	3	14	4	
4	5	0	6	9	0	0	0	1	0	2	0	5	0	4	
3	7	8	11	7	0	7	1	7	2	7	3	7	4	
2	8	14	14	0	14	1	14	2	14	1	14	0	
6	12	5	1	2	7	14	14	0	14	1	14	2	14	1	14	0	
5	1	2	7	8	11	7	0	7	1	7	2	7	1	7	0	
3	7	0	6	0	0	0	1	0	5	0	3	0	4	
6	11	8	7	0	5	3	0	0	0	1	0	2	0	1	0	0	
3	2	7	14	14	0	14	1	14	5	14	3	14	4	
6	14	7	2	1	5	12	14	0	14	1	14	2	14	5	14	4	
6	11	8	7	0	5	12	0	0	0	1	0	2	0	1	0	0	
4	0	5	1	4	4	0	4	1	4	5	4	3	4	4	
3	8	7	0	0	0	0	1	0	2	0	3	0	4	
5	1	5	0	6	13	0	0	0	1	0	5	0	3	0	4	
6	4	1	5	0	6	13	0	0	0	1	0	2	0	3	0	4	
2	14	8	14	0	14	1	14	2	14	1	14	0	
3	11	8	14	8	0	8	1	8	2	8	5	8	4	
5	5	0	7	8	11	0	0	0	1	0	2	0	3	0	4	
3	2	7	14	14	0	14	1	14	2	14	1	14	0	
3	8	7	0	0	0	0	1	0	2	0	1	0	0	
5	11	8	7	2	4	7	0	7	1	7	5	7	3	7	4	
5	6	0	5	12	10	0	0	0	1	0	2	0	5	0	4	
4	1	5	0	6	0	0	0	1	0	2	0	5	0	4	
4	7	2	1	4	4	0	4	1	4	2	4	5	4	4	
2	11	8	8	0	8	1	8	2	8	3	8	4	
4	14	7	2	1	14	0	14	1	14	5	14	3	14	4	
5	13	6	0	7	8	0	0	0	1	0	2	0	5	0	4	
5	9	6	0	7	8	0	0	0	1	0	2	0	3	0	4	
3	6	0	7	0	0	0	1	0	2	0	1	0	0	
3	0	7	14	0	0	0	1	0	2	0	5	0	4	
3	2	1	4	4	0	4	1	4	2	4	5	4	4	
4	3	5	0	6	0	0	0	1	0	2	0	3	0	4	
5	9	6	0	5	1	0	0	0	1	0	2	0	1	0	0	
5	7	2	1	5	3	3	0	3	1	3	2	3	3	3	4	
5	9	6	0	5	12	0	0	0	1	0	5	0	3	0	4	
2	14	7	14	0	14	1	14	2	14	3	14	4	
7	10	12	5	1	2	7	8	10	0	10	1	10	2	10	1	10	0	
3	11	8	7	11	0	11	1	11	2	11	3	11	4	
5	13	6	0	5	12	0	0	0	1	0	2	0	5	0	4	
4	10	12	5	0	0	0	0	1	0	2	0	5	0	4	
4	7	0	6	9	0	0	0	1	0	2	0	1	0	0	
3	4	1	5	5	0	5	1	5	2	5	1	5	0	
4	13	6	0	7	0	0	0	1	0	2	0	3	0	4	
3	6	0	7	0	0	0	1	0	2	0	5	0	4	
2	2	7	7	0	7	1	7	2	7	1	7	0	
2	0	6	0	0	0	1	0	2	0	3	0	4	
3	7	8	11	11	0	11	1	11	5	11	3	11	4	
4	10	12	5	3	10	0	3	1	3	5	3	3	3	4	
3	1	5	12	5	0	5	1	5	2	5	3	5	4	
4	1	2	7	8	7	0	7	1	7	5	7	3	7	4	
3	0	6	9	0	0	0	1	0	5	0	3	0	4	
4	11	8	7	2	7	0	7	1	7	2	7	5	7	4	
6	8	7	2	1	5	3	3	0	3	1	3	5	3	3	3	4	
5	6	0	5	12	10	0	0	0	1	0	5	0	3	0	4	
3	13	6	0	0	0	0	1	0	2	0	3	0	4	
6	13	6	0	5	12	10	0	0	0	1	0	2	0	1	0	0	
2	0	6	0	0	0	1	0	2	0	1	0	0	
4	2	7	8	11	7	0	7	1	7	2	7	5	7	4	
5	8	7	0	6	9	0	0	0	1	0	2	0	1	0	0	
5	14	7	0	6	13	0	0	0	1	0	2	0	1	0	0	
6	8	7	2	1	5	3	3	0	3	1	3	2	3	1	3	0	
5	14	7	2	1	5	14	0	14	1	14	2	14	1	14	0	
2	5	0	0	0	0	1	0	2	0	5	0	4	
3	14	7	2	14	0	14	1	14	2	14	3	14	4	
3	7	2	1	7	0	7	1	7	5	7	3	7	4	
6	2	1	5	0	6	9	9	0	9	1	9	2	9	5	9	4	
4	12	5	1	4	5	0	5	1	5	2	5	3	5	4	
4	6	0	5	1	0	0	0	1	0	2	0	3	0	4	
2	7	14	14	0	14	1	14	2	14	1	14	0	
6	4	1	5	0	6	13	0	0	0	1	0	5	0	3	0	4	
6	4	1	5	0	6	13	0	0	0	1	0	2	0	5	0	4	
4	3	5	0	6	0	0	0	1	0	2	0	1	0	0	
6	9	6	0	5	1	4	0	0	0	1	0	2	0	1	0	0	
6	3	5	1	2	7	14	3	0	14	1	14	2	14	5	14	4	
7	10	12	5	1	2	7	8	10	0	10	1	10	2	10	3	10	4	
6	11	8	7	0	6	9	0	0	0	1	0	5	0	3	0	4	
6	9	6	0	7	8	11	0	0	0	1	0	2	0	1	0	0	
5	3	5	0	6	9	0	0	0	1	0	2	0	1	0	0	
2	2	7	7	0	7	1	7	5	7	3	7	4	
5	7	2	1	5	3	3	0	3	1	3	2	3	5	3	4	
3	7	8	11	11	0	11	1	11	2	11	1	11	0	
6	10	12	5	0	6	13	0	0	0	1	0	2	0	3	0	4	
6	9	6	0	5	1	2	9	0	9	1	9	2	9	5	9	4	
4	6	0	7	14	0	0	0	1	0	5	0	3	0	4	
4	6	0	7	14	0	0	0	1	0	2	0	5	0	4	
6	2	1	5	0	6	9	9	0	9	1	9	2	9	3	9	4	
3	12	5	1	5	0	5	1	5	2	5	3	5	4	
2	8	7	7	0	7	1	7	2	7	1	7	0	
5	6	0	7	8	11	0	0	0	1	0	2	0	3	0	4	
2	5	0	0	0	0	1	0	5	0	3	0	4	
4	0	7	8	11	0	0	0	1	0	5	0	3	0	4	
3	11	8	7	7	0	7	1	7	2	7	5	7	4	
4	13	6	0	5	0	0	0	1	0	2	0	5	0	4	
2	0	7	0	0	0	1	0	2	0	3	0	4	
5	14	7	0	6	9	0	0	0	1	0	2	0	1	0	0	
2	10	12	12	0	12	1	12	2	12	1	12	0	
4	13	6	0	5	0	0	0	1	0	5	0	3	0	4	
5	9	6	0	7	14	0	0	0	1	0	2	0	5	0	4	
4	11	8	7	2	11	0	11	1	11	2	11	3	11	4	
6	10	12	5	0	6	13	0	0	0	1	0	5	0	3	0	4	
3	2	1	4	4	0	4	1	4	2	4	1	4	0	
4	12	5	1	4	5	0	5	1	5	2	5	5	5	4	
6	3	5	1	2	7	14	3	0	14	1	14	5	14	3	14	4	
4	6	0	7	14	0	0	0	1	0	2	0	1	0	0	
2	0	6	0	0	0	1	0	5	0	3	0	4	
5	9	6	0	5	1	0	0	0	1	0	2	0	3	0	4	
2	0	5	0	0	0	1	0	2	0	1	0	0	
4	1	5	12	10	5	0	5	1	5	2	5	1	5	0	
6	11	8	7	0	6	9	0	0	0	1	0	2	0	1	0	0	
2	6	9	9	0	9	1	9	2	9	5	9	4	
2	5	0	0	0	0	1	0	2	0	1	0	0	
4	1	2	7	8	7	0	7	1	7	2	7	3	7	4	
4	0	5	1	2	5	0	5	1	1	5	1	3	1	4	
3	11	8	7	11	0	11	1	11	2	11	1	11	0	
4	7	2	1	4	4	0	4	1	4	5	4	3	4	4	
3	14	8	11	8	0	8	1	8	2	8	5	8	4	
6	12	5	0	7	8	11	0	0	0	1	0	2	0	5	0	4	
2	8	7	7	0	7	1	7	2	7	5	7	4	
4	10	12	5	1	10	0	10	1	10	2	10	1	10	0	
5	13	6	0	5	3	13	0	13	1	13	2	13	3	3	4	
4	9	6	0	7	0	0	0	1	0	5	0	3	0	4	
5	4	1	5	0	6	0	0	0	1	0	5	0	3	0	4	
3	0	5	3	0	0	0	1	0	2	0	5	0	4	
3	1	5	12	5	0	5	1	5	5	5	3	5	4	
3	3	5	0	0	0	0	1	0	2	0	3	0	4	
4	4	1	5	12	5	0	5	1	5	2	5	3	5	4	
5	6	0	5	1	2	6	0	6	1	6	2	6	3	1	4	
4	7	2	1	5	7	0	7	1	7	2	7	3	5	4	
5	13	6	0	7	14	0	0	0	1	0	5	0	3	0	4	
2	13	6	13	0	13	1	13	2	13	5	13	4	
3	12	5	0	0	0	0	1	0	2	0	5	0	4	
5	14	7	0	6	13	0	0	0	1	0	5	0	3	0	4	
4	6	0	5	1	0	0	0	1	0	2	0	1	0	0	
3	0	7	8	0	0	0	1	0	2	0	5	0	4	
4	6	0	5	1	0	0	0	1	0	5	0	3	0	4	
3	1	5	0	0	0	0	1	0	2	0	5	0	4	
2	1	5	5	0	5	1	5	2	5	3	5	4	
5	3	5	0	6	9	0	0	0	1	0	5	0	3	0	4	
3	9	6	0	0	0	0	1	0	2	0	3	0	4	
6	13	6	0	5	1	2	13	0	13	1	13	2	13	1	13	0	
3	5	0	6	0	0	0	1	0	2	0	1	0	0	
3	0	6	13	0	0	0	1	0	2	0	5	0	4	
2	11	8	8	0	8	1	8	2	8	1	8	0	
5	14	7	2	1	4	14	0	14	1	14	5	14	3	4	4	
4	12	5	0	6	0	0	0	1	0	2	0	3	0	4	
6	14	7	2	1	5	12	14	0	14	1	14	5	14	3	14	4	
2	4	1	1	0	1	1	1	2	1	3	1	4	
5	8	7	0	6	9	0	0	0	1	0	2	0	5	0	4	
2	5	3	3	0	3	1	3	5	3	3	3	4	
4	1	5	0	6	0	0	0	1	0	5	0	3	0	4	
2	1	5	5	0	5	1	5	2	5	1	5	0	
3	14	7	0	0	0	0	1	0	2	0	1	0	0	
4	8	7	0	5	0	0	0	1	0	5	0	3	0	4	
2	5	0	0	0	0	1	0	2	0	3	0	4	
4	0	7	8	11	0	0	0	1	0	2	0	3	0	4	
3	3	5	1	3	0	3	1	3	2	3	5	3	4	
4	12	5	1	2	5	0	5	1	5	5	5	3	5	4	
6	7	2	1	5	12	10	10	0	10	1	10	5	10	3	10	4	
5	1	5	0	6	13	0	0	0	1	0	2	0	3	0	4	
4	12	5	0	7	0	0	0	1	0	2	0	5	0	4	
4	3	5	1	2	3	0	3	1	3	5	3	3	3	4	
4	4	1	5	3	5	0	5	1	5	2	5	5	5	4	
2	7	8	7	0	7	1	7	2	7	3	7	4	
3	3	5	0	0	0	0	1	0	2	0	1	0	0	
3	0	6	9	0	0	0	1	0	2	0	3	0	4	
5	11	8	7	2	1	7	0	7	1	7	2	7	3	7	4	
5	6	0	7	8	11	0	0	0	1	0	5	0	3	0	4	
2	14	8	14	0	14	1	14	2	14	5	14	4	
6	12	5	0	7	8	11	0	0	0	1	0	2	0	3	0	4	
4	10	12	5	3	5	0	5	1	5	2	5	1	5	0	
5	2	1	5	12	10	5	0	5	1	5	2	5	5	5	4	
4	2	1	5	0	1	0	5	1	5	2	5	3	5	4	
6	8	7	2	1	5	3	3	0	3	1	3	2	3	3	3	4	
5	6	0	5	1	4	4	0	4	1	4	5	4	3	4	4	
4	2	1	4	1	4	0	4	1	4	2	4	1	4	0	
2	11	8	11	0	11	1	11	2	11	5	11	4	
5	4	1	2	7	8	4	0	4	1	4	5	4	3	4	4	
5	4	1	2	7	8	4	0	4	1	4	2	4	3	4	4	
5	4	1	5	12	10	5	0	5	1	5	2	5	1	5	0	
5	10	12	5	0	6	0	0	0	1	0	2	0	5	0	4	
3	11	8	7	11	0	11	1	11	5	11	3	11	4	
2	12	10	10	0	10	1	10	2	10	5	10	4	
5	4	1	5	12	10	4	0	10	1	10	5	10	3	10	4	
4	4	1	5	12	5	0	5	1	5	2	5	5	5	4	
5	10	12	5	0	6	0	0	0	1	0	2	0	1	0	0	
6	11	8	7	0	6	9	0	0	0	1	0	2	0	5	0	4	
3	10	12	5	5	0	5	1	5	2	5	5	5	4	
6	14	7	2	1	5	3	14	0	14	1	14	2	14	1	3	0	
2	1	2	1	0	1	1	1	2	1	3	1	4	
2	6	0	0	0	0	1	0	2	0	5	0	4	
5	3	5	0	6	13	0	0	0	1	0	5	0	3	0	4	
3	12	5	1	5	0	5	1	5	2	5	1	5	0	
5	6	0	5	1	4	4	0	4	1	4	2	4	1	4	0	
4	8	7	0	5	0	0	0	1	0	2	0	1	0	0	
4	13	6	0	5	0	0	0	1	0	2	0	1	0	0	
6	9	6	0	5	12	10	0	0	0	1	0	2	0	1	0	0	
2	2	7	7	0	7	1	7	2	7	5	7	4	
6	7	2	1	5	12	10	10	0	10	1	10	2	10	1	10	0	
2	10	12	12	0	12	1	12	2	12	3	12	4	
6	2	1	5	0	6	9	9	0	9	1	9	5	9	3	9	4	
5	6	0	5	12	10	0	0	0	1	0	2	0	3	0	4	
6	11	8	7	0	6	13	0	0	0	1	0	2	0	1	0	0	
4	13	6	0	7	0	0	0	1	0	5	0	3	0	4	
2	7	8	7	0	7	1	7	2	7	1	7	0	
2	7	14	14	0	14	1	14	2	14	5	14	4	
6	9	6	0	5	1	4	0	0	0	1	0	2	0	5	0	4	
5	13	6	0	5	3	0	0	0	1	0	2	0	5	0	4	
5	6	0	7	8	11	0	0	0	1	0	2	0	5	0	4	
3	0	6	9	0	0	0	1	0	2	0	5	0	4	
6	10	12	5	0	6	13	0	0	0	1	0	2	0	1	0	0	
4	6	0	7	8	0	0	0	1	0	2	0	3	0	4	
4	10	12	5	0	0	0	0	1	0	5	0	3	0	4	
4	4	1	5	0	4	0	4	1	4	2	4	1	4	0	
5	11	8	7	2	1	7	0	7	1	7	2	7	1	7	0	
4	7	0	6	13	0	0	0	1	0	2	0	3	0	4	
3	8	7	0	0	0	0	1	0	5	0	3	0	4	
5	9	6	0	5	1	0	0	0	1	0	5	0	3	0	4	
6	12	5	1	2	7	8	12	0	12	1	12	2	12	3	12	4	
3	0	7	8	0	0	0	1	0	5	0	3	0	4	
4	7	0	6	9	0	0	0	1	0	2	0	5	0	4	
5	3	5	1	2	7	3	0	3	1	3	5	3	3	3	4	
4	13	6	0	5	0	0	0	1	0	2	0	3	0	4	
4	12	5	0	7	0	0	0	1	0	2	0	1	0	0	
5	12	5	0	6	9	0	0	0	1	0	5	0	3	0	4	
5	10	12	5	0	6	0	0	0	1	0	2	0	3	0	4	
5	6	0	5	1	2	6	0	6	1	6	2	0	1	0	0	
4	6	0	5	3	0	0	0	1	0	2	0	1	0	0	
5	8	7	2	1	4	4	0	4	1	4	2	4	3	4	4	
4	3	5	1	2	3	0	3	1	3	2	3	3	3	4	
3	1	2	7	7	0	7	1	7	2	7	3	7	4	
6	3	5	0	7	8	11	0	0	0	1	0	2	0	1	0	0	
6	11	8	7	0	5	12	0	0	0	1	0	5	0	3	0	4	
4	9	6	0	5	0	0	0	1	0	2	0	1	0	0	
4	2	1	5	12	5	0	5	1	5	2	5	1	5	0	
5	13	6	0	7	14	0	0	0	1	0	2	0	1	0	0	
2	8	14	14	0	14	1	14	5	14	3	14	4	
2	8	11	8	0	8	1	8	2	8	3	8	4	
5	13	6	0	7	14	0	0	0	1	0	2	0	3	0	4	
5	8	7	2	1	4	4	0	4	1	4	2	4	5	4	4	
6	10	12	5	1	2	7	10	0	10	1	10	2	10	1	10	0	
3	9	6	13	6	0	6	1	6	2	6	3	6	4	
6	11	8	7	0	5	12	0	0	0	1	0	2	0	3	0	4	
6	11	8	7	0	6	13	0	0	0	1	0	5	0	3	0	4	
6	11	8	7	0	6	13	0	0	0	1	0	2	0	5	0	4	
2	1	2	1	0	1	1	1	2	1	5	1	4	
6	4	1	5	0	6	9	0	0	0	1	0	2	0	1	0	0	
4	6	0	5	3	3	0	3	1	3	2	3	5	3	4	
4	3	5	12	10	5	0	5	1	5	2	5	3	5	4	
2	7	0	0	0	0	1	0	2	0	5	0	4	
3	0	5	12	0	0	0	1	0	2	0	5	0	4	
2	5	1	5	0	5	1	5	5	5	3	5	4	
4	0	5	1	2	5	0	5	1	5	2	5	3	5	4	
6	4	1	5	0	6	9	0	0	0	1	0	2	0	5	0	4	
5	14	7	2	1	4	14	0	14	1	14	2	14	3	4	4	
2	1	4	4	0	4	1	4	5	4	3	4	4	
3	1	2	7	7	0	7	1	7	2	7	1	7	0	
6	13	6	0	5	1	2	13	0	13	1	13	2	13	3	13	4	
3	4	1	5	5	0	5	1	5	2	5	5	5	4	
4	2	1	5	0	1	0	0	1	0	2	0	5	0	4	
3	12	5	0	0	0	0	1	0	5	0	3	0	4	
4	1	5	12	10	5	0	5	1	5	2	5	5	5	4	
6	13	6	0	5	12	10	0	0	0	1	0	2	0	5	0	4	
2	12	5	5	0	5	1	5	2	5	5	5	4	
2	13	6	13	0	13	1	13	2	13	1	13	0	
4	0	5	12	10	0	0	0	1	0	2	0	3	0	4	
6	11	8	7	0	5	3	0	0	0	1	0	2	0	3	0	4	
5	11	8	7	2	4	7	0	7	1	7	2	7	3	7	4	
4	1	5	12	10	5	0	5	1	5	2	5	3	5	4	
6	9	6	0	5	1	2	9	0	9	1	9	5	9	3	9	4	
3	7	0	5	0	0	0	1	0	5	0	3	0	4	
4	8	7	2	1	7	0	7	1	7	2	7	3	7	4	
4	2	1	5	3	5	0	5	1	5	2	5	1	5	0	
3	3	5	0	0	0	0	1	0	5	0	3	0	4	
3	3	5	12	3	0	3	1	3	2	3	5	3	4	
3	6	0	7	0	0	0	1	0	2	0	3	0	4	
4	6	0	5	12	0	0	0	1	0	5	0	3	0	4	
2	12	10	12	0	12	1	12	2	12	3	12	4	
6	2	1	5	0	6	13	13	0	13	1	13	2	13	5	13	4	
6	12	5	0	7	8	11	0	0	0	1	0	5	0	3	0	4	
5	5	0	7	8	11	0	0	0	1	0	5	0	3	0	4	
6	9	6	0	7	8	11	0	0	0	1	0	5	0	3	0	4	
3	14	7	2	14	0	14	1	14	5	14	3	14	4	
2	7	8	7	0	7	1	7	5	7	3	7	4	
4	2	1	5	3	3	0	3	1	3	5	3	3	3	4	
7	10	12	5	1	2	7	14	10	0	14	1	14	5	14	3	14	4	
3	0	6	9	0	0	0	1	0	2	0	1	0	0	
6	10	12	5	1	2	7	10	0	10	1	10	2	10	5	10	4	
5	4	2	7	8	11	7	0	7	1	7	2	7	1	7	0	
3	1	2	7	7	0	7	1	7	2	7	5	7	4	
2	1	4	1	0	1	1	1	2	1	3	1	4	
3	12	5	3	3	0	3	1	3	2	3	1	3	0	
3	5	1	4	5	0	5	1	5	2	5	5	5	4	
4	5	0	6	9	0	0	0	1	0	2	0	3	0	4	
5	4	2	7	8	11	7	0	7	1	7	2	7	5	7	4	
3	2	1	5	5	0	5	1	5	2	5	5	5	4	
5	13	6	0	5	1	0	0	0	1	0	2	0	3	0	4	
3	0	5	3	0	0	0	1	0	2	0	3	0	4	
3	3	5	12	3	0	3	1	3	5	3	3	3	4	
4	6	0	5	12	0	0	0	1	0	2	0	1	0	0	
5	3	5	1	2	7	3	0	3	1	3	2	3	3	3	4	
4	6	0	7	2	0	0	0	1	0	2	0	5	0	4	
4	7	0	6	13	0	0	0	1	0	2	0	1	0	0	
5	8	7	0	6	13	0	0	0	1	0	2	0	5	0	4	
7	14	7	2	1	5	12	10	14	0	14	1	10	2	10	5	10	4	
4	1	5	0	6	0	0	0	1	0	2	0	1	0	0	
4	9	6	0	5	0	0	0	1	0	2	0	3	0	4	
2	5	1	5	0	5	1	5	2	5	1	5	0	
6	13	6	0	5	1	4	0	0	0	1	0	2	0	3	0	4	
3	3	5	0	0	0	0	1	0	2	0	5	0	4	
5	1	5	0	6	9	0	0	0	1	0	5	0	3	0	4	
3	13	6	9	6	0	6	1	6	2	6	5	6	4	
3	8	7	2	7	0	7	1	7	5	7	3	7	4	
5	4	1	2	7	14	4	0	14	1	14	2	14	3	14	4	
7	10	12	5	1	2	7	14	10	0	14	1	14	2	14	1	14	0	
5	13	6	0	5	12	0	0	0	1	0	5	0	3	0	4	
2	0	7	0	0	0	1	0	2	0	5	0	4	
6	11	8	7	0	5	3	0	0	0	1	0	2	0	5	0	4	
3	4	1	2	4	0	4	1	4	2	4	5	4	4	
5	9	6	0	5	3	0	0	0	1	0	2	0	1	0	0	
5	12	5	0	6	13	0	0	0	1	0	2	0	1	0	0	
3	13	6	9	13	0	13	1	13	5	9	3	9	4	
4	0	5	12	10	0	0	0	1	0	2	0	1	0	0	
4	2	1	5	0	1	0	0	1	0	2	0	1	0	0	
5	10	12	5	1	4	5	0	5	1	5	2	5	3	5	4	
4	12	5	0	7	0	0	0	1	0	5	0	3	0	4	
5	8	7	0	5	12	0	0	0	1	0	2	0	5	0	4	
3	8	7	2	7	0	7	1	7	2	7	3	7	4	
3	7	0	6	0	0	0	1	0	2	0	5	0	4	
4	12	5	1	2	5	0	5	1	5	2	5	5	5	4	
3	2	1	5	5	0	5	1	5	2	5	3	5	4	
4	1	2	7	14	14	0	14	1	14	5	14	3	14	4	
6	14	7	2	1	5	3	14	0	14	1	14	5	14	3	3	4	
6	14	7	2	1	5	3	14	0	14	1	14	2	14	5	3	4	
3	10	12	5	10	0	10	1	10	2	10	1	10	0	
6	9	6	0	5	12	10	0	0	0	1	0	2	0	5	0	4	
2	5	3	3	0	3	1	3	2	3	5	3	4	
4	3	5	12	10	5	0	5	1	5	2	5	1	5	0	
5	5	1	2	7	14	14	0	14	1	14	2	14	3	14	4	
6	2	1	5	0	6	13	13	0	13	1	13	2	13	1	13	0	
7	8	7	2	1	5	12	10	10	0	10	1	10	2	10	3	10	4	
3	12	5	0	0	0	0	1	0	2	0	1	0	0	
3	7	2	1	7	0	7	1	7	2	7	3	7	4	
6	10	12	5	0	6	9	0	0	0	1	0	5	0	3	0	4	
6	9	6	0	5	12	10	0	0	0	1	0	2	0	3	0	4	
6	11	8	7	0	6	13	0	0	0	1	0	2	0	3	0	4	
4	1	4	1	2	4	0	4	1	4	5	4	3	4	4	
3	2	7	8	7	0	7	1	7	5	7	3	7	4	
4	14	7	0	6	0	0	0	1	0	2	0	5	0	4	
6	3	5	0	7	8	11	0	0	0	1	0	2	0	3	0	4	
4	0	7	8	11	0	0	0	1	0	2	0	5	0	4	
2	14	8	8	0	8	1	8	2	8	3	8	4	
3	6	0	5	0	0	0	1	0	2	0	5	0	4	
3	13	6	0	0	0	0	1	0	5	0	3	0	4	
3	2	7	14	14	0	14	1	14	2	14	3	14	4	
3	5	1	2	5	0	5	1	5	2	5	1	5	0	
7	14	7	2	1	5	12	10	14	0	14	1	10	5	10	3	10	4	
5	8	7	2	1	5	8	0	8	1	8	2	7	5	5	4	
6	9	6	0	5	1	2	9	0	9	1	9	2	9	3	9	4	
5	3	5	0	6	9	0	0	0	1	0	2	0	3	0	4	
5	1	2	7	8	11	7	0	7	1	7	2	7	5	7	4	
6	13	6	0	7	8	11	0	0	0	1	0	2	0	5	0	4	
3	13	6	9	13	0	13	1	13	2	9	1	9	0	
3	8	7	0	0	0	0	1	0	2	0	5	0	4	
4	0	5	1	4	4	0	4	1	4	2	4	1	4	0	
3	0	6	13	0	0	0	1	0	2	0	3	0	4	
5	5	1	2	7	14	14	0	14	1	14	2	14	1	14	0	
