17122.8	16625.8
1744
1339.53	1096.92
15
0	8	35
1	0	35
2	0	35
3	0	35
4	0	35
5	12	35
6	2	35
7	0	35
8	0	35
9	10	35
10	0	35
11	0	35
12	0	35
13	0	35
14	0	35
44
0	5	215718.000000	384579.000000	1.000000
0	6	177474.000000	384579.000000	1.000000
0	7	0.000000	384579.000000	0.000000
1	2	0.000000	384579.000000	0.000000
1	4	19722.000000	384579.000000	1.000000
1	5	206700.000000	384579.000000	1.000000
2	1	0.000000	384579.000000	0.000000
2	4	0.000000	384579.000000	0.000000
2	7	42576.000000	384579.000000	1.000000
3	4	0.000000	384579.000000	0.000000
3	5	49974.000000	384579.000000	1.000000
4	1	21534.000000	384579.000000	1.000000
4	2	0.000000	384579.000000	0.000000
4	3	0.000000	384579.000000	0.000000
5	0	200352.000000	384579.000000	1.000000
5	1	227460.000000	384579.000000	1.000000
5	3	51834.000000	384579.000000	1.000000
5	12	0.000000	384579.000000	-0.000000
6	0	210384.000000	384579.000000	1.000000
6	9	159138.000000	384579.000000	1.000000
6	13	66690.000000	384579.000000	1.000000
7	0	0.000000	384579.000000	0.000000
7	2	42156.000000	384579.000000	1.000000
7	8	127512.000000	384579.000000	1.000000
7	14	39204.000000	384579.000000	1.000000
8	7	112164.000000	384579.000000	1.000000
8	9	154494.000000	384579.000000	1.000000
8	11	33492.000000	384579.000000	1.000000
8	14	0.000000	384579.000000	0.000000
9	6	178698.000000	384579.000000	1.000000
9	8	134796.000000	384579.000000	1.000000
9	11	0.000000	384579.000000	0.000000
10	12	23904.000000	384579.000000	1.000000
10	13	0.000000	384579.000000	0.000000
11	8	37152.000000	384579.000000	1.000000
11	9	0.000000	384579.000000	0.000000
12	5	0.000000	384579.000000	-0.000000
12	10	22926.000000	384579.000000	1.000000
12	13	52272.000000	384579.000000	1.000000
13	6	78186.000000	384579.000000	1.000000
13	10	0.000000	384579.000000	0.000000
13	12	46284.000000	384579.000000	1.000000
14	7	46872.000000	384579.000000	1.000000
14	8	0.000000	384579.000000	0.000000
840
7	1	5	0	6	9	8	11	6	0	6	1	6	2	6	3	6	4	
5	1	5	0	6	9	6	0	6	1	6	2	6	5	6	4	
6	7	8	9	6	13	12	6	0	6	1	6	2	6	3	6	4	
2	3	5	5	0	5	1	5	2	5	5	5	4	
7	7	8	9	6	0	5	3	9	0	9	1	9	5	9	3	9	4	
7	11	8	9	6	0	5	3	9	0	9	1	9	5	9	3	9	4	
5	3	5	0	6	13	6	0	6	1	6	2	6	5	6	4	
2	6	13	6	0	6	1	6	5	6	3	6	4	
7	10	12	13	6	9	8	7	6	0	6	1	6	2	6	3	6	4	
4	3	5	0	6	6	0	6	1	6	5	6	3	6	4	
8	4	1	5	0	6	9	8	7	6	0	6	1	6	2	6	5	6	4	
6	1	5	0	6	9	8	6	0	6	1	6	2	6	1	6	0	
7	14	7	8	9	6	13	12	6	0	6	1	6	2	6	1	6	0	
8	7	8	9	6	0	5	1	4	6	0	6	1	6	2	6	3	6	4	
7	2	7	8	9	6	13	12	6	0	6	1	6	2	6	5	6	4	
6	0	6	9	8	7	2	6	0	6	1	6	2	6	5	6	4	
5	13	6	0	5	1	6	0	6	1	6	2	6	5	6	4	
7	7	8	9	6	0	5	3	6	0	6	1	6	2	6	1	6	0	
6	5	0	6	13	12	10	0	0	0	1	0	5	0	3	0	4	
5	12	13	6	0	5	6	0	6	1	6	2	6	1	6	0	
7	5	0	6	9	8	7	2	6	0	6	1	6	2	6	5	6	4	
6	8	9	6	0	5	1	6	0	6	1	6	2	6	1	6	0	
2	8	7	8	0	8	1	8	2	8	3	8	4	
5	10	12	13	6	9	6	0	6	1	6	2	6	3	6	4	
2	6	0	0	0	0	1	0	5	0	3	0	4	
6	14	7	8	9	6	0	9	0	9	1	9	5	9	3	9	4	
7	4	1	5	0	6	13	12	6	0	6	1	6	2	6	1	6	0	
7	2	7	8	9	6	0	5	9	0	9	1	9	5	9	3	9	4	
6	7	8	9	6	0	5	6	0	6	1	6	2	6	5	6	4	
6	0	6	9	8	7	14	9	0	9	1	9	5	9	3	9	4	
6	5	0	6	9	8	7	6	0	6	1	6	2	6	1	6	0	
2	8	9	9	0	9	1	9	5	9	3	9	4	
8	4	1	5	0	6	13	12	10	6	0	6	1	6	2	6	5	6	4	
6	5	0	6	13	12	10	6	0	6	1	6	2	6	5	6	4	
6	14	7	8	9	6	0	6	0	6	1	6	2	6	3	6	4	
7	3	5	0	6	9	8	11	9	0	9	1	9	5	9	3	9	4	
2	6	13	6	0	6	1	6	2	6	1	6	0	
6	8	9	6	13	12	10	6	0	6	1	6	2	6	1	6	0	
7	10	12	13	6	0	5	1	6	0	6	1	6	2	6	5	6	4	
2	0	5	0	0	0	1	0	2	0	3	0	4	
8	3	5	0	6	9	8	7	2	6	0	6	1	6	2	6	5	6	4	
6	7	8	9	6	13	12	6	0	6	1	6	2	6	1	6	0	
7	1	5	0	6	9	8	7	9	0	9	1	9	5	9	3	9	4	
8	10	12	13	6	9	8	7	14	6	0	6	1	6	2	6	3	6	4	
7	8	9	6	0	5	1	4	9	0	9	1	9	5	9	3	9	4	
8	2	7	8	9	6	13	12	10	9	0	9	1	9	5	9	3	9	4	
8	2	7	8	9	6	0	5	3	6	0	6	1	6	2	6	5	6	4	
2	4	1	4	0	4	1	4	5	4	3	4	4	
5	9	6	0	5	3	6	0	6	1	6	2	6	3	6	4	
6	7	8	9	6	13	12	6	0	6	1	6	2	6	5	6	4	
3	0	5	3	3	0	3	1	3	2	3	1	3	0	
5	9	6	0	5	3	6	0	6	1	6	2	6	5	6	4	
2	6	13	6	0	6	1	6	2	6	5	6	4	
4	12	13	6	0	6	0	6	1	6	2	6	3	6	4	
5	11	8	9	6	0	6	0	6	1	6	2	6	3	6	4	
8	10	12	13	6	9	8	7	2	6	0	6	1	6	2	6	3	6	4	
5	13	6	9	8	11	9	0	9	1	9	5	9	3	9	4	
8	7	8	9	6	0	5	1	4	6	0	6	1	6	2	6	1	6	0	
6	12	13	6	0	5	3	0	0	0	1	0	5	0	3	0	4	
6	12	13	6	9	8	7	6	0	6	1	6	2	6	3	6	4	
4	6	0	5	3	6	0	6	1	6	2	6	3	6	4	
4	9	6	0	5	9	0	9	1	9	5	9	3	9	4	
2	11	8	8	0	8	1	8	5	8	3	8	4	
2	12	10	12	0	12	1	12	2	12	1	12	0	
4	4	1	5	0	0	0	0	1	0	2	0	5	0	4	
5	0	6	9	8	11	6	0	6	1	6	2	6	1	6	0	
2	12	10	12	0	12	1	12	5	12	3	12	4	
3	9	6	13	6	0	6	1	6	2	6	5	6	4	
2	2	7	7	0	7	1	7	2	7	3	7	4	
5	14	7	8	9	6	6	0	6	1	6	2	6	1	6	0	
2	8	11	11	0	11	1	11	2	11	5	11	4	
2	5	1	5	0	5	1	5	2	5	5	5	4	
6	10	12	13	6	9	8	6	0	6	1	6	2	6	5	6	4	
7	3	5	0	6	9	8	7	6	0	6	1	6	2	6	1	6	0	
4	6	9	8	7	9	0	9	1	9	5	9	3	9	4	
6	2	7	8	9	6	13	6	0	6	1	6	2	6	3	6	4	
7	12	13	6	9	8	7	2	6	0	6	1	6	2	6	1	6	0	
4	3	5	1	4	5	0	5	1	5	2	5	1	5	0	
3	13	6	0	6	0	6	1	6	2	6	1	6	0	
5	5	0	6	9	8	6	0	6	1	6	2	6	1	6	0	
3	9	8	11	9	0	9	1	9	2	9	5	9	4	
2	9	8	9	0	9	1	9	2	9	5	9	4	
5	3	5	0	6	13	6	0	6	1	6	2	6	1	6	0	
3	1	5	0	0	0	0	1	0	5	0	3	0	4	
3	1	5	3	5	0	5	1	5	2	5	1	5	0	
8	2	7	8	9	6	13	12	10	6	0	6	1	6	2	6	1	6	0	
5	8	9	6	13	12	9	0	9	1	9	5	9	3	9	4	
4	8	9	6	13	6	0	6	1	6	2	6	3	6	4	
6	13	6	0	5	1	4	6	0	6	1	6	2	6	5	6	4	
3	1	5	3	5	0	5	1	5	2	5	3	5	4	
7	10	12	13	6	9	8	11	6	0	6	1	6	2	6	1	6	0	
8	4	1	5	0	6	9	8	7	6	0	6	1	6	2	6	3	6	4	
6	13	6	9	8	7	2	9	0	9	1	9	5	9	3	9	4	
3	9	8	11	9	0	9	1	9	2	9	3	9	4	
7	11	8	9	6	13	12	10	6	0	6	1	6	2	6	3	6	4	
7	4	1	5	0	6	13	12	0	0	0	1	0	5	0	3	0	4	
4	12	13	6	9	6	0	6	1	6	2	6	5	6	4	
7	14	7	8	9	6	0	5	6	0	6	1	6	2	6	5	6	4	
7	12	13	6	9	8	7	14	6	0	6	1	6	2	6	5	6	4	
6	3	5	0	6	13	12	6	0	6	1	6	2	6	3	6	4	
5	0	6	13	12	10	6	0	6	1	6	2	6	5	6	4	
8	14	7	8	9	6	13	12	10	6	0	6	1	6	2	6	3	6	4	
5	5	0	6	9	8	6	0	6	1	6	2	6	5	6	4	
3	8	7	2	8	0	8	1	8	2	8	5	8	4	
4	14	7	8	11	8	0	8	1	8	5	8	3	8	4	
2	14	7	7	0	7	1	7	5	7	3	7	4	
2	6	9	6	0	6	1	6	2	6	3	6	4	
4	14	7	8	9	9	0	9	1	9	5	9	3	9	4	
2	6	0	6	0	6	1	6	2	6	1	6	0	
7	14	7	8	9	6	0	5	9	0	9	1	9	5	9	3	9	4	
6	1	5	0	6	13	12	6	0	6	1	6	2	6	5	6	4	
3	5	0	6	6	0	6	1	6	2	6	3	6	4	
7	3	5	0	6	9	8	7	6	0	6	1	6	2	6	5	6	4	
4	0	6	13	12	6	0	6	1	6	2	6	3	6	4	
7	11	8	9	6	0	5	1	9	0	9	1	9	5	9	3	9	4	
5	9	6	0	5	1	6	0	6	1	6	2	6	5	6	4	
4	5	0	6	13	6	0	6	1	6	2	6	1	6	0	
5	11	8	9	6	0	9	0	9	1	9	5	9	3	9	4	
5	10	12	13	6	0	6	0	6	1	6	2	6	1	6	0	
8	10	12	13	6	9	8	7	14	6	0	6	1	6	2	6	5	6	4	
4	11	8	9	6	6	0	6	1	6	2	6	5	6	4	
7	7	8	9	6	0	5	1	6	0	6	1	6	2	6	1	6	0	
2	8	7	8	0	8	1	8	5	8	3	8	4	
7	3	5	0	6	13	12	10	6	0	6	1	6	2	6	5	6	4	
4	3	5	1	4	5	0	5	1	5	2	5	5	5	4	
2	9	6	9	0	9	1	9	5	9	3	9	4	
5	2	7	8	9	6	6	0	6	1	6	2	6	3	6	4	
5	8	9	6	0	5	6	0	6	1	6	2	6	3	6	4	
4	3	5	1	4	5	0	5	1	5	5	5	3	5	4	
7	14	7	8	9	6	0	5	6	0	6	1	6	2	6	3	6	4	
2	12	13	13	0	13	1	13	5	13	3	13	4	
4	7	8	9	6	6	0	6	1	6	2	6	3	6	4	
3	0	5	1	0	0	0	1	0	5	0	3	0	4	
4	5	0	6	13	0	0	0	1	0	5	0	3	0	4	
4	9	8	7	14	9	0	9	1	9	5	9	3	9	4	
2	10	12	12	0	12	1	12	5	12	3	12	4	
5	13	6	0	5	3	6	0	6	1	6	2	6	1	6	0	
6	4	1	5	0	6	13	6	0	6	1	6	2	6	1	6	0	
5	6	9	8	7	2	9	0	9	1	9	5	9	3	9	4	
9	14	7	8	9	6	0	5	1	4	6	0	6	1	6	2	6	1	6	0	
5	14	7	8	9	6	9	0	9	1	9	5	9	3	9	4	
8	1	5	0	6	9	8	7	2	6	0	6	1	6	2	6	1	6	0	
7	10	12	13	6	0	5	3	6	0	6	1	6	2	6	5	6	4	
4	10	12	13	6	13	0	13	1	13	5	13	3	13	4	
3	1	5	3	5	0	5	1	5	2	5	5	5	4	
3	1	5	0	0	0	0	1	0	2	0	3	0	4	
2	1	5	5	0	5	1	5	5	5	3	5	4	
5	4	1	5	0	6	6	0	6	1	6	2	6	3	6	4	
6	5	0	6	9	8	11	6	0	6	1	6	2	6	5	6	4	
3	8	9	6	9	0	9	1	9	5	9	3	9	4	
3	7	8	9	9	0	9	1	9	5	9	3	9	4	
8	2	7	8	9	6	0	5	1	6	0	6	1	6	2	6	5	6	4	
7	3	5	0	6	13	12	10	0	0	0	1	0	5	0	3	0	4	
4	6	13	12	10	6	0	6	1	6	2	6	1	6	0	
4	4	1	5	3	5	0	5	1	5	5	5	3	5	4	
4	0	5	1	4	4	0	4	1	4	2	4	5	4	4	
6	3	5	0	6	9	8	6	0	6	1	6	2	6	3	6	4	
4	2	7	8	11	8	0	8	1	8	5	8	3	8	4	
4	13	6	9	8	6	0	6	1	6	2	6	3	6	4	
2	9	6	6	0	6	1	6	2	6	5	6	4	
5	10	12	13	6	0	6	0	6	1	6	2	6	3	6	4	
5	7	8	9	6	13	6	0	6	1	6	2	6	5	6	4	
2	6	9	6	0	6	1	6	2	6	1	6	0	
8	14	7	8	9	6	0	5	3	6	0	6	1	6	2	6	3	6	4	
3	3	5	1	5	0	5	1	5	2	5	1	5	0	
6	1	5	0	6	9	8	6	0	6	1	6	2	6	5	6	4	
3	6	13	12	6	0	6	1	6	2	6	5	6	4	
3	3	5	1	5	0	5	1	5	5	5	3	5	4	
7	14	7	8	9	6	13	12	6	0	6	1	6	2	6	3	6	4	
9	4	1	5	0	6	9	8	7	2	6	0	6	1	6	2	6	1	6	0	
6	14	7	8	9	6	0	6	0	6	1	6	2	6	5	6	4	
3	13	12	10	13	0	13	1	13	5	13	3	13	4	
8	2	7	8	9	6	0	5	1	6	0	6	1	6	2	6	3	6	4	
4	0	6	9	8	6	0	6	1	6	2	6	3	6	4	
5	5	0	6	13	12	6	0	6	1	6	2	6	3	6	4	
4	11	8	7	2	8	0	8	1	8	5	8	3	8	4	
5	5	0	6	9	8	9	0	9	1	9	5	9	3	9	4	
6	12	13	6	9	8	11	6	0	6	1	6	2	6	1	6	0	
4	0	6	13	12	6	0	6	1	6	2	6	1	6	0	
8	1	5	0	6	9	8	7	14	6	0	6	1	6	2	6	1	6	0	
5	4	1	5	0	6	6	0	6	1	6	2	6	5	6	4	
6	4	1	5	0	6	9	6	0	6	1	6	2	6	3	6	4	
7	12	13	6	0	5	1	4	6	0	6	1	6	2	6	1	6	0	
4	0	6	9	8	6	0	6	1	6	2	6	1	6	0	
6	8	9	6	13	12	10	6	0	6	1	6	2	6	5	6	4	
2	13	6	6	0	6	1	6	2	6	3	6	4	
4	11	8	7	2	8	0	8	1	8	2	8	1	8	0	
2	7	2	7	0	7	1	7	2	7	1	7	0	
9	2	7	8	9	6	0	5	1	4	9	0	9	1	9	5	9	3	9	4	
5	5	0	6	9	8	6	0	6	1	6	2	6	3	6	4	
7	2	7	8	9	6	13	12	6	0	6	1	6	2	6	3	6	4	
3	8	9	6	6	0	6	1	6	2	6	3	6	4	
3	9	8	7	9	0	9	1	9	2	9	1	9	0	
5	3	5	0	6	9	6	0	6	1	6	2	6	5	6	4	
4	6	0	5	1	6	0	6	1	6	2	6	5	6	4	
4	9	6	13	12	6	0	6	1	6	2	6	5	6	4	
2	7	2	7	0	7	1	7	2	7	5	7	4	
6	3	5	0	6	13	12	6	0	6	1	6	2	6	1	6	0	
4	2	7	8	11	8	0	8	1	8	2	8	1	8	0	
4	8	9	6	13	9	0	9	1	9	5	9	3	9	4	
2	14	7	7	0	7	1	7	2	7	5	7	4	
5	8	9	6	13	12	6	0	6	1	6	2	6	3	6	4	
6	3	5	0	6	9	8	6	0	6	1	6	2	6	1	6	0	
2	9	6	6	0	6	1	6	2	6	3	6	4	
6	5	0	6	9	8	7	6	0	6	1	6	2	6	5	6	4	
3	8	9	6	6	0	6	1	6	2	6	1	6	0	
8	10	12	13	6	9	8	7	2	6	0	6	1	6	2	6	5	6	4	
4	11	8	7	14	8	0	8	1	8	5	8	3	8	4	
3	2	7	8	8	0	8	1	8	2	8	3	8	4	
6	14	7	8	9	6	13	6	0	6	1	6	2	6	3	6	4	
5	3	5	0	6	13	6	0	6	1	6	2	6	3	6	4	
4	4	1	5	0	4	0	4	1	4	5	4	3	4	4	
4	11	8	7	14	8	0	8	1	8	2	8	3	8	4	
6	11	8	9	6	0	5	6	0	6	1	6	2	6	5	6	4	
2	6	9	9	0	9	1	9	5	9	3	9	4	
4	14	7	8	11	8	0	8	1	8	2	8	1	8	0	
8	11	8	9	6	0	5	1	4	6	0	6	1	6	2	6	1	6	0	
3	2	7	14	7	0	7	1	7	2	7	5	7	4	
6	13	6	0	5	1	4	0	0	0	1	0	5	0	3	0	4	
8	14	7	8	9	6	13	12	10	6	0	6	1	6	2	6	1	6	0	
3	9	8	7	9	0	9	1	9	2	9	5	9	4	
7	10	12	13	6	0	5	3	6	0	6	1	6	2	6	3	6	4	
5	12	13	6	0	5	6	0	6	1	6	2	6	3	6	4	
5	1	5	0	6	13	6	0	6	1	6	2	6	5	6	4	
7	11	8	9	6	13	12	10	6	0	6	1	6	2	6	1	6	0	
5	11	8	9	6	0	6	0	6	1	6	2	6	1	6	0	
4	12	13	6	9	6	0	6	1	6	2	6	3	6	4	
2	0	6	6	0	6	1	6	2	6	5	6	4	
3	6	9	8	6	0	6	1	6	2	6	5	6	4	
9	4	1	5	0	6	9	8	7	14	6	0	6	1	6	2	6	1	6	0	
4	4	1	5	3	5	0	5	1	5	2	5	1	5	0	
5	5	0	6	13	12	6	0	6	1	6	2	6	1	6	0	
3	10	12	13	13	0	13	1	13	2	13	5	13	4	
8	2	7	8	9	6	0	5	1	9	0	9	1	9	5	9	3	9	4	
3	0	5	3	0	0	0	1	0	5	0	3	0	4	
7	3	5	0	6	9	8	11	6	0	6	1	6	2	6	5	6	4	
2	1	5	5	0	5	1	5	2	5	5	5	4	
9	14	7	8	9	6	0	5	1	4	6	0	6	1	6	2	6	5	6	4	
7	12	13	6	9	8	7	14	9	0	9	1	9	5	9	3	9	4	
3	6	0	5	6	0	6	1	6	2	6	3	6	4	
5	5	0	6	13	12	0	0	0	1	0	5	0	3	0	4	
4	11	8	9	6	6	0	6	1	6	2	6	1	6	0	
5	7	8	9	6	0	6	0	6	1	6	2	6	3	6	4	
3	0	5	1	0	0	0	1	0	2	0	3	0	4	
3	11	8	9	9	0	9	1	9	2	9	3	9	4	
6	10	12	13	6	9	8	9	0	9	1	9	5	9	3	9	4	
2	3	5	3	0	3	1	3	2	3	3	3	4	
7	4	1	5	0	6	9	8	6	0	6	1	6	2	6	1	6	0	
5	6	9	8	7	14	6	0	6	1	6	2	6	3	6	4	
3	1	5	3	5	0	5	1	5	5	5	3	5	4	
3	5	0	6	6	0	6	1	6	2	6	5	6	4	
4	9	6	13	12	6	0	6	1	6	2	6	3	6	4	
4	0	6	13	12	0	0	0	1	0	5	0	3	0	4	
3	5	0	6	0	0	0	1	0	5	0	3	0	4	
4	2	7	8	9	9	0	9	1	9	2	9	1	9	0	
9	4	1	5	0	6	9	8	7	14	9	0	9	1	9	5	9	3	9	4	
3	9	8	7	9	0	9	1	9	2	9	3	9	4	
7	7	8	9	6	0	5	1	9	0	9	1	9	2	9	5	9	4	
2	5	3	5	0	5	1	5	2	5	1	5	0	
2	9	8	9	0	9	1	9	5	9	3	9	4	
5	5	0	6	13	12	6	0	6	1	6	2	6	5	6	4	
2	0	5	0	0	0	1	0	5	0	3	0	4	
4	4	1	5	0	0	0	0	1	0	2	0	3	0	4	
4	6	9	8	11	6	0	6	1	6	2	6	1	6	0	
5	7	8	9	6	0	6	0	6	1	6	2	6	1	6	0	
5	2	7	8	9	6	6	0	6	1	6	2	6	1	6	0	
4	9	8	7	14	9	0	9	1	9	2	9	1	9	0	
3	6	9	8	9	0	9	1	9	5	9	3	9	4	
6	12	13	6	0	5	1	0	0	0	1	0	5	0	3	0	4	
5	1	5	0	6	13	6	0	6	1	6	2	6	1	6	0	
2	1	4	4	0	4	1	4	2	4	1	4	0	
7	11	8	9	6	0	5	1	6	0	6	1	6	2	6	5	6	4	
7	2	7	8	9	6	13	12	9	0	9	1	9	5	9	3	9	4	
5	13	6	9	8	11	6	0	6	1	6	2	6	1	6	0	
4	3	5	0	6	6	0	6	1	6	2	6	5	6	4	
8	2	7	8	9	6	0	5	3	6	0	6	1	6	2	6	3	6	4	
4	12	13	6	9	6	0	6	1	6	2	6	1	6	0	
7	7	8	9	6	13	12	10	6	0	6	1	6	2	6	5	6	4	
6	5	0	6	9	8	7	6	0	6	1	6	2	6	3	6	4	
4	14	7	8	9	9	0	9	1	9	2	9	5	9	4	
7	1	5	0	6	9	8	11	9	0	9	1	9	5	9	3	9	4	
3	4	1	5	4	0	4	1	4	5	4	3	4	4	
8	4	1	5	0	6	9	8	11	6	0	6	1	6	2	6	3	6	4	
5	0	6	9	8	7	6	0	6	1	6	2	6	1	6	0	
4	5	0	6	13	6	0	6	1	6	2	6	3	6	4	
3	12	13	6	6	0	6	1	6	2	6	1	6	0	
2	7	2	7	0	7	1	7	5	7	3	7	4	
3	13	6	0	6	0	6	1	6	2	6	5	6	4	
3	13	12	10	13	0	13	1	13	2	13	3	13	4	
6	13	6	9	8	7	14	6	0	6	1	6	2	6	5	6	4	
3	0	6	13	6	0	6	1	6	2	6	1	6	0	
3	0	5	1	0	0	0	1	0	2	0	5	0	4	
3	2	7	8	8	0	8	1	8	2	8	5	8	4	
2	6	0	6	0	6	1	6	2	6	3	6	4	
7	12	13	6	0	5	1	4	0	0	0	1	0	5	0	3	0	4	
3	14	7	2	7	0	7	1	7	2	7	1	7	0	
6	11	8	9	6	0	5	9	0	9	1	9	5	9	3	9	4	
4	2	7	8	11	11	0	11	1	11	2	11	3	11	4	
5	2	7	8	9	6	9	0	9	1	9	5	9	3	9	4	
8	11	8	9	6	0	5	1	4	6	0	6	1	6	2	6	5	6	4	
7	8	9	6	0	5	1	4	6	0	6	1	6	2	6	1	6	0	
8	10	12	13	6	0	5	1	4	6	0	6	1	6	2	6	5	6	4	
5	9	6	13	12	10	9	0	9	1	9	5	9	3	9	4	
4	6	0	5	3	0	0	0	1	0	5	0	3	0	4	
6	11	8	9	6	13	12	6	0	6	1	6	2	6	5	6	4	
3	8	9	6	6	0	6	1	6	2	6	5	6	4	
8	1	5	0	6	9	8	7	14	9	0	9	1	9	2	9	5	9	4	
6	8	9	6	13	12	10	9	0	9	1	9	5	9	3	9	4	
6	13	6	0	5	1	4	6	0	6	1	6	2	6	1	6	0	
3	5	1	4	4	0	4	1	4	2	4	1	4	0	
7	10	12	13	6	9	8	7	9	0	9	1	9	5	9	3	9	4	
9	4	1	5	0	6	9	8	7	2	9	0	9	1	9	5	9	3	9	4	
4	13	6	9	8	6	0	6	1	6	2	6	1	6	0	
6	9	6	0	5	1	4	6	0	6	1	6	2	6	3	6	4	
7	5	0	6	9	8	7	2	6	0	6	1	6	2	6	3	6	4	
5	7	8	9	6	13	9	0	9	1	9	5	9	3	9	4	
8	1	5	0	6	9	8	7	14	6	0	6	1	6	2	6	3	6	4	
4	4	1	5	3	5	0	5	1	5	2	5	3	5	4	
2	13	6	13	0	13	1	13	5	13	3	13	4	
8	3	5	0	6	9	8	7	14	6	0	6	1	6	2	6	3	6	4	
6	0	6	9	8	7	2	6	0	6	1	6	2	6	1	6	0	
4	9	6	0	5	9	0	9	1	9	2	9	5	9	4	
7	10	12	13	6	0	5	1	6	0	6	1	6	2	6	3	6	4	
4	11	8	7	14	8	0	8	1	8	2	8	1	8	0	
3	9	6	0	9	0	9	1	9	2	9	5	9	4	
6	7	8	9	6	0	5	6	0	6	1	6	2	6	1	6	0	
3	12	13	6	6	0	6	1	6	2	6	5	6	4	
2	4	1	4	0	4	1	4	2	4	1	4	0	
5	10	12	13	6	9	6	0	6	1	6	2	6	1	6	0	
5	14	7	8	9	6	6	0	6	1	6	2	6	3	6	4	
2	7	8	8	0	8	1	8	2	8	5	8	4	
4	5	0	6	9	9	0	9	1	9	5	9	3	9	4	
2	4	1	4	0	4	1	4	2	4	5	4	4	
2	8	11	11	0	11	1	11	2	11	1	11	0	
2	7	14	7	0	7	1	7	5	7	3	7	4	
6	0	6	9	8	7	14	6	0	6	1	6	2	6	3	6	4	
8	3	5	0	6	9	8	7	2	6	0	6	1	6	2	6	1	6	0	
6	5	0	6	9	8	11	6	0	6	1	6	2	6	1	6	0	
3	9	6	0	6	0	6	1	6	2	6	1	6	0	
4	14	7	8	11	8	0	8	1	8	2	8	3	8	4	
5	12	13	6	9	8	9	0	9	1	9	5	9	3	9	4	
3	8	7	14	8	0	8	1	8	2	8	5	8	4	
2	10	12	10	0	10	1	10	2	10	5	10	4	
5	12	13	6	0	5	0	0	0	1	0	5	0	3	0	4	
8	14	7	8	9	6	0	5	1	6	0	6	1	6	2	6	3	6	4	
8	10	12	13	6	0	5	1	4	6	0	6	1	6	2	6	1	6	0	
3	14	7	2	7	0	7	1	7	2	7	5	7	4	
7	12	13	6	9	8	7	14	6	0	6	1	6	2	6	3	6	4	
4	5	0	6	9	6	0	6	1	6	2	6	1	6	0	
5	13	6	9	8	7	6	0	6	1	6	2	6	5	6	4	
6	3	5	0	6	9	8	6	0	6	1	6	2	6	5	6	4	
2	0	5	0	0	0	1	0	2	0	5	0	4	
3	9	6	13	6	0	6	1	6	2	6	1	6	0	
3	5	1	4	4	0	4	1	4	5	4	3	4	4	
2	8	9	9	0	9	1	9	2	9	3	9	4	
6	10	12	13	6	0	5	0	0	0	1	0	5	0	3	0	4	
6	3	5	0	6	9	8	9	0	9	1	9	5	9	3	9	4	
6	10	12	13	6	0	5	6	0	6	1	6	2	6	3	6	4	
2	7	2	7	0	7	1	7	2	7	3	7	4	
2	6	13	6	0	6	1	6	2	6	3	6	4	
8	4	1	5	0	6	9	8	11	9	0	9	1	9	5	9	3	9	4	
3	0	6	13	0	0	0	1	0	5	0	3	0	4	
5	13	6	0	5	1	0	0	0	1	0	5	0	3	0	4	
4	11	8	9	6	6	0	6	1	6	2	6	3	6	4	
5	13	6	9	8	7	6	0	6	1	6	2	6	1	6	0	
5	8	9	6	13	12	6	0	6	1	6	2	6	1	6	0	
5	6	0	5	1	4	6	0	6	1	6	2	6	3	6	4	
7	10	12	13	6	9	8	11	6	0	6	1	6	2	6	3	6	4	
4	5	0	6	13	0	0	0	1	0	2	0	5	0	4	
3	0	5	1	0	0	0	1	0	2	0	1	0	0	
6	12	13	6	0	5	1	0	0	0	1	0	2	0	5	0	4	
2	12	13	13	0	13	1	13	2	13	5	13	4	
7	7	8	9	6	13	12	10	6	0	6	1	6	2	6	3	6	4	
4	8	9	6	13	6	0	6	1	6	2	6	1	6	0	
5	4	1	5	0	6	6	0	6	1	6	2	6	1	6	0	
9	4	1	5	0	6	9	8	7	2	6	0	6	1	6	2	6	3	6	4	
6	8	9	6	0	5	1	9	0	9	1	9	2	9	5	9	4	
2	5	1	5	0	5	1	5	2	5	3	5	4	
6	1	5	0	6	13	12	6	0	6	1	6	2	6	1	6	0	
8	4	1	5	0	6	9	8	7	9	0	9	1	9	5	9	3	9	4	
6	2	7	8	9	6	13	9	0	9	1	9	5	9	3	9	4	
5	9	6	0	5	3	9	0	9	1	9	5	9	3	9	4	
6	11	8	9	6	0	5	6	0	6	1	6	2	6	1	6	0	
6	14	7	8	9	6	13	9	0	9	1	9	2	9	5	9	4	
8	14	7	8	9	6	0	5	1	9	0	9	1	9	2	9	5	9	4	
3	7	8	11	8	0	8	1	8	2	8	5	8	4	
3	7	8	9	9	0	9	1	9	2	9	3	9	4	
7	1	5	0	6	13	12	10	0	0	0	1	0	5	0	3	0	4	
6	13	6	9	8	7	2	6	0	6	1	6	2	6	5	6	4	
8	4	1	5	0	6	13	12	10	6	0	6	1	6	2	6	3	6	4	
4	7	8	9	6	6	0	6	1	6	2	6	1	6	0	
5	1	5	0	6	9	6	0	6	1	6	2	6	1	6	0	
6	2	7	8	9	6	0	9	0	9	1	9	5	9	3	9	4	
2	3	5	5	0	5	1	5	2	5	1	5	0	
6	5	0	6	13	12	10	6	0	6	1	6	2	6	3	6	4	
3	6	0	5	0	0	0	1	0	5	0	3	0	4	
2	1	4	4	0	4	1	4	2	4	5	4	4	
2	3	5	5	0	5	1	5	5	5	3	5	4	
5	13	6	9	8	11	6	0	6	1	6	2	6	3	6	4	
5	7	8	9	6	0	9	0	9	1	9	5	9	3	9	4	
6	0	6	9	8	7	14	6	0	6	1	6	2	6	1	6	0	
3	9	6	0	9	0	9	1	9	5	9	3	9	4	
4	9	8	7	14	9	0	9	1	9	2	9	3	9	4	
3	8	7	2	8	0	8	1	8	2	8	1	8	0	
7	12	13	6	9	8	7	2	6	0	6	1	6	2	6	3	6	4	
4	11	8	9	6	9	0	9	1	9	5	9	3	9	4	
4	3	5	1	4	5	0	5	1	5	2	5	3	5	4	
3	4	1	5	5	0	5	1	5	2	5	3	5	4	
6	4	1	5	0	6	9	9	0	9	1	9	5	9	3	9	4	
2	7	14	7	0	7	1	7	2	7	3	7	4	
8	2	7	8	9	6	13	12	10	6	0	6	1	6	2	6	3	6	4	
6	5	0	6	9	8	7	9	0	9	1	9	5	9	3	9	4	
3	2	7	8	8	0	8	1	8	2	8	1	8	0	
8	14	7	8	9	6	0	5	1	6	0	6	1	6	2	6	1	6	0	
7	11	8	9	6	13	12	10	9	0	9	1	9	5	9	3	9	4	
3	9	6	13	9	0	9	1	9	5	9	3	9	4	
3	6	0	5	6	0	6	1	6	2	6	1	6	0	
8	3	5	0	6	9	8	7	14	6	0	6	1	6	2	6	1	6	0	
5	2	7	8	9	6	6	0	6	1	6	2	6	5	6	4	
2	8	11	8	0	8	1	8	5	8	3	8	4	
3	8	7	14	8	0	8	1	8	2	8	3	8	4	
2	9	8	9	0	9	1	9	2	9	1	9	0	
4	0	5	1	4	0	0	0	1	0	2	0	3	0	4	
6	7	8	9	6	13	12	9	0	9	1	9	5	9	3	9	4	
5	11	8	9	6	0	9	0	9	1	9	2	9	5	9	4	
6	11	8	9	6	0	5	6	0	6	1	6	2	6	3	6	4	
6	12	13	6	0	5	3	6	0	6	1	6	2	6	3	6	4	
8	4	1	5	0	6	9	8	7	6	0	6	1	6	2	6	1	6	0	
3	6	9	8	6	0	6	1	6	2	6	1	6	0	
2	13	12	13	0	13	1	13	2	13	3	13	4	
5	12	13	6	9	8	6	0	6	1	6	2	6	1	6	0	
7	2	7	8	9	6	0	5	6	0	6	1	6	2	6	1	6	0	
2	12	13	13	0	13	1	13	2	13	3	13	4	
7	10	12	13	6	0	5	1	0	0	0	1	0	5	0	3	0	4	
5	12	13	6	9	8	9	0	9	1	9	2	9	5	9	4	
5	0	6	9	8	7	9	0	9	1	9	5	9	3	9	4	
6	8	9	6	0	5	1	9	0	9	1	9	5	9	3	9	4	
3	5	1	4	5	0	5	1	5	2	5	3	5	4	
7	5	0	6	9	8	7	14	9	0	9	1	9	5	9	3	9	4	
5	1	5	0	6	9	6	0	6	1	6	2	6	3	6	4	
3	12	13	6	13	0	13	1	13	5	13	3	13	4	
6	9	6	0	5	1	4	9	0	9	1	9	5	9	3	9	4	
4	13	6	9	8	9	0	9	1	9	5	9	3	9	4	
6	12	13	6	0	5	3	0	0	0	1	0	2	0	5	0	4	
8	10	12	13	6	9	8	7	2	6	0	6	1	6	2	6	1	6	0	
3	13	6	9	6	0	6	1	6	2	6	3	6	4	
6	5	0	6	13	12	10	6	0	6	1	6	2	6	1	6	0	
5	10	12	13	6	9	9	0	9	1	9	2	9	5	9	4	
2	14	7	7	0	7	1	7	2	7	1	7	0	
3	3	5	1	5	0	5	1	5	2	5	3	5	4	
4	1	5	0	6	6	0	6	1	6	2	6	3	6	4	
7	10	12	13	6	9	8	11	9	0	9	1	9	2	9	5	9	4	
2	9	6	6	0	6	1	6	2	6	1	6	0	
5	13	6	0	5	1	6	0	6	1	6	2	6	1	6	0	
9	2	7	8	9	6	0	5	1	4	6	0	6	1	6	2	6	3	6	4	
4	9	8	7	2	9	0	9	1	9	2	9	1	9	0	
4	9	6	13	12	6	0	6	1	6	2	6	1	6	0	
2	13	12	13	0	13	1	13	2	13	1	13	0	
5	13	6	0	5	3	0	0	0	1	0	5	0	3	0	4	
7	11	8	9	6	13	12	10	9	0	9	1	9	2	9	5	9	4	
7	10	12	13	6	9	8	11	9	0	9	1	9	5	9	3	9	4	
3	6	13	12	6	0	6	1	6	2	6	3	6	4	
4	14	7	8	9	9	0	9	1	9	2	9	3	9	4	
3	1	5	0	0	0	0	1	0	2	0	1	0	0	
5	0	6	13	12	10	0	0	0	1	0	5	0	3	0	4	
7	4	1	5	0	6	9	8	9	0	9	1	9	2	9	5	9	4	
8	10	12	13	6	0	5	1	4	0	0	0	1	0	5	0	3	0	4	
9	4	1	5	0	6	9	8	7	14	9	0	9	1	9	2	9	5	9	4	
5	6	0	5	1	4	0	0	0	1	0	2	0	5	0	4	
6	8	9	6	0	5	3	9	0	9	1	9	2	9	5	9	4	
2	5	3	3	0	3	1	3	2	3	3	3	4	
7	5	0	6	9	8	7	2	9	0	9	1	9	5	9	3	9	4	
8	10	12	13	6	9	8	7	2	9	0	9	1	9	5	9	3	9	4	
7	5	0	6	9	8	7	14	9	0	9	1	9	2	9	5	9	4	
3	14	7	8	8	0	8	1	8	5	8	3	8	4	
4	5	0	6	9	9	0	9	1	9	2	9	5	9	4	
3	7	8	11	11	0	11	1	11	2	11	3	11	4	
3	8	7	14	8	0	8	1	8	2	8	1	8	0	
7	12	13	6	9	8	7	14	6	0	6	1	6	2	6	1	6	0	
7	1	5	0	6	9	8	11	6	0	6	1	6	2	6	1	6	0	
4	7	8	9	6	9	0	9	1	9	5	9	3	9	4	
7	11	8	9	6	0	5	3	6	0	6	1	6	2	6	1	6	0	
3	2	7	14	7	0	7	1	7	5	7	3	7	4	
7	14	7	8	9	6	13	12	9	0	9	1	9	2	9	5	9	4	
6	11	8	9	6	13	12	6	0	6	1	6	2	6	1	6	0	
4	0	5	1	4	4	0	4	1	4	5	4	3	4	4	
4	8	9	6	0	6	0	6	1	6	2	6	3	6	4	
5	1	5	0	6	13	0	0	0	1	0	5	0	3	0	4	
6	4	1	5	0	6	13	6	0	6	1	6	2	6	3	6	4	
3	14	7	8	8	0	8	1	8	2	8	1	8	0	
4	11	8	7	14	8	0	8	1	8	2	8	5	8	4	
6	5	0	6	9	8	11	6	0	6	1	6	2	6	3	6	4	
3	2	7	14	7	0	7	1	7	2	7	1	7	0	
4	8	9	6	0	6	0	6	1	6	2	6	1	6	0	
8	11	8	9	6	0	5	1	4	9	0	9	1	9	5	9	3	9	4	
4	6	13	12	10	13	0	13	1	13	2	13	5	13	4	
4	1	5	0	6	0	0	0	1	0	2	0	5	0	4	
8	7	8	9	6	0	5	1	4	9	0	9	1	9	2	9	5	9	4	
2	11	8	11	0	11	1	11	2	11	3	11	4	
8	14	7	8	9	6	0	5	1	9	0	9	1	9	5	9	3	9	4	
4	13	6	9	8	9	0	9	1	9	2	9	5	9	4	
2	9	8	9	0	9	1	9	2	9	3	9	4	
4	6	9	8	7	6	0	6	1	6	2	6	1	6	0	
6	0	6	9	8	7	14	9	0	9	1	9	2	9	5	9	4	
9	2	7	8	9	6	0	5	1	4	9	0	9	1	9	2	9	5	9	4	
4	3	5	0	6	6	0	6	1	6	2	6	3	6	4	
5	9	6	0	5	1	6	0	6	1	6	2	6	1	6	0	
7	7	8	9	6	0	5	3	6	0	6	1	6	2	6	3	6	4	
4	9	6	13	12	9	0	9	1	9	5	9	3	9	4	
2	14	7	7	0	7	1	7	2	7	3	7	4	
6	10	12	13	6	9	8	6	0	6	1	6	2	6	1	6	0	
3	11	8	7	8	0	8	1	8	2	8	3	8	4	
2	13	12	13	0	13	1	13	2	13	5	13	4	
5	10	12	13	6	0	0	0	0	1	0	2	0	5	0	4	
3	7	8	9	9	0	9	1	9	2	9	1	9	0	
3	4	1	5	4	0	4	1	4	2	4	1	4	0	
5	13	6	9	8	7	6	0	6	1	6	2	6	3	6	4	
4	6	9	8	7	9	0	9	1	9	2	9	5	9	4	
2	2	7	7	0	7	1	7	2	7	1	7	0	
2	0	6	6	0	6	1	6	2	6	3	6	4	
3	7	8	11	8	0	8	1	8	5	8	3	8	4	
7	10	12	13	6	0	5	3	0	0	0	1	0	5	0	3	0	4	
6	1	5	0	6	13	12	6	0	6	1	6	2	6	3	6	4	
6	1	5	0	6	9	8	9	0	9	1	9	5	9	3	9	4	
3	0	6	9	9	0	9	1	9	5	9	3	9	4	
4	11	8	7	2	11	0	11	1	11	2	11	5	11	4	
6	8	9	6	0	5	3	9	0	9	1	9	5	9	3	9	4	
4	6	13	12	10	13	0	13	1	13	5	13	3	13	4	
3	13	6	0	6	0	6	1	6	2	6	3	6	4	
3	13	12	10	13	0	13	1	13	2	13	1	13	0	
2	0	6	6	0	6	1	6	2	6	1	6	0	
4	2	7	8	11	8	0	8	1	8	2	8	5	8	4	
2	8	9	9	0	9	1	9	2	9	1	9	0	
6	14	7	8	9	6	13	6	0	6	1	6	2	6	1	6	0	
6	8	9	6	0	5	3	6	0	6	1	6	2	6	1	6	0	
7	14	7	8	9	6	0	5	6	0	6	1	6	2	6	1	6	0	
2	5	0	0	0	0	1	0	2	0	5	0	4	
3	14	7	2	7	0	7	1	7	2	7	3	7	4	
7	7	8	9	6	0	5	1	9	0	9	1	9	5	9	3	9	4	
4	2	7	8	9	9	0	9	1	9	2	9	5	9	4	
7	12	13	6	0	5	1	4	6	0	6	1	6	2	6	3	6	4	
4	6	0	5	1	6	0	6	1	6	2	6	3	6	4	
2	7	14	7	0	7	1	7	2	7	1	7	0	
6	4	1	5	0	6	13	0	0	0	1	0	5	0	3	0	4	
6	4	1	5	0	6	13	0	0	0	1	0	2	0	5	0	4	
4	3	5	0	6	6	0	6	1	6	2	6	1	6	0	
6	9	6	0	5	1	4	6	0	6	1	6	2	6	1	6	0	
8	3	5	0	6	9	8	7	14	9	0	9	1	9	2	9	5	9	4	
6	10	12	13	6	9	8	6	0	6	1	6	2	6	3	6	4	
3	11	8	9	9	0	9	1	9	5	9	3	9	4	
3	9	8	11	9	0	9	1	9	2	9	1	9	0	
5	3	5	0	6	9	6	0	6	1	6	2	6	1	6	0	
2	2	7	7	0	7	1	7	5	7	3	7	4	
7	7	8	9	6	0	5	3	9	0	9	1	9	2	9	5	9	4	
3	7	8	11	8	0	8	1	8	2	8	1	8	0	
3	10	12	13	13	0	13	1	13	2	13	3	13	4	
4	9	8	7	2	9	0	9	1	9	2	9	5	9	4	
5	6	9	8	7	14	9	0	9	1	9	5	9	3	9	4	
5	6	9	8	7	14	9	0	9	1	9	2	9	5	9	4	
4	2	7	8	9	9	0	9	1	9	2	9	3	9	4	
6	12	13	6	0	5	1	6	0	6	1	6	2	6	3	6	4	
2	8	7	8	0	8	1	8	2	8	1	8	0	
4	6	9	8	11	6	0	6	1	6	2	6	3	6	4	
2	5	0	0	0	0	1	0	5	0	3	0	4	
5	0	6	9	8	11	9	0	9	1	9	5	9	3	9	4	
3	11	8	7	11	0	11	1	11	2	11	5	11	4	
4	13	6	0	5	0	0	0	1	0	2	0	5	0	4	
5	0	6	9	8	7	6	0	6	1	6	2	6	3	6	4	
4	14	7	8	9	9	0	9	1	9	2	9	1	9	0	
2	10	12	10	0	10	1	10	2	10	1	10	0	
4	13	6	0	5	0	0	0	1	0	5	0	3	0	4	
4	9	8	7	14	9	0	9	1	9	2	9	5	9	4	
4	11	8	7	2	8	0	8	1	8	2	8	3	8	4	
3	10	12	13	13	0	13	1	13	5	13	3	13	4	
9	2	7	8	9	6	0	5	1	4	6	0	6	1	6	2	6	1	6	0	
7	12	13	6	0	5	1	4	0	0	0	1	0	2	0	5	0	4	
8	3	5	0	6	9	8	7	14	9	0	9	1	9	5	9	3	9	4	
5	6	9	8	7	14	6	0	6	1	6	2	6	1	6	0	
2	0	6	0	0	0	1	0	5	0	3	0	4	
5	9	6	0	5	1	6	0	6	1	6	2	6	3	6	4	
2	0	5	0	0	0	1	0	2	0	1	0	0	
7	1	5	0	6	13	12	10	6	0	6	1	6	2	6	1	6	0	
3	11	8	9	9	0	9	1	9	2	9	1	9	0	
2	6	9	9	0	9	1	9	2	9	5	9	4	
2	5	0	0	0	0	1	0	2	0	1	0	0	
6	1	5	0	6	9	8	6	0	6	1	6	2	6	3	6	4	
6	0	6	9	8	7	2	9	0	9	1	9	5	9	3	9	4	
3	11	8	7	8	0	8	1	8	2	8	1	8	0	
8	7	8	9	6	0	5	1	4	9	0	9	1	9	5	9	3	9	4	
4	14	7	8	11	8	0	8	1	8	2	8	5	8	4	
6	12	13	6	9	8	11	9	0	9	1	9	2	9	5	9	4	
2	8	7	8	0	8	1	8	2	8	5	8	4	
7	10	12	13	6	0	5	1	6	0	6	1	6	2	6	1	6	0	
5	13	6	0	5	3	6	0	6	1	6	2	6	3	6	4	
3	9	8	7	9	0	9	1	9	5	9	3	9	4	
5	4	1	5	0	6	4	0	4	1	4	5	4	3	4	4	
3	0	5	3	3	0	3	1	3	2	3	5	3	4	
6	1	5	0	6	13	12	0	0	0	1	0	5	0	3	0	4	
3	3	5	0	3	0	3	1	3	2	3	3	3	4	
7	4	1	5	0	6	13	12	6	0	6	1	6	2	6	3	6	4	
5	6	9	8	7	2	6	0	6	1	6	2	6	3	6	4	
6	7	8	9	6	0	5	6	0	6	1	6	2	6	3	6	4	
6	13	6	9	8	7	14	9	0	9	1	9	5	9	3	9	4	
2	13	6	13	0	13	1	13	2	13	5	13	4	
4	12	13	6	0	0	0	0	1	0	2	0	5	0	4	
6	14	7	8	9	6	13	9	0	9	1	9	5	9	3	9	4	
4	6	0	5	1	6	0	6	1	6	2	6	1	6	0	
4	0	6	9	8	9	0	9	1	9	2	9	5	9	4	
4	6	0	5	1	0	0	0	1	0	5	0	3	0	4	
3	1	5	0	0	0	0	1	0	2	0	5	0	4	
2	1	5	5	0	5	1	5	2	5	3	5	4	
5	3	5	0	6	9	9	0	9	1	9	5	9	3	9	4	
3	9	6	0	6	0	6	1	6	2	6	3	6	4	
6	13	6	9	8	7	2	6	0	6	1	6	2	6	1	6	0	
3	5	0	6	6	0	6	1	6	2	6	1	6	0	
3	0	6	13	0	0	0	1	0	2	0	5	0	4	
2	11	8	11	0	11	1	11	2	11	1	11	0	
9	14	7	8	9	6	0	5	1	4	9	0	9	1	9	5	9	3	9	4	
3	12	13	6	6	0	6	1	6	2	6	3	6	4	
7	14	7	8	9	6	13	12	9	0	9	1	9	5	9	3	9	4	
2	4	1	4	0	4	1	4	2	4	3	4	4	
2	8	9	9	0	9	1	9	2	9	5	9	4	
2	5	3	5	0	5	1	5	5	5	3	5	4	
4	1	5	0	6	0	0	0	1	0	5	0	3	0	4	
2	1	5	5	0	5	1	5	2	5	1	5	0	
6	14	7	8	9	6	0	6	0	6	1	6	2	6	1	6	0	
5	8	9	6	0	5	9	0	9	1	9	5	9	3	9	4	
2	5	0	0	0	0	1	0	2	0	3	0	4	
5	0	6	9	8	11	6	0	6	1	6	2	6	3	6	4	
3	3	5	1	5	0	5	1	5	2	5	5	5	4	
7	12	13	6	9	8	7	2	9	0	9	1	9	5	9	3	9	4	
7	7	8	9	6	13	12	10	9	0	9	1	9	5	9	3	9	4	
5	1	5	0	6	13	6	0	6	1	6	2	6	3	6	4	
6	12	13	6	9	8	7	9	0	9	1	9	2	9	5	9	4	
8	3	5	0	6	9	8	7	2	9	0	9	1	9	5	9	3	9	4	
4	4	1	5	3	5	0	5	1	5	2	5	5	5	4	
2	7	8	8	0	8	1	8	2	8	3	8	4	
3	3	5	0	0	0	0	1	0	2	0	1	0	0	
3	0	6	9	6	0	6	1	6	2	6	3	6	4	
7	11	8	9	6	0	5	1	6	0	6	1	6	2	6	3	6	4	
4	6	9	8	11	9	0	9	1	9	5	9	3	9	4	
3	14	7	8	8	0	8	1	8	2	8	5	8	4	
6	12	13	6	9	8	11	6	0	6	1	6	2	6	3	6	4	
7	10	12	13	6	0	5	3	6	0	6	1	6	2	6	1	6	0	
8	2	7	8	9	6	13	12	10	9	0	9	1	9	2	9	5	9	4	
6	2	7	8	9	6	0	6	0	6	1	6	2	6	3	6	4	
6	8	9	6	0	5	3	6	0	6	1	6	2	6	3	6	4	
5	6	0	5	1	4	4	0	4	1	4	5	4	3	4	4	
8	2	7	8	9	6	0	5	1	6	0	6	1	6	2	6	1	6	0	
2	11	8	8	0	8	1	8	2	8	5	8	4	
7	4	1	5	0	6	9	8	9	0	9	1	9	5	9	3	9	4	
7	4	1	5	0	6	9	8	6	0	6	1	6	2	6	3	6	4	
8	4	1	5	0	6	13	12	10	6	0	6	1	6	2	6	1	6	0	
4	10	12	13	6	13	0	13	1	13	2	13	5	13	4	
3	11	8	7	8	0	8	1	8	5	8	3	8	4	
2	12	10	12	0	12	1	12	2	12	5	12	4	
8	4	1	5	0	6	13	12	10	0	0	0	1	0	5	0	3	0	4	
7	4	1	5	0	6	13	12	0	0	0	1	0	2	0	5	0	4	
4	10	12	13	6	6	0	6	1	6	2	6	1	6	0	
3	11	8	9	9	0	9	1	9	2	9	5	9	4	
6	10	12	13	6	0	5	0	0	0	1	0	2	0	5	0	4	
8	14	7	8	9	6	0	5	3	6	0	6	1	6	2	6	1	6	0	
8	1	5	0	6	9	8	7	2	6	0	6	1	6	2	6	3	6	4	
2	6	0	0	0	0	1	0	2	0	5	0	4	
5	3	5	0	6	13	0	0	0	1	0	5	0	3	0	4	
6	12	13	6	0	5	1	6	0	6	1	6	2	6	1	6	0	
5	6	0	5	1	4	6	0	6	1	6	2	6	1	6	0	
5	8	9	6	0	5	6	0	6	1	6	2	6	1	6	0	
4	13	6	0	5	6	0	6	1	6	2	6	1	6	0	
5	9	6	13	12	10	6	0	6	1	6	2	6	1	6	0	
2	2	7	2	0	2	1	2	2	2	5	2	4	
7	7	8	9	6	13	12	10	6	0	6	1	6	2	6	1	6	0	
2	10	12	12	0	12	1	12	2	12	3	12	4	
4	2	7	8	9	9	0	9	1	9	5	9	3	9	4	
4	6	13	12	10	6	0	6	1	6	2	6	3	6	4	
5	11	8	9	6	13	6	0	6	1	6	2	6	1	6	0	
5	13	6	9	8	7	9	0	9	1	9	5	9	3	9	4	
2	7	8	8	0	8	1	8	2	8	1	8	0	
2	7	14	7	0	7	1	7	2	7	5	7	4	
6	9	6	0	5	1	4	9	0	9	1	9	2	9	5	9	4	
5	13	6	0	5	3	0	0	0	1	0	2	0	5	0	4	
4	6	9	8	11	9	0	9	1	9	2	9	5	9	4	
3	0	6	9	9	0	9	1	9	2	9	5	9	4	
3	10	12	13	13	0	13	1	13	2	13	1	13	0	
3	6	9	8	6	0	6	1	6	2	6	3	6	4	
5	10	12	13	6	0	0	0	0	1	0	5	0	3	0	4	
4	4	1	5	0	4	0	4	1	4	2	4	1	4	0	
7	11	8	9	6	0	5	1	6	0	6	1	6	2	6	1	6	0	
5	7	8	9	6	13	6	0	6	1	6	2	6	3	6	4	
4	8	9	6	0	9	0	9	1	9	5	9	3	9	4	
5	9	6	0	5	1	9	0	9	1	9	5	9	3	9	4	
5	12	13	6	9	8	6	0	6	1	6	2	6	3	6	4	
4	0	6	9	8	9	0	9	1	9	5	9	3	9	4	
3	7	8	9	9	0	9	1	9	2	9	5	9	4	
7	3	5	0	6	9	8	7	9	0	9	1	9	5	9	3	9	4	
4	13	6	0	5	6	0	6	1	6	2	6	3	6	4	
6	12	13	6	9	8	7	6	0	6	1	6	2	6	1	6	0	
4	12	13	6	9	9	0	9	1	9	5	9	3	9	4	
4	10	12	13	6	6	0	6	1	6	2	6	3	6	4	
5	6	9	8	7	2	6	0	6	1	6	2	6	1	6	0	
4	6	0	5	3	6	0	6	1	6	2	6	1	6	0	
7	8	9	6	0	5	1	4	6	0	6	1	6	2	6	3	6	4	
8	3	5	0	6	9	8	7	2	6	0	6	1	6	2	6	3	6	4	
7	1	5	0	6	9	8	7	6	0	6	1	6	2	6	3	6	4	
7	3	5	0	6	9	8	11	6	0	6	1	6	2	6	1	6	0	
6	11	8	9	6	13	12	9	0	9	1	9	5	9	3	9	4	
4	9	6	0	5	6	0	6	1	6	2	6	1	6	0	
7	2	7	8	9	6	13	12	6	0	6	1	6	2	6	1	6	0	
6	13	6	9	8	7	14	6	0	6	1	6	2	6	1	6	0	
3	8	7	14	8	0	8	1	8	5	8	3	8	4	
2	8	11	11	0	11	1	11	2	11	3	11	4	
6	13	6	9	8	7	14	6	0	6	1	6	2	6	3	6	4	
7	8	9	6	0	5	1	4	9	0	9	1	9	2	9	5	9	4	
7	10	12	13	6	9	8	7	6	0	6	1	6	2	6	1	6	0	
3	9	6	13	6	0	6	1	6	2	6	3	6	4	
6	11	8	9	6	13	12	6	0	6	1	6	2	6	3	6	4	
5	11	8	9	6	13	9	0	9	1	9	5	9	3	9	4	
5	11	8	9	6	13	9	0	9	1	9	2	9	5	9	4	
8	1	5	0	6	9	8	7	2	9	0	9	1	9	2	9	5	9	4	
6	4	1	5	0	6	9	6	0	6	1	6	2	6	1	6	0	
4	6	0	5	3	3	0	3	1	3	2	3	5	3	4	
7	3	5	0	6	13	12	10	6	0	6	1	6	2	6	3	6	4	
5	7	8	9	6	0	9	0	9	1	9	2	9	5	9	4	
4	0	6	13	12	0	0	0	1	0	2	0	5	0	4	
2	5	1	5	0	5	1	5	5	5	3	5	4	
6	0	6	9	8	7	2	6	0	6	1	6	2	6	3	6	4	
6	4	1	5	0	6	9	9	0	9	1	9	2	9	5	9	4	
9	14	7	8	9	6	0	5	1	4	6	0	6	1	6	2	6	3	6	4	
2	1	4	4	0	4	1	4	5	4	3	4	4	
7	1	5	0	6	9	8	7	6	0	6	1	6	2	6	1	6	0	
6	13	6	9	8	7	2	6	0	6	1	6	2	6	3	6	4	
3	4	1	5	5	0	5	1	5	2	5	5	5	4	
6	2	7	8	9	6	0	9	0	9	1	9	2	9	5	9	4	
4	12	13	6	0	0	0	0	1	0	5	0	3	0	4	
7	1	5	0	6	13	12	10	0	0	0	1	0	2	0	5	0	4	
3	13	12	10	13	0	13	1	13	2	13	5	13	4	
5	12	13	6	0	5	0	0	0	1	0	2	0	5	0	4	
2	13	6	6	0	6	1	6	2	6	1	6	0	
5	0	6	13	12	10	6	0	6	1	6	2	6	3	6	4	
7	11	8	9	6	0	5	3	6	0	6	1	6	2	6	3	6	4	
8	11	8	9	6	0	5	1	4	6	0	6	1	6	2	6	3	6	4	
7	1	5	0	6	13	12	10	6	0	6	1	6	2	6	3	6	4	
4	9	8	7	2	9	0	9	1	9	5	9	3	9	4	
6	7	8	9	6	0	5	9	0	9	1	9	5	9	3	9	4	
6	8	9	6	0	5	1	6	0	6	1	6	2	6	3	6	4	
8	2	7	8	9	6	0	5	3	6	0	6	1	6	2	6	1	6	0	
3	3	5	0	0	0	0	1	0	5	0	3	0	4	
6	3	5	0	6	13	12	0	0	0	1	0	2	0	5	0	4	
4	6	9	8	7	6	0	6	1	6	2	6	3	6	4	
3	6	13	12	13	0	13	1	13	5	13	3	13	4	
2	12	10	12	0	12	1	12	2	12	3	12	4	
6	2	7	8	9	6	13	9	0	9	1	9	2	9	5	9	4	
6	12	13	6	9	8	11	9	0	9	1	9	5	9	3	9	4	
6	5	0	6	9	8	11	9	0	9	1	9	5	9	3	9	4	
3	9	8	11	9	0	9	1	9	5	9	3	9	4	
3	14	7	2	7	0	7	1	7	5	7	3	7	4	
2	7	8	8	0	8	1	8	5	8	3	8	4	
8	2	7	8	9	6	0	5	3	9	0	9	1	9	5	9	3	9	4	
8	10	12	13	6	9	8	7	14	9	0	9	1	9	5	9	3	9	4	
3	0	6	9	6	0	6	1	6	2	6	1	6	0	
7	10	12	13	6	9	8	7	9	0	9	1	9	2	9	5	9	4	
8	4	1	5	0	6	9	8	11	6	0	6	1	6	2	6	1	6	0	
7	1	5	0	6	9	8	7	9	0	9	1	9	2	9	5	9	4	
2	1	4	4	0	4	1	4	2	4	3	4	4	
6	12	13	6	0	5	3	6	0	6	1	6	2	6	1	6	0	
3	5	1	4	5	0	5	1	5	2	5	5	5	4	
4	5	0	6	9	6	0	6	1	6	2	6	3	6	4	
8	4	1	5	0	6	9	8	11	9	0	9	1	9	2	9	5	9	4	
7	2	7	8	9	6	0	5	9	0	9	1	9	2	9	5	9	4	
5	13	6	0	5	1	6	0	6	1	6	2	6	3	6	4	
3	0	5	3	3	0	3	1	3	2	3	3	3	4	
6	3	5	0	6	13	12	0	0	0	1	0	5	0	3	0	4	
3	6	13	12	6	0	6	1	6	2	6	1	6	0	
7	3	5	0	6	9	8	7	6	0	6	1	6	2	6	3	6	4	
5	6	9	8	7	2	9	0	9	1	9	2	9	5	9	4	
5	7	8	9	6	13	6	0	6	1	6	2	6	1	6	0	
4	8	9	6	13	9	0	9	1	9	2	9	5	9	4	
8	14	7	8	9	6	13	12	10	9	0	9	1	9	2	9	5	9	4	
4	1	5	0	6	6	0	6	1	6	2	6	1	6	0	
4	9	6	0	5	6	0	6	1	6	2	6	3	6	4	
2	5	1	5	0	5	1	5	2	5	1	5	0	
6	13	6	0	5	1	4	6	0	6	1	6	2	6	3	6	4	
3	3	5	0	0	0	0	1	0	2	0	5	0	4	
5	1	5	0	6	9	9	0	9	1	9	5	9	3	9	4	
3	13	6	9	9	0	9	1	9	2	9	5	9	4	
3	8	7	2	8	0	8	1	8	5	8	3	8	4	
9	4	1	5	0	6	9	8	7	14	6	0	6	1	6	2	6	3	6	4	
8	10	12	13	6	9	8	7	14	6	0	6	1	6	2	6	1	6	0	
2	13	12	13	0	13	1	13	5	13	3	13	4	
5	0	6	9	8	7	9	0	9	1	9	2	9	5	9	4	
7	11	8	9	6	0	5	3	9	0	9	1	9	2	9	5	9	4	
9	4	1	5	0	6	9	8	7	2	9	0	9	1	9	2	9	5	9	4	
5	9	6	0	5	3	6	0	6	1	6	2	6	1	6	0	
2	12	13	13	0	13	1	13	2	13	1	13	0	
3	13	6	9	9	0	9	1	9	5	9	3	9	4	
5	0	6	13	12	10	6	0	6	1	6	2	6	1	6	0	
6	2	7	8	9	6	0	6	0	6	1	6	2	6	1	6	0	
8	10	12	13	6	0	5	1	4	6	0	6	1	6	2	6	3	6	4	
6	12	13	6	9	8	7	9	0	9	1	9	5	9	3	9	4	
5	8	9	6	13	12	9	0	9	1	9	2	9	5	9	4	
3	8	7	2	8	0	8	1	8	2	8	3	8	4	
4	7	8	9	6	9	0	9	1	9	2	9	5	9	4	
7	12	13	6	9	8	7	2	9	0	9	1	9	2	9	5	9	4	
7	2	7	8	9	6	0	5	6	0	6	1	6	2	6	3	6	4	
8	1	5	0	6	9	8	7	14	8	0	8	1	8	5	8	3	8	4	
8	14	7	8	9	6	0	5	3	8	0	8	1	8	5	8	3	8	4	
8	14	7	8	9	6	0	5	3	9	0	9	1	9	2	9	5	9	4	
6	10	12	13	6	0	5	6	0	6	1	6	2	6	1	6	0	
5	9	6	13	12	10	9	0	9	1	9	2	9	5	9	4	
2	5	3	5	0	5	1	5	2	5	5	5	4	
7	3	5	0	6	13	12	10	6	0	6	1	6	2	6	1	6	0	
7	5	0	6	9	8	7	14	6	0	6	1	6	2	6	3	6	4	
6	2	7	8	9	6	13	6	0	6	1	6	2	6	1	6	0	
6	8	9	6	13	12	10	6	0	6	1	6	2	6	3	6	4	
4	12	13	6	0	6	0	6	1	6	2	6	1	6	0	
7	7	8	9	6	0	5	1	6	0	6	1	6	2	6	3	6	4	
5	10	12	13	6	9	13	0	13	1	13	5	13	3	13	4	
5	9	6	13	12	10	6	0	6	1	6	2	6	3	6	4	
5	11	8	9	6	13	6	0	6	1	6	2	6	3	6	4	
8	1	5	0	6	9	8	7	2	8	0	8	1	8	5	8	3	8	4	
3	2	7	8	8	0	8	1	8	5	8	3	8	4	
5	14	7	8	9	6	9	0	9	1	9	2	9	5	9	4	
7	3	5	0	6	9	8	11	6	0	6	1	6	2	6	3	6	4	
5	0	6	9	8	11	9	0	9	1	9	2	9	5	9	4	
3	14	7	8	8	0	8	1	8	2	8	3	8	4	
3	6	0	5	0	0	0	1	0	2	0	5	0	4	
3	13	6	0	0	0	0	1	0	5	0	3	0	4	
3	2	7	14	7	0	7	1	7	2	7	3	7	4	
7	5	0	6	9	8	7	2	6	0	6	1	6	2	6	1	6	0	
8	14	7	8	9	6	13	12	10	9	0	9	1	9	5	9	3	9	4	
5	8	9	6	0	5	9	0	9	1	9	2	9	5	9	4	
4	9	8	7	2	9	0	9	1	9	2	9	3	9	4	
5	3	5	0	6	9	6	0	6	1	6	2	6	3	6	4	
7	1	5	0	6	9	8	11	9	0	9	1	9	2	9	5	9	4	
5	13	6	9	8	11	9	0	9	1	9	2	9	5	9	4	
3	13	6	9	6	0	6	1	6	2	6	1	6	0	
4	8	9	6	0	9	0	9	1	9	2	9	5	9	4	
4	0	5	1	4	4	0	4	1	4	2	4	1	4	0	
3	0	6	13	6	0	6	1	6	2	6	3	6	4	
7	5	0	6	9	8	7	14	6	0	6	1	6	2	6	1	6	0	
