4670.55	3870.47
1651
56375.7	39696.3
15
0	2919	2922
1	1934	2114
2	2630	2630
3	0	-1
4	0	-1
5	3073	3123
6	4192	4195
7	2381	2382
8	2515	2517
9	0	-1
10	0	-1
11	0	-1
12	0	-1
13	0	-1
14	0	-1
44
0	5	100.273350	103.387125	1.000000
0	6	99.977004	106.398308	1.000000
0	7	97.071832	117.439946	1.000000
1	2	42.369760	115.431857	1.000000
1	4	47.420172	113.424719	1.000000
1	5	71.704218	115.431857	1.000000
2	1	42.913158	115.431857	1.000000
2	4	33.299654	106.398308	1.000000
2	7	85.721476	102.383080	1.000000
3	4	14.078744	99.371897	1.000000
3	5	51.893912	91.341916	1.000000
4	1	47.148382	113.424719	1.000000
4	2	33.183416	106.398308	1.000000
4	3	14.002170	99.371897	1.000000
5	0	100.541896	103.387125	1.000000
5	1	71.237120	115.431857	1.000000
5	3	52.641460	91.341916	1.000000
5	12	92.086770	92.345676	1.000000
6	0	100.217638	106.398308	1.000000
6	9	84.447712	97.364758	1.000000
6	13	108.597640	110.413536	1.000000
7	0	96.461656	117.439946	1.000000
7	2	85.348012	102.383080	1.000000
7	8	73.186014	109.409491	1.000000
7	14	52.101894	113.424719	1.000000
8	7	72.043798	109.409491	1.000000
8	9	51.852754	106.398308	1.000000
8	11	33.283214	90.338157	1.000000
8	14	14.305572	96.360714	1.000000
9	6	85.010946	97.364758	1.000000
9	8	50.998140	106.398308	1.000000
9	11	33.738010	112.420674	1.000000
10	12	28.506900	106.398308	1.000000
10	13	38.137578	101.379035	1.000000
11	8	33.941838	90.338157	1.000000
11	9	33.506398	112.420674	1.000000
12	5	91.723208	92.345676	1.000000
12	10	28.889268	106.398308	1.000000
12	13	42.307990	98.367852	1.000000
13	6	109.022710	110.413536	1.000000
13	10	38.248972	101.379035	1.000000
13	12	41.665772	98.367852	1.000000
14	7	52.270942	113.424719	1.000000
14	8	14.122884	96.360714	1.000000
840
4	10	12	5	3	5	0	5	1	5	5	5	3	5	4	
3	14	7	2	2	0	2	1	2	5	2	3	2	4	
3	3	5	0	0	0	0	1	0	5	0	3	0	4	
2	8	9	8	0	8	1	8	2	8	3	8	4	
4	14	7	2	4	2	0	2	1	2	5	2	3	2	4	
3	2	7	14	2	0	2	1	2	2	2	5	2	4	
4	9	6	13	12	6	0	6	1	6	5	6	3	6	4	
2	12	5	5	0	5	1	5	2	5	1	5	0	
3	2	7	8	8	0	8	1	8	2	8	5	8	4	
3	5	1	2	1	0	1	1	1	2	1	1	1	0	
5	13	12	5	1	4	5	0	5	1	1	2	1	3	1	4	
3	0	7	2	2	0	2	1	2	2	2	1	2	0	
4	4	1	5	12	1	0	1	1	1	5	1	3	1	4	
2	6	13	6	0	6	1	6	2	6	3	6	4	
3	8	7	0	0	0	0	1	0	2	0	5	0	4	
3	1	2	7	1	0	1	1	1	2	1	5	2	4	
3	8	9	6	6	0	6	1	6	2	6	5	6	4	
5	3	5	0	7	14	7	0	7	1	7	2	7	5	7	4	
2	8	7	7	0	7	1	7	5	7	3	7	4	
4	10	12	5	12	5	0	5	1	5	2	5	3	5	4	
4	3	5	0	7	7	0	7	1	7	2	7	3	7	4	
4	7	0	6	13	7	0	7	1	7	5	7	3	0	4	
4	14	7	2	1	2	0	2	1	2	5	2	3	2	4	
5	11	9	6	0	5	0	0	0	1	0	2	0	1	5	0	
2	1	2	1	0	1	1	1	2	1	3	1	4	
4	4	1	5	12	1	0	1	1	5	2	5	1	5	0	
3	7	2	1	2	0	2	1	2	5	2	3	2	4	
3	2	1	5	2	0	2	1	2	5	2	3	2	4	
2	9	6	6	0	6	1	6	5	6	3	6	4	
5	1	2	7	8	11	7	0	7	1	7	2	7	5	8	4	
4	11	9	6	0	0	0	0	1	0	2	0	1	0	0	
6	14	7	0	6	13	10	7	0	7	1	7	2	7	3	0	4	
2	4	1	1	0	1	1	1	2	1	1	1	0	
4	12	5	0	7	7	0	7	1	7	2	7	3	7	4	
2	5	0	0	0	0	1	0	2	0	3	0	4	
4	0	5	1	4	0	0	0	1	0	2	0	5	0	4	
3	11	8	9	8	0	8	1	8	2	8	1	8	0	
4	10	13	6	9	6	0	6	1	6	2	6	5	6	4	
2	9	8	8	0	8	1	8	5	8	3	8	4	
5	11	9	6	13	12	6	0	6	1	6	2	6	5	6	4	
3	7	0	6	0	0	0	1	0	2	0	5	0	4	
2	14	7	7	0	7	1	7	2	7	5	7	4	
4	13	6	9	11	6	0	6	1	6	5	6	3	6	4	
4	2	7	8	11	2	0	2	1	2	5	2	3	2	4	
3	6	13	10	6	0	6	1	6	5	6	3	6	4	
3	13	12	5	5	0	5	1	5	5	5	3	5	4	
3	0	5	1	5	0	5	1	5	2	5	3	5	4	
5	3	5	0	6	9	6	0	6	1	6	2	6	1	6	0	
4	3	5	12	10	5	0	5	1	5	2	5	5	5	4	
3	1	5	0	0	0	0	1	0	5	0	3	0	4	
3	7	0	5	0	0	0	1	0	2	0	3	0	4	
5	5	0	6	9	11	6	0	6	1	6	5	6	3	6	4	
3	0	7	8	8	0	8	1	8	2	8	5	8	4	
3	0	7	14	0	0	0	1	0	2	0	5	7	4	
4	3	4	1	4	1	0	1	1	1	2	1	1	1	0	
4	11	8	7	2	2	0	2	1	2	2	2	3	2	4	
2	14	8	8	0	8	1	8	2	8	1	8	0	
4	4	1	4	3	1	0	1	1	1	2	1	3	1	4	
2	2	4	2	0	2	1	2	2	2	3	2	4	
3	10	13	6	6	0	6	1	6	2	6	1	6	0	
3	13	6	0	0	0	0	1	0	2	0	5	0	4	
4	0	6	13	10	0	0	0	1	0	2	0	5	0	4	
4	6	0	5	1	1	0	1	1	1	2	1	5	1	4	
3	9	8	7	8	0	8	1	8	5	8	3	8	4	
5	8	9	6	13	10	8	0	8	1	8	2	8	3	8	4	
5	12	5	0	7	8	5	0	0	1	0	5	0	3	8	4	
4	14	7	0	5	5	0	5	1	5	2	5	1	5	0	
3	5	0	7	7	0	7	1	7	5	7	3	7	4	
3	12	13	6	6	0	6	1	6	5	6	3	6	4	
2	6	0	0	0	0	1	0	2	0	5	0	4	
2	5	1	5	0	5	1	5	5	5	3	5	4	
4	10	13	6	13	6	0	6	1	6	2	6	5	6	4	
4	13	12	5	3	5	0	5	1	5	2	5	3	5	4	
2	11	8	8	0	8	1	8	2	8	5	8	4	
4	6	0	7	2	2	0	2	1	2	2	2	3	2	4	
4	4	2	7	8	2	0	2	1	2	5	2	3	2	4	
4	9	6	13	10	6	0	6	1	6	2	6	1	6	0	
4	13	6	13	12	6	0	6	1	6	2	6	5	6	4	
4	10	13	6	13	6	0	6	1	6	2	6	3	6	4	
4	3	5	0	6	0	0	0	1	0	2	0	3	0	4	
5	7	0	6	13	10	7	0	7	1	7	2	7	1	0	0	
5	9	6	0	5	3	0	0	0	1	0	2	0	1	0	0	
3	12	5	3	5	0	5	1	5	2	5	5	5	4	
2	5	12	5	0	5	1	5	2	5	5	5	4	
3	7	8	9	7	0	7	1	7	5	7	3	7	4	
4	11	9	6	13	6	0	6	1	6	5	6	3	6	4	
3	0	6	13	0	0	0	1	0	5	0	3	0	4	
5	8	7	0	5	12	8	0	8	1	8	2	8	1	8	0	
3	14	8	11	8	0	8	1	8	2	8	3	8	4	
2	4	2	2	0	2	1	2	5	2	3	2	4	
3	12	5	0	0	0	0	1	0	2	0	3	0	4	
2	2	7	2	0	2	1	2	2	2	1	2	0	
5	14	7	0	6	13	6	0	6	1	6	2	6	5	6	4	
4	13	12	5	1	1	0	1	1	1	2	1	1	1	0	
2	6	0	0	0	0	1	0	2	0	1	0	0	
5	14	7	0	5	3	7	0	7	1	7	5	7	3	5	4	
3	14	7	2	2	0	2	1	2	2	2	5	2	4	
2	8	9	8	0	8	1	8	2	8	1	8	0	
3	6	13	12	6	0	6	1	6	2	6	5	6	4	
3	2	7	14	2	0	2	1	2	2	2	1	2	0	
4	10	12	5	1	1	0	1	1	1	2	1	5	1	4	
4	3	5	12	10	5	0	5	1	5	5	5	3	5	4	
2	9	8	8	0	8	1	8	2	8	3	8	4	
2	3	5	5	0	5	1	5	2	5	5	5	4	
3	5	1	2	2	0	2	1	2	2	2	5	2	4	
5	13	12	5	1	4	1	0	1	1	1	2	1	1	1	0	
3	0	7	2	2	0	2	1	2	2	2	3	2	4	
2	6	13	6	0	6	1	6	2	6	1	6	0	
3	8	7	0	7	0	7	1	7	2	7	1	7	0	
3	11	9	6	6	0	6	1	6	2	6	5	6	4	
3	1	2	7	7	0	7	1	7	2	7	1	7	0	
3	7	2	4	2	0	2	1	2	2	2	3	2	4	
3	3	4	2	2	0	2	1	2	2	2	5	2	4	
5	10	12	5	1	2	1	0	1	1	1	5	1	3	1	4	
3	3	4	1	1	0	1	1	1	5	1	3	1	4	
4	10	12	5	12	5	0	5	1	5	5	5	3	5	4	
3	13	6	9	6	0	6	1	6	5	6	3	6	4	
4	7	0	6	13	0	0	0	1	0	2	0	5	0	4	
5	11	9	6	0	5	6	0	6	1	6	2	6	3	6	4	
2	1	2	1	0	1	1	1	2	1	1	1	0	
4	4	1	5	12	1	0	1	1	1	2	1	3	1	4	
4	12	5	1	2	1	0	1	1	1	2	1	1	1	0	
3	2	1	5	2	0	2	1	2	2	2	3	2	4	
3	5	12	13	5	0	5	1	5	2	5	1	5	0	
4	5	0	7	14	7	0	7	1	7	5	7	3	7	4	
5	11	9	6	13	10	6	0	6	1	6	2	6	5	6	4	
3	13	6	9	6	0	6	1	6	2	6	5	6	4	
5	1	2	7	8	11	7	0	7	1	7	2	7	1	7	0	
2	8	11	8	0	8	1	8	2	8	3	8	4	
2	4	1	1	0	1	1	1	2	1	5	1	4	
3	14	8	9	8	0	8	1	8	2	8	5	8	4	
4	12	5	0	7	7	0	7	1	7	2	7	1	7	0	
2	5	0	0	0	0	1	0	2	0	1	0	0	
5	13	6	0	7	2	2	0	2	1	2	2	2	3	2	4	
4	0	5	1	4	0	0	0	1	0	2	0	1	0	0	
3	7	8	11	7	0	7	1	7	5	7	3	7	4	
4	6	0	5	3	0	0	0	1	0	2	0	3	0	4	
3	11	8	9	8	0	8	1	8	2	8	3	8	4	
3	10	12	5	5	0	5	1	5	2	5	5	5	4	
3	7	0	6	7	0	7	1	7	5	7	3	7	4	
5	12	5	0	7	14	7	0	7	1	7	2	7	1	7	0	
2	14	7	7	0	7	1	7	5	7	3	7	4	
4	13	6	9	11	6	0	6	1	6	2	6	5	6	4	
3	6	13	10	6	0	6	1	6	2	6	5	6	4	
3	13	12	5	5	0	5	1	5	2	5	5	5	4	
3	0	5	1	0	0	0	1	0	2	0	1	0	0	
5	3	5	0	6	9	6	0	6	1	6	2	6	3	6	4	
3	11	8	7	7	0	7	1	7	2	7	1	7	0	
3	1	5	0	0	0	0	1	0	2	0	3	0	4	
4	4	2	7	14	2	0	2	1	7	2	7	1	7	0	
5	5	0	6	9	11	6	0	6	1	6	2	6	5	6	4	
5	13	6	0	7	14	6	0	0	1	0	2	0	3	7	4	
3	0	7	8	0	0	0	1	0	2	0	1	0	0	
4	3	4	1	4	1	0	1	1	1	2	1	5	1	4	
4	11	8	7	2	2	0	2	1	2	2	2	1	2	0	
2	14	8	8	0	8	1	8	2	8	3	8	4	
5	2	1	5	12	10	2	0	2	1	2	5	2	3	2	4	
4	4	1	4	3	1	0	1	1	1	2	1	1	1	0	
3	12	5	1	1	0	1	1	1	2	1	3	1	4	
2	2	4	2	0	2	1	2	5	2	3	2	4	
4	5	0	7	14	7	0	7	1	7	2	7	3	7	4	
3	10	13	6	6	0	6	1	6	2	6	3	6	4	
3	13	6	0	0	0	0	1	0	5	0	3	0	4	
4	6	0	5	1	0	0	0	1	0	5	0	3	0	4	
4	8	7	2	4	8	0	2	1	2	5	2	3	2	4	
4	14	7	0	5	0	0	0	1	0	2	0	5	0	4	
5	8	9	6	13	10	8	0	8	1	8	5	8	3	8	4	
5	12	13	6	9	8	8	0	8	1	8	2	8	5	8	4	
3	5	0	7	7	0	7	1	7	2	7	5	7	4	
3	12	13	6	6	0	6	1	6	2	6	5	6	4	
2	5	1	1	0	1	1	1	2	1	5	1	4	
5	10	13	6	9	8	8	0	8	1	8	2	8	1	8	0	
3	0	5	3	0	0	0	1	0	2	0	3	0	4	
6	3	5	0	6	9	11	6	0	6	1	6	2	6	1	6	0	
4	4	2	7	8	2	0	2	1	2	2	2	5	2	4	
4	12	13	6	13	6	0	6	1	6	2	6	3	6	4	
2	7	8	7	0	7	1	7	5	7	3	7	4	
2	2	1	2	0	2	1	2	2	2	5	1	4	
4	9	6	13	10	6	0	6	1	6	2	6	5	6	4	
4	13	6	13	12	6	0	6	1	6	5	6	3	6	4	
4	10	13	6	13	6	0	6	1	6	2	6	1	6	0	
4	3	5	0	6	0	0	0	1	0	2	0	1	0	0	
4	9	6	13	12	6	0	6	1	6	2	6	5	6	4	
5	11	8	7	2	4	2	0	2	1	2	2	2	3	2	4	
2	8	11	8	0	8	1	8	5	8	3	8	4	
5	4	1	5	12	13	5	0	5	1	5	2	5	3	5	4	
5	9	6	0	5	3	0	0	0	1	0	2	0	3	0	4	
3	12	5	3	5	0	5	1	5	5	5	3	5	4	
2	5	12	5	0	5	1	5	5	5	3	5	4	
5	10	12	5	1	4	5	0	5	1	1	2	1	1	1	0	
4	1	5	12	13	5	0	5	1	5	2	5	5	5	4	
4	11	9	6	13	6	0	6	1	6	2	6	5	6	4	
5	8	9	6	13	12	8	0	8	1	8	2	8	3	8	4	
3	14	8	11	8	0	8	1	8	2	8	1	8	0	
5	2	7	0	6	13	6	0	6	1	6	2	6	5	6	4	
2	4	2	2	0	2	1	2	2	2	5	2	4	
3	9	6	13	6	0	6	1	6	2	6	1	6	0	
2	2	7	2	0	2	1	2	2	2	5	2	4	
4	13	12	5	1	1	0	1	1	1	2	1	3	1	4	
2	6	0	0	0	0	1	0	2	0	3	0	4	
2	11	8	8	0	8	1	8	2	8	3	8	4	
3	14	7	2	2	0	2	1	2	2	2	1	2	0	
4	6	0	7	2	0	0	0	1	0	5	0	3	0	4	
2	1	4	1	0	1	1	1	2	1	5	1	4	
3	7	2	1	2	0	2	1	2	2	2	1	2	0	
3	2	7	14	7	0	7	1	7	2	7	3	7	4	
2	9	8	8	0	8	1	8	2	8	1	8	0	
3	0	5	12	0	0	0	1	0	5	0	3	0	4	
3	5	1	2	5	0	5	1	5	5	5	3	5	4	
5	10	13	6	9	11	6	0	6	1	6	2	6	3	6	4	
3	0	7	2	2	0	2	1	2	5	2	3	2	4	
5	3	5	0	7	8	8	0	8	1	8	2	8	3	8	4	
3	8	7	0	0	0	0	1	0	2	0	3	0	4	
3	11	9	6	6	0	6	1	6	5	6	3	6	4	
3	3	5	12	5	0	5	1	5	5	5	3	5	4	
3	1	2	7	7	0	7	1	7	2	7	3	7	4	
3	7	2	4	2	0	2	1	2	2	2	1	2	0	
5	9	8	7	2	1	8	0	8	1	8	2	8	1	8	0	
3	2	7	0	0	0	0	1	0	2	0	1	0	0	
2	12	5	5	0	5	1	5	5	5	3	5	4	
5	10	12	5	1	2	5	0	5	1	5	2	5	5	5	4	
2	9	8	8	0	8	1	8	2	8	5	8	4	
4	10	12	5	12	5	0	5	1	5	2	5	5	5	4	
4	1	2	7	8	8	0	8	1	8	2	8	5	8	4	
4	3	5	0	7	7	0	7	1	7	2	7	5	7	4	
4	7	0	6	13	0	0	0	1	0	2	0	1	0	0	
2	8	14	8	0	8	1	8	2	8	1	8	0	
3	14	8	9	8	0	8	1	8	2	8	3	8	4	
5	1	2	7	8	9	1	0	7	1	7	2	8	5	8	4	
4	12	5	1	2	2	0	2	1	2	2	2	3	2	4	
3	2	1	5	2	0	2	1	2	2	2	1	2	0	
3	5	12	13	5	0	5	1	5	2	5	3	5	4	
5	10	13	6	0	7	6	0	6	1	6	2	6	3	6	4	
2	0	7	7	0	7	1	7	2	7	5	7	4	
5	11	9	6	13	10	6	0	6	1	6	5	6	3	6	4	
5	1	2	7	8	11	1	0	1	1	1	2	1	3	2	4	
2	8	11	8	0	8	1	8	2	8	1	8	0	
4	2	1	5	12	2	0	2	1	2	2	2	1	2	0	
2	4	1	1	0	1	1	1	5	1	3	1	4	
3	9	8	14	8	0	8	1	8	2	8	3	8	4	
6	9	6	0	5	1	4	6	0	6	1	6	5	6	3	1	4	
5	13	6	0	7	2	2	0	2	1	2	2	2	1	2	0	
4	0	5	1	4	0	0	0	1	0	2	0	3	0	4	
4	6	0	5	3	0	0	0	1	0	2	0	1	0	0	
3	8	7	2	2	0	2	1	2	2	2	1	2	0	
2	1	5	5	0	5	1	5	2	5	1	5	0	
3	7	0	6	0	0	0	1	0	2	0	3	0	4	
5	12	5	0	7	14	7	0	7	1	7	2	7	3	7	4	
4	13	6	9	11	6	0	6	1	6	2	6	1	6	0	
4	0	6	9	11	6	0	6	1	6	2	6	5	6	4	
3	6	13	10	6	0	6	1	6	2	6	1	6	0	
3	0	5	1	1	0	1	1	1	2	1	5	1	4	
2	7	0	7	0	7	1	7	2	7	5	0	4	
3	11	8	7	8	0	8	1	8	2	8	3	8	4	
3	1	5	0	0	0	0	1	0	2	0	1	0	0	
4	4	2	7	14	2	0	2	1	2	2	2	3	2	4	
4	9	8	7	2	2	0	2	1	2	2	2	3	2	4	
5	9	8	7	2	4	2	0	2	1	2	2	2	5	2	4	
3	2	4	3	2	0	2	1	2	2	2	3	2	4	
5	8	7	0	5	3	8	0	8	1	8	5	8	3	8	4	
5	5	0	6	9	11	6	0	6	1	6	2	6	1	6	0	
5	13	6	0	7	14	6	0	0	1	0	2	0	1	7	0	
3	0	7	8	8	0	8	1	8	2	8	3	8	4	
4	2	1	5	12	2	0	2	1	2	5	2	3	2	4	
5	1	2	7	8	9	7	0	7	1	7	2	7	1	7	0	
3	6	0	7	7	0	7	1	7	5	7	3	7	4	
4	8	9	6	13	6	0	6	1	6	2	6	3	6	4	
2	14	8	8	0	8	1	8	5	8	3	8	4	
5	2	1	5	12	10	5	0	5	1	5	2	5	5	5	4	
3	12	5	1	5	0	5	1	5	2	5	1	5	0	
2	2	4	2	0	2	1	2	2	2	5	2	4	
4	5	0	7	14	7	0	7	1	7	2	7	1	7	0	
3	13	6	0	0	0	0	1	0	2	0	3	0	4	
2	0	6	0	0	0	1	0	2	0	1	0	0	
6	11	9	6	0	5	3	0	0	0	1	0	2	0	5	5	4	
4	6	0	5	1	1	0	1	1	1	2	1	3	1	4	
4	8	7	2	4	8	0	8	1	8	2	8	5	8	4	
2	8	9	8	0	8	1	8	5	8	3	8	4	
5	8	9	6	13	10	6	0	6	1	6	2	6	5	6	4	
5	12	5	0	7	8	5	0	0	1	0	2	0	1	8	0	
3	5	0	7	7	0	7	1	7	2	7	1	7	0	
5	10	13	6	9	8	8	0	8	1	8	2	8	3	8	4	
3	0	5	3	0	0	0	1	0	2	0	1	0	0	
6	3	5	0	6	9	11	5	0	5	1	5	2	5	3	0	4	
4	8	7	2	1	1	0	1	1	1	2	1	3	1	4	
4	12	5	12	10	5	0	5	1	5	2	5	5	5	4	
4	1	5	0	6	6	0	6	1	6	2	6	3	6	4	
2	6	9	6	0	6	1	6	5	6	3	6	4	
4	4	2	7	8	7	0	7	1	7	2	7	1	7	0	
4	12	13	6	13	6	0	6	1	6	2	6	1	6	0	
2	2	1	1	0	1	1	1	5	1	3	1	4	
4	9	6	13	10	6	0	6	1	6	5	6	3	6	4	
4	13	6	13	12	6	0	6	1	6	2	6	3	6	4	
4	0	6	13	10	0	0	0	1	0	2	0	1	6	0	
5	13	6	0	7	2	0	0	0	1	0	5	0	3	0	4	
3	6	13	12	6	0	6	1	6	5	6	3	6	4	
5	11	8	7	2	4	2	0	2	1	2	2	2	1	2	0	
5	4	1	5	12	13	5	0	5	1	5	2	5	1	5	0	
3	12	5	3	5	0	5	1	5	2	5	3	5	4	
2	5	12	5	0	5	1	5	2	5	3	5	4	
5	10	12	5	1	4	1	0	1	1	1	2	1	3	1	4	
4	6	0	5	3	0	0	0	1	0	5	0	3	0	4	
4	11	9	6	13	6	0	6	1	6	2	6	1	6	0	
4	1	5	12	10	1	0	1	1	1	2	1	3	1	4	
2	7	2	7	0	7	1	7	2	7	5	2	4	
3	14	8	11	8	0	8	1	8	2	8	5	8	4	
5	2	7	0	6	13	7	0	0	1	0	5	0	3	6	4	
3	9	6	13	6	0	6	1	6	2	6	3	6	4	
4	13	6	0	7	0	0	0	1	0	5	0	3	0	4	
2	2	7	7	0	7	1	7	5	7	3	7	4	
4	7	0	5	12	0	0	0	1	0	5	0	3	0	4	
4	6	0	7	14	0	0	7	1	7	5	7	3	7	4	
4	8	7	0	5	0	0	0	1	0	5	0	3	0	4	
4	13	12	5	1	1	0	1	1	1	5	1	3	1	4	
2	0	5	0	0	0	1	0	2	0	3	0	4	
4	3	5	12	13	5	0	5	1	5	2	5	1	5	0	
2	11	8	8	0	8	1	8	2	8	1	8	0	
3	14	7	2	2	0	2	1	2	2	2	3	2	4	
2	1	4	1	0	1	1	1	5	1	3	1	4	
3	7	2	1	2	0	2	1	2	2	2	3	2	4	
2	7	0	0	0	0	1	0	5	0	3	0	4	
3	0	5	12	0	0	0	1	0	2	0	5	0	4	
3	7	8	11	7	0	7	1	7	2	7	5	7	4	
5	12	5	0	7	14	7	0	7	1	7	2	7	5	7	4	
5	10	13	6	9	11	6	0	6	1	6	2	6	1	6	0	
3	0	7	2	2	0	2	1	2	2	2	5	2	4	
5	3	5	0	7	8	8	0	8	1	8	2	8	1	8	0	
2	7	14	7	0	7	1	7	2	7	5	7	4	
3	11	9	6	6	0	6	1	6	2	6	3	6	4	
5	14	7	0	5	12	5	0	5	1	5	2	5	1	5	0	
3	7	2	4	2	0	2	1	2	2	2	5	2	4	
5	9	8	7	2	1	1	0	1	1	1	2	1	3	1	4	
2	13	6	6	0	6	1	6	5	6	3	6	4	
3	2	7	0	0	0	0	1	0	2	0	3	0	4	
4	4	1	5	12	1	0	1	1	1	2	1	5	5	4	
5	10	12	5	1	2	1	0	1	1	1	2	1	1	1	0	
3	6	9	8	8	0	8	1	8	5	8	3	8	4	
3	0	6	9	0	0	0	1	0	2	0	3	0	4	
3	3	4	1	1	0	1	1	1	2	1	1	1	0	
3	6	0	5	6	0	6	1	6	2	6	5	6	4	
3	7	0	5	0	0	0	1	0	5	0	3	0	4	
4	7	0	6	13	7	0	7	1	7	2	7	3	0	4	
2	8	14	8	0	8	1	8	2	8	3	8	4	
4	12	5	1	4	5	0	5	1	1	5	1	3	1	4	
3	14	8	9	8	0	8	1	8	2	8	1	8	0	
2	5	3	5	0	5	1	5	5	5	3	5	4	
4	12	5	1	2	1	0	1	1	1	5	1	3	1	4	
3	5	12	13	5	0	5	1	5	5	5	3	5	4	
5	10	13	6	0	7	0	0	0	1	0	2	0	1	7	0	
2	0	7	0	0	0	1	0	5	0	3	0	4	
5	11	9	6	13	10	6	0	6	1	6	2	6	3	6	4	
3	14	7	0	0	0	0	1	0	2	0	1	0	0	
4	7	0	5	3	0	0	0	1	0	2	0	1	0	0	
4	2	1	5	12	2	0	2	1	2	2	2	3	2	4	
4	8	7	2	1	8	0	8	1	8	5	8	3	8	4	
3	9	8	14	8	0	8	1	8	2	8	1	8	0	
4	13	6	9	8	6	0	6	1	6	2	6	5	6	4	
2	5	0	0	0	0	1	0	5	0	3	0	4	
2	6	9	6	0	6	1	6	2	6	5	6	4	
4	10	13	6	9	6	0	6	1	6	2	6	3	6	4	
4	3	5	12	10	5	0	5	1	5	2	5	3	5	4	
3	8	7	2	8	0	8	1	8	2	8	3	8	4	
2	1	5	1	0	1	1	1	2	1	3	1	4	
3	7	0	6	0	0	0	1	0	2	0	1	0	0	
3	9	8	7	8	0	8	1	8	2	8	1	8	0	
4	1	5	0	6	6	0	6	1	6	5	6	3	6	4	
4	5	0	7	8	8	0	8	1	8	2	8	5	8	4	
4	13	6	9	11	6	0	6	1	6	2	6	3	6	4	
4	0	6	9	11	6	0	6	1	6	5	6	3	6	4	
3	6	13	10	6	0	6	1	6	2	6	3	6	4	
5	11	8	7	2	1	1	0	1	1	1	5	1	3	1	4	
3	6	9	8	8	0	8	1	8	2	8	5	8	4	
4	4	1	5	0	1	0	0	1	0	5	0	3	0	4	
4	13	6	13	10	6	0	6	1	6	5	6	3	6	4	
3	11	8	7	7	0	7	1	7	5	7	3	7	4	
4	4	2	7	14	2	0	2	1	2	5	2	3	2	4	
4	9	8	7	2	2	0	2	1	2	2	2	1	2	0	
3	2	4	3	2	0	2	1	2	2	2	1	2	0	
5	5	0	6	9	11	6	0	6	1	6	2	6	3	6	4	
3	10	12	5	5	0	5	1	5	2	5	3	5	4	
5	6	0	5	1	4	6	0	6	1	6	2	6	1	1	0	
5	1	2	7	8	9	1	0	1	1	1	2	1	3	1	4	
3	6	9	11	6	0	6	1	6	5	6	3	6	4	
4	8	9	6	13	6	0	6	1	6	2	6	1	6	0	
5	12	13	6	9	11	6	0	6	1	6	2	6	5	6	4	
2	14	8	8	0	8	1	8	2	8	5	8	4	
5	2	1	5	12	10	2	0	2	1	2	2	2	1	2	0	
3	5	1	4	5	0	1	1	1	2	1	5	1	4	
4	9	6	13	12	6	0	6	1	6	2	6	3	6	4	
4	1	2	7	8	1	0	1	1	1	5	1	3	1	4	
4	5	0	7	14	7	0	7	1	7	2	7	5	7	4	
3	13	6	0	0	0	0	1	0	2	0	1	0	0	
2	0	6	0	0	0	1	0	2	0	3	0	4	
4	6	0	5	1	1	0	1	1	1	2	1	1	1	0	
4	8	7	2	4	2	0	2	1	2	2	2	1	2	0	
5	14	7	0	5	3	7	0	7	1	7	2	7	3	7	4	
2	7	0	7	0	7	1	7	2	7	3	7	4	
5	12	5	0	7	8	5	0	0	1	0	2	0	3	8	4	
4	1	5	12	13	1	0	1	1	1	5	1	3	1	4	
3	5	0	7	7	0	7	1	7	2	7	3	7	4	
3	13	6	9	6	0	6	1	6	2	6	1	6	0	
3	6	9	8	8	0	8	1	8	2	8	1	8	0	
4	3	5	12	13	5	0	5	1	5	2	5	5	5	4	
6	3	5	0	6	9	11	5	0	5	1	5	5	5	3	0	4	
4	8	7	2	1	1	0	1	1	1	2	1	1	1	0	
2	1	2	1	0	1	1	1	5	1	3	1	4	
4	1	5	0	6	6	0	6	1	6	2	6	1	6	0	
4	4	2	7	8	2	0	2	1	2	2	2	3	2	4	
3	9	6	0	0	0	0	1	0	2	0	3	0	4	
2	2	1	1	0	1	1	1	2	1	3	1	4	
4	5	0	6	9	6	0	6	1	6	2	6	1	6	0	
4	13	6	13	12	6	0	6	1	6	2	6	1	6	0	
4	0	6	13	10	0	0	0	1	0	2	0	3	0	4	
5	13	6	0	7	14	7	0	7	1	7	5	7	3	7	4	
3	11	8	14	8	0	8	1	8	2	8	5	8	4	
4	7	0	5	12	7	0	7	1	7	2	7	3	7	4	
5	11	8	7	2	4	2	0	2	1	2	2	2	5	2	4	
5	4	1	5	12	13	5	0	5	1	5	2	5	5	5	4	
3	12	5	3	5	0	5	1	5	2	5	1	5	0	
2	5	12	5	0	5	1	5	2	5	1	5	0	
5	10	12	5	1	4	5	0	5	1	1	5	1	3	1	4	
4	7	0	5	12	7	0	7	1	7	2	7	5	0	4	
3	6	0	7	7	0	7	1	7	2	7	3	7	4	
4	11	9	6	13	6	0	6	1	6	2	6	3	6	4	
4	1	5	12	10	5	0	5	1	5	2	5	1	5	0	
2	7	2	2	0	2	1	2	5	2	3	2	4	
4	12	5	12	10	5	0	5	1	5	2	5	1	5	0	
3	14	8	11	8	0	8	1	8	5	8	3	8	4	
5	2	7	0	6	13	7	0	0	1	0	2	0	3	6	4	
3	9	6	13	6	0	6	1	6	5	6	3	6	4	
4	13	6	0	7	0	0	0	1	0	2	0	5	7	4	
4	6	0	7	14	0	0	7	1	7	2	7	5	7	4	
4	13	12	5	1	5	0	5	1	5	2	5	5	5	4	
2	0	5	0	0	0	1	0	2	0	1	0	0	
4	3	5	12	13	5	0	5	1	5	2	5	3	5	4	
5	8	7	0	5	3	8	0	8	1	8	2	8	3	8	4	
5	1	2	7	8	9	1	0	1	1	1	5	1	3	1	4	
2	1	4	1	0	1	1	1	2	1	3	1	4	
5	4	1	5	12	10	1	0	1	1	1	2	1	1	1	0	
4	13	6	13	10	6	0	6	1	6	2	6	3	6	4	
3	0	5	12	0	0	0	1	0	2	0	1	0	0	
3	6	9	11	6	0	6	1	6	2	6	3	6	4	
4	1	2	7	14	2	0	2	1	2	5	2	3	7	4	
5	10	13	6	9	11	6	0	6	1	6	2	6	5	6	4	
5	3	5	0	7	8	8	0	8	1	8	2	8	5	8	4	
2	7	14	7	0	7	1	7	5	7	3	7	4	
3	11	9	6	6	0	6	1	6	2	6	1	6	0	
5	14	7	0	5	12	0	0	0	1	0	2	0	3	0	4	
4	2	7	0	6	2	0	2	1	0	5	0	3	0	4	
3	7	2	4	2	0	2	1	2	5	2	3	2	4	
5	9	8	7	2	1	1	0	1	1	1	5	1	3	1	4	
3	2	7	0	0	0	0	1	0	5	0	3	0	4	
3	5	12	10	5	0	5	1	5	2	5	3	5	4	
5	10	12	5	1	2	1	0	1	1	1	2	1	3	1	4	
3	0	6	9	6	0	6	1	6	2	6	1	6	0	
3	3	4	1	1	0	1	1	1	2	1	3	1	4	
3	6	0	5	0	0	0	1	0	5	0	3	0	4	
4	1	2	7	8	7	0	7	1	7	2	7	3	7	4	
5	4	1	5	0	6	6	0	6	1	6	2	6	1	6	0	
2	8	14	8	0	8	1	8	5	8	3	8	4	
4	12	5	1	4	1	0	1	1	1	2	1	5	1	4	
3	5	1	4	5	0	1	1	1	5	1	3	1	4	
2	5	3	5	0	5	1	5	2	5	5	5	4	
4	12	5	1	2	2	0	2	1	2	2	2	5	2	4	
3	5	12	13	5	0	5	1	5	2	5	5	5	4	
5	10	13	6	0	7	6	0	6	1	6	2	6	5	6	4	
3	12	5	1	1	0	1	1	1	5	1	3	1	4	
2	0	7	7	0	7	1	7	2	7	3	7	4	
5	11	9	6	13	10	6	0	6	1	6	2	6	1	6	0	
3	14	7	0	7	0	7	1	7	2	7	3	7	4	
4	7	0	5	3	7	0	7	1	7	2	7	3	7	4	
4	12	13	6	9	6	0	6	1	6	2	6	3	6	4	
3	9	6	0	0	0	0	1	0	2	0	5	0	4	
3	5	0	6	0	0	0	1	0	2	0	3	0	4	
3	9	8	14	8	0	8	1	8	2	8	5	8	4	
4	13	6	9	8	8	0	8	1	8	5	8	3	8	4	
3	6	0	7	7	0	7	1	7	2	7	5	7	4	
4	10	13	6	9	6	0	6	1	6	2	6	1	6	0	
3	1	4	3	1	0	1	1	1	5	1	3	1	4	
4	3	5	12	10	5	0	5	1	5	2	5	1	5	0	
3	8	7	2	2	0	2	1	2	5	2	3	2	4	
2	1	5	1	0	1	1	1	5	1	3	1	4	
5	4	2	7	8	9	2	0	2	1	2	2	2	3	2	4	
3	9	8	7	8	0	8	1	8	2	8	3	8	4	
3	9	8	11	8	0	8	1	8	5	8	3	8	4	
4	1	5	12	10	1	0	1	1	1	5	1	3	1	4	
4	5	0	7	8	8	0	8	1	8	5	8	3	8	4	
4	10	13	6	0	0	0	0	1	0	2	0	1	0	0	
4	0	6	9	11	6	0	6	1	6	2	6	3	6	4	
2	8	9	8	0	8	1	8	2	8	5	8	4	
5	11	8	7	2	1	2	0	2	1	2	2	2	5	2	4	
4	4	1	5	0	0	0	0	1	0	2	0	5	0	4	
4	10	13	6	13	6	0	6	1	6	5	6	3	6	4	
3	11	8	7	7	0	7	1	7	2	7	5	7	4	
4	2	7	8	9	2	0	2	1	2	2	2	5	2	4	
4	4	2	7	14	2	0	2	1	2	2	2	5	2	4	
4	9	8	7	2	8	0	8	1	8	2	8	5	8	4	
3	2	4	3	2	0	2	1	2	2	2	5	2	4	
3	10	12	5	5	0	5	1	5	2	5	1	5	0	
4	12	5	12	10	5	0	5	1	5	5	5	3	5	4	
5	6	0	5	1	4	6	0	6	1	6	2	6	3	1	4	
5	11	9	6	13	12	6	0	6	1	6	2	6	3	6	4	
5	4	2	7	8	11	2	0	2	1	2	2	2	5	8	4	
4	14	7	0	6	6	0	6	1	6	2	6	1	6	0	
3	4	1	5	1	0	1	1	1	2	1	3	1	4	
4	8	9	6	13	6	0	6	1	6	2	6	5	6	4	
5	12	13	6	9	11	6	0	6	1	6	5	6	3	6	4	
5	2	1	5	12	10	2	0	2	1	2	2	2	3	2	4	
5	13	6	0	7	2	6	0	2	1	2	2	2	5	2	4	
4	9	6	13	12	6	0	6	1	6	2	6	1	6	0	
5	3	5	0	6	9	6	0	6	1	6	2	6	5	6	4	
2	0	6	6	0	6	1	6	5	6	3	6	4	
3	3	5	12	5	0	5	1	5	2	5	3	5	4	
4	8	7	2	4	8	0	8	1	8	2	8	3	2	4	
5	14	7	0	5	3	0	0	0	1	0	2	0	1	0	0	
3	7	2	1	1	0	1	1	1	2	1	5	1	4	
2	7	0	0	0	0	1	0	2	0	1	0	0	
4	9	6	0	5	0	0	0	1	0	2	0	1	5	0	
5	4	2	7	8	11	8	0	8	1	8	5	8	3	8	4	
4	6	0	5	3	0	0	0	1	0	2	0	5	5	4	
3	13	6	9	6	0	6	1	6	2	6	3	6	4	
3	6	9	8	8	0	8	1	8	2	8	3	8	4	
5	10	13	6	9	8	6	0	6	1	6	2	6	5	6	4	
3	1	5	12	5	0	5	1	5	2	5	5	5	4	
6	3	5	0	6	9	11	6	0	6	1	6	2	6	5	6	4	
3	7	8	9	8	0	8	1	8	2	8	1	8	0	
5	14	7	0	6	13	6	0	6	1	6	2	6	3	6	4	
3	9	6	0	0	0	0	1	0	2	0	1	0	0	
4	8	7	0	5	0	0	0	1	0	2	0	5	0	4	
3	0	5	3	0	0	0	1	0	5	0	3	0	4	
2	2	1	1	0	1	1	1	2	1	1	1	0	
2	8	11	8	0	8	1	8	2	8	5	8	4	
4	5	0	6	9	6	0	6	1	6	2	6	3	6	4	
4	10	12	5	3	5	0	5	1	5	2	5	3	5	4	
4	0	6	13	10	6	0	6	1	6	5	6	3	6	4	
3	3	5	0	0	0	0	1	0	2	0	3	0	4	
3	11	8	14	8	0	8	1	8	5	8	3	8	4	
4	7	0	5	12	5	0	5	1	5	2	5	1	5	0	
5	11	8	7	2	4	8	0	8	1	2	5	2	3	2	4	
3	2	7	8	7	0	7	1	7	2	7	1	7	0	
6	10	13	6	0	7	14	6	0	6	1	6	2	6	5	6	4	
5	12	5	0	7	14	5	0	5	1	5	5	5	3	5	4	
5	10	12	5	1	4	5	0	5	1	5	2	5	5	1	4	
3	5	0	6	5	0	0	1	0	5	0	3	0	4	
3	6	0	7	0	0	0	1	0	2	0	1	7	0	
3	8	9	6	6	0	6	1	6	2	6	1	6	0	
4	14	7	2	1	2	0	2	1	2	2	2	3	2	4	
2	13	6	6	0	6	1	6	2	6	5	6	4	
4	12	13	6	9	6	0	6	1	6	5	6	3	6	4	
2	7	2	7	0	7	1	7	2	7	3	7	4	
4	12	5	12	10	5	0	5	1	5	2	5	3	5	4	
5	2	7	0	6	13	7	0	0	1	0	2	0	1	6	0	
4	14	7	2	1	2	0	2	1	2	2	2	5	1	4	
3	9	6	13	6	0	6	1	6	2	6	5	6	4	
4	13	6	0	7	0	0	0	1	0	2	0	1	0	0	
4	6	0	7	14	0	0	0	1	0	2	0	1	0	0	
2	0	5	0	0	0	1	0	2	0	5	5	4	
5	8	7	0	5	3	8	0	8	1	8	2	8	1	8	0	
2	1	4	1	0	1	1	1	2	1	1	1	0	
5	4	1	5	12	10	5	0	5	1	5	2	5	3	5	4	
2	9	6	6	0	6	1	6	2	6	3	6	4	
6	14	7	0	6	13	10	6	0	6	1	6	5	6	3	6	4	
4	13	6	13	10	6	0	6	1	6	2	6	1	6	0	
3	0	5	12	0	0	0	1	0	2	0	3	0	4	
3	6	9	11	6	0	6	1	6	2	6	1	6	0	
5	10	13	6	9	11	6	0	6	1	6	5	6	3	6	4	
4	1	5	12	13	5	0	5	1	5	2	5	1	5	0	
5	3	5	0	7	8	8	0	8	1	8	5	8	3	8	4	
2	7	14	7	0	7	1	7	2	7	3	7	4	
4	8	7	2	1	7	0	7	1	7	2	2	5	2	4	
5	14	7	0	5	12	7	0	7	1	7	5	7	3	7	4	
4	2	7	0	6	7	0	7	1	7	2	0	5	0	4	
5	9	8	7	2	1	7	0	7	1	7	2	7	5	1	4	
3	2	7	0	7	0	7	1	7	2	7	5	0	4	
3	5	12	10	5	0	5	1	5	2	5	1	5	0	
3	0	6	9	0	0	0	1	0	2	0	5	0	4	
3	6	0	5	5	0	5	1	5	2	5	3	5	4	
4	1	2	7	8	2	0	2	1	2	2	2	1	2	0	
5	4	1	5	0	6	6	0	6	1	6	2	6	3	6	4	
2	8	14	8	0	8	1	8	2	8	5	8	4	
4	12	5	1	4	5	0	5	1	1	2	1	1	1	0	
4	2	7	8	11	2	0	2	1	2	2	2	3	2	4	
2	5	3	5	0	5	1	5	2	5	1	5	0	
5	10	13	6	0	7	6	0	6	1	6	5	6	3	6	4	
4	13	6	13	10	6	0	6	1	6	2	6	5	6	4	
2	0	7	7	0	7	1	7	2	7	1	7	0	
4	8	7	0	5	5	0	5	1	5	2	5	3	5	4	
3	3	4	1	1	0	1	1	1	2	1	5	1	4	
3	14	7	0	7	0	7	1	7	5	7	3	7	4	
4	7	0	5	3	7	0	7	1	7	5	7	3	5	4	
4	12	13	6	9	6	0	6	1	6	2	6	1	6	0	
4	2	1	5	12	5	0	5	1	5	2	5	5	5	4	
3	5	0	6	0	0	0	1	0	2	0	1	0	0	
3	9	8	14	8	0	8	1	8	5	8	3	8	4	
4	13	6	9	8	6	0	6	1	6	2	6	3	6	4	
3	0	7	14	7	0	7	1	7	2	7	1	7	0	
4	4	1	4	3	1	0	1	1	1	5	1	3	1	4	
2	6	9	6	0	6	1	6	2	6	3	6	4	
3	6	9	11	6	0	6	1	6	2	6	5	6	4	
3	1	4	3	1	0	1	1	1	2	1	5	1	4	
3	8	7	2	2	0	2	1	2	2	2	5	2	4	
2	1	5	5	0	5	1	5	2	5	5	5	4	
5	4	2	7	8	9	7	0	7	1	7	2	7	1	7	0	
4	5	0	7	8	0	0	0	1	0	2	0	3	0	4	
4	10	13	6	0	6	0	0	1	0	2	0	3	0	4	
4	0	6	9	11	6	0	6	1	6	2	6	1	6	0	
5	11	8	7	2	1	7	0	7	1	7	2	7	1	7	0	
4	1	2	7	14	7	0	7	1	7	2	7	3	7	4	
6	14	7	0	6	13	10	7	0	7	1	7	2	7	5	0	4	
4	4	1	5	0	0	0	0	1	0	2	0	1	0	0	
4	2	7	8	9	7	0	7	1	7	5	7	3	7	4	
4	9	8	7	2	8	0	8	1	8	5	8	3	8	4	
4	13	12	5	3	5	0	5	1	5	5	5	3	5	4	
3	2	4	3	2	0	2	1	2	5	2	3	2	4	
2	6	0	0	0	0	1	0	5	0	3	0	4	
2	1	2	2	0	2	1	2	2	2	5	2	4	
5	6	0	5	1	4	6	0	6	1	6	5	6	3	1	4	
5	11	9	6	13	12	6	0	6	1	6	2	6	1	6	0	
4	14	7	0	6	6	0	6	1	6	2	6	3	6	4	
3	4	1	5	5	0	5	1	5	2	5	1	5	0	
4	8	9	6	13	8	0	8	1	8	5	8	3	8	4	
5	12	13	6	9	11	6	0	6	1	6	2	6	3	6	4	
3	5	1	4	5	0	1	1	1	2	1	3	1	4	
5	13	6	0	7	14	6	0	6	1	6	2	6	5	6	4	
2	0	6	0	0	0	1	0	2	0	5	0	4	
3	3	5	12	5	0	5	1	5	2	5	1	5	0	
5	7	0	6	13	10	7	0	7	1	7	2	7	5	0	4	
5	14	7	0	5	3	7	0	7	1	7	2	7	5	5	4	
6	11	9	6	0	5	3	5	0	5	1	5	5	5	3	5	4	
5	4	2	7	8	11	8	0	8	1	8	2	8	3	8	4	
4	9	6	0	5	5	0	5	1	5	2	5	3	5	4	
3	4	2	7	7	0	7	1	7	5	7	3	7	4	
6	10	13	6	0	7	14	0	0	0	1	0	2	0	1	7	0	
3	0	6	13	0	0	0	1	0	2	0	3	0	4	
2	3	5	5	0	5	1	5	2	5	1	5	0	
3	1	5	12	5	0	5	1	5	5	5	3	5	4	
3	7	8	9	8	0	8	1	8	2	8	3	8	4	
3	12	5	0	5	0	5	1	5	5	5	3	5	4	
5	14	7	0	6	13	7	0	7	1	7	2	7	1	0	0	
4	5	0	6	9	6	0	6	1	6	5	6	3	6	4	
4	10	12	5	3	5	0	5	1	5	2	5	1	5	0	
4	14	7	0	6	7	0	7	1	7	2	7	5	0	4	
3	3	5	0	5	0	5	1	5	2	5	1	5	0	
5	4	1	5	12	13	5	0	5	1	5	5	5	3	5	4	
3	11	8	14	8	0	8	1	8	2	8	3	8	4	
4	14	7	2	4	7	0	7	1	7	2	2	1	2	0	
3	4	2	7	7	0	7	1	7	2	7	3	7	4	
3	2	7	8	2	0	2	1	2	2	2	3	2	4	
4	1	2	7	14	1	0	1	1	1	2	1	5	2	4	
5	13	12	5	1	4	5	0	5	1	5	2	5	5	5	4	
2	6	13	6	0	6	1	6	2	6	5	6	4	
5	3	5	0	7	14	7	0	7	1	7	2	7	3	7	4	
3	8	9	6	8	0	8	1	8	2	8	3	8	4	
4	14	7	2	1	1	0	1	1	1	2	1	1	1	0	
2	7	2	7	0	7	1	7	2	7	1	7	0	
3	9	8	11	8	0	8	1	8	2	8	1	8	0	
4	13	6	0	7	0	0	0	1	0	2	0	3	0	4	
4	6	0	7	14	0	0	7	1	7	2	7	3	7	4	
5	11	9	6	0	5	6	0	6	1	6	5	6	3	6	4	
2	0	5	0	0	0	1	0	5	0	3	0	4	
3	7	8	11	7	0	7	1	7	2	7	1	7	0	
5	4	1	5	12	10	1	0	1	1	1	5	1	3	1	4	
2	9	6	6	0	6	1	6	2	6	1	6	0	
3	12	5	1	5	0	5	1	5	2	5	5	1	4	
4	11	9	6	0	0	0	0	1	0	5	0	3	0	4	
4	10	12	5	1	5	0	5	1	5	2	5	3	5	4	
4	3	5	12	13	5	0	5	1	5	5	5	3	5	4	
3	3	4	2	2	0	2	1	2	2	2	3	2	4	
4	1	5	12	13	5	0	5	1	5	2	5	3	5	4	
2	7	14	7	0	7	1	7	2	7	1	7	0	
4	12	5	0	7	7	0	7	1	7	2	7	5	7	4	
5	14	7	0	5	12	7	0	7	1	7	2	7	5	0	4	
4	2	7	0	6	2	0	0	1	0	2	0	1	0	0	
2	5	0	5	0	5	1	5	2	5	5	0	4	
5	3	5	0	7	14	5	0	5	1	0	5	0	3	7	4	
3	5	12	10	5	0	5	1	5	2	5	5	5	4	
3	11	8	9	8	0	8	1	8	5	8	3	8	4	
3	0	6	9	0	0	0	1	0	5	0	3	0	4	
3	6	0	5	0	0	0	1	0	2	0	1	5	0	
2	14	7	7	0	7	1	7	2	7	3	7	4	
5	4	1	5	0	6	1	0	0	1	0	5	0	3	0	4	
4	1	5	12	10	1	0	1	1	1	2	1	5	5	4	
4	12	5	1	4	1	0	1	1	1	2	1	3	1	4	
4	2	7	8	11	8	0	8	1	8	2	8	1	8	0	
2	5	3	5	0	5	1	5	2	5	3	5	4	
3	13	12	5	5	0	5	1	5	2	5	1	5	0	
3	6	13	12	6	0	6	1	6	2	6	1	6	0	
4	14	7	2	4	2	0	2	1	2	2	2	5	2	4	
4	8	7	0	5	8	0	8	1	8	2	8	1	8	0	
3	14	7	0	7	0	7	1	7	2	7	5	0	4	
4	7	0	5	3	7	0	7	1	7	2	7	5	5	4	
5	9	8	7	2	4	8	0	8	1	8	2	8	3	8	4	
3	9	8	11	8	0	8	1	8	2	8	5	8	4	
3	5	0	6	6	0	6	1	6	2	6	5	6	4	
4	13	6	9	8	6	0	6	1	8	2	8	1	8	0	
3	0	7	14	7	0	7	1	7	2	7	3	7	4	
2	6	9	6	0	6	1	6	2	6	1	6	0	
4	11	8	7	2	7	0	7	1	7	2	7	5	7	4	
3	1	4	3	1	0	1	1	1	2	1	1	1	0	
2	7	8	8	0	8	1	8	2	8	3	8	4	
4	10	13	6	9	6	0	6	1	6	5	6	3	6	4	
2	12	5	5	0	5	1	5	2	5	5	5	4	
5	11	9	6	13	12	6	0	6	1	6	5	6	3	6	4	
5	4	2	7	8	9	8	0	8	1	8	2	8	5	8	4	
5	3	5	0	6	9	5	0	5	1	5	5	5	3	0	4	
3	10	13	6	6	0	6	1	6	5	6	3	6	4	
4	5	0	7	8	0	0	0	1	0	2	0	1	0	0	
4	10	13	6	0	0	0	0	1	0	5	0	3	0	4	
5	11	8	7	2	1	1	0	1	1	1	2	1	3	1	4	
4	1	2	7	14	1	0	1	1	1	2	1	1	1	0	
4	4	1	5	0	0	0	0	1	0	2	0	3	0	4	
3	12	13	6	6	0	6	1	6	2	6	1	6	0	
4	2	7	8	9	2	0	2	1	2	2	2	3	2	4	
2	5	1	5	0	5	1	5	2	5	1	5	0	
4	13	12	5	3	5	0	5	1	5	2	5	5	5	4	
4	6	0	7	2	0	0	0	1	0	2	0	5	2	4	
5	6	0	5	1	4	1	0	1	1	1	2	1	5	1	4	
2	8	7	7	0	7	1	7	2	7	3	7	4	
3	7	0	5	0	0	0	1	0	2	0	5	0	4	
3	4	1	5	1	0	1	1	1	2	1	5	1	4	
5	12	13	6	9	11	6	0	6	1	6	2	6	1	6	0	
3	5	1	4	5	0	5	1	5	2	5	1	5	0	
6	10	13	6	0	7	14	0	0	0	1	0	5	0	3	7	4	
2	13	6	6	0	6	1	6	2	6	3	6	4	
3	0	5	1	0	0	0	1	0	5	0	3	0	4	
4	3	5	0	6	5	0	5	1	5	2	5	5	0	4	
3	3	5	12	5	0	5	1	5	2	5	5	5	4	
5	7	0	6	13	10	7	0	7	1	7	5	7	3	7	4	
5	9	6	0	5	3	0	0	0	1	0	5	0	3	0	4	
3	9	8	7	8	0	8	1	8	2	8	5	7	4	
5	4	2	7	8	11	2	0	2	1	2	2	2	1	2	0	
4	9	6	0	5	0	0	0	1	0	5	0	3	0	4	
6	10	13	6	0	7	14	0	0	0	1	0	2	0	3	7	4	
3	0	6	13	0	0	0	1	0	2	0	1	0	0	
2	3	5	5	0	5	1	5	2	5	3	5	4	
4	12	13	6	9	6	0	6	1	6	2	6	5	6	4	
6	11	9	6	0	5	3	0	0	0	1	0	2	0	1	0	0	
2	11	8	8	0	8	1	8	5	8	3	8	4	
3	1	5	12	1	0	1	1	1	2	1	3	5	4	
2	3	5	5	0	5	1	5	5	5	3	5	4	
2	4	2	2	0	2	1	2	2	2	1	2	0	
3	12	5	0	0	0	0	1	0	2	0	5	0	4	
7	10	12	5	1	2	7	8	5	0	7	1	7	5	7	3	8	4	
4	5	0	6	9	5	0	5	1	5	2	5	5	0	4	
4	10	12	5	3	5	0	5	1	5	2	5	5	5	4	
3	3	5	0	5	0	5	1	5	2	5	5	0	4	
3	11	8	14	8	0	8	1	8	2	8	1	8	0	
4	14	7	2	4	2	0	2	1	2	2	2	3	2	4	
3	2	7	14	2	0	2	1	2	5	2	3	2	4	
3	4	2	7	2	0	2	1	2	2	2	1	2	0	
2	12	5	5	0	5	1	5	2	5	3	5	4	
3	2	7	8	2	0	2	1	2	5	2	3	2	4	
3	5	1	2	2	0	2	1	2	2	2	3	2	4	
5	13	12	5	1	4	1	0	1	1	1	5	1	3	1	4	
2	6	13	6	0	6	1	6	5	6	3	6	4	
3	8	7	0	7	0	7	1	7	5	7	3	7	4	
3	7	8	9	7	0	7	1	7	2	7	5	8	4	
3	1	2	7	2	0	2	1	2	5	2	3	2	4	
5	3	5	0	7	14	7	0	7	1	7	2	7	1	7	0	
3	8	9	6	8	0	8	1	8	5	8	3	8	4	
3	9	8	11	8	0	8	1	8	2	8	3	8	4	
4	10	12	5	12	5	0	5	1	5	2	5	1	5	0	
4	3	5	0	7	7	0	7	1	7	2	7	1	7	0	
5	14	7	0	6	13	7	0	7	1	7	5	7	3	0	4	
5	11	9	6	0	5	6	0	6	1	6	2	6	5	5	4	
3	7	8	11	7	0	7	1	7	2	7	3	7	4	
3	2	1	5	2	0	2	1	2	2	2	5	2	4	
5	4	1	5	12	10	5	0	5	1	5	2	5	5	5	4	
2	9	6	6	0	6	1	6	2	6	5	6	4	
4	10	12	5	1	1	0	1	1	1	5	1	3	1	4	
4	12	13	6	13	6	0	6	1	6	2	6	5	6	4	
4	10	12	5	1	1	0	1	1	1	2	1	1	1	0	
5	1	2	7	8	11	7	0	7	1	7	5	7	3	7	4	
3	3	4	2	2	0	2	1	2	2	2	1	2	0	
4	11	9	6	0	6	0	6	1	6	2	6	3	0	4	
6	14	7	0	6	13	10	6	0	6	1	6	2	6	1	6	0	
2	4	1	1	0	1	1	1	2	1	3	1	4	
4	12	5	0	7	7	0	7	1	7	5	7	3	7	4	
4	2	7	0	6	2	0	2	1	2	2	2	3	2	4	
4	4	1	4	3	1	0	1	1	1	2	1	5	1	4	
3	3	4	2	2	0	2	1	2	5	2	3	2	4	
4	0	5	1	4	0	0	0	1	0	5	5	3	1	4	
3	5	12	10	5	0	5	1	5	5	5	3	5	4	
3	11	8	9	8	0	8	1	8	2	8	5	8	4	
4	11	9	6	0	6	0	6	1	6	2	6	5	0	4	
2	14	7	7	0	7	1	7	2	7	1	7	0	
5	4	1	5	0	6	6	0	6	1	6	2	6	5	6	4	
4	3	5	0	7	5	0	5	1	0	5	0	3	7	4	
4	2	7	8	11	2	0	2	1	2	2	2	5	2	4	
3	13	12	5	5	0	5	1	5	2	5	3	5	4	
3	9	6	0	0	0	0	1	0	5	0	3	0	4	
3	6	13	12	6	0	6	1	6	2	6	3	6	4	
3	1	5	0	0	0	0	1	0	2	0	5	0	4	
3	7	0	5	7	0	7	1	7	2	7	1	7	0	
4	12	13	6	13	6	0	6	1	6	5	6	3	6	4	
5	9	8	7	2	4	7	0	7	1	7	2	7	1	7	0	
3	0	7	8	7	0	7	1	7	5	7	3	7	4	
3	14	8	9	8	0	8	1	8	5	8	3	8	4	
3	0	7	14	7	0	7	1	7	5	7	3	7	4	
4	3	4	1	4	1	0	1	1	1	2	1	3	1	4	
2	8	7	7	0	7	1	7	2	7	5	7	4	
4	11	8	7	2	2	0	2	1	2	5	2	3	2	4	
3	1	4	3	1	0	1	1	1	2	1	3	1	4	
2	7	8	8	0	8	1	8	2	8	1	8	0	
3	10	12	5	5	0	5	1	5	5	5	3	5	4	
2	2	4	2	0	2	1	2	2	2	1	2	0	
5	4	2	7	8	9	2	0	2	1	2	5	2	3	2	4	
3	10	13	6	6	0	6	1	6	2	6	5	6	4	
4	10	13	6	0	0	0	0	1	0	2	0	5	0	4	
4	1	5	0	6	6	0	6	1	6	2	6	5	6	4	
5	8	9	6	13	12	8	0	8	1	8	2	8	5	8	4	
5	8	7	0	5	12	8	0	8	1	8	5	8	3	8	4	
5	8	9	6	13	10	8	0	8	1	8	2	8	1	8	0	
4	14	7	0	5	7	0	7	1	7	2	7	3	7	4	
3	4	2	7	2	0	2	1	2	2	2	5	2	4	
3	12	13	6	6	0	6	1	6	2	6	3	6	4	
4	2	7	8	9	2	0	2	1	2	2	2	1	2	0	
2	5	1	1	0	1	1	1	2	1	3	1	4	
4	13	12	5	3	5	0	5	1	5	2	5	1	5	0	
3	0	5	3	5	0	5	1	5	2	5	5	5	4	
4	6	0	7	2	2	0	2	1	2	2	2	1	2	0	
2	8	7	7	0	7	1	7	2	7	1	7	0	
3	4	1	5	1	0	1	1	1	5	1	3	1	4	
4	9	6	13	10	6	0	6	1	6	2	6	3	6	4	
4	14	7	0	6	6	0	6	1	6	5	6	3	6	4	
2	13	6	6	0	6	1	6	2	6	1	6	0	
2	7	8	7	0	7	1	7	2	7	5	8	4	
4	3	4	1	4	1	0	1	1	1	5	1	3	1	4	
4	3	5	0	6	5	0	0	1	0	5	0	3	0	4	
5	8	7	0	5	3	8	0	8	1	8	2	8	5	5	4	
5	7	0	6	13	10	7	0	7	1	0	2	0	3	6	4	
5	9	6	0	5	3	0	0	0	1	0	2	0	5	0	4	
4	14	7	0	5	7	0	7	1	7	5	7	3	7	4	
4	9	6	0	5	6	0	6	1	6	2	6	5	6	4	
3	0	6	13	0	0	0	1	0	2	0	5	6	4	
6	11	9	6	0	5	3	6	0	6	1	6	2	6	3	5	4	
3	1	5	12	5	0	5	1	5	2	5	1	5	0	
2	4	2	2	0	2	1	2	2	2	3	2	4	
3	12	5	0	0	0	0	1	0	2	0	1	0	0	
2	2	7	2	0	2	1	2	2	2	3	2	4	
