17680.5	-1
-1
14.63	14.6428
15
0	24	28
1	21	28
2	1	28
3	1	28
4	0	28
5	28	28
6	4	28
7	28	28
8	1	28
9	3	28
10	0	28
11	0	28
12	10	28
13	0	28
14	1	28
44
0	5	94946.250000	162195.900000	1
0	6	47082.000000	110170.800000	1
0	7	31762.500000	66306.500000	1
1	2	64606.500000	136693.400000	1
1	4	17256.750000	44884.400000	1
1	5	125065.500000	216261.200000	1
2	1	75069.750000	136693.400000	1
2	4	0	17341.700000	0
2	7	59865.750000	136693.400000	1
3	4	0	38763.800000	0
3	5	43727.250000	51005.000000	1
4	1	18842.250000	44884.400000	1
4	2	0	17341.700000	0
4	3	0	38763.800000	0
5	0	97240.500000	162195.900000	1
5	1	132767.250000	216261.200000	1
5	3	45354.750000	51005.000000	1
5	12	30980.250000	70386.900000	1
6	0	51276.750000	110170.800000	1
6	9	42876.750000	91809.000000	1
6	13	27373.500000	64266.300000	1
7	0	40624.500000	66306.500000	1
7	2	69961.500000	136693.400000	1
7	8	29615.250000	38763.800000	1
7	14	34303.500000	57125.600000	1
8	7	35511.000000	38763.800000	1
8	9	0	19381.900000	0
8	11	24743.250000	31623.100000	1
8	14	0	23462.300000	0
9	6	40666.500000	91809.000000	1
9	8	0	19381.900000	0
9	11	21577.500000	32643.200000	1
10	12	20916.000000	25502.500000	1
10	13	0	14281.400000	0
11	8	30035.250000	31623.100000	1
11	9	19488.000000	32643.200000	1
12	5	36256.500000	70386.900000	1
12	10	20060.250000	25502.500000	1
12	13	19545.750000	25502.500000	1
13	6	32156.250000	64266.300000	1
13	10	0	14281.400000	0
13	12	19582.500000	25502.500000	1
14	7	41013.000000	57125.600000	1
14	8	0	23462.300000	0
840
5	1	2	7	8	11	7	0	7	1	7	2	7	3	7	4	
5	1	5	0	6	9	5	0	5	1	5	2	5	5	5	4	
4	7	0	5	12	5	0	5	1	5	2	5	3	5	4	
2	3	5	5	0	5	1	5	2	5	5	5	4	
4	7	0	5	3	5	0	5	1	5	5	5	3	5	4	
6	11	8	7	0	5	3	5	0	5	1	5	5	5	3	5	4	
4	3	5	12	13	5	0	5	1	5	2	5	5	5	4	
2	6	13	6	0	6	1	6	5	6	3	6	4	
5	10	12	5	0	7	5	0	5	1	5	2	5	3	5	4	
4	3	5	0	6	5	0	5	1	5	5	5	3	5	4	
4	4	1	2	7	7	0	7	1	7	2	7	5	7	4	
4	1	2	7	8	7	0	7	1	7	2	7	1	7	0	
5	14	7	0	5	12	5	0	5	1	5	2	5	1	5	0	
4	7	2	1	4	7	0	7	1	7	2	7	3	7	4	
4	2	1	5	12	5	0	5	1	5	2	5	5	5	4	
3	0	7	2	7	0	7	1	7	2	7	5	7	4	
4	13	12	5	1	5	0	5	1	5	2	5	5	5	4	
4	7	0	5	3	5	0	5	1	5	2	5	1	5	0	
3	5	12	10	5	0	5	1	5	5	5	3	5	4	
2	12	5	5	0	5	1	5	2	5	1	5	0	
3	5	1	2	5	0	5	1	5	2	5	5	5	4	
4	8	7	2	1	7	0	7	1	7	2	7	1	7	0	
2	8	7	7	0	7	1	7	2	7	3	7	4	
5	10	12	13	6	9	12	0	12	1	12	2	12	3	12	4	
2	6	0	0	0	0	1	0	5	0	3	0	4	
3	14	7	0	7	0	7	1	7	5	7	3	7	4	
4	4	1	5	12	5	0	5	1	5	2	5	1	5	0	
3	2	1	5	5	0	5	1	5	5	5	3	5	4	
3	7	0	5	5	0	5	1	5	2	5	5	5	4	
3	0	7	14	7	0	7	1	7	5	7	3	7	4	
3	5	0	7	5	0	5	1	5	2	5	1	5	0	
3	8	11	9	8	0	8	1	8	5	8	3	8	4	
5	4	1	5	12	10	5	0	5	1	5	2	5	5	5	4	
3	5	12	10	5	0	5	1	5	2	5	5	5	4	
3	14	7	0	7	0	7	1	7	2	7	3	7	4	
6	3	5	0	6	9	11	5	0	5	1	5	5	5	3	5	4	
2	6	13	6	0	6	1	6	2	6	1	6	0	
6	8	7	0	5	12	10	5	0	5	1	5	2	5	1	5	0	
4	10	12	5	1	5	0	5	1	5	2	5	5	5	4	
2	0	5	5	0	5	1	5	2	5	3	5	4	
4	3	5	1	2	5	0	5	1	5	2	5	5	5	4	
4	7	0	5	12	5	0	5	1	5	2	5	1	5	0	
3	1	2	7	1	0	1	1	1	5	1	3	1	4	
6	10	12	5	0	7	14	5	0	5	1	5	2	5	3	5	4	
5	8	7	2	1	4	7	0	7	1	7	5	7	3	7	4	
5	2	1	5	12	10	5	0	5	1	5	5	5	3	5	4	
4	2	1	5	3	5	0	5	1	5	2	5	5	5	4	
2	4	1	1	0	1	1	1	5	1	3	1	4	
5	9	6	0	5	3	5	0	5	1	5	2	5	3	5	4	
4	7	0	5	12	5	0	5	1	5	2	5	5	5	4	
3	0	5	3	5	0	5	1	5	2	5	1	5	0	
5	9	6	0	5	3	5	0	5	1	5	2	5	5	5	4	
2	6	13	6	0	6	1	6	2	6	5	6	4	
3	12	5	0	5	0	5	1	5	2	5	3	5	4	
4	11	8	7	0	7	0	7	1	7	2	7	3	7	4	
5	10	12	5	1	2	5	0	5	1	5	2	5	3	5	4	
4	13	6	9	11	6	0	6	1	6	5	6	3	6	4	
4	7	2	1	4	7	0	7	1	7	2	7	1	7	0	
3	12	5	3	5	0	5	1	5	5	5	3	5	4	
4	12	5	0	7	5	0	5	1	5	2	5	3	5	4	
4	6	0	5	3	5	0	5	1	5	2	5	3	5	4	
4	9	6	0	5	5	0	5	1	5	5	5	3	5	4	
2	11	8	8	0	8	1	8	5	8	3	8	4	
2	12	10	12	0	12	1	12	2	12	1	12	0	
4	4	1	5	0	5	0	5	1	5	2	5	5	5	4	
4	0	6	9	11	0	0	0	1	0	2	0	1	0	0	
2	12	10	12	0	12	1	12	5	12	3	12	4	
3	9	6	13	6	0	6	1	6	2	6	5	6	4	
2	2	7	7	0	7	1	7	2	7	3	7	4	
4	14	7	0	6	7	0	7	1	7	2	7	1	7	0	
2	8	11	8	0	8	1	8	2	8	5	8	4	
2	5	1	5	0	5	1	5	2	5	5	5	4	
6	10	12	5	0	7	8	5	0	5	1	5	2	5	5	5	4	
4	3	5	0	7	5	0	5	1	5	2	5	1	5	0	
3	6	0	7	7	0	7	1	7	5	7	3	7	4	
5	2	1	5	12	13	5	0	5	1	5	2	5	3	5	4	
4	12	5	1	2	5	0	5	1	5	2	5	1	5	0	
4	3	5	1	4	5	0	5	1	5	2	5	1	5	0	
3	13	6	0	0	0	0	1	0	2	0	1	0	0	
4	5	0	7	8	5	0	5	1	5	2	5	1	5	0	
2	9	11	9	0	9	1	9	2	9	5	9	4	
3	9	11	8	8	0	8	1	8	2	8	5	8	4	
4	3	5	12	13	5	0	5	1	5	2	5	1	5	0	
3	1	5	0	5	0	5	1	5	5	5	3	5	4	
3	1	5	3	5	0	5	1	5	2	5	1	5	0	
5	2	1	5	12	10	5	0	5	1	5	2	5	1	5	0	
5	8	7	0	5	12	5	0	5	1	5	5	5	3	5	4	
5	8	11	9	6	13	6	0	6	1	6	2	6	3	6	4	
5	13	12	5	1	4	5	0	5	1	5	2	5	5	5	4	
3	1	5	3	5	0	5	1	5	2	5	3	5	4	
6	10	12	13	6	9	11	12	0	12	1	12	2	12	1	12	0	
4	4	1	2	7	7	0	7	1	7	2	7	3	7	4	
5	13	6	0	7	2	7	0	7	1	7	5	7	3	7	4	
2	9	11	9	0	9	1	9	2	9	3	9	4	
6	11	9	6	13	12	10	12	0	12	1	12	2	12	3	12	4	
4	4	1	5	12	5	0	5	1	5	5	5	3	5	4	
4	12	13	6	9	12	0	12	1	12	2	12	5	12	4	
4	14	7	0	5	5	0	5	1	5	2	5	5	5	4	
5	12	5	0	7	14	5	0	5	1	5	2	5	5	5	4	
3	3	5	12	5	0	5	1	5	2	5	3	5	4	
4	0	5	12	10	5	0	5	1	5	2	5	5	5	4	
6	14	7	0	5	12	10	5	0	5	1	5	2	5	3	5	4	
4	5	0	7	8	5	0	5	1	5	2	5	5	5	4	
3	8	7	2	7	0	7	1	7	2	7	5	7	4	
4	14	7	8	11	7	0	7	1	7	5	7	3	7	4	
2	14	7	14	0	14	1	14	5	14	3	14	4	
2	6	9	6	0	6	1	6	2	6	3	6	4	
5	14	7	8	11	9	8	0	8	1	8	5	8	3	8	4	
2	6	0	0	0	0	1	0	2	0	1	0	0	
4	14	7	0	5	5	0	5	1	5	5	5	3	5	4	
3	1	5	12	5	0	5	1	5	2	5	5	5	4	
3	5	0	6	5	0	5	1	5	2	5	3	5	4	
4	3	5	0	7	5	0	5	1	5	2	5	5	5	4	
3	0	5	12	5	0	5	1	5	2	5	3	5	4	
5	11	8	7	2	1	1	0	1	1	1	5	1	3	1	4	
5	9	6	0	5	1	5	0	5	1	5	2	5	5	5	4	
3	5	12	13	5	0	5	1	5	2	5	1	5	0	
4	11	8	7	0	0	0	0	1	0	5	0	3	0	4	
4	10	12	5	0	5	0	5	1	5	2	5	1	5	0	
6	10	12	5	0	7	14	5	0	5	1	5	2	5	5	5	4	
3	11	9	6	6	0	6	1	6	2	6	5	6	4	
3	7	2	1	7	0	7	1	7	2	7	1	7	0	
2	8	7	8	0	8	1	8	5	8	3	8	4	
4	3	5	12	10	5	0	5	1	5	2	5	5	5	4	
4	3	5	1	4	5	0	5	1	5	2	5	5	5	4	
2	9	6	6	0	6	1	6	5	6	3	6	4	
4	2	7	0	6	7	0	7	1	7	2	7	3	7	4	
4	8	7	0	5	5	0	5	1	5	2	5	3	5	4	
4	3	5	1	4	5	0	5	1	5	5	5	3	5	4	
4	14	7	0	5	5	0	5	1	5	2	5	3	5	4	
2	12	13	12	0	12	1	12	5	12	3	12	4	
3	7	0	6	7	0	7	1	7	2	7	3	7	4	
3	0	5	1	0	0	0	1	0	5	0	3	0	4	
3	5	12	13	5	0	5	1	5	5	5	3	5	4	
5	9	11	8	7	14	8	0	8	1	8	5	8	3	8	4	
2	10	12	12	0	12	1	12	5	12	3	12	4	
4	13	12	5	3	5	0	5	1	5	2	5	1	5	0	
5	4	1	5	12	13	5	0	5	1	5	2	5	1	5	0	
4	6	0	7	2	7	0	7	1	7	5	7	3	7	4	
5	14	7	2	1	4	7	0	7	1	7	2	7	1	7	0	
4	14	7	0	6	0	0	0	1	0	5	0	3	0	4	
2	1	2	1	0	1	1	1	2	1	1	1	0	
4	10	12	5	3	5	0	5	1	5	2	5	5	5	4	
4	10	12	13	6	12	0	12	1	12	5	12	3	12	4	
3	1	5	3	5	0	5	1	5	2	5	5	5	4	
3	1	5	0	5	0	5	1	5	2	5	3	5	4	
2	1	5	1	0	1	1	1	5	1	3	1	4	
5	4	1	5	0	6	5	0	5	1	5	2	5	3	5	4	
5	5	0	7	8	11	5	0	5	1	5	2	5	5	5	4	
4	8	11	9	6	6	0	6	1	6	5	6	3	6	4	
4	7	8	11	9	8	0	8	1	8	5	8	3	8	4	
2	2	1	1	0	1	1	1	2	1	5	1	4	
4	3	5	12	10	5	0	5	1	5	5	5	3	5	4	
4	6	13	12	10	12	0	12	1	12	2	12	1	12	0	
4	4	1	5	3	1	0	1	1	1	5	1	3	1	4	
4	0	5	1	4	5	0	5	1	5	2	5	5	5	4	
5	3	5	0	7	8	5	0	5	1	5	2	5	3	5	4	
4	2	7	8	11	8	0	8	1	8	5	8	3	8	4	
5	13	6	0	7	8	7	0	7	1	7	2	7	3	7	4	
2	9	6	6	0	6	1	6	2	6	5	6	4	
4	10	12	5	0	5	0	5	1	5	2	5	3	5	4	
4	7	0	6	13	7	0	7	1	7	2	7	5	7	4	
2	6	9	6	0	6	1	6	2	6	1	6	0	
5	14	7	0	5	3	5	0	5	1	5	2	5	3	5	4	
3	3	5	1	5	0	5	1	5	2	5	1	5	0	
4	1	2	7	8	7	0	7	1	7	2	7	5	7	4	
3	6	13	12	12	0	12	1	12	2	12	5	12	4	
3	3	5	1	1	0	1	1	1	5	1	3	1	4	
5	14	7	0	5	12	5	0	5	1	5	2	5	3	5	4	
3	4	1	2	1	0	1	1	1	2	1	1	1	0	
3	14	7	0	7	0	7	1	7	2	7	5	7	4	
3	13	12	10	12	0	12	1	12	5	12	3	12	4	
2	2	1	1	0	1	1	1	2	1	3	1	4	
3	0	7	8	7	0	7	1	7	2	7	3	7	4	
2	5	12	5	0	5	1	5	2	5	3	5	4	
4	11	8	7	2	8	0	8	1	8	5	8	3	8	4	
4	5	0	7	8	5	0	5	1	5	5	5	3	5	4	
5	12	13	6	9	11	12	0	12	1	12	2	12	1	12	0	
3	0	5	12	5	0	5	1	5	2	5	1	5	0	
4	1	2	7	14	7	0	7	1	7	2	7	1	7	0	
5	4	1	5	0	6	5	0	5	1	5	2	5	5	5	4	
6	4	1	5	0	6	9	5	0	5	1	5	2	5	3	5	4	
4	12	5	1	4	5	0	5	1	5	2	5	1	5	0	
3	0	7	8	7	0	7	1	7	2	7	1	7	0	
6	8	7	0	5	12	10	5	0	5	1	5	2	5	5	5	4	
2	13	6	6	0	6	1	6	2	6	3	6	4	
4	11	8	7	2	7	0	7	1	7	2	7	1	7	0	
2	7	2	7	0	7	1	7	2	7	1	7	0	
3	2	1	4	1	0	1	1	1	5	1	3	1	4	
4	5	0	7	8	5	0	5	1	5	2	5	3	5	4	
4	2	1	5	12	5	0	5	1	5	2	5	3	5	4	
4	8	11	9	6	6	0	6	1	6	2	6	3	6	4	
4	9	11	8	7	7	0	7	1	7	2	7	1	7	0	
5	3	5	0	6	9	5	0	5	1	5	2	5	5	5	4	
4	6	0	5	1	5	0	5	1	5	2	5	5	5	4	
4	9	6	13	12	12	0	12	1	12	2	12	5	12	4	
2	7	2	7	0	7	1	7	2	7	5	7	4	
3	3	5	12	5	0	5	1	5	2	5	1	5	0	
4	2	7	8	11	7	0	7	1	7	2	7	1	7	0	
5	8	11	9	6	13	6	0	6	1	6	5	6	3	6	4	
2	14	7	7	0	7	1	7	2	7	5	7	4	
5	8	7	0	5	12	5	0	5	1	5	2	5	3	5	4	
5	3	5	0	7	8	5	0	5	1	5	2	5	1	5	0	
2	9	6	6	0	6	1	6	2	6	3	6	4	
3	5	0	7	5	0	5	1	5	2	5	5	5	4	
4	8	11	9	6	6	0	6	1	6	2	6	1	6	0	
5	10	12	5	1	2	5	0	5	1	5	2	5	5	5	4	
4	11	8	7	14	8	0	8	1	8	5	8	3	8	4	
3	2	7	8	7	0	7	1	7	2	7	3	7	4	
5	14	7	0	6	13	7	0	7	1	7	2	7	3	7	4	
4	3	5	12	13	5	0	5	1	5	2	5	3	5	4	
4	4	1	5	0	5	0	5	1	5	5	5	3	5	4	
4	11	8	7	14	7	0	7	1	7	2	7	3	7	4	
5	11	8	7	0	5	5	0	5	1	5	2	5	5	5	4	
2	6	9	6	0	6	1	6	5	6	3	6	4	
4	14	7	8	11	7	0	7	1	7	2	7	1	7	0	
6	11	8	7	2	1	4	7	0	7	1	7	2	7	1	7	0	
3	2	7	14	7	0	7	1	7	2	7	5	7	4	
5	13	12	5	1	4	5	0	5	1	5	5	5	3	5	4	
6	14	7	0	5	12	10	5	0	5	1	5	2	5	1	5	0	
4	9	11	8	7	7	0	7	1	7	2	7	5	7	4	
4	10	12	5	3	5	0	5	1	5	2	5	3	5	4	
2	12	5	5	0	5	1	5	2	5	3	5	4	
4	1	5	12	13	1	0	1	1	1	2	1	5	1	4	
6	11	9	6	13	12	10	12	0	12	1	12	2	12	1	12	0	
4	11	8	7	0	7	0	7	1	7	2	7	1	7	0	
4	12	13	6	9	12	0	12	1	12	2	12	3	12	4	
2	0	6	0	0	0	1	0	2	0	5	0	4	
4	6	9	11	8	6	0	6	1	6	2	6	5	6	4	
5	4	1	2	7	14	7	0	7	1	7	2	7	1	7	0	
4	4	1	5	3	5	0	5	1	5	2	5	1	5	0	
2	5	12	5	0	5	1	5	2	5	1	5	0	
3	10	12	13	12	0	12	1	12	2	12	5	12	4	
2	2	1	1	0	1	1	1	5	1	3	1	4	
3	0	5	3	0	0	0	1	0	5	0	3	0	4	
6	3	5	0	6	9	11	0	0	0	1	0	2	0	5	0	4	
2	1	5	1	0	1	1	1	2	1	5	1	4	
5	14	7	2	1	4	7	0	7	1	7	2	7	5	7	4	
5	12	5	0	7	14	5	0	5	1	5	5	5	3	5	4	
3	6	0	5	5	0	5	1	5	2	5	3	5	4	
2	5	12	5	0	5	1	5	5	5	3	5	4	
3	11	9	6	6	0	6	1	6	2	6	1	6	0	
2	7	0	7	0	7	1	7	2	7	3	7	4	
3	0	5	1	5	0	5	1	5	2	5	3	5	4	
2	11	9	9	0	9	1	9	2	9	3	9	4	
6	10	12	5	0	7	8	5	0	5	1	5	5	5	3	5	4	
2	3	5	5	0	5	1	5	2	5	3	5	4	
5	4	1	2	7	8	7	0	7	1	7	2	7	1	7	0	
4	6	0	7	14	7	0	7	1	7	2	7	3	7	4	
3	1	5	3	1	0	1	1	1	5	1	3	1	4	
3	5	0	6	5	0	5	1	5	2	5	5	5	4	
4	9	6	13	12	12	0	12	1	12	2	12	3	12	4	
3	0	5	12	0	0	0	1	0	5	0	3	0	4	
3	5	0	6	0	0	0	1	0	5	0	3	0	4	
5	2	7	8	11	9	7	0	7	1	7	2	7	1	7	0	
5	4	1	2	7	14	7	0	7	1	7	5	7	3	7	4	
4	9	11	8	7	7	0	7	1	7	2	7	3	7	4	
3	7	2	1	7	0	7	1	7	2	7	5	7	4	
2	5	3	5	0	5	1	5	2	5	1	5	0	
3	9	11	8	8	0	8	1	8	5	8	3	8	4	
2	5	12	12	0	12	1	12	2	12	5	12	4	
2	0	5	0	0	0	1	0	5	0	3	0	4	
4	4	1	5	0	5	0	5	1	5	2	5	3	5	4	
3	6	9	11	6	0	6	1	6	2	6	1	6	0	
2	7	0	7	0	7	1	7	2	7	1	7	0	
4	2	7	0	6	7	0	7	1	7	2	7	1	7	0	
5	9	11	8	7	14	7	0	7	1	7	2	7	1	7	0	
4	6	9	11	8	6	0	6	1	6	5	6	3	6	4	
3	12	5	1	1	0	1	1	1	5	1	3	1	4	
4	1	5	12	13	5	0	5	1	5	2	5	1	5	0	
2	1	4	1	0	1	1	1	2	1	1	1	0	
5	11	8	7	2	1	7	0	7	1	7	2	7	5	7	4	
4	2	1	5	12	1	0	1	1	1	5	1	3	1	4	
4	13	6	9	11	6	0	6	1	6	2	6	1	6	0	
4	3	5	0	6	0	0	0	1	0	2	0	5	0	4	
4	2	1	5	3	5	0	5	1	5	2	5	3	5	4	
4	12	13	6	9	12	0	12	1	12	2	12	1	12	0	
5	7	0	5	12	10	7	0	7	1	7	2	7	5	7	4	
3	5	0	7	5	0	5	1	5	2	5	3	5	4	
5	14	7	8	11	9	7	0	7	1	7	2	7	5	7	4	
5	1	2	7	8	11	1	0	1	1	1	5	1	3	1	4	
3	4	1	5	1	0	1	1	1	5	1	3	1	4	
6	4	1	2	7	8	11	7	0	7	1	7	2	7	3	7	4	
2	0	7	7	0	7	1	7	2	7	1	7	0	
3	5	12	13	5	0	5	1	5	2	5	3	5	4	
3	12	13	6	12	0	12	1	12	2	12	1	12	0	
2	7	2	2	0	2	1	2	5	2	3	2	4	
3	13	6	0	0	0	0	1	0	2	0	5	0	4	
3	13	12	10	12	0	12	1	12	2	12	3	12	4	
5	13	6	0	7	14	7	0	7	1	7	2	7	5	7	4	
3	0	6	13	0	0	0	1	0	2	0	1	0	0	
3	0	5	1	0	0	0	1	0	2	0	5	0	4	
3	2	7	8	7	0	7	1	7	2	7	5	7	4	
2	6	0	0	0	0	1	0	2	0	3	0	4	
4	12	5	1	4	1	0	1	1	1	5	1	3	1	4	
3	14	7	2	7	0	7	1	7	2	7	1	7	0	
5	11	8	7	0	5	0	0	0	1	0	5	0	3	0	4	
4	2	7	8	11	7	0	7	1	7	2	7	3	7	4	
4	2	7	0	6	0	0	0	1	0	5	0	3	0	4	
6	11	8	7	2	1	4	7	0	7	1	7	2	7	5	7	4	
5	8	7	2	1	4	7	0	7	1	7	2	7	1	7	0	
5	10	12	5	1	4	1	0	1	1	1	2	1	5	1	4	
5	9	6	13	12	10	12	0	12	1	12	5	12	3	12	4	
4	6	0	5	3	0	0	0	1	0	5	0	3	0	4	
5	11	9	6	13	12	12	0	12	1	12	2	12	5	12	4	
4	8	11	9	6	6	0	6	1	6	2	6	5	6	4	
4	1	2	7	14	7	0	7	1	7	2	7	5	7	4	
6	8	7	0	5	12	10	0	0	0	1	0	5	0	3	0	4	
5	13	12	5	1	4	5	0	5	1	5	2	5	1	5	0	
3	5	1	4	5	0	5	1	5	2	5	1	5	0	
5	10	12	5	0	7	0	0	0	1	0	5	0	3	0	4	
3	4	1	2	1	0	1	1	1	5	1	3	1	4	
5	13	6	0	7	8	7	0	7	1	7	2	7	1	7	0	
6	9	6	0	5	1	4	5	0	5	1	5	2	5	3	5	4	
3	5	1	2	5	0	5	1	5	2	5	3	5	4	
4	7	0	6	13	0	0	0	1	0	5	0	3	0	4	
4	1	2	7	14	7	0	7	1	7	2	7	3	7	4	
4	4	1	5	3	5	0	5	1	5	2	5	3	5	4	
2	13	6	6	0	6	1	6	5	6	3	6	4	
5	3	5	0	7	14	5	0	5	1	5	2	5	3	5	4	
3	0	7	2	7	0	7	1	7	2	7	1	7	0	
4	9	6	0	5	0	0	0	1	0	2	0	5	0	4	
4	10	12	5	1	5	0	5	1	5	2	5	3	5	4	
4	11	8	7	14	7	0	7	1	7	2	7	1	7	0	
3	9	6	0	0	0	0	1	0	2	0	5	0	4	
3	7	0	5	5	0	5	1	5	2	5	1	5	0	
3	12	13	6	12	0	12	1	12	2	12	5	12	4	
2	4	1	1	0	1	1	1	2	1	1	1	0	
5	10	12	13	6	9	12	0	12	1	12	2	12	1	12	0	
4	14	7	0	6	7	0	7	1	7	2	7	3	7	4	
2	7	8	7	0	7	1	7	2	7	5	7	4	
4	5	0	6	9	0	0	0	1	0	5	0	3	0	4	
2	4	1	1	0	1	1	1	2	1	5	1	4	
2	8	11	8	0	8	1	8	2	8	1	8	0	
2	7	14	14	0	14	1	14	5	14	3	14	4	
3	0	7	14	7	0	7	1	7	2	7	3	7	4	
4	3	5	1	2	5	0	5	1	5	2	5	1	5	0	
5	5	0	7	8	11	5	0	5	1	5	2	5	1	5	0	
3	9	6	0	0	0	0	1	0	2	0	1	0	0	
4	14	7	8	11	7	0	7	1	7	2	7	3	7	4	
5	12	5	0	7	8	0	0	0	1	0	5	0	3	0	4	
3	8	7	14	7	0	7	1	7	2	7	5	7	4	
2	10	12	12	0	12	1	12	2	12	5	12	4	
2	12	5	12	0	12	1	12	5	12	3	12	4	
4	14	7	2	1	7	0	7	1	7	2	7	3	7	4	
5	10	12	5	1	4	5	0	5	1	5	2	5	1	5	0	
3	14	7	2	7	0	7	1	7	2	7	5	7	4	
5	12	5	0	7	14	5	0	5	1	5	2	5	3	5	4	
4	5	0	6	9	5	0	5	1	5	2	5	1	5	0	
4	13	6	0	7	7	0	7	1	7	2	7	5	7	4	
5	3	5	0	7	8	7	0	7	1	7	2	7	5	7	4	
2	0	5	0	0	0	1	0	2	0	5	0	4	
3	9	6	13	6	0	6	1	6	2	6	1	6	0	
3	5	1	4	1	0	1	1	1	5	1	3	1	4	
3	8	11	9	8	0	8	1	8	2	8	3	8	4	
3	10	12	5	12	0	12	1	12	5	12	3	12	4	
5	3	5	0	7	8	0	0	0	1	0	5	0	3	0	4	
3	10	12	5	5	0	5	1	5	2	5	3	5	4	
2	7	2	7	0	7	1	7	2	7	3	7	4	
2	6	13	6	0	6	1	6	2	6	3	6	4	
6	4	1	2	7	8	11	1	0	1	1	1	5	1	3	1	4	
3	0	6	13	0	0	0	1	0	5	0	3	0	4	
4	13	12	5	1	1	0	1	1	1	5	1	3	1	4	
3	11	9	6	6	0	6	1	6	2	6	3	6	4	
4	13	6	0	7	7	0	7	1	7	2	7	1	7	0	
5	8	7	0	5	12	5	0	5	1	5	2	5	1	5	0	
5	6	0	5	1	4	5	0	5	1	5	2	5	3	5	4	
6	10	12	13	6	9	11	12	0	12	1	12	2	12	3	12	4	
3	5	12	13	12	0	12	1	12	2	12	5	12	4	
3	0	5	1	5	0	5	1	5	2	5	1	5	0	
3	12	5	1	1	0	1	1	1	2	1	5	1	4	
2	12	13	12	0	12	1	12	2	12	5	12	4	
5	7	0	5	12	10	5	0	5	1	5	2	5	3	5	4	
5	8	11	9	6	13	6	0	6	1	6	2	6	1	6	0	
5	4	1	5	0	6	5	0	5	1	5	2	5	1	5	0	
3	4	1	2	1	0	1	1	1	2	1	3	1	4	
4	8	7	2	1	7	0	7	1	7	2	7	5	7	4	
2	5	1	5	0	5	1	5	2	5	3	5	4	
3	1	5	12	5	0	5	1	5	2	5	1	5	0	
4	4	1	2	7	1	0	1	1	1	5	1	3	1	4	
5	2	1	5	12	13	1	0	1	1	1	5	1	3	1	4	
5	9	6	0	5	3	0	0	0	1	0	5	0	3	0	4	
5	11	8	7	0	5	5	0	5	1	5	2	5	1	5	0	
5	14	7	0	6	13	7	0	7	1	7	2	7	5	7	4	
4	14	7	2	1	7	0	7	1	7	2	7	5	7	4	
3	7	8	11	7	0	7	1	7	2	7	5	7	4	
4	7	8	11	9	7	0	7	1	7	2	7	3	7	4	
4	1	5	12	10	1	0	1	1	1	5	1	3	1	4	
5	13	6	0	7	2	7	0	7	1	7	2	7	5	7	4	
5	4	1	5	12	10	5	0	5	1	5	2	5	3	5	4	
3	7	0	6	7	0	7	1	7	2	7	1	7	0	
5	1	5	0	6	9	5	0	5	1	5	2	5	1	5	0	
3	2	7	0	0	0	0	1	0	5	0	3	0	4	
2	3	5	5	0	5	1	5	2	5	1	5	0	
3	5	12	10	5	0	5	1	5	2	5	3	5	4	
3	6	0	5	0	0	0	1	0	5	0	3	0	4	
2	1	4	1	0	1	1	1	2	1	5	1	4	
2	3	5	3	0	3	1	3	5	3	3	3	4	
4	13	6	9	11	6	0	6	1	6	2	6	3	6	4	
2	7	0	0	0	0	1	0	5	0	3	0	4	
3	0	7	14	7	0	7	1	7	2	7	1	7	0	
3	9	6	0	0	0	0	1	0	5	0	3	0	4	
5	9	11	8	7	14	7	0	7	1	7	2	7	3	7	4	
3	8	7	2	7	0	7	1	7	2	7	1	7	0	
4	12	5	1	2	5	0	5	1	5	2	5	3	5	4	
3	11	9	6	6	0	6	1	6	5	6	3	6	4	
4	3	5	1	4	5	0	5	1	5	2	5	3	5	4	
3	4	1	5	5	0	5	1	5	2	5	3	5	4	
6	4	1	5	0	6	9	0	0	0	1	0	5	0	3	0	4	
2	7	14	7	0	7	1	7	2	7	3	7	4	
5	2	1	5	12	10	5	0	5	1	5	2	5	3	5	4	
3	5	0	7	0	0	0	1	0	5	0	3	0	4	
3	2	7	8	7	0	7	1	7	2	7	1	7	0	
4	14	7	2	1	7	0	7	1	7	2	7	1	7	0	
6	11	9	6	13	12	10	12	0	12	1	12	5	12	3	12	4	
3	9	6	13	6	0	6	1	6	5	6	3	6	4	
3	6	0	5	5	0	5	1	5	2	5	1	5	0	
5	3	5	0	7	14	5	0	5	1	5	2	5	1	5	0	
4	2	7	0	6	7	0	7	1	7	2	7	5	7	4	
2	8	11	8	0	8	1	8	5	8	3	8	4	
3	8	7	14	7	0	7	1	7	2	7	3	7	4	
3	9	11	8	8	0	8	1	8	2	8	1	8	0	
4	0	5	1	4	5	0	5	1	5	2	5	3	5	4	
4	7	0	5	12	0	0	0	1	0	5	0	3	0	4	
4	11	8	7	0	7	0	7	1	7	2	7	5	7	4	
5	11	8	7	0	5	5	0	5	1	5	2	5	3	5	4	
3	12	5	3	5	0	5	1	5	2	5	3	5	4	
4	4	1	2	7	7	0	7	1	7	2	7	1	7	0	
4	6	9	11	8	6	0	6	1	6	2	6	1	6	0	
2	13	12	12	0	12	1	12	2	12	3	12	4	
5	12	5	0	7	8	5	0	5	1	5	2	5	1	5	0	
3	2	1	5	5	0	5	1	5	2	5	1	5	0	
2	12	13	12	0	12	1	12	2	12	3	12	4	
4	10	12	5	1	1	0	1	1	1	5	1	3	1	4	
5	12	5	0	7	8	7	0	7	1	7	2	7	5	7	4	
2	0	7	0	0	0	1	0	5	0	3	0	4	
4	8	7	2	1	1	0	1	1	1	5	1	3	1	4	
3	5	1	4	5	0	5	1	5	2	5	3	5	4	
4	5	0	7	14	0	0	0	1	0	5	0	3	0	4	
5	1	5	0	6	9	5	0	5	1	5	2	5	3	5	4	
3	12	13	6	12	0	12	1	12	5	12	3	12	4	
6	9	6	0	5	1	4	0	0	0	1	0	5	0	3	0	4	
5	13	6	0	7	8	0	0	0	1	0	5	0	3	0	4	
3	12	5	3	12	0	12	1	12	2	12	5	12	4	
5	10	12	5	1	2	5	0	5	1	5	2	5	1	5	0	
3	13	6	9	6	0	6	1	6	2	6	3	6	4	
3	5	12	10	5	0	5	1	5	2	5	1	5	0	
5	10	12	13	6	9	12	0	12	1	12	2	12	5	12	4	
2	14	7	7	0	7	1	7	2	7	1	7	0	
3	3	5	1	5	0	5	1	5	2	5	3	5	4	
4	1	5	0	6	5	0	5	1	5	2	5	3	5	4	
6	10	12	13	6	9	11	12	0	12	1	12	2	12	5	12	4	
2	9	6	6	0	6	1	6	2	6	1	6	0	
4	13	12	5	1	5	0	5	1	5	2	5	1	5	0	
3	2	1	4	1	0	1	1	1	2	1	3	1	4	
5	9	11	8	7	2	7	0	7	1	7	2	7	1	7	0	
4	9	6	13	12	12	0	12	1	12	2	12	1	12	0	
2	13	12	12	0	12	1	12	2	12	1	12	0	
4	13	12	5	3	12	0	12	1	12	5	12	3	12	4	
6	11	9	6	13	12	10	12	0	12	1	12	2	12	5	12	4	
6	10	12	13	6	9	11	12	0	12	1	12	5	12	3	12	4	
3	6	13	12	12	0	12	1	12	2	12	3	12	4	
5	14	7	8	11	9	7	0	7	1	7	2	7	3	7	4	
3	1	5	0	5	0	5	1	5	2	5	1	5	0	
4	0	5	12	10	0	0	0	1	0	5	0	3	0	4	
5	4	1	2	7	8	7	0	7	1	7	2	7	5	7	4	
5	10	12	5	1	4	1	0	1	1	1	5	1	3	1	4	
5	4	1	2	7	14	7	0	7	1	7	2	7	5	7	4	
5	6	0	5	1	4	0	0	0	1	0	2	0	5	0	4	
5	8	7	0	5	3	7	0	7	1	7	2	7	5	7	4	
2	5	3	5	0	5	1	5	2	5	3	5	4	
3	5	1	2	1	0	1	1	1	5	1	3	1	4	
5	10	12	5	1	2	1	0	1	1	1	5	1	3	1	4	
4	5	0	7	14	7	0	7	1	7	2	7	5	7	4	
3	14	7	8	8	0	8	1	8	5	8	3	8	4	
4	5	0	6	9	0	0	0	1	0	2	0	5	0	4	
3	7	8	11	7	0	7	1	7	2	7	3	7	4	
3	8	7	14	7	0	7	1	7	2	7	1	7	0	
5	12	5	0	7	14	5	0	5	1	5	2	5	1	5	0	
5	1	2	7	8	11	7	0	7	1	7	2	7	1	7	0	
3	7	0	6	0	0	0	1	0	5	0	3	0	4	
6	11	8	7	0	5	3	5	0	5	1	5	2	5	1	5	0	
3	2	7	14	2	0	2	1	2	5	2	3	2	4	
5	14	7	0	5	12	7	0	7	1	7	2	7	5	7	4	
5	11	9	6	13	12	12	0	12	1	12	2	12	1	12	0	
4	0	5	1	4	0	0	0	1	0	5	0	3	0	4	
3	8	7	0	7	0	7	1	7	2	7	3	7	4	
4	1	5	12	13	1	0	1	1	1	5	1	3	1	4	
5	4	1	5	12	13	5	0	5	1	5	2	5	3	5	4	
3	14	7	8	7	0	7	1	7	2	7	1	7	0	
4	11	8	7	14	7	0	7	1	7	2	7	5	7	4	
5	5	0	7	8	11	5	0	5	1	5	2	5	3	5	4	
3	2	7	14	7	0	7	1	7	2	7	1	7	0	
3	8	7	0	7	0	7	1	7	2	7	1	7	0	
6	11	8	7	2	1	4	1	0	1	1	1	5	1	3	1	4	
4	6	13	12	10	12	0	12	1	12	2	12	5	12	4	
4	1	5	0	6	0	0	0	1	0	2	0	5	0	4	
4	7	2	1	4	7	0	7	1	7	2	7	5	7	4	
2	11	8	8	0	8	1	8	2	8	3	8	4	
4	14	7	2	1	1	0	1	1	1	5	1	3	1	4	
5	13	6	0	7	8	7	0	7	1	7	2	7	5	7	4	
3	9	11	8	8	0	8	1	8	2	8	3	8	4	
3	6	0	7	7	0	7	1	7	2	7	1	7	0	
3	0	7	14	7	0	7	1	7	2	7	5	7	4	
3	2	1	4	1	0	1	1	1	2	1	5	1	4	
4	3	5	0	6	5	0	5	1	5	2	5	3	5	4	
5	9	6	0	5	1	5	0	5	1	5	2	5	1	5	0	
4	7	0	5	3	5	0	5	1	5	2	5	3	5	4	
4	9	6	13	12	12	0	12	1	12	5	12	3	12	4	
2	14	7	7	0	7	1	7	2	7	3	7	4	
6	10	12	5	0	7	8	5	0	5	1	5	2	5	1	5	0	
3	11	8	7	7	0	7	1	7	2	7	3	7	4	
2	13	12	12	0	12	1	12	2	12	5	12	4	
4	10	12	5	0	0	0	0	1	0	2	0	5	0	4	
4	7	8	11	9	7	0	7	1	7	2	7	1	7	0	
3	4	1	5	5	0	5	1	5	2	5	1	5	0	
4	13	6	0	7	7	0	7	1	7	2	7	3	7	4	
3	6	0	7	7	0	7	1	7	2	7	5	7	4	
2	2	7	7	0	7	1	7	2	7	1	7	0	
2	0	6	0	0	0	1	0	2	0	3	0	4	
3	7	8	11	8	0	8	1	8	5	8	3	8	4	
4	10	12	5	3	12	0	12	1	12	5	12	3	12	4	
3	1	5	12	5	0	5	1	5	2	5	3	5	4	
4	1	2	7	8	1	0	1	1	1	5	1	3	1	4	
3	0	6	9	0	0	0	1	0	5	0	3	0	4	
4	11	8	7	2	7	0	7	1	7	2	7	5	7	4	
5	8	7	0	5	3	0	0	0	1	0	5	0	3	0	4	
4	6	13	12	10	12	0	12	1	12	5	12	3	12	4	
3	13	6	0	0	0	0	1	0	2	0	3	0	4	
3	13	12	10	12	0	12	1	12	2	12	1	12	0	
2	0	6	0	0	0	1	0	2	0	1	0	0	
4	2	7	8	11	7	0	7	1	7	2	7	5	7	4	
3	8	11	9	8	0	8	1	8	2	8	1	8	0	
5	14	7	0	6	13	7	0	7	1	7	2	7	1	7	0	
5	8	7	0	5	3	5	0	5	1	5	2	5	1	5	0	
4	14	7	0	5	5	0	5	1	5	2	5	1	5	0	
2	5	0	0	0	0	1	0	2	0	5	0	4	
3	14	7	2	7	0	7	1	7	2	7	3	7	4	
3	7	2	1	1	0	1	1	1	5	1	3	1	4	
5	2	7	8	11	9	7	0	7	1	7	2	7	5	7	4	
4	12	5	1	4	5	0	5	1	5	2	5	3	5	4	
4	6	0	5	1	5	0	5	1	5	2	5	3	5	4	
2	7	14	7	0	7	1	7	2	7	1	7	0	
5	4	1	5	12	13	1	0	1	1	1	5	1	3	1	4	
5	4	1	5	12	13	1	0	1	1	1	2	1	5	1	4	
4	3	5	0	6	5	0	5	1	5	2	5	1	5	0	
6	9	6	0	5	1	4	5	0	5	1	5	2	5	1	5	0	
5	3	5	0	7	14	7	0	7	1	7	2	7	5	7	4	
6	10	12	5	0	7	8	5	0	5	1	5	2	5	3	5	4	
2	11	9	9	0	9	1	9	5	9	3	9	4	
2	9	11	9	0	9	1	9	2	9	1	9	0	
5	3	5	0	6	9	5	0	5	1	5	2	5	1	5	0	
2	2	7	2	0	2	1	2	5	2	3	2	4	
4	7	0	5	3	7	0	7	1	7	2	7	5	7	4	
3	7	8	11	7	0	7	1	7	2	7	1	7	0	
3	10	12	13	12	0	12	1	12	2	12	3	12	4	
5	9	11	8	7	2	7	0	7	1	7	2	7	5	7	4	
4	6	0	7	14	0	0	0	1	0	5	0	3	0	4	
4	6	0	7	14	7	0	7	1	7	2	7	5	7	4	
5	2	7	8	11	9	7	0	7	1	7	2	7	3	7	4	
3	12	5	1	5	0	5	1	5	2	5	3	5	4	
2	8	7	7	0	7	1	7	2	7	1	7	0	
3	6	9	11	6	0	6	1	6	2	6	3	6	4	
2	5	0	0	0	0	1	0	5	0	3	0	4	
4	0	6	9	11	0	0	0	1	0	5	0	3	0	4	
3	11	8	7	7	0	7	1	7	2	7	5	7	4	
3	13	12	5	12	0	12	1	12	2	12	5	12	4	
2	0	7	7	0	7	1	7	2	7	3	7	4	
5	14	7	8	11	9	7	0	7	1	7	2	7	1	7	0	
2	10	12	12	0	12	1	12	2	12	1	12	0	
3	13	12	5	12	0	12	1	12	5	12	3	12	4	
5	9	11	8	7	14	7	0	7	1	7	2	7	5	7	4	
4	11	8	7	2	7	0	7	1	7	2	7	3	7	4	
3	10	12	13	12	0	12	1	12	5	12	3	12	4	
3	2	1	4	1	0	1	1	1	2	1	1	1	0	
4	12	5	1	4	1	0	1	1	1	2	1	5	1	4	
5	3	5	0	7	14	0	0	0	1	0	5	0	3	0	4	
4	6	0	7	14	7	0	7	1	7	2	7	1	7	0	
2	0	6	0	0	0	1	0	5	0	3	0	4	
5	9	6	0	5	1	5	0	5	1	5	2	5	3	5	4	
2	0	5	5	0	5	1	5	2	5	1	5	0	
4	1	5	12	10	5	0	5	1	5	2	5	1	5	0	
2	11	9	9	0	9	1	9	2	9	1	9	0	
2	6	9	6	0	6	1	6	2	6	5	6	4	
2	5	0	5	0	5	1	5	2	5	1	5	0	
4	1	2	7	8	7	0	7	1	7	2	7	3	7	4	
3	0	7	2	0	0	0	1	0	5	0	3	0	4	
3	11	8	7	7	0	7	1	7	2	7	1	7	0	
4	7	2	1	4	1	0	1	1	1	5	1	3	1	4	
4	14	7	8	11	7	0	7	1	7	2	7	5	7	4	
5	12	13	6	9	11	12	0	12	1	12	2	12	5	12	4	
2	8	7	7	0	7	1	7	2	7	5	7	4	
4	10	12	5	1	5	0	5	1	5	2	5	1	5	0	
4	13	12	5	3	5	0	5	1	5	2	5	3	5	4	
4	9	11	8	7	8	0	8	1	8	5	8	3	8	4	
5	4	1	5	0	6	0	0	0	1	0	5	0	3	0	4	
3	0	5	3	0	0	0	1	0	2	0	5	0	4	
3	1	5	12	1	0	1	1	1	5	1	3	1	4	
3	3	5	0	5	0	5	1	5	2	5	3	5	4	
4	4	1	5	12	5	0	5	1	5	2	5	3	5	4	
4	6	0	7	2	7	0	7	1	7	2	7	3	7	4	
3	7	0	5	5	0	5	1	5	2	5	3	5	4	
5	13	6	0	7	14	0	0	0	1	0	5	0	3	0	4	
2	13	6	6	0	6	1	6	2	6	5	6	4	
3	12	5	0	0	0	0	1	0	2	0	5	0	4	
5	14	7	0	6	13	0	0	0	1	0	5	0	3	0	4	
4	6	0	5	1	5	0	5	1	5	2	5	1	5	0	
3	0	7	8	7	0	7	1	7	2	7	5	7	4	
4	6	0	5	1	0	0	0	1	0	5	0	3	0	4	
3	1	5	0	0	0	0	1	0	2	0	5	0	4	
2	1	5	5	0	5	1	5	2	5	3	5	4	
5	3	5	0	6	9	0	0	0	1	0	5	0	3	0	4	
3	9	6	0	0	0	0	1	0	2	0	3	0	4	
5	13	6	0	7	2	7	0	7	1	7	2	7	1	7	0	
3	5	0	6	5	0	5	1	5	2	5	1	5	0	
3	0	6	13	0	0	0	1	0	2	0	5	0	4	
2	11	8	8	0	8	1	8	2	8	1	8	0	
5	14	7	2	1	4	1	0	1	1	1	5	1	3	1	4	
3	12	13	6	12	0	12	1	12	2	12	3	12	4	
5	14	7	0	5	12	0	0	0	1	0	5	0	3	0	4	
2	4	1	1	0	1	1	1	2	1	3	1	4	
3	8	11	9	8	0	8	1	8	2	8	5	8	4	
2	5	3	3	0	3	1	3	5	3	3	3	4	
4	1	5	0	6	0	0	0	1	0	5	0	3	0	4	
2	1	5	5	0	5	1	5	2	5	1	5	0	
3	14	7	0	7	0	7	1	7	2	7	1	7	0	
4	8	7	0	5	0	0	0	1	0	5	0	3	0	4	
2	5	0	5	0	5	1	5	2	5	3	5	4	
4	0	6	9	11	0	0	0	1	0	2	0	3	0	4	
3	3	5	1	1	0	1	1	1	2	1	5	1	4	
4	12	5	1	2	1	0	1	1	1	5	1	3	1	4	
5	7	0	5	12	10	0	0	0	1	0	5	0	3	0	4	
4	1	5	12	13	5	0	5	1	5	2	5	3	5	4	
4	12	5	0	7	7	0	7	1	7	2	7	5	7	4	
4	3	5	1	2	1	0	1	1	1	5	1	3	1	4	
4	4	1	5	3	1	0	1	1	1	2	1	5	1	4	
2	7	8	7	0	7	1	7	2	7	3	7	4	
3	3	5	0	5	0	5	1	5	2	5	1	5	0	
3	0	6	9	0	0	0	1	0	2	0	3	0	4	
5	11	8	7	2	1	7	0	7	1	7	2	7	3	7	4	
3	6	9	11	6	0	6	1	6	5	6	3	6	4	
3	14	7	8	7	0	7	1	7	2	7	5	7	4	
5	12	13	6	9	11	12	0	12	1	12	2	12	3	12	4	
4	10	12	5	3	5	0	5	1	5	2	5	1	5	0	
5	2	1	5	12	10	1	0	1	1	1	2	1	5	1	4	
3	2	7	0	7	0	7	1	7	2	7	3	7	4	
5	8	7	0	5	3	5	0	5	1	5	2	5	3	5	4	
5	6	0	5	1	4	0	0	0	1	0	5	0	3	0	4	
2	2	1	1	0	1	1	1	2	1	1	1	0	
2	11	8	8	0	8	1	8	2	8	5	8	4	
5	4	1	2	7	8	1	0	1	1	1	5	1	3	1	4	
5	4	1	2	7	8	7	0	7	1	7	2	7	3	7	4	
5	4	1	5	12	10	5	0	5	1	5	2	5	1	5	0	
4	10	12	13	6	12	0	12	1	12	2	12	5	12	4	
3	11	8	7	8	0	8	1	8	5	8	3	8	4	
2	12	10	12	0	12	1	12	2	12	5	12	4	
5	4	1	5	12	10	1	0	1	1	1	5	1	3	1	4	
4	4	1	5	12	1	0	1	1	1	2	1	5	1	4	
4	10	12	13	6	12	0	12	1	12	2	12	1	12	0	
2	11	9	9	0	9	1	9	2	9	5	9	4	
3	10	12	5	12	0	12	1	12	2	12	5	12	4	
5	14	7	0	5	3	5	0	5	1	5	2	5	1	5	0	
2	1	2	1	0	1	1	1	2	1	3	1	4	
2	6	0	0	0	0	1	0	2	0	5	0	4	
4	3	5	12	13	12	0	12	1	12	5	12	3	12	4	
3	12	5	1	5	0	5	1	5	2	5	1	5	0	
5	6	0	5	1	4	5	0	5	1	5	2	5	1	5	0	
4	8	7	0	5	5	0	5	1	5	2	5	1	5	0	
3	13	12	5	5	0	5	1	5	2	5	1	5	0	
5	9	6	13	12	10	12	0	12	1	12	2	12	1	12	0	
2	2	7	7	0	7	1	7	2	7	5	7	4	
5	7	0	5	12	10	5	0	5	1	5	2	5	1	5	0	
2	10	12	12	0	12	1	12	2	12	3	12	4	
5	2	7	8	11	9	8	0	8	1	8	5	8	3	8	4	
4	6	13	12	10	12	0	12	1	12	2	12	3	12	4	
4	11	9	6	13	6	0	6	1	6	2	6	1	6	0	
4	13	6	0	7	0	0	0	1	0	5	0	3	0	4	
2	7	8	7	0	7	1	7	2	7	1	7	0	
2	7	14	7	0	7	1	7	2	7	5	7	4	
6	9	6	0	5	1	4	0	0	0	1	0	2	0	5	0	4	
4	13	12	5	3	12	0	12	1	12	2	12	5	12	4	
3	6	9	11	6	0	6	1	6	2	6	5	6	4	
3	0	6	9	0	0	0	1	0	2	0	5	0	4	
3	10	12	13	12	0	12	1	12	2	12	1	12	0	
4	6	9	11	8	6	0	6	1	6	2	6	3	6	4	
4	10	12	5	0	0	0	0	1	0	5	0	3	0	4	
4	4	1	5	0	5	0	5	1	5	2	5	1	5	0	
5	11	8	7	2	1	7	0	7	1	7	2	7	1	7	0	
4	7	0	6	13	7	0	7	1	7	2	7	3	7	4	
3	8	7	0	0	0	0	1	0	5	0	3	0	4	
5	9	6	0	5	1	0	0	0	1	0	5	0	3	0	4	
5	12	5	0	7	8	5	0	5	1	5	2	5	3	5	4	
3	0	7	8	0	0	0	1	0	5	0	3	0	4	
4	7	8	11	9	7	0	7	1	7	2	7	5	7	4	
4	3	5	0	7	0	0	0	1	0	5	0	3	0	4	
3	13	12	5	5	0	5	1	5	2	5	3	5	4	
4	12	5	0	7	5	0	5	1	5	2	5	1	5	0	
4	12	13	6	9	12	0	12	1	12	5	12	3	12	4	
4	10	12	13	6	12	0	12	1	12	2	12	3	12	4	
4	6	0	7	2	7	0	7	1	7	2	7	1	7	0	
4	6	0	5	3	5	0	5	1	5	2	5	1	5	0	
5	8	7	2	1	4	7	0	7	1	7	2	7	3	7	4	
4	3	5	1	2	5	0	5	1	5	2	5	3	5	4	
3	1	2	7	7	0	7	1	7	2	7	3	7	4	
6	3	5	0	6	9	11	5	0	5	1	5	2	5	1	5	0	
5	11	9	6	13	12	12	0	12	1	12	5	12	3	12	4	
4	9	6	0	5	5	0	5	1	5	2	5	1	5	0	
4	2	1	5	12	5	0	5	1	5	2	5	1	5	0	
5	13	6	0	7	14	7	0	7	1	7	2	7	1	7	0	
3	8	7	14	8	0	8	1	8	5	8	3	8	4	
2	8	11	8	0	8	1	8	2	8	3	8	4	
5	13	6	0	7	14	7	0	7	1	7	2	7	3	7	4	
5	8	7	2	1	4	7	0	7	1	7	2	7	5	7	4	
5	10	12	5	0	7	5	0	5	1	5	2	5	1	5	0	
3	9	6	13	6	0	6	1	6	2	6	3	6	4	
5	11	9	6	13	12	12	0	12	1	12	2	12	3	12	4	
4	11	9	6	13	6	0	6	1	6	5	6	3	6	4	
4	11	9	6	13	6	0	6	1	6	2	6	5	6	4	
2	1	2	1	0	1	1	1	2	1	5	1	4	
6	4	1	5	0	6	9	5	0	5	1	5	2	5	1	5	0	
4	6	0	5	3	0	0	0	1	0	2	0	5	0	4	
4	3	5	12	10	5	0	5	1	5	2	5	3	5	4	
2	7	0	7	0	7	1	7	2	7	5	7	4	
3	0	5	12	0	0	0	1	0	2	0	5	0	4	
2	5	1	1	0	1	1	1	5	1	3	1	4	
3	0	7	2	7	0	7	1	7	2	7	3	7	4	
6	4	1	5	0	6	9	0	0	0	1	0	2	0	5	0	4	
5	14	7	2	1	4	7	0	7	1	7	2	7	3	7	4	
2	1	4	1	0	1	1	1	5	1	3	1	4	
3	1	2	7	7	0	7	1	7	2	7	1	7	0	
5	13	6	0	7	2	7	0	7	1	7	2	7	3	7	4	
3	4	1	5	1	0	1	1	1	2	1	5	1	4	
3	2	7	0	7	0	7	1	7	2	7	5	7	4	
3	12	5	0	0	0	0	1	0	5	0	3	0	4	
4	1	5	12	10	1	0	1	1	1	2	1	5	1	4	
3	13	12	10	12	0	12	1	12	2	12	5	12	4	
2	12	5	12	0	12	1	12	2	12	5	12	4	
2	13	6	6	0	6	1	6	2	6	1	6	0	
4	0	5	12	10	5	0	5	1	5	2	5	3	5	4	
6	11	8	7	0	5	3	5	0	5	1	5	2	5	3	5	4	
6	11	8	7	2	1	4	7	0	7	1	7	2	7	3	7	4	
4	1	5	12	10	5	0	5	1	5	2	5	3	5	4	
5	9	11	8	7	2	8	0	8	1	8	5	8	3	8	4	
3	7	0	5	0	0	0	1	0	5	0	3	0	4	
4	8	7	2	1	7	0	7	1	7	2	7	3	7	4	
4	2	1	5	3	5	0	5	1	5	2	5	1	5	0	
3	3	5	0	0	0	0	1	0	5	0	3	0	4	
3	3	5	12	12	0	12	1	12	2	12	5	12	4	
3	6	0	7	7	0	7	1	7	2	7	3	7	4	
3	6	13	12	12	0	12	1	12	5	12	3	12	4	
2	12	10	12	0	12	1	12	2	12	3	12	4	
5	2	1	5	12	13	1	0	1	1	1	2	1	5	1	4	
5	12	13	6	9	11	12	0	12	1	12	5	12	3	12	4	
5	5	0	7	8	11	0	0	0	1	0	5	0	3	0	4	
2	9	11	9	0	9	1	9	5	9	3	9	4	
3	14	7	2	2	0	2	1	2	5	2	3	2	4	
2	7	8	8	0	8	1	8	5	8	3	8	4	
4	2	1	5	3	1	0	1	1	1	5	1	3	1	4	
6	10	12	5	0	7	14	0	0	0	1	0	5	0	3	0	4	
3	0	6	9	0	0	0	1	0	2	0	1	0	0	
5	10	12	5	0	7	7	0	7	1	7	2	7	5	7	4	
6	4	1	2	7	8	11	7	0	7	1	7	2	7	1	7	0	
3	1	2	7	1	0	1	1	1	2	1	5	1	4	
2	1	4	1	0	1	1	1	2	1	3	1	4	
3	12	5	3	5	0	5	1	5	2	5	1	5	0	
3	5	1	4	1	0	1	1	1	2	1	5	1	4	
4	5	0	6	9	5	0	5	1	5	2	5	3	5	4	
6	4	1	2	7	8	11	7	0	7	1	7	2	7	5	7	4	
3	2	1	5	1	0	1	1	1	2	1	5	1	4	
4	13	12	5	1	5	0	5	1	5	2	5	3	5	4	
3	0	5	3	5	0	5	1	5	2	5	3	5	4	
3	3	5	12	12	0	12	1	12	5	12	3	12	4	
3	6	13	12	12	0	12	1	12	2	12	1	12	0	
4	3	5	0	7	5	0	5	1	5	2	5	3	5	4	
4	6	0	7	2	7	0	7	1	7	2	7	5	7	4	
4	7	0	6	13	7	0	7	1	7	2	7	1	7	0	
5	8	11	9	6	13	6	0	6	1	6	2	6	5	6	4	
6	14	7	0	5	12	10	7	0	7	1	7	2	7	5	7	4	
4	1	5	0	6	5	0	5	1	5	2	5	1	5	0	
4	9	6	0	5	5	0	5	1	5	2	5	3	5	4	
2	5	1	5	0	5	1	5	2	5	1	5	0	
5	13	12	5	1	4	5	0	5	1	5	2	5	3	5	4	
3	3	5	0	0	0	0	1	0	2	0	5	0	4	
5	1	5	0	6	9	0	0	0	1	0	5	0	3	0	4	
3	13	6	9	6	0	6	1	6	2	6	5	6	4	
3	8	7	2	8	0	8	1	8	5	8	3	8	4	
5	4	1	2	7	14	7	0	7	1	7	2	7	3	7	4	
6	10	12	5	0	7	14	5	0	5	1	5	2	5	1	5	0	
2	13	12	12	0	12	1	12	5	12	3	12	4	
2	0	7	7	0	7	1	7	2	7	5	7	4	
6	11	8	7	0	5	3	0	0	0	1	0	2	0	5	0	4	
3	4	1	2	1	0	1	1	1	2	1	5	1	4	
5	9	6	0	5	3	5	0	5	1	5	2	5	1	5	0	
2	12	13	12	0	12	1	12	2	12	1	12	0	
3	13	6	9	6	0	6	1	6	5	6	3	6	4	
4	0	5	12	10	5	0	5	1	5	2	5	1	5	0	
3	2	7	0	7	0	7	1	7	2	7	1	7	0	
5	10	12	5	1	4	5	0	5	1	5	2	5	3	5	4	
4	12	5	0	7	0	0	0	1	0	5	0	3	0	4	
5	8	7	0	5	12	0	0	0	1	0	2	0	5	0	4	
3	8	7	2	7	0	7	1	7	2	7	3	7	4	
3	7	0	6	0	0	0	1	0	2	0	5	0	4	
4	12	5	1	2	1	0	1	1	1	2	1	5	1	4	
3	2	1	5	5	0	5	1	5	2	5	3	5	4	
4	1	2	7	14	1	0	1	1	1	5	1	3	1	4	
5	14	7	0	5	3	0	0	0	1	0	5	0	3	0	4	
5	14	7	0	5	3	0	0	0	1	0	2	0	5	0	4	
3	10	12	5	5	0	5	1	5	2	5	1	5	0	
5	9	6	13	12	10	12	0	12	1	12	2	12	5	12	4	
2	5	3	3	0	3	1	3	2	3	5	3	4	
4	3	5	12	10	5	0	5	1	5	2	5	1	5	0	
4	5	0	7	14	5	0	5	1	5	2	5	3	5	4	
5	2	1	5	12	13	5	0	5	1	5	2	5	1	5	0	
6	8	7	0	5	12	10	5	0	5	1	5	2	5	3	5	4	
3	12	5	0	5	0	5	1	5	2	5	1	5	0	
3	7	2	1	7	0	7	1	7	2	7	3	7	4	
5	10	12	13	6	9	12	0	12	1	12	5	12	3	12	4	
5	9	6	13	12	10	12	0	12	1	12	2	12	3	12	4	
4	11	9	6	13	6	0	6	1	6	2	6	3	6	4	
2	1	2	1	0	1	1	1	5	1	3	1	4	
3	2	7	8	8	0	8	1	8	5	8	3	8	4	
4	14	7	0	6	0	0	0	1	0	2	0	5	0	4	
6	3	5	0	6	9	11	5	0	5	1	5	2	5	3	5	4	
4	0	6	9	11	0	0	0	1	0	2	0	5	0	4	
3	14	7	8	7	0	7	1	7	2	7	3	7	4	
3	6	0	5	0	0	0	1	0	2	0	5	0	4	
3	13	6	0	0	0	0	1	0	5	0	3	0	4	
3	2	7	14	7	0	7	1	7	2	7	3	7	4	
3	5	1	2	5	0	5	1	5	2	5	1	5	0	
6	14	7	0	5	12	10	0	0	0	1	0	5	0	3	0	4	
4	8	7	0	5	0	0	0	1	0	2	0	5	0	4	
5	9	11	8	7	2	7	0	7	1	7	2	7	3	7	4	
5	3	5	0	6	9	5	0	5	1	5	2	5	3	5	4	
5	1	2	7	8	11	1	0	1	1	1	2	1	5	1	4	
4	13	6	9	11	6	0	6	1	6	2	6	5	6	4	
3	13	6	9	6	0	6	1	6	2	6	1	6	0	
3	8	7	0	0	0	0	1	0	2	0	5	0	4	
4	0	5	1	4	5	0	5	1	5	2	5	1	5	0	
3	0	6	13	0	0	0	1	0	2	0	3	0	4	
4	5	0	7	14	5	0	5	1	5	2	5	1	5	0	
