2822.77	2622.76
1269
52917.6	38179.7
15
0	19644	19644
1	0	-1
2	0	-1
3	0	-1
4	0	-1
5	0	-1
6	0	-1
7	0	-1
8	0	-1
9	0	-1
10	0	-1
11	0	-1
12	0	-1
13	0	-1
14	0	-1
44
0	5	296.183206	296.218421	1.000000
0	6	304.324554	304.845905	1.000000
0	7	332.274666	336.481135	1.000000
1	2	0.000000	330.729199	0.000000
1	4	30.971548	324.977262	1.000000
1	5	96.176088	330.729199	1.000000
2	1	0.000000	330.729199	0.000000
2	4	35.746108	304.845905	1.000000
2	7	103.461322	293.342031	1.000000
3	4	0.000000	284.714548	0.000000
3	5	65.972656	261.707643	1.000000
4	1	29.830358	324.977262	1.000000
4	2	36.422696	304.845905	1.000000
4	3	0.000000	284.714548	0.000000
5	0	296.140114	296.218421	1.000000
5	1	97.121788	330.729199	1.000000
5	3	66.643630	261.707643	1.000000
5	12	66.450326	264.583190	1.000000
6	0	304.594796	304.845905	1.000000
6	9	103.319034	278.962611	1.000000
6	13	134.234084	316.349778	1.000000
7	0	331.946520	336.481135	1.000000
7	2	101.751634	293.342031	1.000000
7	8	97.049932	313.473388	1.000000
7	14	66.407466	324.977262	1.000000
8	7	95.036210	313.473388	1.000000
8	9	0.000000	304.845905	0.000000
8	11	29.883868	258.831254	1.000000
8	14	0.000000	276.087064	0.000000
9	6	104.936462	278.962611	1.000000
9	8	0.000000	304.845905	0.000000
9	11	37.137356	322.100872	1.000000
10	12	0.000000	304.845905	0.000000
10	13	66.644478	290.466484	1.000000
11	8	28.633684	258.831254	1.000000
11	9	38.814552	322.100872	1.000000
12	5	67.111350	264.583190	1.000000
12	10	0.000000	304.845905	0.000000
12	13	0.000000	281.838158	0.000000
13	6	133.634568	316.349778	1.000000
13	10	67.138240	290.466484	1.000000
13	12	0.000000	281.838158	0.000000
14	7	66.393826	324.977262	1.000000
14	8	0.000000	276.087064	0.000000
840
6	10	13	6	0	5	3	0	0	0	1	0	5	0	3	0	4	
5	14	7	0	7	2	0	0	0	1	0	5	0	3	0	4	
3	3	5	0	0	0	0	1	0	5	0	3	0	4	
5	8	7	0	6	9	0	0	0	1	0	2	0	3	0	4	
6	14	7	0	5	1	4	0	0	0	1	0	5	0	3	0	4	
5	2	7	0	7	14	0	0	0	1	0	2	0	5	0	4	
5	9	6	0	5	12	0	0	0	1	0	5	0	3	0	4	
4	12	5	0	5	0	0	0	1	0	2	0	1	0	0	
5	2	7	0	7	8	0	0	0	1	0	2	0	5	0	4	
4	5	0	7	2	0	0	0	1	0	2	0	1	0	0	
6	13	6	0	5	1	4	0	0	0	1	0	2	0	3	0	4	
3	0	7	2	0	0	0	1	0	2	0	1	0	0	
6	4	1	5	0	5	12	0	0	0	1	0	5	0	3	0	4	
4	6	0	6	13	0	0	0	1	0	2	0	3	0	4	
3	8	7	0	0	0	0	1	0	2	0	5	0	4	
4	1	5	0	7	0	0	0	1	0	2	0	5	0	4	
4	8	7	0	6	0	0	0	1	0	2	0	5	0	4	
5	3	5	0	7	14	0	0	0	1	0	2	0	5	0	4	
4	8	7	0	7	0	0	0	1	0	5	0	3	0	4	
6	10	13	6	0	5	12	0	0	0	1	0	2	0	3	0	4	
4	3	5	0	7	0	0	0	1	0	2	0	3	0	4	
4	7	0	6	13	0	0	0	1	0	5	0	3	0	4	
5	14	7	0	5	1	0	0	0	1	0	5	0	3	0	4	
5	11	9	6	0	5	0	0	0	1	0	2	0	1	0	0	
5	1	5	0	7	2	0	0	0	1	0	2	0	3	0	4	
6	4	1	5	0	5	12	0	0	0	1	0	2	0	1	0	0	
4	7	0	5	1	0	0	0	1	0	5	0	3	0	4	
4	2	7	0	5	0	0	0	1	0	5	0	3	0	4	
4	9	6	0	6	0	0	0	1	0	5	0	3	0	4	
6	1	5	0	6	9	11	0	0	0	1	0	2	0	5	0	4	
4	11	9	6	0	0	0	0	1	0	2	0	1	0	0	
6	14	7	0	6	13	10	0	0	0	1	0	2	0	3	0	4	
6	4	1	5	0	5	1	0	0	0	1	0	2	0	1	0	0	
4	12	5	0	7	0	0	0	1	0	2	0	3	0	4	
2	5	0	0	0	0	1	0	2	0	3	0	4	
4	0	5	1	4	0	0	0	1	0	2	0	5	0	4	
6	11	9	6	0	6	9	0	0	0	1	0	2	0	1	0	0	
6	10	13	6	0	6	9	0	0	0	1	0	2	0	5	0	4	
5	9	6	0	7	8	0	0	0	1	0	5	0	3	0	4	
6	11	9	6	0	5	12	0	0	0	1	0	2	0	5	0	4	
3	7	0	6	0	0	0	1	0	2	0	5	0	4	
4	14	7	0	7	0	0	0	1	0	2	0	5	0	4	
6	13	6	0	6	9	11	0	0	0	1	0	5	0	3	0	4	
6	2	7	0	6	9	11	0	0	0	1	0	5	0	3	0	4	
5	6	0	6	13	10	0	0	0	1	0	5	0	3	0	4	
4	13	6	0	5	0	0	0	1	0	5	0	3	0	4	
3	0	5	1	0	0	0	1	0	2	0	3	0	4	
5	3	5	0	6	9	0	0	0	1	0	2	0	1	0	0	
6	3	5	0	6	13	10	0	0	0	1	0	2	0	5	0	4	
3	1	5	0	0	0	0	1	0	5	0	3	0	4	
3	7	0	5	0	0	0	1	0	2	0	3	0	4	
5	5	0	6	9	11	0	0	0	1	0	5	0	3	0	4	
3	0	7	8	0	0	0	1	0	2	0	5	0	4	
3	0	7	14	0	0	0	1	0	2	0	5	0	4	
6	3	5	0	5	1	4	0	0	0	1	0	2	0	1	0	0	
6	11	9	6	0	7	2	0	0	0	1	0	2	0	3	0	4	
5	14	7	0	7	8	0	0	0	1	0	2	0	1	0	0	
6	4	1	5	0	5	3	0	0	0	1	0	2	0	3	0	4	
6	2	7	0	5	1	4	0	0	0	1	0	2	0	3	0	4	
5	10	13	6	0	6	0	0	0	1	0	2	0	1	0	0	
3	13	6	0	0	0	0	1	0	2	0	5	0	4	
4	0	6	13	10	0	0	0	1	0	2	0	5	0	4	
4	6	0	5	1	0	0	0	1	0	2	0	5	0	4	
4	9	6	0	7	0	0	0	1	0	5	0	3	0	4	
6	8	7	0	6	13	10	0	0	0	1	0	2	0	3	0	4	
5	12	5	0	7	8	0	0	0	1	0	5	0	3	0	4	
4	14	7	0	5	0	0	0	1	0	2	0	1	0	0	
3	5	0	7	0	0	0	1	0	5	0	3	0	4	
4	12	5	0	6	0	0	0	1	0	5	0	3	0	4	
2	6	0	0	0	0	1	0	2	0	5	0	4	
4	5	0	5	1	0	0	0	1	0	5	0	3	0	4	
6	10	13	6	0	6	13	0	0	0	1	0	2	0	5	0	4	
5	13	6	0	5	3	0	0	0	1	0	2	0	3	0	4	
6	11	8	7	0	7	8	0	0	0	1	0	2	0	5	0	4	
4	6	0	7	2	0	0	0	1	0	2	0	3	0	4	
6	4	1	5	0	7	8	0	0	0	1	0	5	0	3	0	4	
6	9	6	0	6	13	10	0	0	0	1	0	2	0	1	0	0	
5	13	6	0	5	12	0	0	0	1	0	2	0	5	0	4	
6	10	13	6	0	6	13	0	0	0	1	0	2	0	3	0	4	
4	3	5	0	6	0	0	0	1	0	2	0	3	0	4	
5	7	0	6	13	10	0	0	0	1	0	2	0	1	0	0	
5	9	6	0	5	3	0	0	0	1	0	2	0	1	0	0	
5	12	5	0	5	3	0	0	0	1	0	2	0	5	0	4	
4	5	0	5	12	0	0	0	1	0	2	0	5	0	4	
4	7	0	6	9	0	0	0	1	0	5	0	3	0	4	
6	11	9	6	0	6	13	0	0	0	1	0	5	0	3	0	4	
3	0	6	13	0	0	0	1	0	5	0	3	0	4	
5	8	7	0	5	12	0	0	0	1	0	2	0	1	0	0	
6	14	7	0	6	9	11	0	0	0	1	0	2	0	3	0	4	
6	4	1	5	0	7	2	0	0	0	1	0	5	0	3	0	4	
3	12	5	0	0	0	0	1	0	2	0	3	0	4	
4	2	7	0	7	0	0	0	1	0	2	0	1	0	0	
5	14	7	0	6	13	0	0	0	1	0	2	0	5	0	4	
5	13	6	0	5	1	0	0	0	1	0	2	0	1	0	0	
2	6	0	0	0	0	1	0	2	0	1	0	0	
5	14	7	0	5	3	0	0	0	1	0	5	0	3	0	4	
5	14	7	0	7	2	0	0	0	1	0	2	0	5	0	4	
5	8	7	0	6	9	0	0	0	1	0	2	0	1	0	0	
4	6	0	5	12	0	0	0	1	0	2	0	5	0	4	
5	2	7	0	7	14	0	0	0	1	0	2	0	1	0	0	
6	10	13	6	0	5	1	0	0	0	1	0	2	0	5	0	4	
6	3	5	0	6	13	10	0	0	0	1	0	5	0	3	0	4	
5	9	6	0	7	8	0	0	0	1	0	2	0	3	0	4	
4	3	5	0	5	0	0	0	1	0	2	0	5	0	4	
4	5	0	7	2	0	0	0	1	0	2	0	5	0	4	
6	13	6	0	7	2	4	0	0	0	1	0	2	0	1	0	0	
3	0	7	2	0	0	0	1	0	2	0	3	0	4	
4	6	0	6	13	0	0	0	1	0	2	0	1	0	0	
3	8	7	0	0	0	0	1	0	2	0	1	0	0	
5	11	9	6	0	6	0	0	0	1	0	2	0	5	0	4	
4	1	5	0	7	0	0	0	1	0	2	0	1	0	0	
5	7	0	5	1	4	0	0	0	1	0	2	0	3	0	4	
5	3	5	0	7	2	0	0	0	1	0	2	0	5	0	4	
6	10	13	6	0	7	2	0	0	0	1	0	5	0	3	0	4	
5	3	5	0	5	1	0	0	0	1	0	5	0	3	0	4	
6	10	13	6	0	5	12	0	0	0	1	0	5	0	3	0	4	
5	13	6	0	6	9	0	0	0	1	0	5	0	3	0	4	
4	7	0	6	13	0	0	0	1	0	2	0	5	0	4	
5	11	9	6	0	5	0	0	0	1	0	2	0	3	0	4	
5	1	5	0	7	2	0	0	0	1	0	2	0	1	0	0	
6	4	2	7	0	5	12	0	0	0	1	0	2	0	3	0	4	
5	12	5	0	7	2	0	0	0	1	0	2	0	1	0	0	
4	2	7	0	5	0	0	0	1	0	2	0	3	0	4	
4	5	0	6	13	0	0	0	1	0	2	0	1	0	0	
4	5	0	7	14	0	0	0	1	0	5	0	3	0	4	
7	11	8	7	0	6	13	10	0	0	0	1	0	2	0	5	0	4	
5	13	6	0	6	9	0	0	0	1	0	2	0	5	0	4	
6	1	5	0	7	8	11	0	0	0	1	0	2	0	1	0	0	
6	8	7	0	6	9	11	0	0	0	1	0	2	0	3	0	4	
6	4	2	7	0	5	1	0	0	0	1	0	2	0	5	0	4	
5	14	7	0	6	9	0	0	0	1	0	2	0	5	0	4	
4	12	5	0	7	0	0	0	1	0	2	0	1	0	0	
2	5	0	0	0	0	1	0	2	0	1	0	0	
5	13	6	0	7	2	0	0	0	1	0	2	0	3	0	4	
4	0	7	2	4	0	0	0	1	0	2	0	1	0	0	
5	7	0	6	9	11	0	0	0	1	0	5	0	3	0	4	
4	6	0	5	3	0	0	0	1	0	2	0	3	0	4	
6	11	9	6	0	6	9	0	0	0	1	0	2	0	3	0	4	
5	10	13	6	0	5	0	0	0	1	0	2	0	5	0	4	
3	7	0	6	0	0	0	1	0	5	0	3	0	4	
5	12	5	0	7	14	0	0	0	1	0	2	0	1	0	0	
4	14	7	0	7	0	0	0	1	0	5	0	3	0	4	
6	13	6	0	7	8	11	0	0	0	1	0	2	0	5	0	4	
5	6	0	6	13	10	0	0	0	1	0	2	0	5	0	4	
4	13	6	0	5	0	0	0	1	0	2	0	5	0	4	
3	0	5	1	0	0	0	1	0	2	0	1	0	0	
5	3	5	0	6	9	0	0	0	1	0	2	0	3	0	4	
5	11	9	6	0	7	0	0	0	1	0	2	0	1	0	0	
3	1	5	0	0	0	0	1	0	2	0	3	0	4	
6	4	1	5	0	7	14	0	0	0	1	0	2	0	1	0	0	
5	5	0	7	8	11	0	0	0	1	0	2	0	5	0	4	
5	13	6	0	7	14	0	0	0	1	0	2	0	3	0	4	
3	0	7	8	0	0	0	1	0	2	0	1	0	0	
6	3	5	0	5	1	4	0	0	0	1	0	2	0	5	0	4	
6	11	9	6	0	7	2	0	0	0	1	0	2	0	1	0	0	
5	14	7	0	7	8	0	0	0	1	0	2	0	3	0	4	
6	2	7	0	6	13	10	0	0	0	1	0	5	0	3	0	4	
6	4	2	7	0	5	3	0	0	0	1	0	2	0	1	0	0	
5	12	5	0	5	1	0	0	0	1	0	2	0	3	0	4	
6	2	7	0	5	1	4	0	0	0	1	0	5	0	3	0	4	
4	5	0	7	14	0	0	0	1	0	2	0	3	0	4	
5	10	13	6	0	6	0	0	0	1	0	2	0	3	0	4	
3	13	6	0	0	0	0	1	0	5	0	3	0	4	
4	6	0	5	1	0	0	0	1	0	5	0	3	0	4	
6	8	7	0	5	1	4	0	0	0	1	0	5	0	3	0	4	
4	14	7	0	5	0	0	0	1	0	2	0	5	0	4	
6	8	7	0	6	13	10	0	0	0	1	0	5	0	3	0	4	
5	12	5	0	7	8	0	0	0	1	0	2	0	5	0	4	
3	5	0	7	0	0	0	1	0	2	0	5	0	4	
4	12	5	0	6	0	0	0	1	0	2	0	5	0	4	
4	5	0	5	1	0	0	0	1	0	2	0	5	0	4	
6	10	13	6	0	7	8	0	0	0	1	0	2	0	1	0	0	
3	0	5	3	0	0	0	1	0	2	0	3	0	4	
6	3	5	0	6	9	11	0	0	0	1	0	2	0	1	0	0	
6	4	2	7	0	7	8	0	0	0	1	0	2	0	5	0	4	
5	12	5	0	6	13	0	0	0	1	0	2	0	3	0	4	
4	7	0	7	8	0	0	0	1	0	5	0	3	0	4	
5	2	7	0	5	1	0	0	0	1	0	2	0	5	0	4	
6	9	6	0	6	13	10	0	0	0	1	0	2	0	5	0	4	
5	13	6	0	5	12	0	0	0	1	0	5	0	3	0	4	
6	10	13	6	0	6	13	0	0	0	1	0	2	0	1	0	0	
4	3	5	0	6	0	0	0	1	0	2	0	1	0	0	
5	9	6	0	5	12	0	0	0	1	0	2	0	5	0	4	
7	11	8	7	0	7	2	4	0	0	0	1	0	2	0	3	0	4	
6	8	7	0	6	9	11	0	0	0	1	0	5	0	3	0	4	
6	4	2	7	0	6	13	0	0	0	1	0	2	0	3	0	4	
5	9	6	0	5	3	0	0	0	1	0	2	0	3	0	4	
5	12	5	0	5	3	0	0	0	1	0	5	0	3	0	4	
4	5	0	5	12	0	0	0	1	0	5	0	3	0	4	
7	10	13	6	0	7	2	4	0	0	0	1	0	2	0	1	0	0	
5	1	5	0	6	13	0	0	0	1	0	2	0	5	0	4	
6	11	8	7	0	6	13	0	0	0	1	0	2	0	5	0	4	
5	8	7	0	5	12	0	0	0	1	0	2	0	3	0	4	
6	14	7	0	6	9	11	0	0	0	1	0	2	0	1	0	0	
5	2	7	0	6	13	0	0	0	1	0	2	0	5	0	4	
6	4	2	7	0	7	2	0	0	0	1	0	2	0	5	0	4	
5	9	6	0	6	13	0	0	0	1	0	2	0	1	0	0	
4	2	7	0	7	0	0	0	1	0	2	0	5	0	4	
5	13	6	0	5	1	0	0	0	1	0	2	0	3	0	4	
2	6	0	0	0	0	1	0	2	0	3	0	4	
6	11	9	6	0	7	8	0	0	0	1	0	2	0	3	0	4	
5	14	7	0	7	2	0	0	0	1	0	2	0	1	0	0	
4	6	0	7	2	0	0	0	1	0	5	0	3	0	4	
6	1	5	0	5	1	4	0	0	0	1	0	2	0	5	0	4	
4	7	0	5	1	0	0	0	1	0	2	0	1	0	0	
5	2	7	0	7	14	0	0	0	1	0	2	0	3	0	4	
5	9	6	0	7	8	0	0	0	1	0	2	0	1	0	0	
3	0	5	12	0	0	0	1	0	5	0	3	0	4	
4	5	0	7	2	0	0	0	1	0	5	0	3	0	4	
7	10	13	6	0	6	9	11	0	0	0	1	0	2	0	3	0	4	
3	0	7	2	0	0	0	1	0	5	0	3	0	4	
5	3	5	0	7	8	0	0	0	1	0	2	0	3	0	4	
3	8	7	0	0	0	0	1	0	2	0	3	0	4	
5	11	9	6	0	6	0	0	0	1	0	5	0	3	0	4	
5	3	5	0	5	12	0	0	0	1	0	5	0	3	0	4	
4	1	5	0	7	0	0	0	1	0	2	0	3	0	4	
5	7	0	5	1	4	0	0	0	1	0	2	0	1	0	0	
5	9	6	0	5	1	0	0	0	1	0	2	0	1	0	0	
3	2	7	0	0	0	0	1	0	2	0	1	0	0	
4	12	5	0	5	0	0	0	1	0	5	0	3	0	4	
6	10	13	6	0	7	2	0	0	0	1	0	2	0	5	0	4	
5	9	6	0	7	8	0	0	0	1	0	2	0	5	0	4	
6	10	13	6	0	5	12	0	0	0	1	0	2	0	5	0	4	
5	1	5	0	7	8	0	0	0	1	0	2	0	5	0	4	
4	3	5	0	7	0	0	0	1	0	2	0	5	0	4	
4	7	0	6	13	0	0	0	1	0	2	0	1	0	0	
5	8	7	0	7	14	0	0	0	1	0	2	0	1	0	0	
5	14	7	0	6	9	0	0	0	1	0	2	0	3	0	4	
5	1	5	0	6	9	0	0	0	1	0	2	0	5	0	4	
5	12	5	0	7	2	0	0	0	1	0	2	0	3	0	4	
4	2	7	0	5	0	0	0	1	0	2	0	1	0	0	
4	5	0	6	13	0	0	0	1	0	2	0	3	0	4	
5	10	13	6	0	7	0	0	0	1	0	2	0	3	0	4	
2	0	7	0	0	0	1	0	2	0	5	0	4	
7	11	9	6	0	6	13	10	0	0	0	1	0	5	0	3	0	4	
6	1	5	0	6	9	11	0	0	0	1	0	2	0	3	0	4	
6	8	7	0	6	9	11	0	0	0	1	0	2	0	1	0	0	
5	2	7	0	5	12	0	0	0	1	0	2	0	1	0	0	
6	4	1	5	0	5	1	0	0	0	1	0	5	0	3	0	4	
5	9	6	0	7	14	0	0	0	1	0	2	0	3	0	4	
6	9	6	0	5	1	4	0	0	0	1	0	5	0	3	0	4	
5	13	6	0	7	2	0	0	0	1	0	2	0	1	0	0	
4	0	7	2	4	0	0	0	1	0	2	0	3	0	4	
4	6	0	5	3	0	0	0	1	0	2	0	1	0	0	
5	8	7	0	7	2	0	0	0	1	0	2	0	1	0	0	
4	1	5	0	5	0	0	0	1	0	2	0	1	0	0	
3	7	0	6	0	0	0	1	0	2	0	3	0	4	
5	12	5	0	7	14	0	0	0	1	0	2	0	3	0	4	
6	13	6	0	6	9	11	0	0	0	1	0	2	0	1	0	0	
4	0	6	9	11	0	0	0	1	0	2	0	5	0	4	
5	6	0	6	13	10	0	0	0	1	0	2	0	1	0	0	
3	0	5	1	0	0	0	1	0	2	0	5	0	4	
2	7	0	0	0	0	1	0	2	0	5	0	4	
5	11	9	6	0	7	0	0	0	1	0	2	0	3	0	4	
3	1	5	0	0	0	0	1	0	2	0	1	0	0	
6	4	1	5	0	7	14	0	0	0	1	0	2	0	3	0	4	
5	9	6	0	7	2	0	0	0	1	0	2	0	3	0	4	
6	9	6	0	5	1	4	0	0	0	1	0	2	0	5	0	4	
5	2	7	0	5	3	0	0	0	1	0	2	0	3	0	4	
5	8	7	0	5	3	0	0	0	1	0	5	0	3	0	4	
5	5	0	6	9	11	0	0	0	1	0	2	0	1	0	0	
5	13	6	0	7	14	0	0	0	1	0	2	0	1	0	0	
3	0	7	8	0	0	0	1	0	2	0	3	0	4	
5	2	7	0	5	12	0	0	0	1	0	5	0	3	0	4	
5	1	5	0	6	9	0	0	0	1	0	2	0	1	0	0	
3	6	0	7	0	0	0	1	0	5	0	3	0	4	
5	8	7	0	6	13	0	0	0	1	0	2	0	3	0	4	
5	14	7	0	7	8	0	0	0	1	0	5	0	3	0	4	
6	2	7	0	6	13	10	0	0	0	1	0	2	0	5	0	4	
5	12	5	0	5	1	0	0	0	1	0	2	0	1	0	0	
6	2	7	0	7	2	4	0	0	0	1	0	2	0	5	0	4	
4	5	0	7	14	0	0	0	1	0	2	0	1	0	0	
3	13	6	0	0	0	0	1	0	2	0	3	0	4	
2	0	6	0	0	0	1	0	2	0	1	0	0	
6	11	8	7	0	5	3	0	0	0	1	0	2	0	5	0	4	
4	6	0	5	1	0	0	0	1	0	2	0	3	0	4	
6	8	7	0	5	1	4	0	0	0	1	0	2	0	5	0	4	
5	8	7	0	6	9	0	0	0	1	0	5	0	3	0	4	
6	8	7	0	6	13	10	0	0	0	1	0	2	0	5	0	4	
5	12	5	0	7	8	0	0	0	1	0	2	0	1	0	0	
3	5	0	7	0	0	0	1	0	2	0	1	0	0	
6	10	13	6	0	7	8	0	0	0	1	0	2	0	3	0	4	
3	0	5	3	0	0	0	1	0	2	0	1	0	0	
6	3	5	0	6	9	11	0	0	0	1	0	2	0	3	0	4	
5	8	7	0	5	1	0	0	0	1	0	2	0	3	0	4	
6	12	5	0	6	13	10	0	0	0	1	0	2	0	5	0	4	
4	1	5	0	6	0	0	0	1	0	2	0	3	0	4	
4	6	0	6	9	0	0	0	1	0	5	0	3	0	4	
6	4	1	5	0	7	8	0	0	0	1	0	2	0	1	0	0	
5	12	5	0	6	13	0	0	0	1	0	2	0	1	0	0	
5	2	7	0	5	1	0	0	0	1	0	5	0	3	0	4	
6	9	6	0	6	13	10	0	0	0	1	0	5	0	3	0	4	
5	13	6	0	5	12	0	0	0	1	0	2	0	3	0	4	
4	0	6	13	10	0	0	0	1	0	2	0	1	0	0	
5	13	6	0	7	2	0	0	0	1	0	5	0	3	0	4	
4	6	0	5	12	0	0	0	1	0	5	0	3	0	4	
7	11	9	6	0	7	2	4	0	0	0	1	0	2	0	1	0	0	
6	4	2	7	0	6	13	0	0	0	1	0	2	0	1	0	0	
5	12	5	0	5	3	0	0	0	1	0	2	0	3	0	4	
4	5	0	5	12	0	0	0	1	0	2	0	3	0	4	
7	10	13	6	0	7	2	4	0	0	0	1	0	2	0	3	0	4	
4	6	0	5	3	0	0	0	1	0	5	0	3	0	4	
6	11	9	6	0	6	13	0	0	0	1	0	2	0	1	0	0	
6	1	5	0	6	13	10	0	0	0	1	0	2	0	3	0	4	
4	7	0	7	2	0	0	0	1	0	2	0	5	0	4	
6	14	7	0	6	9	11	0	0	0	1	0	2	0	5	0	4	
5	2	7	0	6	13	0	0	0	1	0	5	0	3	0	4	
5	9	6	0	6	13	0	0	0	1	0	2	0	3	0	4	
4	13	6	0	7	0	0	0	1	0	5	0	3	0	4	
4	2	7	0	7	0	0	0	1	0	5	0	3	0	4	
4	7	0	5	12	0	0	0	1	0	5	0	3	0	4	
4	6	0	7	14	0	0	0	1	0	5	0	3	0	4	
4	8	7	0	5	0	0	0	1	0	5	0	3	0	4	
5	13	6	0	5	1	0	0	0	1	0	5	0	3	0	4	
2	0	5	0	0	0	1	0	2	0	3	0	4	
5	3	5	0	6	13	0	0	0	1	0	2	0	1	0	0	
6	11	9	6	0	7	8	0	0	0	1	0	2	0	1	0	0	
5	14	7	0	7	2	0	0	0	1	0	2	0	3	0	4	
6	1	5	0	5	1	4	0	0	0	1	0	5	0	3	0	4	
4	7	0	5	1	0	0	0	1	0	2	0	3	0	4	
2	7	0	0	0	0	1	0	5	0	3	0	4	
3	0	5	12	0	0	0	1	0	2	0	5	0	4	
5	7	0	7	8	11	0	0	0	1	0	2	0	5	0	4	
5	12	5	0	7	14	0	0	0	1	0	2	0	5	0	4	
7	10	13	6	0	6	9	11	0	0	0	1	0	2	0	1	0	0	
3	0	7	2	0	0	0	1	0	2	0	5	0	4	
5	3	5	0	7	8	0	0	0	1	0	2	0	1	0	0	
4	7	0	7	14	0	0	0	1	0	2	0	5	0	4	
5	11	9	6	0	6	0	0	0	1	0	2	0	3	0	4	
5	14	7	0	5	12	0	0	0	1	0	2	0	1	0	0	
5	7	0	7	2	4	0	0	0	1	0	2	0	5	0	4	
5	9	6	0	5	1	0	0	0	1	0	2	0	3	0	4	
4	13	6	0	6	0	0	0	1	0	5	0	3	0	4	
3	2	7	0	0	0	0	1	0	2	0	3	0	4	
6	4	1	5	0	5	12	0	0	0	1	0	2	0	5	0	4	
6	10	13	6	0	7	2	0	0	0	1	0	2	0	1	0	0	
4	6	0	7	8	0	0	0	1	0	5	0	3	0	4	
3	0	6	9	0	0	0	1	0	2	0	3	0	4	
5	3	5	0	5	1	0	0	0	1	0	2	0	1	0	0	
3	6	0	5	0	0	0	1	0	2	0	5	0	4	
3	7	0	5	0	0	0	1	0	5	0	3	0	4	
4	7	0	6	13	0	0	0	1	0	2	0	3	0	4	
5	8	7	0	7	14	0	0	0	1	0	2	0	3	0	4	
6	12	5	0	5	1	4	0	0	0	1	0	5	0	3	0	4	
5	14	7	0	6	9	0	0	0	1	0	2	0	1	0	0	
4	5	0	5	3	0	0	0	1	0	5	0	3	0	4	
5	12	5	0	7	2	0	0	0	1	0	5	0	3	0	4	
4	5	0	6	13	0	0	0	1	0	5	0	3	0	4	
5	10	13	6	0	7	0	0	0	1	0	2	0	1	0	0	
2	0	7	0	0	0	1	0	5	0	3	0	4	
7	11	9	6	0	6	13	10	0	0	0	1	0	2	0	3	0	4	
3	14	7	0	0	0	0	1	0	2	0	1	0	0	
4	7	0	5	3	0	0	0	1	0	2	0	1	0	0	
5	2	7	0	5	12	0	0	0	1	0	2	0	3	0	4	
5	8	7	0	5	1	0	0	0	1	0	5	0	3	0	4	
5	9	6	0	7	14	0	0	0	1	0	2	0	1	0	0	
5	13	6	0	7	8	0	0	0	1	0	2	0	5	0	4	
2	5	0	0	0	0	1	0	5	0	3	0	4	
4	6	0	6	9	0	0	0	1	0	2	0	5	0	4	
6	10	13	6	0	6	9	0	0	0	1	0	2	0	3	0	4	
6	3	5	0	6	13	10	0	0	0	1	0	2	0	3	0	4	
5	8	7	0	7	2	0	0	0	1	0	2	0	3	0	4	
4	1	5	0	5	0	0	0	1	0	2	0	3	0	4	
3	7	0	6	0	0	0	1	0	2	0	1	0	0	
4	9	6	0	7	0	0	0	1	0	2	0	1	0	0	
4	1	5	0	6	0	0	0	1	0	5	0	3	0	4	
4	5	0	7	8	0	0	0	1	0	2	0	5	0	4	
6	13	6	0	6	9	11	0	0	0	1	0	2	0	3	0	4	
4	0	6	9	11	0	0	0	1	0	5	0	3	0	4	
5	6	0	6	13	10	0	0	0	1	0	2	0	3	0	4	
6	11	9	6	0	5	1	0	0	0	1	0	5	0	3	0	4	
4	6	0	7	8	0	0	0	1	0	2	0	5	0	4	
4	4	1	5	0	0	0	0	1	0	5	0	3	0	4	
6	13	6	0	6	13	10	0	0	0	1	0	5	0	3	0	4	
5	11	9	6	0	7	0	0	0	1	0	5	0	3	0	4	
6	4	1	5	0	7	14	0	0	0	1	0	5	0	3	0	4	
5	9	6	0	7	2	0	0	0	1	0	2	0	1	0	0	
5	2	7	0	5	3	0	0	0	1	0	2	0	1	0	0	
5	5	0	6	9	11	0	0	0	1	0	2	0	3	0	4	
5	10	13	6	0	5	0	0	0	1	0	2	0	3	0	4	
5	6	0	7	2	4	0	0	0	1	0	2	0	1	0	0	
5	1	5	0	6	9	0	0	0	1	0	2	0	3	0	4	
5	6	0	6	9	11	0	0	0	1	0	5	0	3	0	4	
5	8	7	0	6	13	0	0	0	1	0	2	0	1	0	0	
6	12	5	0	6	9	11	0	0	0	1	0	2	0	5	0	4	
5	14	7	0	7	8	0	0	0	1	0	2	0	5	0	4	
6	2	7	0	6	13	10	0	0	0	1	0	2	0	1	0	0	
5	5	0	5	1	4	0	0	0	1	0	2	0	5	0	4	
5	9	6	0	5	12	0	0	0	1	0	2	0	3	0	4	
5	1	5	0	7	8	0	0	0	1	0	5	0	3	0	4	
4	5	0	7	14	0	0	0	1	0	2	0	5	0	4	
3	13	6	0	0	0	0	1	0	2	0	1	0	0	
2	0	6	0	0	0	1	0	2	0	3	0	4	
4	6	0	5	1	0	0	0	1	0	2	0	1	0	0	
6	8	7	0	5	1	4	0	0	0	1	0	2	0	1	0	0	
5	14	7	0	5	3	0	0	0	1	0	2	0	3	0	4	
2	7	0	0	0	0	1	0	2	0	3	0	4	
5	12	5	0	7	8	0	0	0	1	0	2	0	3	0	4	
5	1	5	0	6	13	0	0	0	1	0	5	0	3	0	4	
3	5	0	7	0	0	0	1	0	2	0	3	0	4	
5	13	6	0	6	9	0	0	0	1	0	2	0	1	0	0	
4	6	0	7	8	0	0	0	1	0	2	0	1	0	0	
5	3	5	0	6	13	0	0	0	1	0	2	0	5	0	4	
6	3	5	0	6	9	11	0	0	0	1	0	5	0	3	0	4	
5	8	7	0	5	1	0	0	0	1	0	2	0	1	0	0	
5	1	5	0	7	2	0	0	0	1	0	5	0	3	0	4	
4	1	5	0	6	0	0	0	1	0	2	0	1	0	0	
6	4	2	7	0	7	8	0	0	0	1	0	2	0	3	0	4	
3	9	6	0	0	0	0	1	0	2	0	3	0	4	
5	2	7	0	5	1	0	0	0	1	0	2	0	3	0	4	
4	5	0	6	9	0	0	0	1	0	2	0	1	0	0	
5	13	6	0	5	12	0	0	0	1	0	2	0	1	0	0	
4	0	6	13	10	0	0	0	1	0	2	0	3	0	4	
5	13	6	0	7	14	0	0	0	1	0	5	0	3	0	4	
6	11	9	6	0	7	14	0	0	0	1	0	2	0	5	0	4	
4	7	0	5	12	0	0	0	1	0	2	0	3	0	4	
7	11	9	6	0	7	2	4	0	0	0	1	0	2	0	5	0	4	
6	4	2	7	0	6	13	0	0	0	1	0	2	0	5	0	4	
5	12	5	0	5	3	0	0	0	1	0	2	0	1	0	0	
4	5	0	5	12	0	0	0	1	0	2	0	1	0	0	
7	10	13	6	0	5	1	4	0	0	0	1	0	5	0	3	0	4	
4	7	0	5	12	0	0	0	1	0	2	0	5	0	4	
3	6	0	7	0	0	0	1	0	2	0	3	0	4	
6	11	9	6	0	6	13	0	0	0	1	0	2	0	3	0	4	
6	1	5	0	6	13	10	0	0	0	1	0	2	0	1	0	0	
4	7	0	7	2	0	0	0	1	0	5	0	3	0	4	
6	12	5	0	6	13	10	0	0	0	1	0	2	0	1	0	0	
6	14	7	0	6	9	11	0	0	0	1	0	5	0	3	0	4	
5	2	7	0	6	13	0	0	0	1	0	2	0	3	0	4	
5	9	6	0	6	13	0	0	0	1	0	5	0	3	0	4	
4	13	6	0	7	0	0	0	1	0	2	0	5	0	4	
4	6	0	7	14	0	0	0	1	0	2	0	5	0	4	
5	13	6	0	5	1	0	0	0	1	0	2	0	5	0	4	
2	0	5	0	0	0	1	0	2	0	1	0	0	
5	3	5	0	6	13	0	0	0	1	0	2	0	3	0	4	
5	8	7	0	5	3	0	0	0	1	0	2	0	3	0	4	
5	1	5	0	6	9	0	0	0	1	0	5	0	3	0	4	
6	1	5	0	5	1	4	0	0	0	1	0	2	0	3	0	4	
7	4	2	7	0	6	13	10	0	0	0	1	0	2	0	1	0	0	
6	13	6	0	6	13	10	0	0	0	1	0	2	0	3	0	4	
3	0	5	12	0	0	0	1	0	2	0	1	0	0	
5	6	0	6	9	11	0	0	0	1	0	2	0	3	0	4	
5	1	5	0	7	14	0	0	0	1	0	5	0	3	0	4	
7	10	13	6	0	6	9	11	0	0	0	1	0	2	0	5	0	4	
5	3	5	0	7	8	0	0	0	1	0	2	0	5	0	4	
4	7	0	7	14	0	0	0	1	0	5	0	3	0	4	
5	11	9	6	0	6	0	0	0	1	0	2	0	1	0	0	
5	14	7	0	5	12	0	0	0	1	0	2	0	3	0	4	
4	2	7	0	6	0	0	0	1	0	5	0	3	0	4	
5	7	0	5	1	4	0	0	0	1	0	5	0	3	0	4	
5	9	6	0	5	1	0	0	0	1	0	5	0	3	0	4	
3	2	7	0	0	0	0	1	0	5	0	3	0	4	
5	5	0	6	13	10	0	0	0	1	0	2	0	3	0	4	
6	10	13	6	0	7	2	0	0	0	1	0	2	0	3	0	4	
3	0	6	9	0	0	0	1	0	2	0	1	0	0	
5	3	5	0	5	1	0	0	0	1	0	2	0	3	0	4	
3	6	0	5	0	0	0	1	0	5	0	3	0	4	
5	1	5	0	7	8	0	0	0	1	0	2	0	3	0	4	
5	4	2	7	0	6	0	0	0	1	0	2	0	1	0	0	
5	8	7	0	7	14	0	0	0	1	0	5	0	3	0	4	
6	12	5	0	7	2	4	0	0	0	1	0	2	0	5	0	4	
5	5	0	5	1	4	0	0	0	1	0	5	0	3	0	4	
4	5	0	5	3	0	0	0	1	0	2	0	5	0	4	
5	12	5	0	7	2	0	0	0	1	0	2	0	5	0	4	
4	5	0	6	13	0	0	0	1	0	2	0	5	0	4	
5	10	13	6	0	7	0	0	0	1	0	2	0	5	0	4	
5	12	5	0	5	1	0	0	0	1	0	5	0	3	0	4	
2	0	7	0	0	0	1	0	2	0	3	0	4	
7	11	9	6	0	6	13	10	0	0	0	1	0	2	0	1	0	0	
3	14	7	0	0	0	0	1	0	2	0	3	0	4	
4	7	0	5	3	0	0	0	1	0	2	0	3	0	4	
5	12	5	0	6	9	0	0	0	1	0	2	0	3	0	4	
3	9	6	0	0	0	0	1	0	2	0	5	0	4	
3	5	0	6	0	0	0	1	0	2	0	3	0	4	
5	9	6	0	7	14	0	0	0	1	0	2	0	5	0	4	
5	13	6	0	7	8	0	0	0	1	0	5	0	3	0	4	
3	6	0	7	0	0	0	1	0	2	0	5	0	4	
6	10	13	6	0	6	9	0	0	0	1	0	2	0	1	0	0	
5	1	5	0	5	3	0	0	0	1	0	5	0	3	0	4	
6	3	5	0	6	13	10	0	0	0	1	0	2	0	1	0	0	
5	8	7	0	7	2	0	0	0	1	0	5	0	3	0	4	
4	1	5	0	5	0	0	0	1	0	5	0	3	0	4	
6	4	2	7	0	6	9	0	0	0	1	0	2	0	3	0	4	
4	9	6	0	7	0	0	0	1	0	2	0	3	0	4	
6	9	6	0	6	9	11	0	0	0	1	0	5	0	3	0	4	
6	1	5	0	6	13	10	0	0	0	1	0	5	0	3	0	4	
4	5	0	7	8	0	0	0	1	0	5	0	3	0	4	
4	10	13	6	0	0	0	0	1	0	2	0	1	0	0	
4	0	6	9	11	0	0	0	1	0	2	0	3	0	4	
5	8	7	0	6	9	0	0	0	1	0	2	0	5	0	4	
6	11	8	7	0	5	1	0	0	0	1	0	2	0	5	0	4	
4	4	1	5	0	0	0	0	1	0	2	0	5	0	4	
6	10	13	6	0	6	13	0	0	0	1	0	5	0	3	0	4	
5	11	8	7	0	7	0	0	0	1	0	2	0	5	0	4	
5	2	7	0	6	9	0	0	0	1	0	2	0	5	0	4	
6	4	1	5	0	7	14	0	0	0	1	0	2	0	5	0	4	
5	9	6	0	7	2	0	0	0	1	0	2	0	5	0	4	
5	2	7	0	5	3	0	0	0	1	0	2	0	5	0	4	
5	10	13	6	0	5	0	0	0	1	0	2	0	1	0	0	
6	12	5	0	6	13	10	0	0	0	1	0	5	0	3	0	4	
5	6	0	5	1	4	0	0	0	1	0	2	0	3	0	4	
6	11	9	6	0	5	12	0	0	0	1	0	2	0	3	0	4	
7	4	2	7	0	7	8	11	0	0	0	1	0	2	0	5	0	4	
4	14	7	0	6	0	0	0	1	0	2	0	1	0	0	
5	4	1	5	0	5	0	0	0	1	0	2	0	3	0	4	
5	8	7	0	6	13	0	0	0	1	0	2	0	5	0	4	
6	12	5	0	6	9	11	0	0	0	1	0	5	0	3	0	4	
6	2	7	0	6	13	10	0	0	0	1	0	2	0	3	0	4	
5	13	6	0	7	2	0	0	0	1	0	2	0	5	0	4	
5	9	6	0	5	12	0	0	0	1	0	2	0	1	0	0	
5	3	5	0	6	9	0	0	0	1	0	2	0	5	0	4	
2	0	6	0	0	0	1	0	5	0	3	0	4	
5	3	5	0	5	12	0	0	0	1	0	2	0	3	0	4	
6	8	7	0	5	1	4	0	0	0	1	0	2	0	3	0	4	
5	14	7	0	5	3	0	0	0	1	0	2	0	1	0	0	
4	7	0	5	1	0	0	0	1	0	2	0	5	0	4	
2	7	0	0	0	0	1	0	2	0	1	0	0	
4	9	6	0	5	0	0	0	1	0	2	0	1	0	0	
7	4	1	5	0	6	9	11	0	0	0	1	0	5	0	3	0	4	
4	6	0	5	3	0	0	0	1	0	2	0	5	0	4	
5	13	6	0	6	9	0	0	0	1	0	2	0	3	0	4	
4	6	0	7	8	0	0	0	1	0	2	0	3	0	4	
6	10	13	6	0	7	8	0	0	0	1	0	2	0	5	0	4	
5	1	5	0	5	12	0	0	0	1	0	2	0	5	0	4	
6	3	5	0	6	9	11	0	0	0	1	0	2	0	5	0	4	
4	7	0	6	9	0	0	0	1	0	2	0	1	0	0	
5	14	7	0	6	13	0	0	0	1	0	2	0	3	0	4	
3	9	6	0	0	0	0	1	0	2	0	1	0	0	
4	8	7	0	5	0	0	0	1	0	2	0	5	0	4	
3	0	5	3	0	0	0	1	0	5	0	3	0	4	
5	2	7	0	5	1	0	0	0	1	0	2	0	1	0	0	
6	8	7	0	7	8	11	0	0	0	1	0	2	0	5	0	4	
4	5	0	6	9	0	0	0	1	0	2	0	3	0	4	
6	10	13	6	0	5	3	0	0	0	1	0	2	0	3	0	4	
4	0	6	13	10	0	0	0	1	0	5	0	3	0	4	
3	3	5	0	0	0	0	1	0	2	0	3	0	4	
6	11	9	6	0	7	14	0	0	0	1	0	5	0	3	0	4	
4	7	0	5	12	0	0	0	1	0	2	0	1	0	0	
7	11	9	6	0	5	1	4	0	0	0	1	0	5	0	3	0	4	
5	2	7	0	7	8	0	0	0	1	0	2	0	1	0	0	
6	10	13	6	0	7	14	0	0	0	1	0	2	0	5	0	4	
5	12	5	0	7	14	0	0	0	1	0	5	0	3	0	4	
7	10	13	6	0	7	2	4	0	0	0	1	0	2	0	5	0	4	
3	5	0	6	0	0	0	1	0	5	0	3	0	4	
3	6	0	7	0	0	0	1	0	2	0	1	0	0	
4	8	7	0	6	0	0	0	1	0	2	0	1	0	0	
5	14	7	0	5	1	0	0	0	1	0	2	0	3	0	4	
4	13	6	0	6	0	0	0	1	0	2	0	5	0	4	
5	12	5	0	6	9	0	0	0	1	0	5	0	3	0	4	
4	7	0	7	2	0	0	0	1	0	2	0	3	0	4	
6	12	5	0	6	13	10	0	0	0	1	0	2	0	3	0	4	
5	2	7	0	6	13	0	0	0	1	0	2	0	1	0	0	
5	14	7	0	5	1	0	0	0	1	0	2	0	5	0	4	
5	9	6	0	6	13	0	0	0	1	0	2	0	5	0	4	
4	13	6	0	7	0	0	0	1	0	2	0	1	0	0	
4	6	0	7	14	0	0	0	1	0	2	0	1	0	0	
2	0	5	0	0	0	1	0	2	0	5	0	4	
5	8	7	0	5	3	0	0	0	1	0	2	0	1	0	0	
6	1	5	0	5	1	4	0	0	0	1	0	2	0	1	0	0	
7	4	1	5	0	6	13	10	0	0	0	1	0	2	0	3	0	4	
4	9	6	0	6	0	0	0	1	0	2	0	3	0	4	
6	14	7	0	6	13	10	0	0	0	1	0	5	0	3	0	4	
6	13	6	0	6	13	10	0	0	0	1	0	2	0	1	0	0	
3	0	5	12	0	0	0	1	0	2	0	3	0	4	
5	6	0	7	8	11	0	0	0	1	0	2	0	1	0	0	
7	10	13	6	0	6	9	11	0	0	0	1	0	5	0	3	0	4	
5	1	5	0	6	13	0	0	0	1	0	2	0	1	0	0	
5	3	5	0	7	8	0	0	0	1	0	5	0	3	0	4	
4	7	0	7	14	0	0	0	1	0	2	0	3	0	4	
5	8	7	0	5	1	0	0	0	1	0	2	0	5	0	4	
5	14	7	0	5	12	0	0	0	1	0	5	0	3	0	4	
4	2	7	0	6	0	0	0	1	0	2	0	5	0	4	
5	9	6	0	5	1	0	0	0	1	0	2	0	5	0	4	
3	2	7	0	0	0	0	1	0	2	0	5	0	4	
5	5	0	6	13	10	0	0	0	1	0	2	0	1	0	0	
3	0	6	9	0	0	0	1	0	2	0	5	0	4	
3	6	0	5	0	0	0	1	0	2	0	3	0	4	
5	1	5	0	7	8	0	0	0	1	0	2	0	1	0	0	
5	4	1	5	0	6	0	0	0	1	0	2	0	3	0	4	
5	8	7	0	7	14	0	0	0	1	0	2	0	5	0	4	
6	12	5	0	7	2	4	0	0	0	1	0	2	0	1	0	0	
6	2	7	0	7	8	11	0	0	0	1	0	2	0	3	0	4	
4	5	0	5	3	0	0	0	1	0	2	0	1	0	0	
5	10	13	6	0	7	0	0	0	1	0	5	0	3	0	4	
6	13	6	0	6	13	10	0	0	0	1	0	2	0	5	0	4	
2	0	7	0	0	0	1	0	2	0	1	0	0	
4	8	7	0	5	0	0	0	1	0	2	0	3	0	4	
5	3	5	0	5	1	0	0	0	1	0	2	0	5	0	4	
3	14	7	0	0	0	0	1	0	5	0	3	0	4	
4	7	0	5	3	0	0	0	1	0	5	0	3	0	4	
5	12	5	0	6	9	0	0	0	1	0	2	0	1	0	0	
5	2	7	0	5	12	0	0	0	1	0	2	0	5	0	4	
3	5	0	6	0	0	0	1	0	2	0	1	0	0	
5	9	6	0	7	14	0	0	0	1	0	5	0	3	0	4	
5	13	6	0	7	8	0	0	0	1	0	2	0	3	0	4	
3	0	7	14	0	0	0	1	0	2	0	1	0	0	
6	4	1	5	0	5	3	0	0	0	1	0	5	0	3	0	4	
4	6	0	6	9	0	0	0	1	0	2	0	3	0	4	
5	6	0	7	8	11	0	0	0	1	0	2	0	5	0	4	
5	1	5	0	5	3	0	0	0	1	0	2	0	5	0	4	
5	8	7	0	7	2	0	0	0	1	0	2	0	5	0	4	
4	1	5	0	5	0	0	0	1	0	2	0	5	0	4	
6	4	2	7	0	6	9	0	0	0	1	0	2	0	1	0	0	
4	5	0	7	8	0	0	0	1	0	2	0	3	0	4	
4	10	13	6	0	0	0	0	1	0	2	0	3	0	4	
4	0	6	9	11	0	0	0	1	0	2	0	1	0	0	
6	11	9	6	0	5	1	0	0	0	1	0	2	0	1	0	0	
5	1	5	0	7	14	0	0	0	1	0	2	0	3	0	4	
6	14	7	0	6	13	10	0	0	0	1	0	2	0	5	0	4	
4	4	1	5	0	0	0	0	1	0	2	0	1	0	0	
5	2	7	0	6	9	0	0	0	1	0	5	0	3	0	4	
5	9	6	0	7	2	0	0	0	1	0	5	0	3	0	4	
5	13	6	0	5	3	0	0	0	1	0	5	0	3	0	4	
5	2	7	0	5	3	0	0	0	1	0	5	0	3	0	4	
2	6	0	0	0	0	1	0	5	0	3	0	4	
5	1	5	0	7	2	0	0	0	1	0	2	0	5	0	4	
5	6	0	5	1	4	0	0	0	1	0	5	0	3	0	4	
6	11	9	6	0	5	12	0	0	0	1	0	2	0	1	0	0	
4	14	7	0	6	0	0	0	1	0	2	0	3	0	4	
5	4	1	5	0	5	0	0	0	1	0	2	0	1	0	0	
5	8	7	0	6	13	0	0	0	1	0	5	0	3	0	4	
6	12	5	0	6	9	11	0	0	0	1	0	2	0	3	0	4	
5	5	0	7	2	4	0	0	0	1	0	2	0	3	0	4	
5	13	6	0	7	14	0	0	0	1	0	2	0	5	0	4	
2	0	6	0	0	0	1	0	2	0	5	0	4	
5	3	5	0	5	12	0	0	0	1	0	2	0	1	0	0	
5	7	0	6	13	10	0	0	0	1	0	2	0	5	0	4	
5	14	7	0	5	3	0	0	0	1	0	2	0	5	0	4	
6	11	9	6	0	5	3	0	0	0	1	0	5	0	3	0	4	
7	4	2	7	0	7	8	11	0	0	0	1	0	2	0	3	0	4	
4	9	6	0	5	0	0	0	1	0	2	0	3	0	4	
5	4	1	5	0	7	0	0	0	1	0	5	0	3	0	4	
6	10	13	6	0	7	14	0	0	0	1	0	2	0	1	0	0	
3	0	6	13	0	0	0	1	0	2	0	3	0	4	
4	3	5	0	5	0	0	0	1	0	2	0	1	0	0	
5	1	5	0	5	12	0	0	0	1	0	5	0	3	0	4	
4	7	0	6	9	0	0	0	1	0	2	0	3	0	4	
3	12	5	0	0	0	0	1	0	5	0	3	0	4	
5	14	7	0	6	13	0	0	0	1	0	2	0	1	0	0	
4	5	0	6	9	0	0	0	1	0	5	0	3	0	4	
6	10	13	6	0	5	3	0	0	0	1	0	2	0	1	0	0	
4	14	7	0	6	0	0	0	1	0	2	0	5	0	4	
3	3	5	0	0	0	0	1	0	2	0	1	0	0	
6	4	1	5	0	6	13	0	0	0	1	0	5	0	3	0	4	
6	11	9	6	0	7	14	0	0	0	1	0	2	0	3	0	4	
6	14	7	0	7	2	4	0	0	0	1	0	2	0	1	0	0	
5	4	1	5	0	7	0	0	0	1	0	2	0	3	0	4	
5	2	7	0	7	8	0	0	0	1	0	2	0	3	0	4	
5	1	5	0	7	14	0	0	0	1	0	2	0	5	0	4	
6	13	6	0	7	2	4	0	0	0	1	0	2	0	5	0	4	
4	6	0	6	13	0	0	0	1	0	2	0	5	0	4	
5	3	5	0	7	14	0	0	0	1	0	2	0	3	0	4	
4	8	7	0	6	0	0	0	1	0	2	0	3	0	4	
5	14	7	0	5	1	0	0	0	1	0	2	0	1	0	0	
4	7	0	7	2	0	0	0	1	0	2	0	1	0	0	
6	9	6	0	7	8	11	0	0	0	1	0	2	0	1	0	0	
4	13	6	0	7	0	0	0	1	0	2	0	3	0	4	
4	6	0	7	14	0	0	0	1	0	2	0	3	0	4	
5	11	9	6	0	5	0	0	0	1	0	5	0	3	0	4	
2	0	5	0	0	0	1	0	5	0	3	0	4	
5	7	0	6	9	11	0	0	0	1	0	2	0	1	0	0	
7	4	1	5	0	6	13	10	0	0	0	1	0	5	0	3	0	4	
4	9	6	0	6	0	0	0	1	0	2	0	1	0	0	
5	12	5	0	5	1	0	0	0	1	0	2	0	5	0	4	
4	11	9	6	0	0	0	0	1	0	5	0	3	0	4	
6	10	13	6	0	5	1	0	0	0	1	0	2	0	3	0	4	
5	3	5	0	6	13	0	0	0	1	0	5	0	3	0	4	
5	3	5	0	7	2	0	0	0	1	0	2	0	3	0	4	
5	1	5	0	6	13	0	0	0	1	0	2	0	3	0	4	
4	7	0	7	14	0	0	0	1	0	2	0	1	0	0	
4	12	5	0	7	0	0	0	1	0	2	0	5	0	4	
5	14	7	0	5	12	0	0	0	1	0	2	0	5	0	4	
4	2	7	0	6	0	0	0	1	0	2	0	1	0	0	
2	5	0	0	0	0	1	0	2	0	5	0	4	
5	3	5	0	7	14	0	0	0	1	0	5	0	3	0	4	
5	5	0	6	13	10	0	0	0	1	0	2	0	5	0	4	
6	11	9	6	0	6	9	0	0	0	1	0	5	0	3	0	4	
3	0	6	9	0	0	0	1	0	5	0	3	0	4	
3	6	0	5	0	0	0	1	0	2	0	1	0	0	
4	14	7	0	7	0	0	0	1	0	2	0	3	0	4	
5	4	1	5	0	6	0	0	0	1	0	5	0	3	0	4	
6	1	5	0	6	13	10	0	0	0	1	0	2	0	5	0	4	
6	12	5	0	7	2	4	0	0	0	1	0	2	0	3	0	4	
6	2	7	0	6	9	11	0	0	0	1	0	2	0	1	0	0	
4	5	0	5	3	0	0	0	1	0	2	0	3	0	4	
4	13	6	0	5	0	0	0	1	0	2	0	1	0	0	
4	6	0	5	12	0	0	0	1	0	2	0	1	0	0	
6	14	7	0	7	2	4	0	0	0	1	0	2	0	5	0	4	
4	8	7	0	5	0	0	0	1	0	2	0	1	0	0	
3	14	7	0	0	0	0	1	0	2	0	5	0	4	
4	7	0	5	3	0	0	0	1	0	2	0	5	0	4	
6	9	6	0	7	2	4	0	0	0	1	0	2	0	3	0	4	
6	9	6	0	6	9	11	0	0	0	1	0	2	0	5	0	4	
3	5	0	6	0	0	0	1	0	2	0	5	0	4	
5	13	6	0	7	8	0	0	0	1	0	2	0	1	0	0	
3	0	7	14	0	0	0	1	0	2	0	3	0	4	
4	6	0	6	9	0	0	0	1	0	2	0	1	0	0	
6	11	9	6	0	7	2	0	0	0	1	0	2	0	5	0	4	
5	1	5	0	5	3	0	0	0	1	0	2	0	1	0	0	
4	7	0	7	8	0	0	0	1	0	2	0	3	0	4	
6	10	13	6	0	6	9	0	0	0	1	0	5	0	3	0	4	
4	12	5	0	5	0	0	0	1	0	2	0	5	0	4	
6	11	9	6	0	5	12	0	0	0	1	0	5	0	3	0	4	
6	4	1	5	0	6	9	0	0	0	1	0	2	0	5	0	4	
5	3	5	0	6	9	0	0	0	1	0	5	0	3	0	4	
5	10	13	6	0	6	0	0	0	1	0	5	0	3	0	4	
4	5	0	7	8	0	0	0	1	0	2	0	1	0	0	
4	10	13	6	0	0	0	0	1	0	5	0	3	0	4	
6	11	9	6	0	5	1	0	0	0	1	0	2	0	3	0	4	
5	1	5	0	7	14	0	0	0	1	0	2	0	1	0	0	
4	4	2	7	0	0	0	0	1	0	2	0	3	0	4	
4	12	5	0	6	0	0	0	1	0	2	0	1	0	0	
5	2	7	0	6	9	0	0	0	1	0	2	0	3	0	4	
4	5	0	5	1	0	0	0	1	0	2	0	1	0	0	
5	13	6	0	5	3	0	0	0	1	0	2	0	5	0	4	
4	6	0	7	2	0	0	0	1	0	2	0	5	0	4	
5	6	0	5	1	4	0	0	0	1	0	2	0	5	0	4	
4	8	7	0	7	0	0	0	1	0	2	0	3	0	4	
3	7	0	5	0	0	0	1	0	2	0	5	0	4	
5	4	2	7	0	5	0	0	0	1	0	2	0	5	0	4	
6	12	5	0	7	8	11	0	0	0	1	0	2	0	1	0	0	
5	5	0	7	2	4	0	0	0	1	0	2	0	1	0	0	
6	10	13	6	0	7	14	0	0	0	1	0	5	0	3	0	4	
4	13	6	0	6	0	0	0	1	0	2	0	3	0	4	
3	0	5	1	0	0	0	1	0	5	0	3	0	4	
4	3	5	0	6	0	0	0	1	0	2	0	5	0	4	
5	3	5	0	5	12	0	0	0	1	0	2	0	5	0	4	
5	7	0	6	13	10	0	0	0	1	0	5	0	3	0	4	
5	9	6	0	5	3	0	0	0	1	0	5	0	3	0	4	
4	9	6	0	7	0	0	0	1	0	2	0	5	0	4	
7	4	2	7	0	7	8	11	0	0	0	1	0	2	0	1	0	0	
4	9	6	0	5	0	0	0	1	0	5	0	3	0	4	
6	10	13	6	0	7	14	0	0	0	1	0	2	0	3	0	4	
3	0	6	13	0	0	0	1	0	2	0	1	0	0	
4	3	5	0	5	0	0	0	1	0	2	0	3	0	4	
5	12	5	0	6	9	0	0	0	1	0	2	0	5	0	4	
6	11	9	6	0	5	3	0	0	0	1	0	2	0	1	0	0	
6	11	9	6	0	7	8	0	0	0	1	0	5	0	3	0	4	
5	1	5	0	5	12	0	0	0	1	0	2	0	3	0	4	
4	3	5	0	5	0	0	0	1	0	5	0	3	0	4	
6	4	1	5	0	7	2	0	0	0	1	0	2	0	1	0	0	
3	12	5	0	0	0	0	1	0	2	0	5	0	4	
6	10	13	6	0	7	8	0	0	0	1	0	5	0	3	0	4	
4	5	0	6	9	0	0	0	1	0	2	0	5	0	4	
6	10	13	6	0	5	3	0	0	0	1	0	2	0	5	0	4	
3	3	5	0	0	0	0	1	0	2	0	5	0	4	
6	11	8	7	0	7	14	0	0	0	1	0	2	0	1	0	0	
6	14	7	0	7	2	4	0	0	0	1	0	2	0	3	0	4	
5	2	7	0	7	14	0	0	0	1	0	5	0	3	0	4	
5	4	2	7	0	7	0	0	0	1	0	2	0	1	0	0	
4	12	5	0	5	0	0	0	1	0	2	0	3	0	4	
5	2	7	0	7	8	0	0	0	1	0	5	0	3	0	4	
4	5	0	7	2	0	0	0	1	0	2	0	3	0	4	
6	13	6	0	5	1	4	0	0	0	1	0	5	0	3	0	4	
4	6	0	6	13	0	0	0	1	0	5	0	3	0	4	
3	8	7	0	0	0	0	1	0	5	0	3	0	4	
4	7	0	6	9	0	0	0	1	0	2	0	5	0	4	
4	1	5	0	7	0	0	0	1	0	5	0	3	0	4	
5	3	5	0	7	14	0	0	0	1	0	2	0	1	0	0	
4	8	7	0	6	0	0	0	1	0	5	0	3	0	4	
6	9	6	0	7	8	11	0	0	0	1	0	2	0	3	0	4	
6	10	13	6	0	5	12	0	0	0	1	0	2	0	1	0	0	
4	3	5	0	7	0	0	0	1	0	2	0	1	0	0	
5	14	7	0	6	13	0	0	0	1	0	5	0	3	0	4	
5	11	8	7	0	5	0	0	0	1	0	2	0	5	0	4	
5	7	0	7	8	11	0	0	0	1	0	2	0	3	0	4	
4	2	7	0	5	0	0	0	1	0	2	0	5	0	4	
7	4	2	7	0	6	13	10	0	0	0	1	0	2	0	5	0	4	
4	9	6	0	6	0	0	0	1	0	2	0	5	0	4	
6	10	13	6	0	5	1	0	0	0	1	0	5	0	3	0	4	
5	12	5	0	6	13	0	0	0	1	0	2	0	5	0	4	
6	10	13	6	0	5	1	0	0	0	1	0	2	0	1	0	0	
6	1	5	0	6	9	11	0	0	0	1	0	5	0	3	0	4	
5	3	5	0	7	2	0	0	0	1	0	2	0	1	0	0	
4	11	9	6	0	0	0	0	1	0	2	0	3	0	4	
6	14	7	0	6	13	10	0	0	0	1	0	2	0	1	0	0	
6	4	1	5	0	5	1	0	0	0	1	0	2	0	3	0	4	
4	12	5	0	7	0	0	0	1	0	5	0	3	0	4	
4	2	7	0	6	0	0	0	1	0	2	0	3	0	4	
6	4	1	5	0	5	3	0	0	0	1	0	2	0	5	0	4	
5	3	5	0	7	2	0	0	0	1	0	5	0	3	0	4	
4	0	5	1	4	0	0	0	1	0	5	0	3	0	4	
5	5	0	6	13	10	0	0	0	1	0	5	0	3	0	4	
6	11	9	6	0	6	9	0	0	0	1	0	2	0	5	0	4	
4	11	8	7	0	0	0	0	1	0	2	0	5	0	4	
4	14	7	0	7	0	0	0	1	0	2	0	1	0	0	
5	4	2	7	0	6	0	0	0	1	0	2	0	5	0	4	
4	3	5	0	7	0	0	0	1	0	5	0	3	0	4	
6	2	7	0	7	8	11	0	0	0	1	0	2	0	5	0	4	
4	13	6	0	5	0	0	0	1	0	2	0	3	0	4	
3	9	6	0	0	0	0	1	0	5	0	3	0	4	
4	6	0	5	12	0	0	0	1	0	2	0	3	0	4	
3	1	5	0	0	0	0	1	0	2	0	5	0	4	
3	7	0	5	0	0	0	1	0	2	0	1	0	0	
5	12	5	0	6	13	0	0	0	1	0	5	0	3	0	4	
6	9	6	0	7	2	4	0	0	0	1	0	2	0	1	0	0	
3	0	7	8	0	0	0	1	0	5	0	3	0	4	
5	14	7	0	6	9	0	0	0	1	0	5	0	3	0	4	
3	0	7	14	0	0	0	1	0	5	0	3	0	4	
6	3	5	0	7	2	4	0	0	0	1	0	2	0	3	0	4	
4	8	7	0	7	0	0	0	1	0	2	0	5	0	4	
6	11	9	6	0	7	2	0	0	0	1	0	5	0	3	0	4	
5	1	5	0	5	3	0	0	0	1	0	2	0	3	0	4	
4	7	0	7	8	0	0	0	1	0	2	0	1	0	0	
5	10	13	6	0	5	0	0	0	1	0	5	0	3	0	4	
6	2	7	0	7	2	4	0	0	0	1	0	2	0	1	0	0	
6	4	1	5	0	6	9	0	0	0	1	0	5	0	3	0	4	
5	10	13	6	0	6	0	0	0	1	0	2	0	5	0	4	
4	10	13	6	0	0	0	0	1	0	2	0	5	0	4	
4	1	5	0	6	0	0	0	1	0	2	0	5	0	4	
5	8	7	0	5	12	0	0	0	1	0	2	0	5	0	4	
5	8	7	0	5	12	0	0	0	1	0	5	0	3	0	4	
6	8	7	0	6	13	10	0	0	0	1	0	2	0	1	0	0	
4	14	7	0	5	0	0	0	1	0	2	0	3	0	4	
5	4	1	5	0	7	0	0	0	1	0	2	0	5	0	4	
4	12	5	0	6	0	0	0	1	0	2	0	3	0	4	
5	2	7	0	6	9	0	0	0	1	0	2	0	1	0	0	
4	5	0	5	1	0	0	0	1	0	2	0	3	0	4	
5	13	6	0	5	3	0	0	0	1	0	2	0	1	0	0	
3	0	5	3	0	0	0	1	0	2	0	5	0	4	
4	6	0	7	2	0	0	0	1	0	2	0	1	0	0	
4	8	7	0	7	0	0	0	1	0	2	0	1	0	0	
5	4	1	5	0	5	0	0	0	1	0	5	0	3	0	4	
6	9	6	0	6	13	10	0	0	0	1	0	2	0	3	0	4	
4	14	7	0	6	0	0	0	1	0	5	0	3	0	4	
4	13	6	0	6	0	0	0	1	0	2	0	1	0	0	
4	7	0	7	8	0	0	0	1	0	2	0	5	0	4	
6	3	5	0	5	1	4	0	0	0	1	0	5	0	3	0	4	
4	3	5	0	6	0	0	0	1	0	5	0	3	0	4	
5	8	7	0	5	3	0	0	0	1	0	2	0	5	0	4	
5	7	0	6	13	10	0	0	0	1	0	2	0	3	0	4	
5	9	6	0	5	3	0	0	0	1	0	2	0	5	0	4	
4	14	7	0	5	0	0	0	1	0	5	0	3	0	4	
4	9	6	0	5	0	0	0	1	0	2	0	5	0	4	
3	0	6	13	0	0	0	1	0	2	0	5	0	4	
6	11	9	6	0	5	3	0	0	0	1	0	2	0	3	0	4	
5	1	5	0	5	12	0	0	0	1	0	2	0	1	0	0	
6	4	2	7	0	7	2	0	0	0	1	0	2	0	3	0	4	
3	12	5	0	0	0	0	1	0	2	0	1	0	0	
4	2	7	0	7	0	0	0	1	0	2	0	3	0	4	
