4815.06	4024.72
1676
61469.3	40965.9
15
0	2389	2390
1	1606	1607
2	2104	2104
3	0	-1
4	0	-1
5	1818	1973
6	2316	2323
7	1837	1838
8	1619	1621
9	1841	1844
10	0	-1
11	0	-1
12	2441	2445
13	1673	1679
14	0	-1
44
0	5	95.041342	95.079040	1.000000
0	6	95.125520	97.848271	1.000000
0	7	103.916546	108.002724	1.000000
1	2	42.362710	106.156875	1.000000
1	4	47.413472	104.310113	1.000000
1	5	64.187148	106.156875	1.000000
2	1	42.913158	106.156875	1.000000
2	4	38.826170	97.848271	1.000000
2	7	93.786926	94.156572	1.000000
3	4	14.641974	91.387342	1.000000
3	5	51.338482	84.002119	1.000000
4	1	39.631312	104.310113	1.000000
4	2	41.255916	97.848271	1.000000
4	3	19.529786	91.387342	1.000000
5	0	95.025856	95.079040	1.000000
5	1	71.223370	106.156875	1.000000
5	3	47.121644	84.002119	1.000000
5	12	82.933322	84.925226	1.000000
6	0	96.758010	97.848271	1.000000
6	9	77.046818	89.540762	1.000000
6	13	89.379470	101.540882	1.000000
7	0	102.198546	108.002724	1.000000
7	2	90.874528	94.156572	1.000000
7	8	80.586908	100.617501	1.000000
7	14	52.101894	104.310113	1.000000
8	7	75.797934	100.617501	1.000000
8	9	46.674468	97.848271	1.000000
8	11	33.298602	83.079012	1.000000
8	14	14.305572	88.617655	1.000000
9	6	81.256810	89.540762	1.000000
9	8	43.619334	97.848271	1.000000
9	11	33.722622	103.387645	1.000000
10	12	28.499850	97.848271	1.000000
10	13	38.144628	93.233191	1.000000
11	8	32.510988	83.079012	1.000000
11	9	34.937248	103.387645	1.000000
12	5	84.824662	84.925226	1.000000
12	10	28.889268	97.848271	1.000000
12	13	39.751530	90.463869	1.000000
13	6	87.549638	101.540882	1.000000
13	10	38.248972	93.233191	1.000000
13	12	41.371264	90.463869	1.000000
14	7	52.270942	104.310113	1.000000
14	8	14.122884	88.617655	1.000000
840
4	10	12	5	3	12	0	5	1	5	5	5	3	5	4	
3	14	7	2	2	0	2	1	2	5	2	3	2	4	
3	3	5	0	0	0	0	1	0	5	0	3	0	4	
2	8	9	9	0	9	1	9	2	9	3	9	4	
4	14	7	2	4	7	0	7	1	7	5	7	3	7	4	
3	2	7	14	2	0	2	1	2	2	2	5	7	4	
4	9	6	13	12	6	0	13	1	12	5	12	3	12	4	
2	12	5	12	0	12	1	5	2	5	1	5	0	
3	2	7	8	8	0	8	1	8	2	8	5	8	4	
3	5	1	2	1	0	1	1	1	2	1	1	1	0	
5	13	12	5	1	4	13	0	1	1	1	2	1	3	1	4	
3	0	7	2	0	0	0	1	0	2	0	1	0	0	
4	4	1	5	12	12	0	12	1	12	5	12	3	12	4	
2	6	13	6	0	6	1	6	2	6	3	6	4	
3	8	7	0	7	0	7	1	7	2	7	5	7	4	
3	1	2	7	1	0	1	1	1	2	1	5	2	4	
3	8	9	6	6	0	6	1	6	2	6	5	6	4	
5	3	5	0	7	14	5	0	5	1	5	2	5	5	5	4	
2	8	7	7	0	7	1	7	5	7	3	7	4	
2	10	12	12	0	12	1	12	2	12	3	12	4	
4	3	5	0	7	7	0	7	1	7	2	7	3	7	4	
4	7	0	6	13	13	0	13	1	13	5	13	3	13	4	
4	14	7	2	1	1	0	1	1	1	5	1	3	1	4	
5	11	9	6	0	5	9	0	9	1	9	2	9	1	9	0	
2	1	2	1	0	1	1	1	2	1	3	1	4	
4	4	1	5	12	12	0	12	1	12	2	12	1	12	0	
3	7	2	1	7	0	7	1	7	5	7	3	7	4	
3	2	1	5	2	0	2	1	2	5	2	3	2	4	
2	9	6	9	0	9	1	9	5	9	3	9	4	
5	1	2	7	8	11	7	0	7	1	7	2	7	5	8	4	
4	11	9	6	0	9	0	9	1	9	2	9	1	9	0	
6	14	7	0	6	13	10	13	0	13	1	13	2	13	3	13	4	
2	4	1	1	0	1	1	1	2	1	1	1	0	
4	12	5	0	7	12	0	12	1	12	2	12	3	12	4	
2	5	0	0	0	0	1	0	2	0	3	0	4	
4	0	5	1	4	5	0	5	1	5	2	5	5	1	4	
2	11	9	9	0	9	1	9	2	9	1	9	0	
4	10	13	6	9	13	0	13	1	13	2	13	5	9	4	
2	9	8	9	0	9	1	9	5	9	3	9	4	
5	11	9	6	13	12	12	0	12	1	12	2	12	5	12	4	
3	7	0	6	6	0	6	1	6	2	6	5	6	4	
2	14	7	7	0	7	1	7	2	7	5	7	4	
4	13	6	9	11	13	0	13	1	13	5	13	3	13	4	
4	2	7	8	11	2	0	2	1	2	5	2	3	2	4	
3	6	13	10	13	0	13	1	13	5	13	3	13	4	
3	13	12	5	13	0	13	1	13	5	13	3	13	4	
3	0	5	1	0	0	0	1	0	2	0	3	0	4	
5	3	5	0	6	9	9	0	9	1	9	2	9	1	9	0	
4	3	5	12	10	12	0	12	1	12	2	12	5	12	4	
3	1	5	0	0	0	0	1	0	5	0	3	0	4	
3	7	0	5	0	0	0	1	0	2	0	3	0	4	
5	5	0	6	9	11	9	0	9	1	9	5	9	3	9	4	
3	0	7	8	0	0	0	1	0	2	0	5	0	4	
3	0	7	14	0	0	0	1	0	2	0	5	7	4	
4	3	4	1	4	1	0	1	1	1	2	1	1	1	0	
4	11	8	7	2	2	0	2	1	2	2	2	3	2	4	
2	14	8	8	0	8	1	8	2	8	1	8	0	
4	4	1	4	3	1	0	1	1	1	2	1	3	1	4	
2	2	4	2	0	2	1	2	2	2	3	2	4	
3	10	13	6	13	0	13	1	13	2	13	1	13	0	
3	13	6	0	13	0	13	1	13	2	13	5	6	4	
4	0	6	13	10	0	0	0	1	0	2	0	5	13	4	
4	6	0	5	1	1	0	1	1	1	2	1	5	1	4	
3	9	8	7	9	0	9	1	9	5	9	3	9	4	
5	8	9	6	13	10	9	0	9	1	9	2	9	3	9	4	
5	12	5	0	7	8	12	0	0	1	0	5	0	3	8	4	
4	14	7	0	5	5	0	5	1	5	2	5	1	5	0	
3	5	0	7	5	0	5	1	5	5	5	3	5	4	
3	12	13	6	13	0	13	1	13	5	13	3	13	4	
2	6	0	6	0	6	1	6	2	6	5	6	4	
2	5	1	5	0	5	1	5	5	5	3	5	4	
2	10	13	13	0	13	1	13	2	13	5	13	4	
4	13	12	5	3	5	0	5	1	5	2	5	3	5	4	
2	11	8	8	0	8	1	8	2	8	5	8	4	
4	6	0	7	2	2	0	2	1	2	2	2	3	2	4	
4	4	2	7	8	2	0	2	1	2	5	2	3	2	4	
4	9	6	13	10	9	0	9	1	9	2	9	1	9	0	
2	13	12	12	0	12	1	12	2	12	5	12	4	
2	10	13	13	0	13	1	13	2	13	3	13	4	
4	3	5	0	6	5	0	5	1	5	2	5	3	5	4	
5	7	0	6	13	10	13	0	13	1	13	2	13	1	13	0	
5	9	6	0	5	3	9	0	9	1	9	2	9	1	9	0	
3	12	5	3	5	0	5	1	5	2	5	5	5	4	
2	5	12	12	0	12	1	12	2	12	5	12	4	
3	7	8	9	9	0	9	1	9	5	9	3	9	4	
4	11	9	6	13	9	0	9	1	9	5	9	3	9	4	
3	0	6	13	6	0	6	1	6	5	6	3	6	4	
5	8	9	6	13	12	9	0	9	1	9	2	9	1	9	0	
3	14	8	11	8	0	8	1	8	2	8	3	8	4	
2	4	2	2	0	2	1	2	5	2	3	2	4	
3	12	5	0	12	0	12	1	12	2	12	3	12	4	
2	2	7	2	0	2	1	2	2	2	1	2	0	
5	14	7	0	6	13	13	0	13	1	13	2	13	5	13	4	
4	13	12	5	1	1	0	1	1	1	2	1	1	1	0	
2	6	0	6	0	6	1	6	2	6	1	6	0	
5	14	7	0	5	3	0	0	0	1	0	5	0	3	0	4	
3	14	7	2	2	0	2	1	2	2	2	5	2	4	
2	8	9	9	0	9	1	9	2	9	1	9	0	
3	6	13	12	6	0	6	1	6	2	6	5	6	4	
3	2	7	14	7	0	7	1	7	2	7	1	7	0	
4	10	12	5	1	12	0	12	1	12	2	12	5	12	4	
4	3	5	12	10	5	0	5	1	5	5	5	3	5	4	
2	9	8	9	0	9	1	9	2	9	3	9	4	
2	3	5	5	0	5	1	5	2	5	5	5	4	
3	5	1	2	2	0	2	1	2	2	2	5	2	4	
5	13	12	5	1	4	13	0	1	1	1	2	1	1	1	0	
3	0	7	2	7	0	7	1	7	2	7	3	7	4	
2	6	13	13	0	13	1	13	2	13	1	13	0	
3	8	7	0	7	0	7	1	7	2	7	1	7	0	
3	11	9	6	9	0	9	1	9	2	9	5	6	4	
3	1	2	7	7	0	7	1	7	2	7	1	7	0	
3	7	2	4	7	0	7	1	7	2	7	3	7	4	
3	3	4	2	2	0	2	1	2	2	2	5	2	4	
5	10	12	5	1	2	12	0	12	1	12	5	12	3	12	4	
3	3	4	1	1	0	1	1	1	5	1	3	1	4	
2	10	12	12	0	12	1	12	5	12	3	12	4	
3	13	6	9	13	0	13	1	13	5	13	3	13	4	
4	7	0	6	13	13	0	13	1	13	2	13	5	13	4	
5	11	9	6	0	5	9	0	0	1	0	2	0	3	5	4	
2	1	2	1	0	1	1	1	2	1	1	1	0	
4	4	1	5	12	12	0	12	1	12	2	12	3	12	4	
4	12	5	1	2	12	0	12	1	12	2	12	1	12	0	
3	2	1	5	1	0	1	1	1	2	1	3	1	4	
3	5	12	13	13	0	13	1	13	2	13	1	13	0	
4	5	0	7	14	7	0	7	1	7	5	7	3	7	4	
5	11	9	6	13	10	9	0	9	1	9	2	9	5	6	4	
3	13	6	9	9	0	9	1	9	2	9	5	9	4	
5	1	2	7	8	11	8	0	8	1	8	2	8	1	8	0	
2	8	11	8	0	8	1	8	2	8	3	8	4	
2	4	1	1	0	1	1	1	2	1	5	1	4	
3	14	8	9	8	0	8	1	8	2	8	5	8	4	
4	12	5	0	7	7	0	7	1	7	2	7	1	7	0	
2	5	0	0	0	0	1	0	2	0	1	0	0	
5	13	6	0	7	2	7	0	7	1	7	2	7	3	7	4	
4	0	5	1	4	0	0	0	1	0	2	0	1	1	0	
3	7	8	11	7	0	7	1	7	5	7	3	7	4	
4	6	0	5	3	6	0	6	1	6	2	6	3	6	4	
2	11	9	9	0	9	1	9	2	9	3	9	4	
3	10	12	5	12	0	12	1	12	2	12	5	12	4	
3	7	0	6	7	0	7	1	7	5	7	3	0	4	
5	12	5	0	7	14	0	0	7	1	7	2	7	1	7	0	
2	14	7	7	0	7	1	7	5	7	3	7	4	
4	13	6	9	11	6	0	6	1	6	2	6	5	6	4	
3	6	13	10	13	0	13	1	13	2	13	5	13	4	
3	13	12	5	5	0	5	1	5	2	5	5	5	4	
3	0	5	1	1	0	1	1	1	2	1	1	1	0	
5	3	5	0	6	9	9	0	9	1	9	2	9	3	9	4	
3	11	8	7	7	0	7	1	7	2	7	1	7	0	
3	1	5	0	0	0	0	1	0	2	0	3	0	4	
4	4	2	7	14	7	0	7	1	7	2	7	1	7	0	
5	5	0	6	9	11	0	0	0	1	0	2	0	5	0	4	
5	13	6	0	7	14	13	0	0	1	0	2	0	3	7	4	
3	0	7	8	7	0	7	1	7	2	7	1	7	0	
4	3	4	1	4	1	0	1	1	1	2	1	5	1	4	
4	11	8	7	2	7	0	7	1	7	2	7	1	7	0	
2	14	8	8	0	8	1	8	2	8	3	8	4	
5	2	1	5	12	10	12	0	12	1	12	5	12	3	12	4	
4	4	1	4	3	1	0	1	1	1	2	1	1	1	0	
3	12	5	1	12	0	12	1	12	2	12	3	12	4	
2	2	4	2	0	2	1	2	5	2	3	2	4	
4	5	0	7	14	7	0	7	1	7	2	7	3	7	4	
3	10	13	6	6	0	6	1	6	2	6	3	6	4	
3	13	6	0	0	0	0	1	0	5	0	3	0	4	
4	6	0	5	1	0	0	0	1	0	5	0	3	0	4	
4	8	7	2	4	7	0	7	1	7	5	7	3	7	4	
4	14	7	0	5	7	0	7	1	7	2	7	5	0	4	
5	8	9	6	13	10	9	0	9	1	9	5	9	3	9	4	
5	12	5	0	7	8	12	0	0	1	0	2	0	5	8	4	
3	5	0	7	7	0	7	1	7	2	7	5	7	4	
3	12	13	6	12	0	12	1	12	2	12	5	6	4	
2	5	1	5	0	5	1	5	2	5	5	1	4	
5	10	13	6	9	8	9	0	9	1	9	2	9	1	9	0	
3	0	5	3	0	0	0	1	0	2	0	3	0	4	
6	3	5	0	7	8	11	5	0	0	1	0	2	0	1	8	0	
4	4	2	7	8	2	0	2	1	2	2	2	5	8	4	
2	12	13	12	0	12	1	12	2	12	3	12	4	
2	7	8	7	0	7	1	7	5	7	3	7	4	
2	2	1	2	0	2	1	2	2	2	5	1	4	
4	9	6	13	10	9	0	9	1	9	2	6	5	13	4	
2	13	12	12	0	12	1	12	5	12	3	12	4	
2	10	13	13	0	13	1	13	2	13	1	13	0	
4	3	5	0	6	6	0	6	1	6	2	6	1	6	0	
4	9	6	13	12	9	0	9	1	9	2	12	5	12	4	
5	11	8	7	2	4	7	0	7	1	7	2	7	3	7	4	
2	8	11	8	0	8	1	8	5	8	3	8	4	
5	4	1	5	12	13	5	0	5	1	5	2	5	3	5	4	
5	9	6	0	5	3	0	0	0	1	0	2	0	3	0	4	
3	12	5	3	5	0	5	1	5	5	5	3	5	4	
2	5	12	5	0	5	1	5	5	5	3	5	4	
5	10	12	5	1	4	12	0	12	1	1	2	1	1	1	0	
4	1	5	12	13	5	0	5	1	5	2	12	5	13	4	
4	11	9	6	13	9	0	9	1	9	2	9	5	6	4	
5	8	7	0	5	12	0	0	0	1	0	2	0	3	0	4	
3	14	8	11	8	0	8	1	8	2	8	1	8	0	
5	2	7	0	6	13	2	0	2	1	2	2	2	5	2	4	
2	4	2	2	0	2	1	2	2	2	5	2	4	
3	9	6	13	9	0	9	1	9	2	9	1	9	0	
2	2	7	7	0	7	1	7	2	7	5	7	4	
4	13	12	5	1	12	0	12	1	12	2	12	3	12	4	
2	6	0	6	0	6	1	6	2	6	3	6	4	
2	11	8	8	0	8	1	8	2	8	3	8	4	
3	14	7	2	7	0	2	1	2	2	2	1	2	0	
4	6	0	7	2	0	0	0	1	0	5	0	3	0	4	
2	1	4	1	0	1	1	1	2	1	5	1	4	
3	7	2	1	7	0	7	1	7	2	7	1	2	0	
3	2	7	14	2	0	2	1	7	2	7	3	7	4	
2	9	8	9	0	9	1	9	2	9	1	9	0	
3	0	5	12	0	0	0	1	0	5	0	3	0	4	
3	5	1	2	5	0	5	1	5	5	5	3	5	4	
5	10	13	6	9	11	9	0	9	1	9	2	9	3	9	4	
3	0	7	2	0	0	0	1	0	5	0	3	0	4	
5	3	5	0	7	8	0	0	0	1	0	2	0	3	0	4	
3	8	7	0	0	0	0	1	0	2	0	3	0	4	
3	11	9	6	6	0	6	1	6	5	6	3	6	4	
3	3	5	12	5	0	5	1	5	5	5	3	5	4	
3	1	2	7	2	0	2	1	2	2	2	3	2	4	
3	7	2	4	7	0	7	1	7	2	2	1	2	0	
5	9	8	7	2	1	9	0	9	1	9	2	9	1	9	0	
3	2	7	0	0	0	0	1	0	2	0	1	0	0	
2	12	5	5	0	5	1	5	5	5	3	5	4	
5	10	12	5	1	2	12	0	12	1	12	2	12	5	12	4	
2	9	8	8	0	8	1	8	2	8	5	8	4	
2	10	12	12	0	12	1	12	2	12	5	12	4	
4	1	2	7	8	2	0	2	1	2	2	2	5	7	4	
4	3	5	0	7	0	0	0	1	0	2	0	5	0	4	
4	7	0	6	13	13	0	13	1	13	2	13	1	13	0	
2	8	14	8	0	8	1	8	2	8	1	8	0	
3	14	8	9	9	0	9	1	9	2	9	3	9	4	
5	1	2	7	8	9	1	0	1	1	1	2	1	5	8	4	
4	12	5	1	2	5	0	5	1	5	2	5	3	5	4	
3	2	1	5	5	0	5	1	5	2	5	1	5	0	
3	5	12	13	13	0	13	1	13	2	13	3	13	4	
5	10	13	6	0	7	6	0	6	1	6	2	6	3	6	4	
2	0	7	0	0	0	1	0	2	0	5	0	4	
5	11	9	6	13	10	13	0	13	1	13	5	13	3	13	4	
5	1	2	7	8	11	8	0	8	1	8	2	8	3	8	4	
2	8	11	8	0	8	1	8	2	8	1	8	0	
4	2	1	5	12	5	0	5	1	5	2	5	1	5	0	
2	4	1	1	0	1	1	1	5	1	3	1	4	
3	9	8	14	9	0	9	1	9	2	9	3	9	4	
5	9	8	7	2	4	9	0	9	1	9	5	9	3	9	4	
5	13	6	0	7	2	13	0	13	1	6	2	6	1	6	0	
4	0	5	1	4	0	0	0	1	0	2	0	3	1	4	
4	6	0	5	3	6	0	6	1	6	2	6	1	6	0	
3	8	7	2	8	0	2	1	2	2	2	1	2	0	
2	1	5	5	0	5	1	5	2	5	1	5	0	
3	7	0	6	6	0	6	1	6	2	6	3	6	4	
5	12	5	0	7	14	5	0	5	1	5	2	5	3	5	4	
4	13	6	9	11	13	0	13	1	13	2	13	1	13	0	
4	0	6	9	11	9	0	9	1	9	2	9	5	9	4	
3	6	13	10	13	0	13	1	13	2	13	1	13	0	
3	0	5	1	5	0	5	1	5	2	5	5	1	4	
2	7	0	7	0	7	1	7	2	0	5	0	4	
3	11	8	7	8	0	8	1	8	2	7	3	7	4	
3	1	5	0	5	0	5	1	5	2	5	1	5	0	
4	4	2	7	14	2	0	2	1	2	2	2	3	2	4	
4	9	8	7	2	9	0	9	1	9	2	9	3	9	4	
5	9	8	7	2	4	8	0	8	1	8	2	8	5	7	4	
3	2	4	3	2	0	2	1	2	2	2	3	2	4	
5	8	7	0	5	3	0	0	0	1	0	5	0	3	0	4	
5	5	0	6	9	11	9	0	9	1	9	2	9	1	9	0	
5	13	6	0	7	14	13	0	0	1	0	2	0	1	7	0	
3	0	7	8	8	0	8	1	8	2	8	3	8	4	
4	2	1	5	12	5	0	5	1	5	5	5	3	5	4	
5	1	2	7	8	9	9	0	9	1	9	2	9	1	9	0	
3	6	0	7	6	0	6	1	6	5	6	3	6	4	
4	8	9	6	13	13	0	13	1	13	2	13	3	13	4	
2	14	8	8	0	8	1	8	5	8	3	8	4	
5	2	1	5	12	10	5	0	5	1	5	2	5	5	12	4	
3	12	5	1	1	0	1	1	1	2	1	1	1	0	
2	2	4	2	0	2	1	2	2	2	5	2	4	
4	5	0	7	14	7	0	7	1	7	2	7	1	7	0	
3	13	6	0	13	0	13	1	13	2	13	3	13	4	
2	0	6	6	0	6	1	6	2	6	1	6	0	
6	11	9	6	0	5	3	9	0	9	1	9	2	9	5	9	4	
4	6	0	5	1	6	0	6	1	6	2	6	3	6	4	
4	8	7	2	4	8	0	8	1	8	2	8	5	7	4	
2	8	9	9	0	9	1	9	5	9	3	9	4	
5	8	9	6	13	10	13	0	13	1	13	2	13	5	13	4	
5	12	5	0	7	8	12	0	0	1	0	2	0	1	8	0	
3	5	0	7	0	0	0	1	0	2	0	1	0	0	
5	10	13	6	9	8	9	0	9	1	9	2	9	3	9	4	
3	0	5	3	0	0	0	1	0	2	5	1	5	0	
6	3	5	0	7	8	11	5	0	0	1	0	2	0	3	8	4	
4	8	7	2	1	2	0	2	1	2	2	2	3	2	4	
2	12	10	12	0	12	1	12	2	12	5	12	4	
4	1	5	0	6	6	0	6	1	6	2	6	3	6	4	
2	6	9	9	0	9	1	9	5	9	3	9	4	
4	4	2	7	8	8	0	8	1	8	2	8	1	8	0	
2	12	13	13	0	13	1	13	2	13	1	13	0	
2	2	1	1	0	1	1	1	5	1	3	1	4	
4	9	6	13	10	9	0	9	1	9	5	6	3	6	4	
2	13	12	13	0	13	1	13	2	13	3	13	4	
4	0	6	13	10	13	0	13	1	13	2	13	1	13	0	
5	13	6	0	7	2	6	0	6	1	6	5	6	3	6	4	
3	6	13	12	6	0	6	1	6	5	6	3	6	4	
5	11	8	7	2	4	2	0	2	1	2	2	2	1	2	0	
5	4	1	5	12	13	5	0	5	1	5	2	5	1	5	0	
3	12	5	3	5	0	5	1	5	2	5	3	5	4	
2	5	12	5	0	5	1	5	2	5	3	5	4	
5	10	12	5	1	4	12	0	12	1	1	2	1	3	1	4	
4	6	0	5	3	6	0	6	1	6	5	6	3	6	4	
4	11	9	6	13	9	0	9	1	9	2	9	1	9	0	
4	1	5	12	10	12	0	12	1	12	2	12	3	12	4	
2	7	2	7	0	7	1	7	2	2	5	2	4	
3	14	8	11	8	0	8	1	8	2	8	5	8	4	
5	2	7	0	6	13	2	0	2	1	2	5	2	3	2	4	
3	9	6	13	9	0	9	1	9	2	9	3	9	4	
4	13	6	0	7	6	0	6	1	6	5	6	3	6	4	
2	2	7	7	0	7	1	7	5	7	3	7	4	
4	7	0	5	12	0	0	0	1	0	5	0	3	0	4	
4	6	0	7	14	6	0	6	1	6	5	6	3	7	4	
4	8	7	0	5	0	0	0	1	0	5	0	3	0	4	
4	13	12	5	1	1	0	1	1	1	5	1	3	1	4	
2	0	5	0	0	0	1	0	2	0	3	0	4	
4	3	5	12	13	13	0	13	1	13	2	13	1	13	0	
2	11	8	8	0	8	1	8	2	8	1	8	0	
3	14	7	2	7	0	7	1	7	2	7	3	7	4	
2	1	4	1	0	1	1	1	5	1	3	1	4	
3	7	2	1	1	0	1	1	1	2	1	3	1	4	
2	7	0	0	0	0	1	0	5	0	3	0	4	
3	0	5	12	0	0	0	1	0	2	0	5	5	4	
3	7	8	11	7	0	7	1	7	2	7	5	7	4	
5	12	5	0	7	14	0	0	0	1	0	2	0	5	0	4	
5	10	13	6	9	11	9	0	9	1	9	2	9	1	9	0	
3	0	7	2	0	0	0	1	0	2	0	5	2	4	
5	3	4	2	7	8	2	0	2	1	2	2	2	1	2	0	
2	7	14	7	0	7	1	7	2	7	5	7	4	
3	11	9	6	6	0	6	1	6	2	6	3	6	4	
5	14	7	0	5	12	12	0	12	1	12	2	12	1	12	0	
3	7	2	4	2	0	2	1	2	2	2	5	2	4	
5	9	8	7	2	1	9	0	9	1	9	2	9	3	9	4	
2	13	6	6	0	6	1	6	5	6	3	6	4	
3	2	7	0	0	0	0	1	0	2	0	3	0	4	
4	4	1	5	12	12	0	12	1	12	2	12	5	12	4	
5	10	12	5	1	2	12	0	2	1	2	2	2	1	2	0	
3	6	9	8	9	0	9	1	9	5	9	3	9	4	
3	0	6	9	9	0	9	1	9	2	9	3	9	4	
3	3	4	1	1	0	1	1	1	2	1	1	1	0	
3	6	0	5	6	0	6	1	6	2	6	5	6	4	
3	7	0	5	5	0	5	1	5	5	5	3	5	4	
4	7	0	6	13	13	0	13	1	13	2	13	3	13	4	
2	8	14	8	0	8	1	8	2	8	3	8	4	
4	12	5	1	4	12	0	1	1	1	5	1	3	1	4	
3	14	8	9	9	0	9	1	9	2	9	1	9	0	
2	5	3	5	0	5	1	5	5	5	3	5	4	
4	12	5	1	2	12	0	2	1	2	5	2	3	2	4	
3	5	12	13	13	0	13	1	13	5	13	3	13	4	
5	10	13	6	0	7	13	0	13	1	13	2	13	1	13	0	
2	0	7	0	0	0	1	0	5	0	3	0	4	
5	11	9	6	13	10	9	0	9	1	9	2	9	3	9	4	
3	14	7	0	0	0	0	1	0	2	0	1	0	0	
4	7	0	5	3	5	0	5	1	5	2	5	1	5	0	
4	2	1	5	12	2	0	2	1	2	2	2	3	12	4	
4	8	7	2	1	1	0	1	1	1	5	1	3	1	4	
3	9	8	14	9	0	9	1	9	2	9	1	9	0	
4	13	6	9	8	9	0	9	1	9	2	9	5	9	4	
2	5	0	5	0	5	1	5	5	5	3	5	4	
2	6	9	6	0	6	1	6	2	6	5	6	4	
4	10	13	6	9	13	0	13	1	13	2	13	3	13	4	
4	3	5	12	10	5	0	5	1	5	2	5	3	5	4	
3	8	7	2	8	0	8	1	8	2	8	3	8	4	
2	1	5	1	0	1	1	1	2	1	3	1	4	
3	7	0	6	6	0	6	1	6	2	6	1	6	0	
3	9	8	7	9	0	9	1	9	2	9	1	9	0	
4	1	5	0	6	1	0	1	1	1	5	1	3	1	4	
4	5	0	7	8	5	0	5	1	5	2	5	5	0	4	
4	13	6	9	11	13	0	13	1	13	2	13	3	13	4	
4	0	6	9	11	9	0	9	1	9	5	9	3	9	4	
3	6	13	10	13	0	13	1	13	2	13	3	13	4	
5	11	8	7	2	1	2	0	2	1	2	5	2	3	2	4	
3	6	9	8	9	0	9	1	9	2	9	5	9	4	
4	4	1	5	0	1	0	1	1	1	5	1	3	1	4	
2	13	10	13	0	13	1	13	5	13	3	13	4	
3	11	8	7	8	0	8	1	8	5	8	3	8	4	
4	4	2	7	14	2	0	2	1	2	5	2	3	2	4	
4	9	8	7	2	9	0	9	1	9	2	9	1	9	0	
3	2	4	3	2	0	2	1	2	2	2	1	2	0	
5	5	0	6	9	11	9	0	9	1	9	2	9	3	9	4	
3	10	12	5	12	0	12	1	12	2	12	3	12	4	
5	6	0	5	1	4	6	0	6	1	6	2	6	1	1	0	
5	1	2	7	8	9	1	0	1	1	1	2	1	3	1	4	
3	6	9	11	6	0	6	1	6	5	6	3	6	4	
4	8	9	6	13	13	0	13	1	13	2	13	1	13	0	
5	12	13	6	9	11	13	0	13	1	13	2	13	5	6	4	
2	14	8	8	0	8	1	8	2	8	5	8	4	
5	2	1	5	12	10	12	0	12	1	12	2	12	1	12	0	
3	5	1	4	5	0	1	1	1	2	1	5	1	4	
4	9	6	13	12	12	0	12	1	12	2	12	3	12	4	
4	1	2	7	8	1	0	1	1	1	5	1	3	1	4	
4	5	0	7	14	0	0	0	1	0	2	0	5	0	4	
3	13	6	0	13	0	13	1	13	2	13	1	13	0	
2	0	6	6	0	6	1	6	2	6	3	6	4	
4	6	0	5	1	1	0	1	1	1	2	1	1	1	0	
4	8	7	2	4	2	0	2	1	2	2	2	1	2	0	
5	14	7	0	5	3	7	0	7	1	0	2	0	3	0	4	
2	7	0	7	0	7	1	7	2	7	3	0	4	
5	12	13	6	9	8	12	0	12	1	12	2	12	3	12	4	
4	1	5	12	13	12	0	12	1	12	5	12	3	12	4	
3	5	0	7	5	0	5	1	5	2	5	3	5	4	
3	13	6	9	13	0	13	1	13	2	13	1	13	0	
3	6	9	8	9	0	9	1	9	2	9	1	9	0	
4	3	5	12	13	12	0	12	1	12	2	12	5	13	4	
6	3	5	0	7	8	11	5	0	0	1	0	5	0	3	8	4	
4	8	7	2	1	1	0	1	1	1	2	1	1	1	0	
2	1	2	1	0	1	1	1	5	1	3	1	4	
4	1	5	0	6	1	0	1	1	1	2	1	1	1	0	
4	4	2	7	8	2	0	2	1	2	2	7	3	7	4	
3	9	6	0	9	0	6	1	6	2	6	3	6	4	
2	2	1	2	0	2	1	2	2	2	3	2	4	
4	5	0	6	9	9	0	9	1	9	2	9	1	9	0	
2	13	12	12	0	12	1	12	2	12	1	12	0	
4	0	6	13	10	13	0	13	1	13	2	13	3	13	4	
5	13	6	0	7	14	13	0	0	1	0	5	0	3	7	4	
3	11	8	14	8	0	8	1	8	2	8	5	8	4	
4	7	0	5	12	12	0	12	1	12	2	12	3	12	4	
5	11	8	7	2	4	2	0	2	1	2	2	2	5	2	4	
5	4	1	5	12	13	1	0	1	1	1	2	12	5	12	4	
3	12	5	3	5	0	5	1	5	2	5	1	5	0	
2	5	12	5	0	5	1	5	2	5	1	5	0	
5	10	12	5	1	4	1	0	1	1	1	5	1	3	1	4	
4	7	0	5	12	5	0	12	1	12	2	12	5	12	4	
3	6	0	7	6	0	6	1	6	2	6	3	6	4	
4	11	9	6	13	9	0	9	1	9	2	9	3	9	4	
4	1	5	12	10	1	0	1	1	1	2	1	1	1	0	
2	7	2	7	0	7	1	7	5	7	3	7	4	
2	12	10	12	0	12	1	12	2	12	1	12	0	
3	14	8	11	8	0	8	1	8	5	8	3	8	4	
5	2	7	0	6	13	2	0	2	1	2	2	2	3	2	4	
3	9	6	13	6	0	6	1	6	5	6	3	13	4	
4	13	6	0	7	13	0	13	1	6	2	6	5	0	4	
4	6	0	7	14	6	0	6	1	6	2	6	5	7	4	
4	13	12	5	1	13	0	13	1	13	2	13	5	5	4	
2	0	5	0	0	0	1	0	2	5	1	5	0	
4	3	5	12	13	13	0	13	1	13	2	13	3	13	4	
5	8	7	2	4	3	7	0	7	1	7	2	7	3	7	4	
5	1	2	7	8	9	1	0	1	1	1	5	1	3	1	4	
2	1	4	1	0	1	1	1	2	1	3	1	4	
5	4	1	5	12	10	1	0	1	1	1	2	1	1	1	0	
2	13	10	13	0	13	1	13	2	13	3	13	4	
3	0	5	12	0	0	0	1	5	2	5	1	5	0	
3	6	9	11	6	0	6	1	6	2	6	3	6	4	
4	1	2	7	14	1	0	1	1	1	5	1	3	1	4	
5	10	13	6	9	11	6	0	6	1	6	2	6	5	6	4	
5	3	5	0	7	8	5	0	0	1	0	2	0	5	8	4	
2	7	14	7	0	7	1	7	5	7	3	7	4	
3	11	9	6	9	0	9	1	9	2	9	1	9	0	
5	14	7	0	5	12	0	0	0	1	0	2	0	3	0	4	
4	2	7	0	6	0	0	0	1	0	5	0	3	0	4	
3	7	2	4	2	0	2	1	2	5	2	3	2	4	
5	9	8	7	2	1	9	0	9	1	2	5	2	3	2	4	
3	2	7	0	2	0	2	1	2	5	2	3	2	4	
3	5	12	10	5	0	5	1	5	2	5	3	5	4	
5	10	12	5	1	2	1	0	1	1	1	2	1	3	1	4	
3	0	6	9	9	0	9	1	9	2	9	1	9	0	
3	3	4	1	1	0	1	1	1	2	1	3	1	4	
3	6	0	5	5	0	5	1	5	5	5	3	5	4	
4	1	2	7	8	1	0	1	1	1	2	1	3	1	4	
5	4	1	5	0	6	1	0	1	1	1	2	1	1	1	0	
2	8	14	8	0	8	1	8	5	8	3	8	4	
4	12	5	1	4	5	0	5	1	5	2	5	5	1	4	
3	5	1	4	5	0	1	1	1	5	1	3	1	4	
2	5	3	5	0	5	1	5	2	5	5	5	4	
4	12	5	1	2	12	0	12	1	12	2	12	5	2	4	
3	5	12	13	13	0	13	1	13	2	13	5	13	4	
5	10	13	6	0	7	0	0	0	1	0	2	0	5	0	4	
3	12	5	1	12	0	12	1	12	5	12	3	12	4	
2	0	7	7	0	7	1	7	2	7	3	7	4	
5	11	9	6	13	10	9	0	9	1	9	2	9	1	9	0	
3	14	7	0	0	0	0	1	0	2	0	3	0	4	
4	7	2	4	3	2	0	2	1	2	2	2	3	2	4	
4	12	13	6	9	9	0	9	1	9	2	9	3	9	4	
3	9	6	0	6	0	6	1	6	2	6	5	6	4	
3	5	0	6	6	0	6	1	6	2	6	3	6	4	
3	9	8	14	9	0	9	1	9	2	9	5	9	4	
4	13	6	9	8	9	0	9	1	9	5	9	3	9	4	
3	6	0	7	7	0	7	1	7	2	7	5	7	4	
4	10	13	6	9	13	0	13	1	13	2	13	1	13	0	
3	1	4	3	1	0	1	1	1	5	1	3	1	4	
4	3	5	12	10	12	0	12	1	12	2	12	1	12	0	
3	8	7	2	2	0	2	1	2	5	2	3	2	4	
2	1	5	1	0	1	1	1	5	1	3	1	4	
5	4	2	7	8	9	2	0	2	1	2	2	2	3	2	4	
3	9	8	7	8	0	8	1	8	2	8	3	8	4	
2	9	11	9	0	9	1	9	5	9	3	9	4	
4	1	5	12	10	12	0	12	1	12	5	12	3	12	4	
4	5	0	7	8	0	0	0	1	0	5	0	3	0	4	
4	10	13	6	0	13	0	6	1	0	2	0	1	0	0	
4	0	6	9	11	9	0	9	1	9	2	9	3	9	4	
2	8	9	9	0	9	1	9	2	9	5	9	4	
5	11	8	7	2	1	1	0	1	1	1	2	1	5	1	4	
4	4	2	7	0	2	0	2	1	2	2	2	5	2	4	
2	10	13	13	0	13	1	13	5	13	3	13	4	
3	11	8	7	8	0	8	1	8	2	8	5	7	4	
4	2	7	8	9	2	0	2	1	2	2	2	5	2	4	
4	4	2	7	14	2	0	2	1	2	2	2	5	2	4	
4	9	8	7	2	8	0	8	1	8	2	8	5	7	4	
3	2	4	3	2	0	2	1	2	2	2	5	2	4	
3	10	12	5	12	0	12	1	12	2	12	1	12	0	
2	12	10	12	0	12	1	12	5	12	3	12	4	
5	6	0	5	1	4	6	0	6	1	6	2	6	3	1	4	
5	11	9	6	13	12	12	0	12	1	12	2	12	3	12	4	
5	4	2	7	8	11	8	0	8	1	8	2	8	5	8	4	
4	14	7	0	6	6	0	6	1	6	2	6	1	6	0	
3	4	1	5	5	0	5	1	5	2	5	3	5	4	
4	8	9	6	13	9	0	9	1	9	2	9	5	9	4	
5	12	13	6	9	11	12	0	12	1	12	5	12	3	12	4	
5	2	1	5	12	10	12	0	12	1	12	2	12	3	12	4	
5	13	6	0	7	2	13	0	0	1	0	2	0	5	2	4	
4	9	6	13	12	6	0	6	1	6	2	6	1	6	0	
5	3	5	0	6	9	6	0	6	1	6	2	6	5	6	4	
2	0	6	0	0	0	1	0	5	0	3	0	4	
3	3	5	12	5	0	5	1	5	2	5	3	5	4	
4	8	7	2	4	7	0	7	1	7	2	7	3	7	4	
5	14	7	0	5	3	5	0	5	1	5	2	5	1	5	0	
3	7	2	1	1	0	1	1	1	2	1	5	1	4	
2	7	0	0	0	0	1	0	2	0	1	0	0	
4	9	6	0	5	5	0	5	1	5	2	5	1	5	0	
5	4	2	7	8	11	7	0	7	1	7	5	7	3	7	4	
4	6	0	5	3	5	0	5	1	5	2	5	5	5	4	
3	13	6	9	6	0	6	1	6	2	6	3	6	4	
3	6	9	8	9	0	9	1	9	2	9	3	9	4	
5	10	13	6	9	8	13	0	13	1	13	2	6	5	9	4	
3	1	5	12	12	0	12	1	12	2	12	5	12	4	
6	3	5	0	7	8	11	5	0	0	1	0	2	0	5	8	4	
3	7	8	9	9	0	9	1	9	2	9	1	9	0	
5	14	7	0	6	13	0	0	0	1	0	2	0	3	0	4	
3	9	6	0	9	0	9	1	9	2	9	1	9	0	
4	8	7	0	5	0	0	0	1	0	2	0	5	0	4	
3	0	5	3	5	0	5	1	5	5	5	3	5	4	
2	2	1	1	0	1	1	1	2	1	1	1	0	
2	8	11	8	0	8	1	8	2	8	5	8	4	
4	5	0	6	9	6	0	6	1	6	2	6	3	6	4	
4	10	12	5	3	12	0	12	1	12	2	12	3	12	4	
4	0	6	13	10	13	0	13	1	13	5	13	3	13	4	
3	3	5	0	5	0	5	1	5	2	5	3	0	4	
3	11	8	14	8	0	8	1	8	5	8	3	8	4	
4	7	0	5	12	12	0	12	1	12	2	12	1	12	0	
5	11	8	7	2	4	2	0	2	1	2	5	2	3	2	4	
3	2	7	8	2	0	2	1	2	2	2	1	2	0	
6	10	13	6	0	7	14	13	0	13	1	13	2	13	5	6	4	
5	12	5	0	7	14	12	0	12	1	12	5	12	3	12	4	
5	10	12	5	1	4	12	0	12	1	12	2	12	5	5	4	
3	5	0	6	0	0	0	1	0	5	0	3	0	4	
3	6	0	7	6	0	6	1	6	2	6	1	6	0	
3	8	9	6	9	0	9	1	9	2	9	1	9	0	
4	14	7	2	1	1	0	1	1	1	2	1	3	1	4	
2	13	6	13	0	13	1	13	2	13	5	6	4	
4	12	13	6	9	9	0	9	1	9	5	9	3	9	4	
2	7	2	2	0	2	1	2	2	2	3	2	4	
2	12	10	12	0	12	1	12	2	12	3	12	4	
5	2	7	0	6	13	2	0	2	1	2	2	2	1	2	0	
4	14	7	2	1	1	0	1	1	1	2	1	5	1	4	
3	9	6	13	9	0	9	1	9	2	9	5	6	4	
4	13	6	0	7	0	0	0	1	0	2	0	1	0	0	
4	6	0	7	14	0	0	0	1	0	2	0	1	0	0	
2	0	5	0	0	0	1	0	2	0	5	5	4	
5	8	7	2	4	3	2	0	2	1	2	2	2	1	2	0	
2	1	4	1	0	1	1	1	2	1	1	1	0	
5	4	1	5	12	10	12	0	12	1	12	2	12	3	12	4	
2	9	6	9	0	9	1	9	2	9	3	9	4	
6	14	7	0	6	13	10	13	0	13	1	13	5	13	3	13	4	
2	13	10	13	0	13	1	13	2	13	1	13	0	
3	0	5	12	12	0	12	1	12	2	12	3	12	4	
3	6	9	11	9	0	9	1	9	2	9	1	9	0	
5	10	13	6	9	11	13	0	13	1	13	5	13	3	13	4	
4	1	5	12	13	12	0	12	1	12	2	13	1	13	0	
5	3	4	2	7	8	2	0	2	1	2	5	2	3	2	4	
2	7	14	7	0	7	1	7	2	7	3	7	4	
4	8	7	2	1	2	0	2	1	2	2	2	5	2	4	
5	14	7	0	5	12	12	0	12	1	12	5	12	3	12	4	
4	2	7	0	6	0	0	0	1	0	2	0	5	6	4	
5	9	8	7	2	1	9	0	9	1	9	2	9	5	7	4	
3	2	7	0	0	0	0	1	0	2	0	5	0	4	
3	5	12	10	12	0	12	1	12	2	12	1	12	0	
3	0	6	9	6	0	6	1	6	2	6	5	9	4	
3	6	0	5	5	0	5	1	5	2	5	3	5	4	
4	1	2	7	8	1	0	1	1	1	2	1	1	1	0	
5	4	1	5	0	6	5	0	5	1	5	2	5	3	5	4	
2	8	14	8	0	8	1	8	2	8	5	8	4	
4	12	5	1	4	12	0	12	1	12	2	12	1	12	0	
4	2	7	8	11	7	0	7	1	7	2	7	3	7	4	
2	5	3	5	0	5	1	5	2	5	1	5	0	
5	10	13	6	0	7	13	0	13	1	13	5	13	3	13	4	
2	13	10	13	0	13	1	13	2	13	5	13	4	
2	0	7	0	0	0	1	7	2	7	1	7	0	
4	8	7	0	5	5	0	5	1	5	2	5	3	5	4	
3	3	4	1	1	0	1	1	1	2	1	5	1	4	
3	14	7	0	0	0	0	1	0	5	0	3	0	4	
4	7	0	5	3	0	0	0	1	0	5	0	3	0	4	
4	12	13	6	9	12	0	12	1	12	2	12	1	12	0	
4	2	1	5	12	12	0	12	1	12	2	12	5	12	4	
3	5	0	6	5	0	5	1	5	2	5	1	5	0	
3	9	8	14	9	0	9	1	9	5	9	3	9	4	
4	13	6	9	8	6	0	6	1	6	2	6	3	6	4	
3	0	7	14	7	0	7	1	7	2	7	1	7	0	
4	4	1	4	3	1	0	1	1	1	5	1	3	1	4	
2	6	9	6	0	6	1	6	2	6	3	6	4	
3	6	9	11	6	0	6	1	6	2	6	5	6	4	
3	1	4	3	1	0	1	1	1	2	1	5	1	4	
3	8	7	2	2	0	2	1	2	2	2	5	2	4	
2	1	5	5	0	5	1	5	2	5	5	5	4	
5	4	2	7	8	9	9	0	9	1	9	2	9	1	9	0	
4	5	0	7	8	0	0	0	1	0	2	0	3	0	4	
4	10	13	6	0	13	0	6	1	0	2	0	3	0	4	
4	0	6	9	11	9	0	9	1	9	2	9	1	9	0	
5	11	8	7	2	1	7	0	7	1	7	2	7	1	7	0	
4	1	2	7	14	7	0	7	1	7	2	7	3	7	4	
6	14	7	0	6	13	10	13	0	13	1	13	2	13	5	13	4	
4	4	1	5	0	1	0	1	1	1	2	1	1	1	0	
4	2	7	8	9	9	0	9	1	9	5	9	3	9	4	
4	9	8	7	2	9	0	9	1	9	5	9	3	9	4	
4	13	12	5	3	12	0	12	1	12	5	12	3	12	4	
3	2	4	3	2	0	2	1	2	5	2	3	2	4	
2	6	0	0	0	0	1	0	5	0	3	0	4	
2	1	2	2	0	2	1	2	2	2	5	2	4	
5	6	0	5	1	4	0	0	0	1	0	5	0	3	0	4	
5	11	9	6	13	12	12	0	12	1	12	2	12	1	12	0	
4	14	7	0	6	6	0	6	1	6	2	6	3	6	4	
3	4	1	5	1	0	1	1	1	2	1	1	1	0	
4	8	9	6	13	9	0	9	1	9	5	9	3	9	4	
5	12	13	6	9	11	12	0	12	1	12	2	12	3	12	4	
3	5	1	4	5	0	5	1	5	2	5	3	5	4	
5	13	6	0	7	14	0	0	0	1	0	2	0	5	7	4	
2	0	6	6	0	6	1	6	2	6	5	6	4	
3	3	5	12	12	0	12	1	12	2	12	1	12	0	
5	7	0	6	13	10	13	0	13	1	13	2	13	5	13	4	
5	14	7	0	5	3	5	0	5	1	5	2	5	5	5	4	
6	11	9	6	0	5	3	9	0	6	1	6	5	6	3	5	4	
5	4	2	7	8	11	8	0	8	1	8	2	8	3	8	4	
4	9	6	0	5	9	0	9	1	9	2	9	3	9	4	
3	4	2	7	7	0	7	1	7	5	7	3	7	4	
6	10	13	6	0	7	14	13	0	0	1	0	2	0	1	7	0	
3	0	6	13	13	0	13	1	13	2	13	3	13	4	
2	3	5	5	0	5	1	5	2	5	1	5	0	
3	1	5	12	12	0	12	1	12	5	12	3	12	4	
3	7	8	9	9	0	9	1	9	2	9	3	9	4	
3	12	5	0	12	0	12	1	12	5	12	3	12	4	
5	14	7	0	6	13	13	0	13	1	13	2	13	1	13	0	
4	5	0	6	9	9	0	9	1	9	5	9	3	9	4	
4	10	12	5	3	12	0	12	1	12	2	12	1	12	0	
4	14	7	0	6	7	0	7	1	0	2	0	5	0	4	
3	3	5	0	0	0	0	1	0	2	0	1	0	0	
5	4	3	5	12	13	12	0	12	1	12	5	12	3	12	4	
3	11	8	14	8	0	8	1	8	2	8	3	8	4	
4	14	7	2	4	7	0	7	1	7	2	7	1	7	0	
3	4	2	7	7	0	7	1	7	2	7	3	7	4	
3	2	7	8	8	0	8	1	8	2	8	3	8	4	
4	1	2	7	14	7	0	7	1	7	2	7	5	7	4	
5	13	12	5	1	4	12	0	12	1	12	2	12	5	12	4	
2	6	13	13	0	13	1	13	2	13	5	13	4	
5	3	5	0	7	14	5	0	0	1	0	2	0	3	7	4	
3	8	9	6	9	0	9	1	9	2	9	3	9	4	
4	14	7	2	1	1	0	1	1	1	2	1	1	1	0	
2	7	2	2	0	2	1	2	2	2	1	2	0	
2	9	11	9	0	9	1	9	2	9	1	9	0	
4	13	6	0	7	13	0	13	1	13	2	13	3	13	4	
4	6	0	7	14	6	0	6	1	6	2	6	3	7	4	
5	11	9	6	0	5	9	0	9	1	9	5	9	3	9	4	
2	0	5	0	0	0	1	0	5	0	3	5	4	
3	7	8	11	7	0	7	1	7	2	7	1	7	0	
5	4	1	5	12	10	12	0	12	1	12	5	12	3	12	4	
2	9	6	6	0	6	1	6	2	6	1	6	0	
3	12	5	1	12	0	12	1	12	2	12	5	12	4	
4	11	9	6	0	9	0	9	1	9	5	9	3	9	4	
4	10	12	5	1	5	0	5	1	5	2	5	3	5	4	
4	3	5	12	13	5	0	5	1	5	5	12	3	12	4	
3	3	4	2	2	0	2	1	2	2	2	3	2	4	
4	1	5	12	13	5	0	5	1	12	2	12	3	12	4	
2	7	14	7	0	7	1	7	2	7	1	7	0	
4	12	5	0	7	0	0	0	1	0	2	0	5	0	4	
5	14	7	0	5	12	5	0	5	1	5	2	12	5	12	4	
4	2	7	0	6	6	0	6	1	6	2	6	1	6	0	
2	5	0	5	0	5	1	5	2	5	5	5	4	
5	3	5	0	7	14	5	0	0	1	0	5	0	3	7	4	
3	5	12	10	12	0	12	1	12	2	12	5	12	4	
2	11	9	9	0	9	1	9	5	9	3	9	4	
3	0	6	9	9	0	9	1	9	5	9	3	9	4	
3	6	0	5	6	0	6	1	6	2	6	1	6	0	
2	14	7	7	0	7	1	7	2	7	3	7	4	
5	4	2	7	0	6	2	0	2	1	2	5	2	3	2	4	
4	1	5	12	10	12	0	12	1	12	2	12	5	12	4	
4	12	5	1	4	12	0	1	1	1	2	1	3	1	4	
4	2	7	8	11	8	0	8	1	8	2	8	1	8	0	
2	5	3	5	0	5	1	5	2	5	3	5	4	
3	13	12	5	13	0	13	1	13	2	13	1	13	0	
3	6	13	12	6	0	6	1	6	2	6	1	6	0	
4	14	7	2	4	2	0	2	1	2	2	2	5	2	4	
4	8	7	0	5	7	0	7	1	7	2	7	1	7	0	
3	14	7	0	0	0	0	1	0	2	0	5	0	4	
4	7	2	4	3	7	0	7	1	7	2	7	5	2	4	
5	9	8	7	2	4	9	0	9	1	9	2	9	3	9	4	
2	9	11	9	0	9	1	9	2	9	5	9	4	
3	5	0	6	6	0	6	1	6	2	6	5	6	4	
4	13	6	9	8	9	0	9	1	9	2	9	1	9	0	
3	0	7	14	7	0	7	1	7	2	7	3	7	4	
2	6	9	6	0	6	1	6	2	6	1	6	0	
4	11	8	7	2	8	0	8	1	8	2	8	5	8	4	
3	1	4	3	1	0	1	1	1	2	1	1	1	0	
2	7	8	7	0	7	1	7	2	7	3	7	4	
4	10	13	6	9	13	0	13	1	13	5	13	3	13	4	
2	12	5	5	0	5	1	5	2	5	5	5	4	
5	11	9	6	13	12	13	0	13	1	13	5	13	3	13	4	
5	4	2	7	8	9	9	0	9	1	9	2	9	5	9	4	
5	3	5	0	6	9	6	0	6	1	6	5	6	3	6	4	
3	10	13	6	13	0	13	1	13	5	13	3	13	4	
4	5	0	7	8	8	0	8	1	8	2	8	1	8	0	
4	10	13	6	0	13	0	13	1	13	5	13	3	13	4	
5	11	8	7	2	1	1	0	1	1	1	2	1	3	1	4	
4	1	2	7	14	7	0	7	1	7	2	7	1	7	0	
4	4	2	7	0	2	0	2	1	2	2	2	3	2	4	
3	12	13	6	13	0	13	1	13	2	13	1	13	0	
4	2	7	8	9	8	0	8	1	8	2	8	3	8	4	
2	5	1	1	0	1	1	1	2	1	1	1	0	
4	13	12	5	3	13	0	13	1	13	2	13	5	13	4	
4	6	0	7	2	6	0	6	1	6	2	6	5	6	4	
5	6	0	5	1	4	0	0	0	1	0	2	0	5	0	4	
2	8	7	7	0	7	1	7	2	7	3	7	4	
3	7	0	5	7	0	7	1	7	2	7	5	5	4	
3	4	1	5	1	0	1	1	1	2	1	5	1	4	
5	12	13	6	9	11	12	0	12	1	12	2	12	1	12	0	
3	5	1	4	5	0	1	1	1	2	1	1	1	0	
6	10	13	6	0	7	14	13	0	0	1	0	5	0	3	7	4	
2	13	6	6	0	6	1	6	2	6	3	6	4	
3	0	5	1	0	0	0	1	0	5	0	3	0	4	
4	3	5	0	6	6	0	6	1	6	2	6	5	6	4	
3	3	5	12	5	0	5	1	5	2	5	5	12	4	
5	7	0	6	13	10	13	0	13	1	13	5	13	3	13	4	
5	9	6	0	5	3	9	0	9	1	9	5	9	3	9	4	
3	9	8	7	8	0	8	1	8	2	8	5	7	4	
5	4	2	7	8	11	2	0	2	1	2	2	2	1	2	0	
4	9	6	0	5	9	0	9	1	9	5	9	3	9	4	
6	10	13	6	0	7	14	13	0	0	1	0	2	0	3	7	4	
3	0	6	13	13	0	13	1	13	2	13	1	13	0	
2	3	5	5	0	5	1	5	2	5	3	5	4	
4	12	13	6	9	13	0	13	1	13	2	13	5	9	4	
6	11	9	6	0	5	3	9	0	6	1	6	2	6	1	5	0	
2	11	8	8	0	8	1	8	5	8	3	8	4	
3	1	5	12	12	0	12	1	12	2	12	3	12	4	
2	3	5	5	0	5	1	5	5	5	3	5	4	
2	4	2	2	0	2	1	2	2	2	1	2	0	
3	12	5	0	0	0	0	1	0	2	0	5	0	4	
5	10	13	6	9	8	9	0	9	1	9	5	9	3	9	4	
4	5	0	6	9	6	0	6	1	6	2	6	5	9	4	
4	10	12	5	3	12	0	12	1	12	2	12	5	12	4	
3	3	5	0	5	0	5	1	5	2	5	5	0	4	
3	11	8	14	8	0	8	1	8	2	8	1	8	0	
4	14	7	2	4	2	0	2	1	2	2	2	3	2	4	
3	2	7	14	2	0	2	1	2	5	2	3	2	4	
3	4	2	7	2	0	2	1	2	2	2	1	2	0	
2	12	5	12	0	12	1	12	2	12	3	12	4	
3	2	7	8	2	0	2	1	2	5	2	3	2	4	
3	5	1	2	2	0	2	1	2	2	2	3	2	4	
5	13	12	5	1	4	1	0	1	1	1	5	1	3	1	4	
2	6	13	13	0	13	1	13	5	13	3	13	4	
3	8	7	0	8	0	8	1	8	5	8	3	8	4	
3	7	8	9	7	0	7	1	7	2	7	5	8	4	
3	1	2	7	2	0	2	1	2	5	2	3	2	4	
5	3	5	0	7	14	5	0	0	1	0	2	0	1	7	0	
3	8	9	6	6	0	6	1	6	5	6	3	6	4	
2	9	11	9	0	9	1	9	2	9	3	9	4	
2	10	12	12	0	12	1	12	2	12	1	12	0	
4	3	5	0	7	5	0	5	1	5	2	5	1	7	0	
5	14	7	0	6	13	0	0	0	1	0	5	0	3	0	4	
5	11	9	6	0	5	6	0	6	1	6	2	6	5	5	4	
3	7	8	11	7	0	7	1	8	2	8	3	8	4	
3	2	1	5	2	0	2	1	2	2	2	5	1	4	
5	4	1	5	12	10	12	0	12	1	12	2	12	5	12	4	
2	9	6	9	0	9	1	9	2	6	5	6	4	
4	10	12	5	1	1	0	1	1	1	5	1	3	1	4	
2	12	13	12	0	12	1	12	2	12	5	12	4	
4	10	12	5	1	1	0	1	1	1	2	1	1	1	0	
5	1	2	7	8	11	2	0	2	1	2	5	2	3	2	4	
3	3	4	2	2	0	2	1	2	2	2	1	2	0	
4	11	9	6	0	0	0	0	1	0	2	0	3	0	4	
6	14	7	0	6	13	10	13	0	13	1	13	2	13	1	13	0	
2	4	1	1	0	1	1	1	2	1	3	1	4	
4	12	5	0	7	7	0	7	1	7	5	7	3	7	4	
4	2	7	0	6	2	0	2	1	2	2	2	3	2	4	
4	4	1	4	3	1	0	1	1	1	2	1	5	1	4	
3	3	4	2	2	0	2	1	2	5	2	3	2	4	
4	0	5	1	4	0	0	0	1	0	5	0	3	1	4	
3	5	12	10	5	0	5	1	5	5	5	3	5	4	
2	11	9	9	0	9	1	9	2	9	5	9	4	
4	11	8	7	0	8	0	8	1	7	2	7	5	0	4	
2	14	7	7	0	7	1	7	2	7	1	7	0	
5	4	2	7	0	6	2	0	2	1	2	2	2	5	2	4	
4	3	5	0	7	5	0	5	1	5	5	5	3	7	4	
4	2	7	8	11	2	0	2	1	2	2	2	5	8	4	
3	13	12	5	13	0	5	1	5	2	5	3	5	4	
3	9	6	0	6	0	6	1	6	5	6	3	6	4	
3	6	13	12	12	0	12	1	12	2	12	3	12	4	
3	1	5	0	1	0	0	1	0	2	0	5	0	4	
3	7	0	5	5	0	5	1	5	2	5	1	5	0	
2	12	13	13	0	13	1	13	5	13	3	13	4	
5	9	8	7	2	4	8	0	8	1	8	2	8	1	8	0	
3	0	7	8	8	0	8	1	8	5	8	3	8	4	
3	14	8	9	8	0	8	1	8	5	8	3	8	4	
3	0	7	14	0	0	0	1	0	5	0	3	0	4	
4	3	4	1	4	1	0	1	1	1	2	1	3	1	4	
2	8	7	8	0	8	1	8	2	8	5	7	4	
4	11	8	7	2	2	0	2	1	2	5	2	3	2	4	
3	1	4	3	1	0	1	1	1	2	1	3	1	4	
2	7	8	8	0	8	1	8	2	8	1	8	0	
3	10	12	5	12	0	12	1	12	5	12	3	12	4	
2	2	4	2	0	2	1	2	2	2	1	2	0	
5	4	2	7	8	9	2	0	2	1	2	5	2	3	2	4	
3	10	13	6	6	0	6	1	6	2	6	5	6	4	
4	10	13	6	0	13	0	13	1	13	2	0	5	0	4	
4	1	5	0	6	1	0	0	1	0	2	0	5	6	4	
5	8	9	6	13	12	9	0	12	1	12	2	12	5	12	4	
5	8	7	0	5	12	0	0	0	1	0	5	0	3	0	4	
5	8	9	6	13	10	9	0	9	1	9	2	9	1	9	0	
4	14	7	0	5	5	0	5	1	5	2	5	3	5	4	
3	4	2	7	7	0	7	1	7	2	7	5	7	4	
3	12	13	6	13	0	13	1	13	2	13	3	13	4	
4	2	7	8	9	9	0	9	1	9	2	9	1	9	0	
2	5	1	5	0	5	1	5	2	5	3	5	4	
4	13	12	5	3	13	0	13	1	5	2	5	1	5	0	
3	0	5	3	5	0	5	1	5	2	5	5	5	4	
4	6	0	7	2	6	0	6	1	6	2	6	1	6	0	
2	8	7	8	0	8	1	8	2	8	1	8	0	
3	4	1	5	1	0	1	1	1	5	1	3	1	4	
4	9	6	13	10	9	0	9	1	9	2	9	3	9	4	
4	14	7	0	6	0	0	0	1	0	5	0	3	0	4	
2	13	6	13	0	13	1	13	2	13	1	13	0	
2	7	8	7	0	7	1	7	2	7	5	7	4	
4	3	4	1	4	1	0	1	1	1	5	1	3	1	4	
4	3	5	0	6	6	0	6	1	6	5	6	3	6	4	
5	8	7	0	5	3	8	0	8	1	8	2	8	5	0	4	
5	7	0	6	13	10	13	0	13	1	13	2	13	3	13	4	
5	9	6	0	5	3	6	0	6	1	6	2	6	5	6	4	
4	14	7	0	5	0	0	0	1	0	5	0	3	0	4	
4	9	6	0	5	9	0	9	1	9	2	9	5	5	4	
3	0	6	13	0	0	0	1	0	2	0	5	13	4	
6	11	9	6	0	5	3	9	0	6	1	6	2	6	3	5	4	
3	1	5	12	1	0	1	1	1	2	1	1	1	0	
2	4	2	2	0	2	1	2	2	2	3	2	4	
3	12	5	0	12	0	5	1	5	2	5	1	0	0	
2	2	7	2	0	7	1	7	2	7	3	7	4	
