2843.88	2341.78
748
26062	17330.4
10
0	0	-1
1	0	-1
2	0	-1
3	0	-1
4	0	-1
5	9114	9129
6	0	-1
7	0	-1
8	0	-1
9	8532	8648
34
0	1	30.774256	173.966148	1.000000
0	2	66.609056	179.032601	1.000000
0	5	197.595678	197.611620	1.000000
1	0	31.140254	173.966148	1.000000
1	2	0.000000	194.233695	0.000000
1	3	36.149900	190.855771	1.000000
1	4	32.089242	194.233695	1.000000
2	0	66.679928	179.032601	1.000000
2	1	0.000000	194.233695	0.000000
2	3	32.507396	179.032601	1.000000
2	4	0.000000	172.276752	0.000000
3	1	36.537062	190.855771	1.000000
3	2	33.878758	179.032601	1.000000
3	4	15.666676	167.209431	1.000000
3	9	153.312406	153.697733	1.000000
4	1	32.801516	194.233695	1.000000
4	2	0.000000	172.276752	0.000000
4	3	17.171072	167.209431	1.000000
4	5	148.260896	155.387130	1.000000
5	0	197.268746	197.611620	1.000000
5	4	149.997172	155.387130	1.000000
5	6	163.772642	163.831507	1.000000
5	9	115.766924	185.788450	1.000000
6	5	162.955286	163.831507	1.000000
6	7	63.265732	184.099922	1.000000
6	8	0.000000	190.855771	0.000000
7	6	63.496476	184.099922	1.000000
7	8	36.413210	179.032601	1.000000
8	6	0.000000	190.855771	0.000000
8	7	36.475758	179.032601	1.000000
8	9	136.698782	152.009205	1.000000
9	3	153.239826	153.697733	1.000000
9	5	118.751890	185.788450	1.000000
9	8	135.686476	152.009205	1.000000
360
4	3	9	5	0	9	0	9	1	9	5	9	3	9	4	
2	8	9	9	0	9	1	9	2	9	3	9	4	
2	8	9	9	0	9	1	9	2	9	1	9	0	
2	9	8	9	0	9	1	9	5	9	3	9	4	
4	2	3	9	8	9	0	9	1	9	2	9	5	9	4	
3	5	0	2	5	0	5	1	5	2	5	1	5	0	
4	0	5	0	2	5	0	5	1	5	2	5	1	5	0	
4	8	9	5	0	9	0	9	1	9	2	9	5	9	4	
5	1	4	5	6	7	5	0	5	1	5	2	5	5	5	4	
4	8	9	5	6	9	0	9	1	9	2	9	5	9	4	
4	3	9	8	7	9	0	9	1	9	2	9	3	9	4	
5	1	0	5	0	2	5	0	5	1	5	2	5	3	5	4	
5	7	6	5	0	1	5	0	5	1	5	5	5	3	5	4	
3	2	0	5	5	0	5	1	5	5	5	3	5	4	
3	9	5	6	9	0	9	1	5	5	5	3	5	4	
4	4	5	4	1	5	0	5	1	5	2	5	1	5	0	
2	5	0	5	0	5	1	5	2	5	3	5	4	
3	0	5	4	5	0	5	1	5	2	5	5	5	4	
4	7	6	5	6	5	0	5	1	5	2	5	5	5	4	
4	0	5	4	1	5	0	5	1	5	2	5	3	5	4	
2	3	9	9	0	9	1	9	2	9	1	9	0	
4	1	0	5	0	5	0	5	1	5	5	5	3	5	4	
3	7	6	5	5	0	5	1	5	2	5	3	5	4	
4	0	5	9	8	9	0	9	1	9	2	9	5	9	4	
4	3	4	5	4	5	0	5	1	5	2	5	1	5	0	
4	4	5	9	3	5	0	5	1	9	2	9	3	9	4	
4	2	0	5	4	5	0	5	1	5	2	5	3	5	4	
4	6	5	4	1	5	0	5	1	5	2	5	5	5	4	
3	5	6	7	5	0	5	1	5	5	5	3	5	4	
3	5	0	1	5	0	5	1	5	5	5	3	5	4	
4	0	5	9	3	9	0	9	1	9	5	9	3	9	4	
4	6	5	0	2	5	0	5	1	5	2	5	3	5	4	
4	4	5	9	8	9	0	9	1	9	5	9	3	9	4	
4	3	4	5	6	5	0	5	1	5	2	5	3	5	4	
2	9	3	9	0	9	1	9	2	9	1	9	0	
3	7	8	9	9	0	9	1	9	5	9	3	9	4	
4	4	5	0	2	5	0	5	1	5	5	5	3	5	4	
5	2	0	5	6	7	5	0	5	1	5	2	5	1	5	0	
3	6	5	0	5	0	5	1	5	2	5	1	5	0	
5	7	6	5	0	1	5	0	5	1	5	2	5	5	5	4	
2	9	8	9	0	9	1	9	2	9	3	9	4	
3	5	0	2	5	0	5	1	5	2	5	5	5	4	
4	0	5	0	2	5	0	5	1	5	2	5	3	5	4	
4	8	9	5	0	9	0	9	1	9	2	9	1	9	0	
5	1	3	9	8	7	9	0	9	1	9	2	9	1	9	0	
4	7	6	5	4	5	0	5	1	5	2	5	3	5	4	
4	3	9	3	1	9	0	9	1	9	5	9	3	9	4	
4	3	9	8	7	9	0	9	1	9	5	9	3	9	4	
5	1	0	5	0	2	5	0	5	1	5	2	5	1	5	0	
3	2	0	5	5	0	5	1	5	2	5	3	5	4	
4	4	5	4	1	5	0	5	1	5	2	5	5	5	4	
2	5	0	5	0	5	1	5	2	5	1	5	0	
3	0	5	4	5	0	5	1	5	2	5	1	5	0	
4	6	5	9	3	5	0	5	1	9	2	9	3	9	4	
4	6	5	9	8	9	0	9	1	9	2	9	5	9	4	
4	7	6	5	6	5	0	5	1	5	5	5	3	5	4	
3	9	8	7	9	0	9	1	9	5	9	3	9	4	
4	0	5	0	1	5	0	5	1	5	2	5	1	5	0	
2	3	9	9	0	9	1	9	2	9	3	9	4	
4	1	4	5	0	5	0	5	1	5	2	5	3	5	4	
4	0	5	9	8	9	0	9	1	9	2	9	1	9	0	
4	3	9	5	4	9	0	9	1	5	2	5	5	5	4	
4	4	5	9	3	9	0	9	1	9	2	9	1	9	0	
4	2	0	5	4	5	0	5	1	5	5	5	3	5	4	
4	6	5	0	1	5	0	5	1	5	5	5	3	5	4	
4	8	9	5	4	9	0	9	1	9	5	9	3	9	4	
3	5	6	7	5	0	5	1	5	2	5	5	5	4	
3	5	0	1	5	0	5	1	5	2	5	5	5	4	
4	0	5	9	3	9	0	9	1	9	2	9	3	9	4	
4	4	5	9	8	9	0	9	1	9	2	9	5	9	4	
3	9	5	0	9	0	9	1	9	2	9	5	9	4	
4	7	8	9	8	9	0	9	1	9	5	9	3	9	4	
5	2	0	5	0	1	5	0	5	1	5	2	5	5	5	4	
4	3	4	5	6	5	0	5	1	5	2	5	1	5	0	
2	9	3	9	0	9	1	9	2	9	3	9	4	
4	4	5	0	2	5	0	5	1	5	2	5	5	5	4	
5	2	0	5	6	7	5	0	5	1	5	2	5	5	5	4	
3	6	5	0	5	0	5	1	5	2	5	3	5	4	
3	8	9	3	9	0	9	1	9	2	9	5	9	4	
4	1	0	5	4	5	0	5	1	5	2	5	5	5	4	
5	7	8	9	3	1	9	0	9	1	9	2	9	1	9	0	
2	9	8	9	0	9	1	9	2	9	1	9	0	
3	5	0	2	5	0	5	1	5	5	5	3	5	4	
4	0	5	0	2	5	0	5	1	5	5	5	3	5	4	
3	3	9	8	9	0	9	1	9	2	9	3	9	4	
4	8	9	5	0	9	0	9	1	9	2	9	3	9	4	
5	1	3	9	8	7	9	0	9	1	9	2	9	3	9	4	
4	7	6	5	4	5	0	5	1	5	2	5	1	5	0	
3	9	3	1	9	0	9	1	9	2	9	1	9	0	
4	2	0	5	0	5	0	5	1	5	2	5	1	5	0	
4	3	9	3	1	9	0	9	1	9	2	9	5	9	4	
4	1	3	9	8	9	0	9	1	9	2	9	5	9	4	
4	3	9	8	7	9	0	9	1	9	2	9	5	9	4	
5	1	0	5	0	2	5	0	5	1	5	2	5	5	5	4	
3	2	0	5	5	0	5	1	5	2	5	1	5	0	
4	0	5	6	7	5	0	5	1	5	2	5	5	5	4	
4	4	5	0	1	5	0	5	1	5	5	5	3	5	4	
3	0	5	4	5	0	5	1	5	2	5	3	5	4	
4	6	5	9	3	5	0	5	1	9	2	9	1	9	0	
4	8	9	3	2	9	0	9	1	9	2	9	1	9	0	
3	1	4	5	5	0	5	1	5	2	5	1	5	0	
4	7	6	5	6	5	0	5	1	5	2	5	3	5	4	
3	9	8	7	9	0	9	1	9	2	9	5	9	4	
4	0	5	4	1	5	0	5	1	5	2	5	5	5	4	
4	1	4	5	0	5	0	5	1	5	2	5	1	5	0	
3	9	3	2	9	0	9	1	9	2	9	3	9	4	
4	2	3	9	3	9	0	9	1	9	2	9	3	9	4	
4	0	5	9	8	9	0	9	1	9	2	9	3	9	4	
3	1	3	9	9	0	9	1	9	2	9	1	9	0	
4	3	9	5	4	9	0	9	1	5	5	5	3	5	4	
4	2	0	5	4	5	0	5	1	5	2	5	5	5	4	
3	0	5	6	5	0	5	1	5	2	5	1	5	0	
4	6	5	4	1	5	0	5	1	5	2	5	3	5	4	
4	8	9	5	4	9	0	9	1	9	2	9	5	9	4	
2	8	9	9	0	9	1	9	5	9	3	9	4	
3	5	6	7	5	0	5	1	5	2	5	1	5	0	
4	0	5	4	3	5	0	5	1	5	2	5	1	5	0	
4	8	9	3	1	9	0	9	1	9	2	9	3	9	4	
4	1	0	5	6	5	0	5	1	5	2	5	3	5	4	
4	4	5	9	8	9	0	9	1	9	2	9	1	9	0	
3	9	5	0	9	0	9	1	9	5	9	3	9	4	
5	2	0	5	0	1	5	0	5	1	5	5	5	3	5	4	
5	7	6	5	0	2	5	0	5	1	5	2	5	5	5	4	
5	2	0	5	6	7	5	0	5	1	5	5	5	3	5	4	
3	8	9	5	9	0	9	1	9	5	9	3	9	4	
2	0	5	5	0	5	1	5	2	5	3	5	4	
3	6	5	0	5	0	5	1	5	5	5	3	5	4	
3	8	9	3	9	0	9	1	9	5	9	3	9	4	
4	1	0	5	4	5	0	5	1	5	5	5	3	5	4	
5	7	8	9	3	1	9	0	9	1	9	2	9	3	9	4	
4	0	5	0	2	5	0	5	1	5	2	5	5	5	4	
3	3	9	8	9	0	9	1	9	2	9	1	9	0	
4	7	6	5	4	5	0	5	1	5	2	5	5	5	4	
3	9	3	1	9	0	9	1	9	2	9	3	9	4	
4	2	0	5	0	5	0	5	1	5	2	5	3	5	4	
4	6	5	9	8	9	0	9	1	9	5	9	3	9	4	
3	0	5	9	9	0	9	1	9	2	9	3	9	4	
4	3	9	3	1	9	0	9	1	9	2	9	1	9	0	
2	6	5	5	0	5	1	5	2	5	5	5	4	
4	1	3	9	8	9	0	9	1	9	5	9	3	9	4	
5	1	0	5	0	2	5	0	5	1	5	5	5	3	5	4	
3	5	9	3	9	0	9	1	9	5	9	3	9	4	
4	0	5	6	7	5	0	5	1	5	5	5	3	5	4	
4	7	8	9	3	9	0	9	1	9	2	9	1	9	0	
4	8	9	3	1	9	0	9	1	9	5	9	3	9	4	
3	6	5	9	5	0	5	1	9	2	9	5	9	4	
4	6	5	9	3	9	0	9	1	9	2	9	5	9	4	
4	8	9	3	2	9	0	9	1	9	2	9	3	9	4	
3	1	4	5	5	0	5	1	5	2	5	3	5	4	
4	7	6	5	6	5	0	5	1	5	2	5	1	5	0	
3	9	8	7	9	0	9	1	9	2	9	1	9	0	
3	5	9	8	9	0	9	1	9	2	9	5	9	4	
4	0	5	0	1	5	0	5	1	5	5	5	3	5	4	
3	4	5	0	5	0	5	1	5	5	5	3	5	4	
3	9	3	2	9	0	9	1	9	2	9	1	9	0	
4	2	3	9	3	9	0	9	1	9	2	9	1	9	0	
3	6	5	4	5	0	5	1	5	2	5	1	5	0	
3	1	3	9	9	0	9	1	9	2	9	3	9	4	
2	5	4	5	0	5	1	5	2	5	5	5	4	
3	0	5	6	5	0	5	1	5	2	5	3	5	4	
4	6	5	0	1	5	0	5	1	5	2	5	1	5	0	
4	8	9	5	4	9	0	9	1	9	2	9	1	9	0	
4	7	6	5	0	5	0	5	1	5	2	5	3	5	4	
3	5	6	7	5	0	5	1	5	2	5	3	5	4	
3	3	9	5	9	0	9	1	9	5	9	3	9	4	
3	7	8	9	9	0	9	1	9	2	9	5	9	4	
4	1	0	5	6	5	0	5	1	5	2	5	1	5	0	
4	4	5	9	8	9	0	9	1	9	2	9	3	9	4	
3	9	5	0	9	0	9	1	9	2	9	3	9	4	
5	2	0	5	0	1	5	0	5	1	5	2	5	3	5	4	
2	5	9	9	0	9	1	9	2	9	1	9	0	
4	4	5	6	7	5	0	5	1	5	2	5	5	5	4	
2	5	0	5	0	5	1	5	5	5	3	5	4	
4	6	5	6	7	5	0	5	1	5	2	5	3	5	4	
5	7	6	5	0	2	5	0	5	1	5	5	5	3	5	4	
2	0	5	5	0	5	1	5	2	5	1	5	0	
3	6	5	0	5	0	5	1	5	2	5	5	5	4	
3	8	9	3	9	0	9	1	9	2	9	3	9	4	
4	1	4	5	4	5	0	5	1	5	2	5	3	5	4	
4	3	9	3	2	9	0	9	1	9	2	9	5	9	4	
3	3	9	8	9	0	9	1	9	2	9	5	9	4	
4	2	0	5	6	5	0	5	1	5	5	5	3	5	4	
4	7	6	5	4	5	0	5	1	5	5	5	3	5	4	
3	9	3	1	9	0	9	1	9	5	9	3	9	4	
4	2	0	5	0	5	0	5	1	5	5	5	3	5	4	
3	0	5	9	9	0	9	1	9	2	9	1	9	0	
4	3	9	3	1	9	0	9	1	9	2	9	3	9	4	
2	6	5	5	0	5	1	5	5	5	3	5	4	
4	1	3	9	8	9	0	9	1	9	2	9	3	9	4	
3	4	5	6	5	0	5	1	5	2	5	1	5	0	
3	5	4	3	5	0	5	1	5	2	5	5	5	4	
4	0	5	6	7	5	0	5	1	5	2	5	3	5	4	
4	7	8	9	3	9	0	9	1	9	2	9	3	9	4	
3	9	5	4	9	0	9	1	9	2	9	5	9	4	
2	5	6	5	0	5	1	5	2	5	3	5	4	
3	6	5	9	5	0	5	1	9	5	9	3	9	4	
4	1	3	9	3	9	0	9	1	9	5	9	3	9	4	
4	6	5	9	3	5	0	5	1	9	5	9	3	9	4	
4	8	9	3	2	9	0	9	1	9	5	9	3	9	4	
3	1	0	5	5	0	5	1	5	5	5	3	5	4	
3	4	5	9	5	0	9	1	9	2	9	3	9	4	
3	9	8	7	9	0	9	1	9	2	9	3	9	4	
3	5	9	8	9	0	9	1	9	5	9	3	9	4	
2	8	9	9	0	9	1	9	2	9	5	9	4	
3	4	5	0	5	0	5	1	5	2	5	5	5	4	
3	2	3	9	9	0	9	1	9	2	9	5	9	4	
3	9	3	2	9	0	9	1	9	2	9	5	9	4	
4	2	3	9	3	9	0	9	1	9	2	9	5	9	4	
3	6	5	4	5	0	5	1	5	2	5	3	5	4	
4	8	9	8	7	9	0	9	1	9	2	9	5	9	4	
3	1	3	9	9	0	9	1	9	5	9	3	9	4	
2	4	5	5	0	5	1	5	2	5	3	5	4	
2	5	4	5	0	5	1	5	5	5	3	5	4	
3	0	5	6	5	0	5	1	5	5	5	3	5	4	
4	8	9	5	4	9	0	9	1	9	2	9	3	9	4	
4	7	6	5	0	5	0	5	1	5	2	5	1	5	0	
2	9	5	9	0	9	1	9	2	9	1	9	0	
4	6	5	9	8	9	0	9	1	9	2	9	3	9	4	
3	7	8	9	9	0	9	1	9	2	9	1	9	0	
4	1	0	5	6	5	0	5	1	5	2	5	5	5	4	
3	9	5	0	9	0	9	1	9	2	9	1	9	0	
3	7	6	5	5	0	5	1	5	2	5	1	5	0	
5	2	0	5	0	1	5	0	5	1	5	2	5	1	5	0	
2	5	9	9	0	9	1	9	2	9	3	9	4	
4	3	9	5	0	9	0	9	1	9	2	9	3	9	4	
4	4	5	6	7	5	0	5	1	5	5	5	3	5	4	
4	2	3	9	8	9	0	9	1	9	2	9	1	9	0	
4	6	5	6	7	5	0	5	1	5	2	5	1	5	0	
4	8	9	5	6	9	0	9	1	9	2	9	1	9	0	
5	7	6	5	0	2	5	0	5	1	5	2	5	3	5	4	
3	3	9	5	9	0	9	1	5	2	5	5	5	4	
2	0	5	5	0	5	1	5	2	5	5	5	4	
3	8	9	3	9	0	9	1	9	2	9	1	9	0	
4	1	0	5	4	5	0	5	1	5	2	5	1	5	0	
3	9	5	6	9	0	9	1	5	2	5	3	5	4	
4	3	9	3	2	9	0	9	1	9	5	9	3	9	4	
3	3	9	8	9	0	9	1	9	5	9	3	9	4	
4	8	9	3	1	9	0	9	1	9	2	9	5	9	4	
4	2	0	5	6	5	0	5	1	5	2	5	5	5	4	
3	9	3	1	9	0	9	1	9	2	9	5	9	4	
4	2	0	5	0	5	0	5	1	5	2	5	5	5	4	
3	0	5	9	9	0	9	1	9	2	9	5	9	4	
2	6	5	5	0	5	1	5	2	5	3	5	4	
4	1	3	9	8	9	0	9	1	9	2	9	1	9	0	
3	4	5	6	5	0	5	1	5	2	5	3	5	4	
3	5	9	3	5	0	9	1	9	2	9	1	9	0	
4	0	5	6	7	5	0	5	1	5	2	5	1	5	0	
3	8	9	5	9	0	9	1	9	2	9	3	9	4	
4	7	8	9	3	9	0	9	1	9	5	9	3	9	4	
3	9	5	4	9	0	9	1	9	5	9	3	9	4	
2	5	6	5	0	5	1	5	2	5	1	5	0	
4	4	5	9	3	5	0	5	1	9	5	9	3	9	4	
3	6	5	9	5	0	5	1	9	2	9	3	9	4	
4	1	3	9	3	9	0	9	1	9	2	9	5	9	4	
4	8	9	3	2	9	0	9	1	9	2	9	5	9	4	
3	1	4	5	5	0	5	1	5	2	5	5	5	4	
3	4	5	9	5	0	9	1	9	2	9	1	9	0	
3	5	9	8	9	0	9	1	9	2	9	3	9	4	
3	4	5	0	5	0	5	1	5	2	5	1	5	0	
3	2	3	9	9	0	9	1	9	5	9	3	9	4	
3	9	3	2	9	0	9	1	9	5	9	3	9	4	
4	2	3	9	3	9	0	9	1	9	5	9	3	9	4	
4	6	5	0	2	5	0	5	1	5	5	5	3	5	4	
3	6	5	4	5	0	5	1	5	5	5	3	5	4	
4	8	9	8	7	9	0	9	1	9	5	9	3	9	4	
3	1	3	9	9	0	9	1	9	2	9	5	9	4	
2	4	5	5	0	5	1	5	2	5	1	5	0	
2	5	4	5	0	5	1	5	2	5	3	5	4	
3	0	5	6	5	0	5	1	5	2	5	5	5	4	
4	7	6	5	0	5	0	5	1	5	2	5	5	5	4	
2	9	5	9	0	9	1	9	2	9	3	9	4	
3	3	4	5	5	0	5	1	5	2	5	1	5	0	
3	7	8	9	9	0	9	1	9	2	9	3	9	4	
4	1	4	5	6	5	0	5	1	5	5	5	3	5	4	
2	5	9	9	0	9	1	9	5	9	3	9	4	
4	3	9	5	0	9	0	9	1	5	2	5	1	5	0	
4	4	5	6	7	5	0	5	1	5	2	5	3	5	4	
4	2	3	9	8	9	0	9	1	9	2	9	3	9	4	
4	6	5	6	7	5	0	5	1	5	2	5	5	5	4	
4	8	9	5	6	9	0	9	1	9	2	9	3	9	4	
5	7	6	5	0	2	5	0	5	1	5	2	5	1	5	0	
2	0	5	5	0	5	1	5	5	5	3	5	4	
3	9	5	6	9	0	9	1	5	2	5	1	5	0	
4	3	9	3	2	9	0	9	1	9	2	9	3	9	4	
4	2	0	5	6	5	0	5	1	5	2	5	1	5	0	
2	5	0	5	0	5	1	5	2	5	5	5	4	
3	0	5	9	9	0	9	1	9	5	9	3	9	4	
2	6	5	5	0	5	1	5	2	5	1	5	0	
3	4	5	6	5	0	5	1	5	5	5	3	5	4	
3	5	9	3	5	0	9	1	9	2	9	3	9	4	
2	3	9	9	0	9	1	9	5	9	3	9	4	
3	8	9	5	9	0	9	1	9	2	9	1	9	0	
4	7	8	9	3	9	0	9	1	9	2	9	5	9	4	
3	9	5	4	9	0	9	1	9	2	9	3	9	4	
2	5	6	5	0	5	1	5	2	5	5	5	4	
3	6	5	9	5	0	5	1	9	2	9	1	9	0	
4	1	3	9	3	9	0	9	1	9	2	9	1	9	0	
4	7	8	9	8	9	0	9	1	9	2	9	3	9	4	
3	4	5	9	9	0	9	1	9	2	9	5	9	4	
3	5	9	8	9	0	9	1	9	2	9	1	9	0	
3	4	5	0	5	0	5	1	5	2	5	3	5	4	
3	2	3	9	9	0	9	1	9	2	9	3	9	4	
3	5	0	1	5	0	5	1	5	2	5	1	5	0	
4	6	5	0	2	5	0	5	1	5	2	5	5	5	4	
3	6	5	4	5	0	5	1	5	2	5	5	5	4	
4	8	9	8	7	9	0	9	1	9	2	9	3	9	4	
3	7	6	5	5	0	5	1	5	2	5	5	5	4	
2	4	5	5	0	5	1	5	2	5	5	5	4	
2	5	4	5	0	5	1	5	2	5	1	5	0	
4	3	9	5	6	9	0	9	1	9	2	9	5	9	4	
3	7	6	5	5	0	5	1	5	5	5	3	5	4	
2	9	3	9	0	9	1	9	5	9	3	9	4	
4	7	6	5	0	5	0	5	1	5	5	5	3	5	4	
2	9	5	9	0	9	1	9	5	9	3	9	4	
3	3	4	5	5	0	5	1	5	2	5	3	5	4	
4	6	5	9	8	9	0	9	1	9	2	9	1	9	0	
4	4	5	0	2	5	0	5	1	5	2	5	1	5	0	
2	5	9	9	0	9	1	9	2	9	5	9	4	
4	3	4	5	0	5	0	5	1	5	2	5	5	5	4	
4	4	5	6	7	5	0	5	1	5	2	5	1	5	0	
2	9	8	9	0	9	1	9	2	9	5	9	4	
4	2	3	9	8	9	0	9	1	9	5	9	3	9	4	
3	5	0	2	5	0	5	1	5	2	5	3	5	4	
4	8	9	5	0	9	0	9	1	9	5	9	3	9	4	
4	8	9	3	1	9	0	9	1	9	2	9	1	9	0	
5	1	0	5	6	7	5	0	5	1	5	5	5	3	5	4	
4	6	5	6	7	5	0	5	1	5	5	5	3	5	4	
4	8	9	5	6	9	0	9	1	9	5	9	3	9	4	
4	3	9	8	7	9	0	9	1	9	2	9	1	9	0	
3	2	0	5	5	0	5	1	5	2	5	5	5	4	
3	9	5	6	9	0	9	1	9	2	9	5	9	4	
4	3	9	3	2	9	0	9	1	9	2	9	1	9	0	
4	4	5	4	1	5	0	5	1	5	2	5	3	5	4	
4	2	0	5	6	5	0	5	1	5	2	5	3	5	4	
4	4	5	4	3	5	0	5	1	5	2	5	5	5	4	
3	0	5	4	5	0	5	1	5	5	5	3	5	4	
3	4	5	6	5	0	5	1	5	2	5	5	5	4	
2	3	9	9	0	9	1	9	2	9	5	9	4	
4	1	4	5	0	5	0	5	1	5	2	5	5	5	4	
3	8	9	5	9	0	9	1	9	2	9	5	9	4	
3	9	5	4	9	0	9	1	9	2	9	1	9	0	
4	0	5	9	8	9	0	9	1	9	5	9	3	9	4	
2	5	6	5	0	5	1	5	5	5	3	5	4	
4	3	9	5	4	9	0	9	1	9	2	9	3	9	4	
4	1	3	9	3	9	0	9	1	9	2	9	3	9	4	
4	7	8	9	8	9	0	9	1	9	2	9	1	9	0	
4	2	0	5	4	5	0	5	1	5	2	5	1	5	0	
3	4	5	9	5	0	9	1	9	5	9	3	9	4	
3	2	3	9	9	0	9	1	9	2	9	1	9	0	
3	5	4	1	5	0	5	1	5	2	5	3	5	4	
4	0	5	9	3	5	0	9	1	9	2	9	5	9	4	
4	6	5	0	2	5	0	5	1	5	2	5	1	5	0	
4	8	9	8	7	9	0	9	1	9	2	9	1	9	0	
2	4	5	5	0	5	1	5	5	5	3	5	4	
4	7	8	9	8	9	0	9	1	9	2	9	5	9	4	
4	3	9	5	6	9	0	9	1	9	5	5	3	5	4	
2	9	3	9	0	9	1	9	2	9	5	9	4	
2	9	5	9	0	9	1	9	2	9	5	9	4	
4	4	5	0	2	5	0	5	1	5	2	5	3	5	4	
5	2	0	5	6	7	5	0	5	1	5	2	5	3	5	4	
