4094.66543064	2294.66543064	1800
0	3	1	10	9	1	1	1	10	10
1	3	3	1	5	5	5	5	5	5
2	3	7	1	3	7	7	7	7	7
3	4	9	10	1	3	1	1	1	1	1
4	3	10	1	7	1	7	7	7	7
5	4	3	1	8	6	3	3	3	3	3
6	3	4	1	7	1	7	7	7	7
7	2	1	8	8	8	8	8	8
8	3	7	1	4	1	1	1	1	1
9	4	0	8	1	2	0	0	0	0	0
10	3	7	1	3	1	1	1	1	1
11	3	5	1	10	5	5	5	5	5
12	3	5	1	2	5	5	5	5	5
13	2	8	1	1	1	1	1	1
14	3	8	1	7	1	7	7	7	7
15	3	6	8	0	0	0	0	0	0
16	3	2	1	5	5	5	5	5	5
17	3	7	1	5	5	5	5	5	5
18	3	5	1	7	5	5	5	5	5
19	4	8	1	10	9	1	1	1	1	10
20	3	4	1	10	10	10	10	10	10
21	3	5	1	10	5	5	5	5	5
22	3	8	1	10	10	10	10	10	10
23	2	10	1	1	1	1	1	1
24	4	0	8	1	5	5	5	5	5	5
25	3	3	1	2	1	1	1	1	1
26	2	1	7	1	1	7	7	7
27	3	8	1	4	1	1	1	1	1
28	3	2	1	10	1	1	1	1	1
29	3	2	1	3	1	1	1	3	3
30	2	4	1	1	1	1	1	1
31	4	9	10	1	3	1	1	1	1	1
32	4	0	8	1	3	0	0	0	0	0
33	3	10	1	2	1	1	1	1	1
34	3	7	1	4	1	1	1	1	1
35	4	6	8	1	3	1	1	1	1	1
36	4	9	10	1	5	5	5	5	5	5
37	4	4	1	8	0	0	0	0	0	0
38	3	2	1	7	1	7	7	7	7
39	2	5	1	5	5	5	5	5
40	3	10	1	8	1	1	1	1	1
41	3	3	1	7	3	3	3	3	3
42	4	6	8	1	7	7	7	7	7	7
43	3	3	1	4	3	3	3	1	1
44	3	5	1	8	5	5	5	5	5
45	4	9	10	1	8	1	1	1	1	1
46	3	1	8	0	1	1	0	0	0
47	2	1	3	3	3	3	3	3
48	3	2	1	10	1	1	1	1	1
49	2	1	3	1	1	1	1	1
50	3	4	1	7	1	7	7	7	7
51	4	0	8	1	10	0	0	0	0	0
52	3	5	1	8	5	5	5	5	5
53	3	8	1	2	8	8	8	8	8
54	5	6	8	1	10	9	9	9	9	9	9
55	3	6	8	0	0	0	0	0	0
56	5	9	10	1	8	0	0	0	0	0	0
57	4	5	1	8	6	5	5	5	5	5
58	3	3	1	7	1	7	7	7	7
59	3	9	10	1	1	1	1	1	1
60	3	10	1	5	5	5	5	5	5
61	4	10	1	8	0	0	0	0	0	0
62	2	7	1	7	7	1	1	1
63	3	8	1	7	1	7	7	7	7
64	3	3	1	10	1	1	1	1	1
65	3	3	1	4	3	3	3	3	4
66	5	9	10	1	8	6	1	1	1	1	1
67	4	2	1	8	6	1	1	1	1	1
68	3	8	1	5	5	5	5	5	5
69	3	3	1	4	1	1	1	1	1
70	4	7	1	8	6	8	8	8	8	8
71	3	0	8	1	0	0	0	0	0
72	4	6	8	1	2	1	1	1	1	1
73	2	1	2	1	1	1	1	1
74	3	10	1	3	1	1	1	1	1
75	4	10	1	8	6	1	1	1	1	1
76	2	1	3	1	1	1	1	1
77	3	1	8	0	0	0	0	0	0
78	2	1	5	5	5	5	5	5
79	4	4	1	8	6	8	8	8	8	8
80	2	8	6	8	8	8	8	8
81	4	7	1	10	9	1	1	1	1	10
82	2	2	1	1	1	1	1	1
83	3	3	1	10	3	3	3	3	3
84	4	6	8	1	10	1	1	1	1	1
85	3	4	1	3	1	1	1	1	1
86	4	0	8	1	4	0	0	0	0	0
87	3	3	1	8	1	1	1	1	1
88	5	9	10	1	8	6	1	1	1	1	1
89	4	10	1	8	0	0	0	0	0	0
90	5	6	8	1	10	9	1	1	1	1	10
91	2	3	1	1	1	1	1	1
92	2	1	8	8	8	8	8	8
93	2	3	1	1	1	1	1	1
94	3	4	1	2	1	1	1	1	1
95	2	2	1	1	1	1	1	1
96	2	0	8	0	0	0	0	0
97	3	5	1	8	5	5	5	5	5
98	4	4	1	8	6	1	1	1	1	1
99	4	4	1	10	9	1	1	1	1	10
100	2	0	8	0	0	0	0	0
101	3	8	1	10	1	1	1	10	10
102	3	7	1	2	1	1	1	1	1
103	3	2	1	4	1	1	1	1	1
104	3	5	1	8	5	5	5	5	5
105	2	8	6	8	8	8	8	8
106	4	9	10	1	7	1	7	7	7	7
107	4	3	1	10	9	3	3	3	3	3
108	3	6	8	1	8	8	8	8	8
109	3	7	1	2	1	1	1	1	1
110	3	3	1	8	1	1	1	1	1
111	5	9	10	1	8	6	9	9	9	9	10
112	3	5	1	7	5	5	5	5	5
113	2	8	6	8	8	8	8	8
114	3	10	1	2	1	1	1	1	1
115	3	8	1	4	8	8	8	8	8
116	3	10	1	5	5	5	5	5	5
117	4	4	1	8	0	1	1	0	0	0
118	5	6	8	1	10	9	1	1	1	1	10
119	5	9	10	1	8	0	1	1	0	0	0
120	4	9	10	1	7	7	7	7	7	7
121	3	10	1	3	1	1	1	1	1
122	3	0	8	6	0	0	0	0	0
123	2	6	8	8	8	8	8	8
124	3	4	1	3	1	1	1	1	1
125	2	2	1	1	1	1	1	1
126	4	0	8	1	3	0	0	0	0	0
127	2	1	5	1	1	1	1	1
128	2	4	1	1	1	1	1	1
129	4	7	1	8	0	0	0	0	0	0
130	3	0	8	1	0	0	0	0	0
131	3	10	1	8	1	1	1	1	1
132	3	3	1	5	5	5	5	5	5
133	3	4	1	8	1	1	1	1	1
134	2	1	3	1	1	1	1	1
135	4	5	1	8	6	5	5	5	5	5
136	4	5	1	8	6	5	5	5	5	5
137	4	2	1	10	9	1	1	1	1	10
138	4	9	10	1	7	1	7	7	7	7
139	2	7	1	7	7	1	1	1
140	3	5	1	3	5	5	5	5	5
141	4	0	8	1	5	5	5	5	5	5
142	4	4	1	8	0	0	0	0	0	0
143	4	2	1	8	6	8	8	8	8	8
144	3	7	1	8	1	1	1	1	1
145	2	1	4	1	1	4	4	4
146	4	3	1	8	6	1	1	1	1	1
147	3	2	1	3	1	1	1	1	1
148	3	7	1	10	1	1	1	1	1
149	3	5	1	7	5	5	5	5	5
150	3	4	1	3	1	1	1	1	1
151	3	4	1	5	5	5	5	5	5
152	4	0	8	1	7	0	0	0	0	0
153	3	7	1	2	7	7	7	7	7
154	3	0	8	1	0	0	0	0	0
155	3	2	1	8	1	1	1	1	1
156	3	6	8	0	0	0	0	0	0
157	4	2	1	8	6	1	1	1	1	1
158	3	8	1	4	1	1	1	1	1
159	3	10	1	4	1	1	1	1	1
160	2	9	10	9	9	10	10	10
161	4	6	8	1	3	1	1	1	1	1
162	2	8	6	8	8	8	8	8
163	3	8	1	10	1	1	1	1	1
164	3	5	1	4	5	5	5	5	5
165	3	10	1	7	1	7	7	7	7
166	3	4	1	2	1	1	1	1	1
167	4	9	10	1	4	1	1	1	1	1
168	3	5	1	2	5	5	5	5	5
169	3	4	1	3	1	1	1	1	1
170	4	0	8	1	2	0	0	0	0	0
171	4	9	10	1	5	5	5	5	5	5
172	2	10	1	1	1	1	1	1
173	3	7	1	5	5	5	5	5	5
174	2	4	1	1	1	1	1	1
175	2	10	9	10	10	9	9	9
176	3	7	1	8	1	1	1	1	1
177	4	5	1	10	9	5	5	5	5	5
178	4	6	8	1	5	5	5	5	5	5
179	3	2	1	8	1	1	1	1	1
180	3	3	1	2	1	1	1	1	1
181	5	9	10	1	8	0	0	0	0	0	0
182	3	10	1	4	1	1	1	1	1
183	4	5	1	10	9	5	5	5	5	5
184	3	3	1	8	1	1	1	1	1
185	4	0	8	1	5	5	5	5	5	5
186	3	5	1	4	5	5	5	5	5
187	4	8	1	10	9	1	1	1	1	10
188	3	3	1	8	1	1	1	1	1
189	3	7	1	2	7	7	7	7	7
190	3	8	1	3	8	1	1	1	1
191	4	6	8	1	4	1	1	1	1	1
192	3	0	8	1	0	0	0	0	0
193	3	7	1	10	1	1	1	1	1
194	4	4	1	8	6	1	1	1	1	1
195	3	4	1	2	1	1	1	1	1
196	2	8	1	1	1	1	1	1
197	2	5	1	5	5	5	5	5
198	3	4	1	7	7	7	7	7	7
199	4	9	10	1	3	1	1	1	1	1
200	4	7	1	10	9	1	1	1	1	10
201	2	1	10	1	1	1	1	1
202	3	4	1	10	1	1	1	1	1
203	4	7	1	8	6	1	1	1	1	1
204	3	1	10	9	10	10	10	10	10
205	4	2	1	8	0	1	1	0	0	0
206	3	3	1	5	5	5	5	5	5
207	3	5	1	10	5	5	5	5	5
208	4	6	8	1	5	5	5	5	5	5
209	2	1	4	1	1	1	1	4
210	3	3	1	5	5	5	5	5	5
211	4	7	1	8	0	1	1	0	0	0
212	3	8	1	2	8	8	8	8	8
213	3	3	1	4	1	1	1	1	1
214	3	4	1	5	5	5	5	5	5
215	3	10	1	3	1	1	1	1	1
216	3	2	1	10	1	1	1	1	1
217	3	5	1	7	5	5	5	5	5
218	3	2	1	8	8	8	8	8	8
219	4	6	8	1	5	5	5	5	5	5
220	4	2	1	8	6	1	1	1	1	1
221	4	9	10	1	8	1	1	1	1	1
222	4	0	8	1	4	0	0	0	0	0
223	3	4	1	7	4	4	4	4	4
224	2	6	8	8	8	8	8	8
225	3	2	1	5	5	5	5	5	5
226	2	10	1	10	10	10	10	10
227	4	0	8	1	7	0	0	0	0	0
228	2	8	1	1	1	1	1	1
229	3	5	1	4	5	5	5	5	5
230	3	1	10	9	1	1	1	1	10
231	4	9	10	1	4	1	1	1	1	1
232	3	10	1	2	10	10	10	10	10
233	3	5	1	10	5	5	5	5	5
234	2	10	9	10	10	9	9	9
235	2	3	1	1	1	1	1	1
236	3	1	8	6	1	1	1	1	1
237	5	9	10	1	8	6	9	9	9	9	10
238	3	2	1	4	1	1	1	1	1
239	4	9	10	1	2	1	1	1	1	1
240	3	1	8	0	0	0	0	0	0
241	4	0	8	1	10	0	0	0	0	0
242	3	4	1	8	1	1	1	1	1
243	3	10	1	4	10	10	10	10	10
244	4	6	8	1	4	8	8	1	1	1
245	3	8	1	3	1	1	1	1	1
246	3	5	1	3	5	5	5	5	5
247	3	5	1	2	5	5	5	5	5
248	3	10	1	2	1	1	1	1	1
249	2	6	8	8	8	8	8	8
250	4	5	1	10	9	5	5	5	5	5
251	4	7	1	8	6	1	1	1	1	1
252	5	9	10	1	8	0	0	0	0	0	0
253	4	0	8	1	4	0	0	0	0	0
254	2	8	0	0	0	0	0	0
255	3	9	10	1	1	1	1	1	1
256	4	4	1	10	9	1	1	1	1	10
257	2	8	0	0	0	0	0	0
258	3	1	8	6	8	8	8	8	8
259	3	7	1	4	1	1	1	1	1
260	4	9	10	1	8	1	1	1	1	1
261	4	6	8	1	7	1	7	7	7	7
262	3	2	1	4	1	1	1	4	4
263	4	3	1	8	6	3	3	3	3	3
264	3	7	1	3	1	1	1	3	3
265	3	10	1	8	10	10	10	10	8
266	4	10	1	8	0	0	0	0	0	0
267	4	7	1	10	9	1	1	1	1	10
268	3	4	1	5	5	5	5	5	5
269	4	6	8	1	7	7	7	7	7	7
270	3	2	1	7	1	7	7	7	7
271	3	0	8	6	0	0	0	0	0
272	3	10	1	3	10	10	10	10	10
273	4	4	1	8	6	1	1	1	1	1
274	2	1	8	8	8	8	8	8
275	5	0	8	1	10	9	0	0	0	0	0
276	3	8	1	3	1	1	1	1	1
277	4	6	8	1	10	1	1	1	1	1
278	3	0	8	6	0	0	0	0	0
279	4	8	1	10	9	1	1	1	1	10
280	4	6	8	1	2	8	1	1	1	1
281	2	7	1	7	7	1	1	1
282	4	2	1	10	9	1	1	1	1	10
283	3	6	8	1	1	1	1	1	1
284	4	3	1	8	6	3	3	3	3	3
285	4	9	10	1	4	1	1	1	1	1
286	3	10	1	8	1	1	1	1	1
287	4	3	1	10	9	1	1	1	1	10
288	3	2	1	7	1	7	7	7	7
289	3	7	1	3	1	1	3	3	3
290	4	9	10	1	2	1	1	1	1	1
291	4	2	1	10	9	1	1	1	1	10
292	3	8	1	7	1	7	7	7	7
293	4	5	1	8	0	5	5	5	5	5
294	4	0	8	1	7	0	0	0	0	0
295	3	2	1	4	1	1	1	1	1
296	3	0	8	6	0	0	0	0	0
297	3	9	10	1	1	1	1	1	1
298	4	0	8	1	5	5	5	5	5	5
299	2	1	10	1	1	1	1	1
300	5	6	8	1	10	9	9	9	9	9	9
301	4	5	1	8	0	5	5	5	5	5
302	2	1	8	1	1	1	1	1
303	4	0	8	1	2	0	0	0	0	0
304	3	7	1	4	1	1	1	1	1
305	2	10	1	1	1	1	1	1
306	4	9	10	1	7	1	7	7	7	7
307	4	0	8	1	3	0	0	0	0	0
308	4	3	1	8	0	0	0	0	0	0
309	4	6	8	1	2	1	1	1	1	1
310	3	7	1	5	5	5	5	5	5
311	3	6	8	1	1	1	1	1	1
312	2	0	8	0	0	0	0	0
313	3	6	8	1	1	1	1	1	1
314	3	1	8	0	0	0	0	0	0
315	2	1	5	5	5	5	5	5
316	4	3	1	10	9	3	3	3	3	3
317	4	9	10	1	8	1	1	1	1	1
318	4	5	1	8	6	5	5	5	5	5
319	2	4	1	1	1	1	1	1
320	4	8	1	10	9	1	1	1	9	9
321	3	5	1	3	5	5	5	5	5
322	3	1	8	6	1	1	1	1	1
323	2	1	5	5	5	5	5	5
324	3	8	1	5	5	5	5	5	5
325	4	5	1	8	0	5	5	5	5	5
326	2	3	1	3	3	3	3	3
327	3	7	1	10	1	1	10	10	10
328	3	3	1	2	1	1	1	1	1
329	4	6	8	1	7	1	7	7	7	7
330	3	7	1	8	1	1	1	1	1
331	4	3	1	8	0	0	0	0	0	0
332	5	0	8	1	10	9	0	0	0	0	0
333	3	2	1	10	1	1	1	1	1
334	4	2	1	8	0	0	0	0	0	0
335	3	8	1	3	1	1	1	1	1
336	4	6	8	1	4	1	1	1	1	1
337	2	2	1	1	1	1	1	1
338	3	4	1	8	1	1	1	1	1
339	3	4	1	8	1	1	1	1	1
340	3	4	1	10	1	1	1	1	1
341	4	10	1	8	6	1	1	1	1	1
342	3	4	1	10	1	1	1	1	1
343	4	10	1	8	6	10	10	10	10	10
344	3	10	1	5	5	5	5	5	5
345	2	1	2	1	1	1	1	1
346	3	6	8	0	0	0	0	0	0
347	3	8	1	7	7	7	7	7	7
348	4	6	8	1	4	1	1	1	1	1
349	3	8	1	5	5	5	5	5	5
350	2	9	10	9	10	10	10	10
351	3	2	1	7	7	7	7	7	7
352	3	7	1	10	1	1	1	1	1
353	4	2	1	10	9	1	1	1	1	10
354	4	6	8	1	10	1	1	1	1	1
355	4	9	10	1	4	1	1	1	1	1
356	3	9	10	1	1	1	1	1	1
357	5	0	8	1	10	9	0	0	0	0	0
358	2	6	8	8	8	8	8	8
359	4	10	1	8	0	1	1	0	0	0
360	4	4	1	8	0	0	0	0	0	0
361	2	8	0	8	8	0	0	0
362	2	0	8	0	0	0	0	0
363	4	7	1	10	9	1	1	1	10	10
364	3	3	1	7	3	3	3	3	3
365	4	10	1	8	6	1	1	1	1	1
366	4	7	1	8	0	0	0	0	0	0
367	4	6	8	1	3	1	1	1	1	1
368	3	8	1	4	1	1	1	1	1
369	3	3	1	2	1	1	1	1	1
370	2	1	7	1	1	7	7	7
371	4	9	10	1	5	5	5	5	5	5
372	2	10	9	10	10	9	9	9
373	3	10	1	7	1	7	7	7	7
374	2	1	2	1	1	1	1	1
375	4	4	1	10	9	4	4	1	1	10
376	4	6	8	1	3	1	1	1	1	1
377	3	3	1	10	1	1	1	1	1
378	4	7	1	8	0	0	0	0	0	0
379	2	5	1	5	5	5	5	5
380	4	0	8	1	2	0	0	0	0	0
381	4	4	1	10	9	1	1	1	1	10
382	2	1	4	1	1	1	1	1
383	2	1	7	1	1	7	7	7
384	3	4	1	5	4	4	4	4	5
385	4	2	1	8	0	0	0	0	0	0
386	2	1	10	1	1	1	1	1
387	4	0	8	1	10	0	0	0	0	0
388	2	1	10	10	10	10	10	10
389	4	9	10	1	2	9	10	10	10	1
390	3	7	1	5	5	5	5	5	5
391	2	8	1	8	8	8	8	1
392	3	2	1	3	3	3	3	3	3
393	4	3	1	8	0	1	1	0	0	0
394	3	2	1	3	1	1	1	1	1
395	5	0	8	1	10	9	0	0	0	0	0
396	3	10	1	7	1	7	7	7	7
397	2	1	7	1	1	1	1	7
398	2	1	4	1	1	1	1	4
399	3	5	1	4	5	5	5	5	5
400	4	5	1	10	9	5	5	5	5	5
401	3	2	1	5	5	5	5	5	5
402	4	0	8	1	3	0	0	0	0	0
403	3	3	1	7	1	7	7	7	7
404	4	6	8	1	2	1	1	1	1	1
405	3	1	8	6	1	1	1	1	1
406	4	9	10	1	5	5	5	5	5	5
407	2	5	1	5	5	5	5	5
408	4	3	1	8	0	0	0	0	0	0
409	3	1	10	9	1	1	1	1	10
410	3	8	1	2	1	1	1	1	1
411	4	6	8	1	10	1	1	1	1	1
412	4	0	8	1	7	0	0	0	0	0
413	3	4	1	2	1	1	1	1	1
414	4	9	10	1	3	1	1	1	1	1
415	4	0	8	1	10	0	0	0	0	0
416	4	2	1	8	0	0	0	0	0	0
417	3	10	1	4	1	1	1	1	1
418	3	8	1	2	1	1	1	1	1
419	4	7	1	8	6	1	1	1	1	1
420	3	2	1	5	5	5	5	5	5
421	3	10	1	5	5	5	5	5	5
422	2	9	10	9	9	9	9	9
423	3	5	1	3	5	5	5	5	5
424	3	3	1	10	1	1	1	1	1
425	3	8	1	10	1	1	1	10	10
426	2	7	1	7	7	1	1	1
427	2	10	9	10	10	9	9	9
428	2	9	10	9	9	10	10	10
429	2	1	2	1	1	1	1	1
430	3	2	1	8	1	1	1	1	1
431	4	6	8	1	5	5	5	5	5	5
432	3	7	1	8	1	1	1	1	8
433	3	5	1	2	5	5	5	5	5
434	3	8	1	5	5	5	5	5	5
435	4	9	10	1	2	1	1	1	1	1
436	4	3	1	10	9	1	1	1	1	10
437	2	8	0	0	0	0	0	0
438	4	0	8	1	4	0	0	0	0	0
439	4	5	1	8	0	5	5	5	5	5
