8683.4	6650.77
908
26037.5	18790.9
11
0	0	8
1	0	8
2	0	8
3	0	8
4	0	8
5	0	8
6	0	8
7	0	8
8	2	8
9	0	8
10	2	8
68
0	6	625.500000	1290.000000	1.000000
0	7	0.000000	60.000000	0.000000
0	8	1717.522136	2340.000000	1.000000
0	9	0.000000	1050.000000	0.000000
1	2	1709.358523	2520.000000	1.000000
1	3	1868.036260	2190.000000	1.000000
1	4	667.355916	1350.000000	1.000000
1	5	1525.500000	2160.000000	1.000000
1	7	733.500000	1470.000000	1.000000
1	8	73.349189	3480.000000	1.000000
1	9	0.000000	60.000000	0.000000
1	10	27.006727	2460.000000	1.000000
2	1	15.779581	2520.000000	1.000000
2	3	987.720419	1950.000000	1.000000
2	4	1035.000000	1140.000000	1.000000
2	5	0.000000	30.000000	0.000000
2	9	16.644084	1800.000000	1.000000
2	10	0.000000	930.000000	0.000000
3	1	804.471118	2190.000000	1.000000
3	2	494.285561	1950.000000	1.000000
3	4	0.000000	960.000000	0.000000
3	5	0.000000	30.000000	0.000000
4	1	454.500000	1350.000000	1.000000
4	2	9.000000	1140.000000	1.000000
4	3	0.000000	960.000000	0.000000
4	5	0.000000	870.000000	0.000000
4	6	0.000000	60.000000	0.000000
4	7	486.000000	990.000000	1.000000
5	1	40.500000	2160.000000	1.000000
5	2	0.000000	30.000000	0.000000
5	3	0.000000	30.000000	0.000000
5	4	0.000000	870.000000	0.000000
5	7	517.500000	1050.000000	1.000000
5	8	0.000000	30.000000	0.000000
6	0	9.006727	1290.000000	1.000000
6	4	0.000000	60.000000	0.000000
6	7	1416.144084	1920.000000	1.000000
6	8	41.849189	2250.000000	1.000000
6	9	0.000000	30.000000	0.000000
6	10	0.000000	60.000000	0.000000
7	0	0.000000	60.000000	0.000000
7	1	18.000000	1470.000000	1.000000
7	4	7.644084	990.000000	1.000000
7	5	4.500000	1050.000000	1.000000
7	6	18.000000	1920.000000	1.000000
7	8	0.000000	930.000000	0.000000
7	9	0.000000	30.000000	0.000000
7	10	0.000000	30.000000	0.000000
8	0	48.015409	2340.000000	1.000000
8	1	1796.849189	3480.000000	1.000000
8	5	0.000000	30.000000	0.000000
8	6	1597.500000	2250.000000	1.000000
8	7	0.000000	930.000000	0.000000
8	9	1715.849189	2370.000000	1.000000
8	10	729.000000	1470.000000	1.000000
9	0	0.000000	1050.000000	0.000000
9	1	0.000000	60.000000	0.000000
9	2	895.500000	1800.000000	1.000000
9	6	0.000000	30.000000	0.000000
9	7	0.000000	30.000000	0.000000
9	8	26.993273	2370.000000	1.000000
9	10	1638.006727	3300.000000	1.000000
10	1	1660.506727	2460.000000	1.000000
10	2	0.000000	930.000000	0.000000
10	6	0.000000	60.000000	0.000000
10	7	0.000000	30.000000	0.000000
10	8	13.500000	1470.000000	1.000000
10	9	4.506727	3300.000000	1.000000
440
3	1	8	9	8	0	8	1	8	2	8	5	9	4	
3	3	1	5	3	0	3	1	3	2	3	5	3	4	
3	7	1	3	3	0	3	1	3	5	3	3	3	4	
3	9	2	3	2	0	2	1	2	2	2	5	2	4	
3	10	1	7	1	0	1	1	1	2	1	3	1	4	
4	3	1	8	6	3	0	3	1	3	5	3	3	3	4	
2	4	7	7	0	7	1	7	2	7	5	7	4	
2	1	8	1	0	1	1	1	2	1	1	1	0	
2	7	4	7	0	7	1	7	2	7	3	7	4	
4	0	8	1	2	0	0	0	1	0	2	0	5	0	4	
3	7	1	3	3	0	3	1	3	2	3	1	3	0	
3	5	1	10	1	0	1	1	1	5	1	3	1	4	
4	5	1	3	2	3	0	3	1	3	2	3	5	3	4	
2	8	1	1	0	1	1	1	2	1	1	1	0	
3	8	6	7	6	0	6	1	6	2	6	3	6	4	
2	6	0	6	0	6	1	6	5	6	3	6	4	
3	2	1	5	1	0	1	1	1	5	1	3	1	4	
2	7	5	7	0	7	1	7	2	7	5	7	4	
2	5	7	7	0	7	1	7	2	7	1	7	0	
2	8	9	9	0	9	1	9	5	9	3	9	4	
3	4	1	10	1	0	1	1	1	2	1	5	1	4	
3	5	1	10	1	0	1	1	1	2	1	5	1	4	
2	8	10	8	0	10	1	10	2	10	1	10	0	
2	10	1	1	0	1	1	1	2	1	5	1	4	
4	0	8	1	5	0	0	0	1	0	2	0	3	0	4	
2	3	2	2	0	2	1	2	2	2	5	2	4	
4	1	3	1	7	3	0	3	1	3	5	3	3	3	4	
3	8	1	4	1	0	1	1	1	5	1	3	1	4	
3	2	1	10	1	0	1	1	1	5	1	3	1	4	
2	2	3	3	0	3	1	3	2	3	5	3	4	
2	4	1	1	0	1	1	1	5	1	3	1	4	
3	9	2	3	2	0	2	1	2	2	2	3	2	4	
4	0	8	1	3	0	0	3	1	3	2	3	1	3	0	
3	10	1	2	1	0	1	1	1	2	1	3	1	4	
2	7	4	7	0	7	1	7	2	7	1	7	0	
4	6	8	1	3	3	0	3	1	3	2	3	3	3	4	
4	9	8	1	5	9	0	9	1	5	5	5	3	5	4	
4	4	1	8	0	0	0	0	1	0	2	0	5	0	4	
3	2	1	7	1	0	1	1	1	2	1	3	1	4	
4	5	1	3	1	3	0	3	1	3	2	3	5	3	4	
2	10	8	10	0	10	1	10	2	8	5	8	4	
3	3	1	7	3	0	3	1	3	2	3	1	3	0	
2	6	7	7	0	7	1	7	5	7	3	7	4	
3	3	2	4	2	0	2	1	2	2	2	1	2	0	
3	5	1	8	1	0	1	1	1	2	1	1	1	0	
2	9	8	9	0	9	1	9	2	9	5	9	4	
3	1	8	0	0	0	0	1	0	5	0	3	0	4	
2	1	3	3	0	3	1	3	2	3	1	3	0	
3	2	1	10	1	0	1	1	1	2	1	1	1	0	
2	1	3	3	0	3	1	3	2	3	3	3	4	
2	4	7	7	0	7	1	7	2	7	3	7	4	
3	0	8	10	0	0	0	1	0	2	0	5	0	4	
5	5	1	8	0	8	0	0	0	1	0	2	0	5	0	4	
4	8	1	3	2	3	0	3	1	3	2	3	5	3	4	
3	6	8	9	6	0	6	1	6	2	6	3	6	4	
2	6	0	6	0	6	1	6	2	6	1	6	0	
3	9	8	0	0	0	0	1	0	2	0	3	0	4	
4	5	1	8	6	5	0	5	1	5	2	5	3	5	4	
3	3	1	7	3	0	3	1	3	2	3	5	3	4	
3	9	8	1	9	0	9	1	9	2	8	5	8	4	
3	10	1	5	1	0	1	1	1	2	1	3	1	4	
3	10	8	0	0	0	0	1	0	2	0	1	0	0	
2	7	1	1	0	1	1	1	2	1	1	1	0	
3	8	6	7	8	0	8	1	8	5	7	3	7	4	
3	3	1	10	3	0	3	1	3	2	3	5	3	4	
3	3	2	4	2	0	2	1	2	2	2	5	2	4	
3	9	8	6	9	0	9	1	8	5	8	3	8	4	
4	2	1	8	6	6	0	6	1	6	2	6	3	6	4	
3	8	1	5	1	0	1	1	1	2	1	3	1	4	
3	3	2	4	2	0	2	1	2	5	2	3	2	4	
2	7	6	7	0	7	1	7	2	7	3	7	4	
3	0	8	1	0	0	0	1	0	5	0	3	0	4	
4	6	8	1	2	6	0	6	1	1	5	1	3	2	4	
2	1	2	1	0	1	1	1	2	1	1	1	0	
3	10	1	3	3	0	3	1	3	2	3	5	3	4	
3	10	8	6	10	0	10	1	8	5	8	3	8	4	
2	1	3	3	0	3	1	3	2	3	5	3	4	
3	1	8	0	0	0	0	1	0	2	0	3	0	4	
4	1	3	1	5	3	0	3	1	3	5	3	3	3	4	
4	4	1	8	6	6	0	6	1	6	2	6	3	6	4	
2	8	6	6	0	6	1	6	5	6	3	6	4	
4	7	6	8	9	7	0	7	1	8	5	8	3	8	4	
3	2	3	1	3	0	3	1	3	2	3	5	3	4	
3	3	1	10	3	0	3	1	3	5	3	3	3	4	
3	6	8	10	6	0	6	1	6	2	10	1	10	0	
3	4	1	3	1	0	1	1	1	5	1	3	1	4	
4	0	8	1	4	0	0	0	1	0	2	0	5	0	4	
3	3	1	8	3	0	3	1	3	2	3	3	3	4	
3	9	8	6	9	0	9	1	9	2	6	5	6	4	
3	10	8	0	0	0	0	1	0	2	0	3	0	4	
3	6	8	9	6	0	6	1	6	2	6	1	9	0	
2	3	1	3	0	3	1	3	2	3	1	3	0	
4	1	8	0	8	0	0	0	1	0	2	0	5	0	4	
2	3	1	3	0	3	1	3	5	3	3	3	4	
2	4	2	2	0	2	1	2	2	2	1	2	0	
2	2	1	1	0	1	1	1	2	1	3	1	4	
2	0	8	0	0	0	1	0	2	0	3	0	4	
3	5	1	8	1	0	1	1	1	5	1	3	1	4	
4	4	1	8	6	4	0	6	1	6	2	6	5	6	4	
3	4	2	9	2	0	2	1	2	2	2	3	2	4	
2	0	8	0	0	0	1	0	2	0	1	0	0	
2	8	10	8	0	8	1	8	2	8	5	8	4	
3	7	1	2	7	0	7	1	7	2	7	1	2	0	
2	2	4	2	0	2	1	2	5	2	3	2	4	
3	5	1	8	1	0	1	1	1	2	1	3	1	4	
2	8	6	6	0	6	1	6	2	6	3	6	4	
4	9	8	6	7	9	0	7	1	7	2	7	1	7	0	
3	3	2	9	2	0	2	1	2	2	2	5	2	4	
3	6	8	1	6	0	6	1	6	2	8	5	8	4	
3	7	1	2	7	0	7	1	7	2	7	5	7	4	
3	3	1	8	3	0	3	1	3	2	3	1	3	0	
3	9	8	6	9	0	9	1	9	2	8	3	6	4	
2	5	7	7	0	7	1	7	2	7	5	7	4	
2	8	6	6	0	6	1	6	2	6	1	6	0	
3	10	1	2	1	0	1	1	1	2	1	5	1	4	
3	8	1	4	1	0	1	1	1	2	1	5	1	4	
3	10	1	5	1	0	1	1	1	5	1	3	1	4	
4	4	1	8	0	0	0	0	1	0	5	0	3	0	4	
3	6	8	9	6	0	6	1	6	5	6	3	6	4	
3	9	8	0	0	0	0	1	0	5	0	3	0	4	
4	9	8	6	7	9	0	9	1	9	2	6	5	6	4	
3	10	1	3	3	0	3	1	3	2	3	3	3	4	
2	0	6	6	0	6	1	6	2	6	5	6	4	
2	6	8	6	0	6	1	6	2	6	5	6	4	
3	4	1	3	1	0	1	1	1	2	1	1	1	0	
2	2	1	1	0	1	1	1	5	1	3	1	4	
4	0	8	1	3	0	0	3	1	3	5	3	3	3	4	
4	1	3	1	5	3	0	3	1	3	2	3	5	3	4	
2	4	1	1	0	1	1	1	2	1	5	1	4	
3	7	6	0	0	0	0	1	0	2	0	3	0	4	
3	0	8	1	0	0	0	1	0	2	0	3	0	4	
2	10	8	10	0	10	1	8	5	8	3	8	4	
3	3	1	5	3	0	3	1	3	2	3	3	3	4	
3	4	1	8	1	0	1	1	1	2	1	1	1	0	
2	1	3	3	0	3	1	3	5	3	3	3	4	
4	5	1	8	6	5	0	5	1	5	2	6	5	6	4	
4	5	1	8	6	5	0	5	1	8	5	8	3	8	4	
2	2	9	2	0	2	1	2	2	2	1	2	0	
4	9	8	6	7	9	0	9	1	9	2	9	3	8	4	
2	7	1	7	0	7	1	7	2	7	5	7	4	
3	5	1	3	3	0	3	1	3	2	3	1	3	0	
4	0	8	1	5	0	0	0	1	0	5	0	3	0	4	
4	4	1	8	0	0	0	0	1	0	2	0	3	0	4	
4	2	1	8	6	2	0	2	1	2	2	6	1	6	0	
3	7	6	8	7	0	7	1	7	2	7	1	8	0	
2	1	4	1	0	1	1	1	2	1	1	1	0	
4	3	1	8	6	3	0	3	1	3	2	3	5	3	4	
2	2	3	3	0	3	1	3	2	3	3	3	4	
3	7	1	10	7	0	7	1	7	2	10	5	10	4	
2	5	7	7	0	7	1	7	2	7	3	7	4	
3	4	1	3	1	0	1	1	1	2	1	5	1	4	
3	4	1	5	1	0	1	1	1	5	1	3	1	4	
3	0	6	7	7	0	7	1	7	2	7	1	7	0	
3	7	1	2	7	0	7	1	2	5	2	3	2	4	
3	0	8	1	0	0	0	1	0	2	0	5	0	4	
4	2	3	1	8	3	0	3	1	3	2	3	5	3	4	
2	6	0	6	0	6	1	6	2	6	3	6	4	
4	2	1	8	6	2	0	2	1	1	5	1	3	1	4	
3	8	1	4	1	0	1	1	1	2	1	1	1	0	
3	10	1	4	1	0	1	1	1	2	1	5	1	4	
2	9	10	10	0	10	1	10	5	10	3	10	4	
4	6	8	1	3	3	0	3	1	3	5	3	3	3	4	
2	8	6	6	0	6	1	6	2	6	5	6	4	
2	8	10	8	0	8	1	8	5	8	3	10	4	
3	5	1	4	1	0	1	1	1	2	1	1	1	0	
3	10	1	7	1	0	1	1	1	5	1	3	1	4	
2	4	2	2	0	2	1	2	5	2	3	2	4	
3	9	2	4	2	0	2	1	2	2	2	3	2	4	
4	5	1	3	2	3	0	3	1	3	2	3	3	3	4	
3	4	1	3	1	0	1	1	1	2	1	3	1	4	
4	0	8	1	2	0	0	0	1	0	2	0	1	0	0	
4	9	8	1	5	9	0	9	1	9	2	8	5	8	4	
2	10	1	1	0	1	1	1	2	1	3	1	4	
2	7	5	7	0	7	1	7	2	7	1	7	0	
2	4	1	1	0	1	1	1	2	1	1	1	0	
2	10	9	10	0	10	1	10	2	10	1	10	0	
3	7	6	8	7	0	7	1	7	2	7	5	7	4	
4	5	1	8	9	5	0	5	1	8	5	8	3	8	4	
4	6	8	1	5	6	0	5	1	5	2	5	3	5	4	
3	2	1	8	1	0	1	1	1	2	1	3	1	4	
2	3	2	2	0	2	1	2	2	2	1	2	0	
3	9	8	0	0	0	0	1	0	2	0	1	0	0	
3	10	1	4	1	0	1	1	1	2	1	1	1	0	
4	5	1	8	9	5	0	5	1	5	2	5	1	9	0	
3	3	1	8	3	0	3	1	3	2	3	5	3	4	
4	0	8	1	5	0	0	0	1	0	2	0	5	0	4	
3	5	1	4	1	0	1	1	1	5	1	3	1	4	
2	8	9	9	0	9	1	9	2	9	3	9	4	
3	3	1	8	3	0	3	1	3	5	3	3	3	4	
3	7	1	2	7	0	7	1	1	2	1	3	1	4	
3	8	1	3	3	0	3	1	3	2	3	1	3	0	
4	6	8	1	4	6	0	6	1	6	2	6	3	8	4	
3	0	8	1	0	0	0	1	0	2	0	1	0	0	
3	7	1	10	7	0	7	1	1	2	10	3	10	4	
4	4	1	8	6	4	0	6	1	6	2	6	1	6	0	
2	4	2	2	0	2	1	2	2	2	3	2	4	
2	8	1	8	0	8	1	8	2	8	5	8	4	
2	5	1	1	0	1	1	1	2	1	3	1	4	
2	4	7	7	0	7	1	7	5	7	3	7	4	
3	9	2	3	2	0	2	1	2	5	2	3	2	4	
4	7	6	8	9	7	0	7	1	6	2	6	3	6	4	
2	1	10	1	0	1	1	1	5	1	3	1	4	
3	4	1	10	1	0	1	1	1	2	1	3	1	4	
2	7	6	7	0	7	1	7	2	7	1	7	0	
3	1	8	9	1	0	1	1	1	2	1	1	9	0	
4	2	1	8	0	0	0	0	1	0	5	0	3	0	4	
3	3	1	5	3	0	3	1	3	2	3	1	3	0	
3	5	1	10	1	0	1	1	1	2	1	3	1	4	
4	6	8	1	5	6	0	6	1	6	5	6	3	6	4	
2	1	4	4	0	4	1	4	2	4	5	4	4	
3	3	1	5	3	0	3	1	3	5	3	3	3	4	
3	7	6	0	0	0	0	1	0	5	0	3	0	4	
3	8	1	2	1	0	1	1	1	2	1	1	1	0	
3	3	2	4	2	0	2	1	2	2	2	3	2	4	
3	4	1	5	1	0	1	1	1	2	1	3	1	4	
3	10	1	3	3	0	3	1	3	2	3	1	3	0	
3	2	1	10	1	0	1	1	1	2	1	3	1	4	
2	5	7	7	0	7	1	7	5	7	3	7	4	
3	2	1	8	1	0	1	1	1	2	1	1	1	0	
4	6	8	1	5	6	0	6	1	6	2	6	1	5	0	
4	2	1	8	6	8	0	8	1	8	2	6	5	6	4	
2	9	8	9	0	9	1	9	2	9	1	9	0	
4	0	8	1	4	0	0	0	1	0	2	0	3	0	4	
2	4	7	7	0	7	1	7	2	7	1	7	0	
2	6	8	6	0	6	1	6	2	6	1	6	0	
3	2	1	5	1	0	1	1	1	2	1	1	1	0	
2	10	1	1	0	1	1	1	5	1	3	1	4	
3	0	6	7	7	0	7	1	7	5	7	3	7	4	
4	8	0	8	1	0	0	0	1	0	5	0	3	0	4	
3	5	1	4	1	0	1	1	1	2	1	3	1	4	
3	1	8	9	1	0	1	1	1	2	1	3	1	4	
3	9	2	4	2	0	2	1	2	5	2	3	2	4	
3	10	1	2	1	0	1	1	1	2	1	1	1	0	
3	5	1	10	1	0	1	1	1	2	1	1	1	0	
2	10	9	10	0	10	1	10	2	10	5	10	4	
2	3	1	3	0	3	1	3	2	3	3	3	4	
3	1	8	6	1	0	1	1	1	2	6	3	6	4	
3	9	8	6	9	0	9	1	9	2	9	1	9	0	
2	2	4	2	0	2	1	2	2	2	3	2	4	
2	9	2	2	0	2	1	2	2	2	1	2	0	
3	1	8	0	0	0	0	1	0	2	0	1	0	0	
3	0	8	10	0	0	0	1	0	5	0	3	0	4	
3	4	1	8	1	0	1	1	1	2	1	5	1	4	
3	10	1	4	1	0	1	1	1	5	1	3	1	4	
3	6	7	4	7	0	7	1	7	2	7	5	7	4	
3	8	1	3	3	0	3	1	3	2	3	5	3	4	
3	5	1	3	3	0	3	1	3	2	3	3	3	4	
3	5	1	2	1	0	1	1	1	5	1	3	1	4	
4	10	1	3	2	3	0	3	1	3	5	3	3	3	4	
2	6	8	6	0	6	1	6	5	6	3	6	4	
5	5	1	3	2	9	3	0	3	1	3	2	3	5	3	4	
2	7	6	7	0	7	1	7	5	7	3	7	4	
3	9	8	0	0	0	0	1	0	2	0	5	0	4	
4	0	8	1	4	0	0	0	1	0	5	0	3	0	4	
2	8	0	0	0	0	1	0	2	0	3	0	4	
3	9	8	1	9	0	9	1	9	2	9	1	1	0	
3	4	2	9	2	0	2	1	2	5	2	3	2	4	
2	8	0	0	0	0	1	0	2	0	1	0	0	
3	1	8	6	8	0	8	1	8	2	6	5	6	4	
2	7	4	7	0	7	1	7	2	7	5	7	4	
2	9	8	9	0	9	1	9	2	9	3	9	4	
2	6	7	7	0	7	1	7	2	7	1	7	0	
2	2	4	2	0	2	1	2	2	2	5	2	4	
4	3	1	8	6	3	0	3	1	3	2	3	3	3	4	
3	7	1	3	3	0	3	1	3	2	3	3	3	4	
2	10	8	10	0	10	1	10	2	8	1	8	0	
3	10	8	0	0	0	0	1	0	2	0	5	0	4	
4	7	6	8	9	7	0	7	1	7	2	7	1	7	0	
3	4	1	5	1	0	1	1	1	2	1	1	1	0	
2	6	7	7	0	7	1	7	2	7	5	7	4	
3	2	1	7	1	0	1	1	1	2	1	1	1	0	
2	0	6	6	0	6	1	6	2	6	3	6	4	
3	10	1	3	3	0	3	1	3	5	3	3	3	4	
4	4	1	8	6	4	0	8	1	8	5	8	3	8	4	
2	1	8	1	0	1	1	1	5	1	3	1	4	
3	0	8	9	0	0	0	1	0	5	0	3	0	4	
3	8	1	3	3	0	3	1	3	5	3	3	3	4	
3	6	8	10	6	0	6	1	6	5	6	3	6	4	
2	0	6	6	0	6	1	6	2	6	1	6	0	
2	8	9	9	0	9	1	9	2	9	1	9	0	
4	6	8	1	2	6	0	2	1	2	2	2	1	2	0	
2	7	1	7	0	7	1	7	5	7	3	1	4	
2	2	9	2	0	2	1	2	2	2	5	2	4	
3	6	8	1	6	0	6	1	1	2	1	3	1	4	
4	3	1	8	6	3	0	3	1	3	2	3	1	3	0	
3	9	2	4	2	0	2	1	2	2	2	1	2	0	
2	10	8	10	0	10	1	8	2	8	3	8	4	
3	3	2	9	2	0	2	1	2	2	2	1	2	0	
3	2	1	7	1	0	1	1	1	5	1	3	1	4	
3	7	1	3	3	0	3	1	3	2	3	5	3	4	
2	9	2	2	0	2	1	2	2	2	5	2	4	
2	2	9	2	0	2	1	2	2	2	3	2	4	
3	8	6	7	8	0	8	1	8	2	8	1	7	0	
4	5	1	8	0	0	0	0	1	0	5	0	3	0	4	
3	0	6	7	7	0	7	1	7	2	7	3	7	4	
2	2	4	2	0	2	1	2	2	2	1	2	0	
2	0	6	6	0	6	1	6	5	6	3	6	4	
3	9	8	1	9	0	9	1	9	2	8	3	8	4	
4	0	8	1	5	0	0	0	1	0	2	0	1	0	0	
2	1	10	1	0	1	1	1	2	1	1	1	0	
3	6	8	9	6	0	6	1	6	2	8	5	9	4	
4	5	1	8	0	0	0	0	1	0	2	0	1	0	0	
2	1	8	1	0	1	1	1	2	1	3	1	4	
4	0	8	1	2	0	0	0	1	0	5	0	3	0	4	
2	7	4	7	0	7	1	7	5	7	3	7	4	
2	10	1	1	0	1	1	1	2	1	1	1	0	
4	9	8	6	7	9	0	9	1	8	5	6	3	6	4	
4	0	8	1	3	0	0	3	1	3	2	3	5	3	4	
4	3	1	8	0	3	0	3	1	3	2	3	3	0	4	
4	6	8	1	2	6	0	6	1	6	2	6	3	1	4	
2	7	5	7	0	7	1	7	2	7	3	7	4	
3	6	8	1	6	0	6	1	6	2	6	1	6	0	
2	0	8	0	0	0	1	0	2	0	5	0	4	
4	6	0	8	1	0	0	0	1	0	5	0	3	0	4	
3	1	8	0	0	0	0	1	0	2	0	5	0	4	
2	1	5	1	0	1	1	1	2	1	3	1	4	
3	3	2	9	2	0	2	1	2	5	2	3	2	4	
2	9	8	9	0	9	1	9	5	9	3	9	4	
4	5	1	8	6	5	0	6	1	6	2	6	1	6	0	
2	4	1	1	0	1	1	1	2	1	3	1	4	
2	8	9	9	0	9	1	9	2	9	5	9	4	
3	5	1	3	3	0	3	1	3	5	3	3	3	4	
3	1	8	6	8	0	8	1	8	5	8	3	8	4	
2	1	5	1	0	1	1	1	2	1	1	1	0	
3	8	1	5	1	0	1	1	1	5	1	3	1	4	
4	5	1	8	0	0	0	0	1	0	2	0	3	0	4	
2	3	1	3	0	3	1	3	2	3	5	3	4	
3	7	1	10	7	0	7	1	7	5	7	3	1	4	
2	3	2	2	0	2	1	2	5	2	3	2	4	
2	6	7	7	0	7	1	7	2	7	3	7	4	
3	7	6	8	7	0	7	1	7	2	7	3	7	4	
4	3	1	8	0	3	0	3	1	3	2	3	1	0	0	
3	0	8	9	0	0	0	1	0	2	0	3	0	4	
4	2	3	1	10	3	0	3	1	3	2	3	5	3	4	
4	2	1	8	0	0	0	0	1	0	2	0	3	0	4	
3	8	1	3	3	0	3	1	3	2	3	3	3	4	
4	6	8	1	4	6	0	6	1	1	5	1	3	4	4	
2	2	1	1	0	1	1	1	2	1	1	1	0	
3	4	1	8	1	0	1	1	1	5	1	3	1	4	
3	4	1	8	1	0	1	1	1	2	1	3	1	4	
3	4	1	10	1	0	1	1	1	2	1	1	1	0	
3	10	8	6	10	0	10	1	10	2	6	5	6	4	
3	4	1	10	1	0	1	1	1	5	1	3	1	4	
3	10	8	6	10	0	6	1	6	2	6	1	6	0	
3	10	1	5	1	0	1	1	1	2	1	5	1	4	
2	1	2	1	0	1	1	1	2	1	3	1	4	
2	6	0	6	0	6	1	6	2	6	5	6	4	
3	8	6	7	8	0	8	1	8	2	8	5	7	4	
4	6	8	1	4	6	0	4	1	4	2	4	1	4	0	
3	8	1	5	1	0	1	1	1	2	1	1	1	0	
2	9	10	10	0	10	1	10	2	10	1	10	0	
4	2	3	1	7	3	0	3	1	3	2	3	5	3	4	
3	7	1	10	10	0	10	1	10	2	10	1	10	0	
2	2	9	2	0	2	1	2	5	2	3	2	4	
3	6	8	10	6	0	10	1	10	2	10	3	10	4	
3	9	2	4	2	0	2	1	2	2	2	5	2	4	
3	9	10	1	1	0	1	1	1	5	1	3	1	4	
3	0	8	9	0	0	0	1	0	2	0	5	0	4	
2	6	8	6	0	6	1	6	2	6	3	6	4	
3	10	8	0	0	0	0	1	0	5	0	3	0	4	
4	4	1	8	0	0	0	0	1	0	2	0	1	0	0	
2	8	0	0	0	0	1	0	5	0	3	0	4	
2	0	8	0	0	0	1	0	5	0	3	0	4	
4	7	6	8	9	7	0	7	1	7	2	7	5	7	4	
3	3	1	7	3	0	3	1	3	5	3	3	3	4	
3	10	8	6	6	0	6	1	6	2	6	3	6	4	
3	7	6	0	0	0	0	1	0	2	0	1	0	0	
4	6	8	1	3	3	0	3	1	3	2	3	1	3	0	
3	8	1	4	1	0	1	1	1	2	1	3	1	4	
2	3	2	2	0	2	1	2	2	2	3	2	4	
2	1	7	1	0	1	1	1	2	1	3	1	4	
4	9	8	1	5	9	0	5	1	5	2	5	1	5	0	
2	10	9	10	0	10	1	10	2	10	3	10	4	
3	10	1	7	1	0	1	1	1	2	1	1	1	0	
2	1	2	2	0	2	1	2	2	2	5	2	4	
3	4	2	9	2	0	2	1	2	2	2	1	2	0	
4	6	8	1	3	3	0	3	1	3	2	3	5	3	4	
3	3	1	10	3	0	3	1	3	2	3	3	3	4	
3	7	6	0	0	0	0	1	0	2	0	5	0	4	
2	5	1	1	0	1	1	1	5	1	3	1	4	
4	0	8	1	2	0	0	0	1	0	2	0	3	0	4	
3	4	2	9	2	0	2	1	2	2	2	5	2	4	
2	1	4	1	0	1	1	1	5	1	3	1	4	
2	1	7	1	0	1	1	1	2	1	1	1	0	
3	4	1	5	5	0	5	1	5	2	5	5	5	4	
4	2	1	8	0	0	0	0	1	0	2	0	5	0	4	
4	1	3	1	10	3	0	3	1	3	2	3	5	3	4	
3	0	8	10	0	0	0	1	0	2	0	3	0	4	
2	1	10	1	0	1	1	1	2	1	3	1	4	
2	9	2	2	0	2	1	2	5	2	3	2	4	
2	7	5	7	0	7	1	7	5	7	3	7	4	
2	8	1	1	0	1	1	1	2	1	3	1	4	
2	2	3	2	0	2	1	2	2	2	1	2	0	
4	3	1	8	0	3	0	3	1	3	5	3	3	0	4	
2	2	3	2	0	2	1	2	5	2	3	2	4	
3	0	8	9	0	0	0	1	0	2	0	1	0	0	
5	10	1	3	1	7	3	0	3	1	3	2	3	5	3	4	
2	1	7	7	0	7	1	7	2	7	5	7	4	
2	1	4	1	0	1	1	1	2	1	3	1	4	
3	5	1	4	1	0	1	1	1	2	1	5	1	4	
4	5	1	8	9	5	0	5	1	5	2	5	3	1	4	
4	2	3	1	5	3	0	3	1	3	2	3	5	3	4	
4	0	8	1	3	0	0	3	1	3	2	3	3	3	4	
3	3	1	7	3	0	3	1	3	2	3	3	3	4	
4	6	8	1	2	6	0	6	1	6	2	2	5	2	4	
3	1	8	6	1	0	1	1	1	2	1	1	1	0	
4	9	8	1	5	9	0	9	1	9	2	5	3	5	4	
2	5	1	1	0	1	1	1	2	1	1	1	0	
4	3	1	8	0	3	0	3	1	3	2	3	5	0	4	
3	1	10	9	1	0	1	1	1	5	1	3	1	4	
3	8	1	2	1	0	1	1	1	5	1	3	1	4	
3	6	8	10	6	0	6	1	6	2	8	5	10	4	
3	0	6	7	7	0	7	1	7	2	7	5	7	4	
2	4	2	2	0	2	1	2	2	2	5	2	4	
3	9	2	3	2	0	2	1	2	2	2	1	2	0	
3	0	8	10	0	0	0	1	0	2	0	1	0	0	
4	2	1	8	0	0	0	0	1	0	2	0	1	0	0	
3	10	1	4	1	0	1	1	1	2	1	3	1	4	
3	8	1	2	1	0	1	1	1	2	1	3	1	4	
2	7	6	7	0	7	1	7	2	7	5	7	4	
3	2	1	5	1	0	1	1	1	2	1	3	1	4	
3	10	1	5	1	0	1	1	1	2	1	1	1	0	
2	9	10	10	0	10	1	10	2	10	5	10	4	
3	5	1	3	3	0	3	1	3	2	3	5	3	4	
3	3	1	10	3	0	3	1	3	2	3	1	3	0	
2	8	10	8	0	8	1	8	2	10	3	10	4	
2	7	1	7	0	7	1	1	2	1	3	1	4	
2	10	9	10	0	10	1	10	5	10	3	10	4	
2	9	10	10	0	10	1	10	2	10	3	10	4	
3	1	3	2	3	0	3	1	3	5	3	3	3	4	
3	2	1	8	1	0	1	1	1	5	1	3	1	4	
4	6	8	1	5	6	0	6	1	6	2	8	5	8	4	
3	7	6	8	7	0	7	1	7	5	7	3	6	4	
3	5	1	2	1	0	1	1	1	2	1	1	1	0	
5	8	0	8	1	5	0	0	0	1	0	2	0	5	0	4	
2	9	2	2	0	2	1	2	2	2	3	2	4	
3	3	2	9	2	0	2	1	2	2	2	3	2	4	
2	8	0	0	0	0	1	0	2	0	5	0	4	
4	0	8	1	4	0	0	0	1	0	2	0	1	0	0	
4	5	1	8	0	0	0	0	1	0	2	0	5	0	4	
