7608.51171414	2908.51171414	4700
0	3	1	10	9	9	9	9	9	9
1	3	3	1	5	1	5	5	5	5
2	3	7	1	3	7	3	3	3	3
3	4	9	10	1	3	3	3	3	3	3
4	3	10	1	7	1	7	7	7	7
5	4	3	1	8	6	6	6	6	6	6
6	3	4	1	7	4	4	4	4	7
7	2	1	8	8	8	8	8	8
8	3	7	1	4	1	4	4	4	4
9	4	0	8	1	2	0	0	0	0	0
10	3	7	1	3	1	3	3	3	3
11	3	5	1	10	5	10	10	10	10
12	3	5	1	2	1	2	2	2	2
13	2	8	1	1	1	1	1	1
14	3	8	1	7	7	7	7	7	7
15	3	6	8	0	6	0	0	0	0
16	3	2	1	5	2	5	5	5	5
17	3	7	1	5	1	5	5	5	5
18	3	5	1	7	1	7	7	7	7
19	2	8	9	8	8	8	8	8
20	3	4	1	10	4	10	10	10	10
21	3	5	1	10	1	10	10	10	10
22	3	8	1	10	10	10	10	10	10
23	2	10	1	1	1	1	1	1
24	4	0	8	1	5	0	0	0	0	0
25	3	3	1	2	1	2	2	2	2
26	2	1	7	7	7	7	7	7
27	3	8	1	4	4	4	4	4	4
28	3	2	1	10	2	10	10	10	10
29	3	2	1	3	1	3	3	3	3
30	2	4	1	1	1	1	1	1
31	4	9	10	1	3	3	3	3	3	3
32	4	0	8	1	3	0	0	0	0	0
33	3	10	1	2	1	2	2	2	2
34	3	7	1	4	1	4	4	4	4
35	4	6	8	1	3	6	6	6	6	6
36	4	9	10	1	5	5	5	5	5	5
37	4	4	1	8	0	0	0	0	0	0
38	3	2	1	7	1	7	7	7	7
39	2	5	1	1	1	1	1	1
40	3	10	1	8	10	10	8	8	8
41	3	3	1	7	3	7	7	7	7
42	4	6	8	1	7	6	6	6	6	6
43	3	3	1	4	3	4	4	4	4
44	3	5	1	8	8	8	8	8	8
45	2	9	8	8	8	8	8	8
46	3	1	8	0	0	0	0	0	0
47	2	1	3	1	3	3	3	3
48	3	2	1	10	1	10	10	10	10
49	2	1	3	1	1	1	1	1
50	3	4	1	7	4	4	4	4	1
51	4	0	8	1	10	0	0	0	0	0
52	3	5	1	8	8	8	8	8	8
53	3	8	1	2	2	2	2	2	2
54	3	6	8	9	6	6	6	6	6
55	3	6	8	0	0	0	0	0	0
56	3	9	8	0	0	0	0	0	0
57	4	5	1	8	6	6	6	6	6	6
58	3	3	1	7	1	7	7	7	7
59	3	9	10	1	9	10	10	1	1
60	3	10	1	5	1	5	5	5	5
61	4	10	1	8	0	0	0	0	0	0
62	2	7	1	1	1	1	1	1
63	3	8	1	7	7	7	7	7	7
64	3	3	1	10	1	10	10	10	10
65	3	3	1	4	3	3	3	1	1
66	3	9	8	6	6	6	6	6	6
67	4	2	1	8	6	6	6	6	6	6
68	3	8	1	5	5	5	5	5	5
69	3	3	1	4	1	4	4	4	4
70	4	7	1	8	6	6	6	6	6	6
71	3	0	8	1	0	0	0	0	0
72	4	6	8	1	2	6	6	6	6	6
73	2	1	2	1	1	1	1	1
74	3	10	1	3	1	3	3	3	3
75	4	10	1	8	6	6	6	6	6	6
76	2	1	3	1	1	1	1	3
77	3	1	8	0	0	0	0	0	0
78	2	1	5	1	1	1	1	1
79	4	4	1	8	6	6	6	6	6	6
80	2	8	6	6	6	6	6	6
81	4	7	1	10	9	9	9	9	9	9
82	2	2	1	1	1	1	1	1
83	3	3	1	10	3	10	10	10	10
84	4	6	8	1	10	6	6	6	6	6
85	3	4	1	3	4	3	3	3	3
86	4	0	8	1	4	0	0	0	0	0
87	3	3	1	8	8	8	8	8	8
88	3	9	8	6	6	6	6	6	6
89	4	10	1	8	0	0	0	0	0	0
90	3	6	8	9	6	6	6	6	6
91	2	3	1	1	1	1	1	1
92	2	1	8	8	8	8	8	8
93	2	3	1	1	1	1	1	1
94	3	4	1	2	1	2	2	2	2
95	2	2	1	2	2	2	2	2
96	2	0	8	0	0	0	0	0
97	3	5	1	8	5	8	8	8	8
98	4	4	1	8	6	6	6	6	6	6
99	4	4	1	10	9	9	9	9	9	9
100	2	0	8	0	0	0	0	0
101	3	8	1	10	10	10	10	10	10
102	3	7	1	2	1	2	2	2	2
103	3	2	1	4	1	4	4	4	4
104	3	5	1	8	8	8	8	8	8
105	2	8	6	8	8	8	8	8
106	4	9	10	1	7	7	7	7	7	7
107	4	3	1	10	9	9	9	9	9	9
108	3	6	8	1	6	6	6	6	6
109	3	7	1	2	1	2	2	2	2
110	3	3	1	8	8	8	8	8	8
111	3	9	8	6	6	6	6	6	6
112	3	5	1	7	5	5	5	7	7
113	2	8	6	6	6	6	6	6
114	3	10	1	2	10	10	10	10	10
115	3	8	1	4	4	4	4	4	4
116	3	10	1	5	10	5	5	5	5
117	4	4	1	8	0	0	0	0	0	0
118	3	6	8	9	6	6	6	6	6
119	3	9	8	0	0	0	0	0	0
120	4	9	10	1	7	7	7	7	7	7
121	3	10	1	3	1	3	3	3	3
122	3	0	8	6	0	0	0	0	6
123	2	6	8	6	6	6	6	6
124	3	4	1	3	1	3	3	3	3
125	2	2	1	1	1	1	1	1
126	4	0	8	1	3	0	0	0	0	0
127	2	1	5	1	1	1	5	5
128	2	4	1	4	4	4	4	4
129	4	7	1	8	0	0	0	0	0	0
130	3	0	8	1	0	0	0	0	0
131	3	10	1	8	10	8	8	8	8
132	3	3	1	5	3	5	5	5	5
133	3	4	1	8	8	8	8	8	8
134	2	1	3	1	1	1	1	1
135	4	5	1	8	6	6	6	6	6	6
136	4	5	1	8	6	6	6	6	6	6
137	4	2	1	10	9	9	9	9	9	9
138	4	9	10	1	7	7	7	7	7	7
139	2	7	1	1	1	1	1	1
140	3	5	1	3	1	3	3	3	3
141	4	0	8	1	5	0	0	0	0	0
142	4	4	1	8	0	0	0	0	0	0
143	4	2	1	8	6	6	6	6	6	6
144	3	7	1	8	8	8	8	8	8
145	2	1	4	1	1	1	1	1
146	4	3	1	8	6	6	6	6	6	6
147	3	2	1	3	2	2	2	2	1
148	3	7	1	10	1	10	10	10	10
149	3	5	1	7	1	7	7	7	7
150	3	4	1	3	1	3	3	3	3
151	3	4	1	5	1	5	5	5	5
152	4	0	8	1	7	0	0	0	0	0
153	3	7	1	2	7	2	2	2	2
154	3	0	8	1	0	0	0	0	0
155	3	2	1	8	2	2	8	8	8
156	3	6	8	0	0	0	0	0	0
157	4	2	1	8	6	6	6	6	6	6
158	3	8	1	4	4	4	4	4	4
159	3	10	1	4	1	4	4	4	4
160	2	9	10	9	9	10	10	10
161	4	6	8	1	3	6	6	6	6	6
162	2	8	6	8	8	8	8	6
163	3	8	1	10	10	10	10	10	10
164	3	5	1	4	1	4	4	4	4
165	3	10	1	7	10	7	7	7	7
166	3	4	1	2	4	2	2	2	2
167	4	9	10	1	4	4	4	4	4	4
168	3	5	1	2	1	2	2	2	2
169	3	4	1	3	1	3	3	3	3
170	4	0	8	1	2	0	0	0	0	0
171	4	9	10	1	5	5	5	5	5	5
172	2	10	1	1	1	1	1	1
173	3	7	1	5	1	5	5	5	5
174	2	4	1	1	1	1	1	1
175	2	10	9	10	10	9	9	9
176	3	7	1	8	8	8	8	8	8
177	4	5	1	10	9	9	9	9	9	9
178	4	6	8	1	5	6	6	6	6	6
179	3	2	1	8	8	8	8	8	8
180	3	3	1	2	1	2	2	2	2
181	3	9	8	0	0	0	0	0	0
182	3	10	1	4	1	4	4	4	4
183	4	5	1	10	9	9	9	9	9	9
184	3	3	1	8	3	3	8	8	8
185	4	0	8	1	5	0	0	0	0	0
186	3	5	1	4	5	4	4	4	4
187	2	8	9	8	8	8	8	9
188	3	3	1	8	3	8	8	8	8
189	3	7	1	2	1	2	2	2	2
190	3	8	1	3	3	3	3	3	3
191	4	6	8	1	4	6	6	6	6	6
192	3	0	8	1	0	0	0	0	0
193	3	7	1	10	1	10	10	10	10
194	4	4	1	8	6	6	6	6	6	6
195	3	4	1	2	1	2	2	2	2
196	2	8	1	8	8	8	8	8
197	2	5	1	1	1	1	1	1
198	3	4	1	7	1	7	7	7	7
199	4	9	10	1	3	3	3	3	3	3
200	4	7	1	10	9	9	9	9	9	9
201	2	1	10	10	10	10	10	10
202	3	4	1	10	1	10	10	10	10
203	4	7	1	8	6	6	6	6	6	6
204	3	1	10	9	9	9	9	9	9
205	4	2	1	8	0	0	0	0	0	0
206	3	3	1	5	1	5	5	5	5
207	3	5	1	10	1	10	10	10	10
208	4	6	8	1	5	6	6	6	6	6
209	2	1	4	1	1	1	1	4
210	3	3	1	5	3	5	5	5	5
211	4	7	1	8	0	0	0	0	0	0
212	3	8	1	2	2	2	2	2	2
213	3	3	1	4	3	3	4	4	4
214	3	4	1	5	4	4	4	4	5
215	3	10	1	3	1	3	3	3	3
216	3	2	1	10	1	10	10	10	10
217	3	5	1	7	1	7	7	7	7
218	3	2	1	8	8	8	8	8	8
219	4	6	8	1	5	6	6	6	6	6
220	4	2	1	8	6	6	6	6	6	6
221	2	9	8	8	8	8	8	8
222	4	0	8	1	4	0	0	0	0	0
223	3	4	1	7	4	7	7	7	7
224	2	6	8	6	6	6	6	6
225	3	2	1	5	1	5	5	5	5
226	2	10	1	10	10	10	10	10
227	4	0	8	1	7	0	0	0	0	0
228	2	8	1	1	1	1	1	1
229	3	5	1	4	5	4	4	4	4
230	3	1	10	9	9	9	9	9	9
231	4	9	10	1	4	4	4	4	4	4
232	3	10	1	2	1	2	2	2	2
233	3	5	1	10	1	10	10	10	10
234	2	10	9	10	10	9	9	9
235	2	3	1	1	1	1	1	1
236	3	1	8	6	6	6	6	6	6
237	3	9	8	6	6	6	6	6	6
238	3	2	1	4	1	4	4	4	4
239	4	9	10	1	2	2	2	2	2	2
240	3	1	8	0	0	0	0	0	0
241	4	0	8	1	10	0	0	0	0	0
242	3	4	1	8	4	4	4	4	4
243	3	10	1	4	10	4	4	4	4
244	4	6	8	1	4	6	6	6	6	4
245	3	8	1	3	3	3	3	3	3
246	3	5	1	3	1	3	3	3	3
247	3	5	1	2	5	2	2	2	2
248	3	10	1	2	1	2	2	2	2
249	2	6	8	6	6	6	6	6
250	4	5	1	10	9	9	9	9	9	9
251	4	7	1	8	6	6	6	6	6	6
252	3	9	8	0	0	0	0	0	0
253	4	0	8	1	4	0	0	0	0	0
254	2	8	0	0	0	0	0	0
255	3	9	10	1	1	1	1	1	1
256	4	4	1	10	9	9	9	9	9	9
257	2	8	0	0	0	0	0	0
258	3	1	8	6	6	6	6	6	6
259	3	7	1	4	1	4	4	4	4
260	2	9	8	8	8	8	8	8
261	4	6	8	1	7	6	6	6	6	6
262	3	2	1	4	2	2	2	2	4
263	4	3	1	8	6	6	6	6	6	6
264	3	7	1	3	1	3	3	3	3
265	3	10	1	8	8	8	8	8	8
266	4	10	1	8	0	0	0	0	0	0
267	4	7	1	10	9	9	9	9	9	9
268	3	4	1	5	1	5	5	5	5
269	4	6	8	1	7	6	6	6	7	7
270	3	2	1	7	1	7	7	7	7
271	3	0	8	6	6	6	6	6	6
272	3	10	1	3	10	3	3	3	3
273	4	4	1	8	6	6	6	6	6	6
274	2	1	8	8	8	8	8	8
275	3	0	8	9	0	0	0	0	0
276	3	8	1	3	3	3	3	3	3
277	4	6	8	1	10	6	6	6	6	6
278	3	0	8	6	6	6	6	6	6
279	2	8	9	8	8	8	8	8
280	4	6	8	1	2	6	6	6	6	6
281	2	7	1	1	1	1	1	1
282	4	2	1	10	9	9	9	9	9	9
283	3	6	8	1	6	6	6	6	6
284	4	3	1	8	6	6	6	6	6	6
285	4	9	10	1	4	4	4	4	4	4
286	3	10	1	8	8	8	8	8	8
287	4	3	1	10	9	9	9	9	9	9
288	3	2	1	7	2	7	7	7	7
289	3	7	1	3	1	3	3	3	3
290	4	9	10	1	2	10	10	10	10	10
291	4	2	1	10	9	9	9	9	9	9
292	3	8	1	7	7	7	7	7	7
293	4	5	1	8	0	0	0	0	0	0
294	4	0	8	1	7	0	0	0	0	0
295	3	2	1	4	1	4	4	4	4
296	3	0	8	6	0	6	6	6	6
297	3	9	10	1	1	1	1	1	1
298	4	0	8	1	5	0	0	0	0	0
299	2	1	10	1	1	1	1	1
300	3	6	8	9	6	6	6	6	6
301	4	5	1	8	0	0	0	0	0	0
302	2	1	8	8	8	8	8	8
303	4	0	8	1	2	0	0	0	0	0
304	3	7	1	4	7	4	4	4	4
305	2	10	1	1	1	1	1	1
306	4	9	10	1	7	7	7	7	7	7
307	4	0	8	1	3	0	0	0	0	0
308	4	3	1	8	0	0	0	0	0	0
309	4	6	8	1	2	6	6	6	6	6
310	3	7	1	5	1	5	5	5	5
311	3	6	8	1	6	6	6	6	6
312	2	0	8	0	0	0	0	0
313	3	6	8	1	6	6	6	6	6
314	3	1	8	0	0	0	0	0	0
315	2	1	5	1	1	1	1	1
316	4	3	1	10	9	9	9	9	9	9
317	2	9	8	8	8	8	8	8
318	4	5	1	8	6	6	6	6	6	6
319	2	4	1	1	1	1	1	1
320	2	8	9	8	8	8	8	8
321	3	5	1	3	5	3	3	3	3
322	3	1	8	6	6	6	6	6	6
323	2	1	5	1	1	1	1	1
324	3	8	1	5	5	5	5	5	5
325	4	5	1	8	0	0	0	0	0	0
326	2	3	1	3	3	3	3	3
327	3	7	1	10	7	10	10	10	10
328	3	3	1	2	3	2	2	2	2
329	4	6	8	1	7	6	6	6	7	7
330	3	7	1	8	8	8	8	8	8
331	4	3	1	8	0	0	0	0	0	0
332	3	0	8	9	0	0	0	0	0
333	3	2	1	10	1	10	10	10	10
334	4	2	1	8	0	0	0	0	0	0
335	3	8	1	3	3	3	3	3	3
336	4	6	8	1	4	6	6	6	6	6
337	2	2	1	1	1	1	1	1
338	3	4	1	8	4	8	8	8	8
339	3	4	1	8	8	8	8	8	8
340	3	4	1	10	1	10	10	10	10
341	4	10	1	8	6	6	6	6	6	6
342	3	4	1	10	4	10	10	10	10
343	4	10	1	8	6	6	6	6	6	6
344	3	10	1	5	1	5	5	5	5
345	2	1	2	1	1	1	1	1
346	3	6	8	0	6	6	6	6	6
347	3	8	1	7	7	7	7	7	7
348	4	6	8	1	4	6	6	6	6	6
349	3	8	1	5	5	5	5	5	5
350	2	9	10	9	9	10	10	10
351	3	2	1	7	1	7	7	7	7
352	3	7	1	10	1	10	10	10	10
353	4	2	1	10	9	9	9	9	9	9
354	4	6	8	1	10	6	6	6	6	6
355	4	9	10	1	4	4	4	4	4	4
356	3	9	10	1	9	1	1	1	1
357	3	0	8	9	0	0	0	0	0
358	2	6	8	6	6	6	6	6
359	4	10	1	8	0	0	0	0	0	0
360	4	4	1	8	0	0	0	0	0	0
361	2	8	0	0	0	0	0	0
362	2	0	8	0	0	0	0	0
363	4	7	1	10	9	9	9	9	9	9
364	3	3	1	7	3	7	7	7	7
365	4	10	1	8	6	6	6	6	6	6
366	4	7	1	8	0	0	0	0	0	0
367	4	6	8	1	3	6	6	6	6	6
368	3	8	1	4	4	4	4	4	4
369	3	3	1	2	1	2	2	2	2
370	2	1	7	1	1	1	1	1
371	4	9	10	1	5	5	5	5	5	5
372	2	10	9	10	10	9	9	9
373	3	10	1	7	1	7	7	7	7
374	2	1	2	1	1	1	1	1
375	4	4	1	10	9	9	9	9	9	9
376	4	6	8	1	3	6	6	6	6	6
377	3	3	1	10	1	10	10	10	10
378	4	7	1	8	0	0	0	0	0	0
379	2	5	1	5	5	5	5	5
380	4	0	8	1	2	0	0	0	0	0
381	4	4	1	10	9	9	9	9	9	9
382	2	1	4	1	1	1	1	1
383	2	1	7	1	1	1	1	1
384	3	4	1	5	4	4	4	5	5
385	4	2	1	8	0	0	0	0	0	0
386	2	1	10	1	1	1	1	1
387	4	0	8	1	10	0	0	0	0	0
388	2	1	10	10	10	10	10	10
389	4	9	10	1	2	2	2	2	2	2
390	3	7	1	5	7	5	5	5	5
391	2	8	1	1	1	1	1	1
392	3	2	1	3	1	3	3	3	3
393	4	3	1	8	0	0	0	0	0	0
394	3	2	1	3	1	3	3	3	3
395	3	0	8	9	0	0	0	0	0
396	3	10	1	7	1	7	7	7	7
397	2	1	7	7	7	7	7	7
398	2	1	4	1	1	1	1	1
399	3	5	1	4	1	4	4	4	4
400	4	5	1	10	9	9	9	9	9	9
401	3	2	1	5	1	5	5	5	5
402	4	0	8	1	3	0	0	0	0	0
403	3	3	1	7	1	7	7	7	7
404	4	6	8	1	2	6	6	6	2	2
405	3	1	8	6	6	6	6	6	6
406	4	9	10	1	5	5	5	5	5	5
407	2	5	1	1	1	1	1	1
408	4	3	1	8	0	0	0	0	0	0
409	3	1	10	9	9	9	9	9	9
410	3	8	1	2	2	2	2	2	2
411	4	6	8	1	10	6	6	6	6	6
412	4	0	8	1	7	0	0	0	0	0
413	3	4	1	2	4	4	4	4	4
414	4	9	10	1	3	3	3	3	3	3
415	4	0	8	1	10	0	0	0	0	0
416	4	2	1	8	0	0	0	0	0	0
417	3	10	1	4	1	4	4	4	4
418	3	8	1	2	2	2	2	2	2
419	4	7	1	8	6	6	6	6	6	6
420	3	2	1	5	1	5	5	5	5
421	3	10	1	5	1	5	5	5	5
422	2	9	10	9	9	9	9	10
423	3	5	1	3	5	3	3	3	3
424	3	3	1	10	1	10	10	10	10
425	3	8	1	10	1	1	1	1	1
426	2	7	1	1	1	1	1	1
427	2	10	9	10	10	9	9	9
428	2	9	10	9	9	9	9	10
429	2	1	2	1	1	1	1	1
430	3	2	1	8	2	8	8	8	8
431	4	6	8	1	5	6	6	6	6	5
432	3	7	1	8	7	8	8	8	8
433	3	5	1	2	1	2	2	2	2
434	3	8	1	5	5	5	5	5	5
435	4	9	10	1	2	2	2	2	2	2
436	4	3	1	10	9	9	9	9	9	9
437	2	8	0	0	0	0	0	0
438	4	0	8	1	4	0	0	0	0	0
439	4	5	1	8	0	0	0	0	0	0
