5313.29849992	2613.29849992	2700
0	3	1	10	9	1	1	1	9	9
1	3	3	1	5	3	3	3	3	1
2	3	7	1	3	7	3	3	3	3
3	4	9	10	1	3	9	3	3	3	3
4	3	10	1	7	10	10	10	10	10
5	4	3	1	8	6	3	3	3	3	3
6	3	4	1	7	4	4	4	4	4
7	2	1	8	8	8	8	8	8
8	3	7	1	4	4	4	4	4	4
9	4	0	8	1	2	0	0	0	2	2
10	3	7	1	3	3	3	3	3	3
11	3	5	1	10	5	10	10	10	10
12	3	5	1	2	5	5	5	2	2
13	2	8	1	1	1	1	1	1
14	3	8	1	7	8	8	8	8	1
15	3	6	8	0	6	0	0	0	0
16	3	2	1	5	2	5	5	5	5
17	3	7	1	5	7	7	7	7	7
18	3	5	1	7	5	7	7	7	7
19	2	8	9	9	9	9	9	9
20	3	4	1	10	4	10	10	10	10
21	3	5	1	10	5	5	5	10	10
22	3	8	1	10	10	10	10	10	10
23	2	10	1	10	10	10	1	1
24	4	0	8	1	5	0	0	0	0	0
25	3	3	1	2	3	3	2	2	2
26	2	1	7	7	7	7	7	7
27	3	8	1	4	8	8	8	8	1
28	3	2	1	10	2	2	2	2	2
29	3	2	1	3	2	2	2	2	2
30	2	4	1	1	1	1	1	1
31	4	9	10	1	3	9	3	3	3	3
32	4	0	8	1	3	3	3	3	3	3
33	3	10	1	2	10	2	2	2	2
34	3	7	1	4	4	4	4	4	4
35	4	6	8	1	3	6	3	3	3	3
36	4	9	10	1	5	9	9	9	9	9
37	4	4	1	8	0	4	0	0	0	0
38	3	2	1	7	2	2	2	2	2
39	2	5	1	1	1	1	1	1
40	3	10	1	8	10	10	10	10	10
41	3	3	1	7	3	3	3	3	3
42	4	6	8	1	7	6	6	6	6	6
43	3	3	1	4	3	3	3	3	3
44	3	5	1	8	5	5	5	5	5
45	2	9	8	9	9	9	9	8
46	3	1	8	0	1	0	0	0	0
47	2	1	3	3	3	3	3	3
48	3	2	1	10	2	2	2	2	2
49	2	1	3	1	3	3	3	3
50	3	4	1	7	4	4	1	7	7
51	4	0	8	1	10	10	10	10	10	10
52	3	5	1	8	5	5	5	1	1
53	3	8	1	2	8	8	8	2	2
54	3	6	8	9	6	9	9	9	9
55	3	6	8	0	6	6	6	0	0
56	3	9	8	0	9	9	9	9	0
57	4	5	1	8	6	5	5	5	5	6
58	3	3	1	7	3	3	3	3	1
59	3	9	10	1	9	9	9	10	10
60	3	10	1	5	10	10	10	10	10
61	4	10	1	8	0	10	10	10	10	10
62	2	7	1	1	1	1	1	1
63	3	8	1	7	7	7	7	7	7
64	3	3	1	10	3	3	3	3	3
65	3	3	1	4	3	3	3	4	4
66	3	9	8	6	9	9	9	9	9
67	4	2	1	8	6	6	6	6	6	6
68	3	8	1	5	8	8	8	8	8
69	3	3	1	4	3	3	3	3	3
70	4	7	1	8	6	7	7	7	7	6
71	3	0	8	1	0	0	0	0	0
72	4	6	8	1	2	6	6	6	6	6
73	2	1	2	2	2	2	2	2
74	3	10	1	3	10	3	3	3	3
75	4	10	1	8	6	10	6	6	6	6
76	2	1	3	1	1	1	1	3
77	3	1	8	0	1	0	0	0	0
78	2	1	5	1	1	5	5	5
79	4	4	1	8	6	6	6	6	6	6
80	2	8	6	6	6	6	6	6
81	4	7	1	10	9	7	7	7	7	7
82	2	2	1	2	2	2	1	1
83	3	3	1	10	3	3	3	3	3
84	4	6	8	1	10	6	6	6	6	6
85	3	4	1	3	4	3	3	3	3
86	4	0	8	1	4	0	0	0	0	0
87	3	3	1	8	3	3	3	3	3
88	3	9	8	6	9	9	9	6	6
89	4	10	1	8	0	10	10	10	10	10
90	3	6	8	9	6	6	6	9	9
91	2	3	1	3	3	1	1	1
92	2	1	8	1	1	1	1	1
93	2	3	1	3	3	1	1	1
94	3	4	1	2	4	4	4	4	4
95	2	2	1	2	2	1	1	1
96	2	0	8	0	0	0	0	0
97	3	5	1	8	5	5	1	1	1
98	4	4	1	8	6	4	4	4	4	6
99	4	4	1	10	9	4	4	4	4	4
100	2	0	8	0	0	0	0	0
101	3	8	1	10	10	10	10	10	10
102	3	7	1	2	2	2	2	2	2
103	3	2	1	4	2	2	2	2	2
104	3	5	1	8	5	1	1	1	1
105	2	8	6	8	8	8	8	6
106	4	9	10	1	7	9	9	9	9	9
107	4	3	1	10	9	3	3	3	3	3
108	3	6	8	1	6	6	6	6	6
109	3	7	1	2	7	7	7	2	2
110	3	3	1	8	3	3	3	1	1
111	3	9	8	6	9	9	9	6	6
112	3	5	1	7	5	5	5	5	1
113	2	8	6	6	6	6	6	6
114	3	10	1	2	10	10	10	2	2
115	3	8	1	4	8	8	8	4	4
116	3	10	1	5	10	5	5	5	5
117	4	4	1	8	0	4	4	4	4	4
118	3	6	8	9	6	6	6	6	6
119	3	9	8	0	9	9	0	0	0
120	4	9	10	1	7	9	9	9	9	7
121	3	10	1	3	10	3	3	3	3
122	3	0	8	6	0	0	0	0	6
123	2	6	8	6	6	6	6	6
124	3	4	1	3	4	3	3	3	3
125	2	2	1	1	1	1	1	1
126	4	0	8	1	3	0	3	3	3	3
127	2	1	5	1	1	1	1	1
128	2	4	1	4	4	4	4	4
129	4	7	1	8	0	7	7	7	7	0
130	3	0	8	1	0	0	0	0	0
131	3	10	1	8	10	1	1	1	1
132	3	3	1	5	3	3	3	3	3
133	3	4	1	8	4	4	4	4	4
134	2	1	3	1	1	3	3	3
135	4	5	1	8	6	5	5	5	6	6
136	4	5	1	8	6	5	6	6	6	6
137	4	2	1	10	9	9	9	9	9	9
138	4	9	10	1	7	9	9	9	9	9
139	2	7	1	7	7	1	1	1
140	3	5	1	3	3	3	3	3	3
141	4	0	8	1	5	0	5	5	5	5
142	4	4	1	8	0	4	4	4	4	4
143	4	2	1	8	6	6	6	6	6	6
144	3	7	1	8	7	7	7	7	7
145	2	1	4	4	4	4	4	4
146	4	3	1	8	6	3	3	3	3	3
147	3	2	1	3	2	2	2	2	1
148	3	7	1	10	7	7	7	10	10
149	3	5	1	7	5	5	5	5	5
150	3	4	1	3	4	3	3	3	3
151	3	4	1	5	4	4	4	4	4
152	4	0	8	1	7	7	7	7	7	7
153	3	7	1	2	7	2	2	2	2
154	3	0	8	1	0	0	0	0	0
155	3	2	1	8	2	2	2	2	2
156	3	6	8	0	6	0	0	0	0
157	4	2	1	8	6	2	6	6	6	6
158	3	8	1	4	8	8	8	8	8
159	3	10	1	4	10	10	10	10	10
160	2	9	10	9	10	10	10	10
161	4	6	8	1	3	6	3	3	3	3
162	2	8	6	6	6	6	6	6
163	3	8	1	10	8	10	10	10	10
164	3	5	1	4	4	4	4	4	4
165	3	10	1	7	10	10	10	10	10
166	3	4	1	2	4	4	4	4	4
167	4	9	10	1	4	9	9	9	9	4
168	3	5	1	2	5	5	5	5	2
169	3	4	1	3	4	3	3	3	3
170	4	0	8	1	2	2	2	2	2	2
171	4	9	10	1	5	9	9	9	9	9
172	2	10	1	10	10	10	10	1
173	3	7	1	5	7	7	5	5	5
174	2	4	1	4	4	1	1	1
175	2	10	9	9	9	9	9	9
176	3	7	1	8	7	7	7	1	1
177	4	5	1	10	9	5	9	9	9	9
178	4	6	8	1	5	6	6	6	6	6
179	3	2	1	8	2	2	2	2	2
180	3	3	1	2	3	3	3	3	2
181	3	9	8	0	9	9	9	9	9
182	3	10	1	4	10	4	4	4	4
183	4	5	1	10	9	9	9	9	9	9
184	3	3	1	8	3	3	3	3	3
185	4	0	8	1	5	0	0	0	0	0
186	3	5	1	4	5	4	4	4	4
187	2	8	9	8	8	8	8	8
188	3	3	1	8	3	3	3	3	3
189	3	7	1	2	2	2	2	2	2
190	3	8	1	3	3	3	3	3	3
191	4	6	8	1	4	6	6	6	6	6
192	3	0	8	1	0	1	1	1	1
193	3	7	1	10	10	10	10	10	10
194	4	4	1	8	6	4	4	4	4	4
195	3	4	1	2	2	2	2	2	2
196	2	8	1	1	1	1	1	1
197	2	5	1	1	1	1	1	1
198	3	4	1	7	4	7	7	7	7
199	4	9	10	1	3	9	3	3	3	3
200	4	7	1	10	9	7	7	7	7	9
201	2	1	10	1	1	10	10	10
202	3	4	1	10	4	4	4	4	10
203	4	7	1	8	6	6	6	6	6	6
204	3	1	10	9	1	9	9	9	9
205	4	2	1	8	0	2	0	0	0	0
206	3	3	1	5	3	3	3	3	3
207	3	5	1	10	5	5	5	5	10
208	4	6	8	1	5	6	6	6	6	6
209	2	1	4	4	4	4	4	4
210	3	3	1	5	3	3	3	5	5
211	4	7	1	8	0	7	7	7	7	7
212	3	8	1	2	8	8	8	8	8
213	3	3	1	4	3	3	3	3	3
214	3	4	1	5	4	4	4	4	4
215	3	10	1	3	10	3	3	3	3
216	3	2	1	10	2	2	2	2	2
217	3	5	1	7	5	5	5	5	7
218	3	2	1	8	2	2	2	2	2
219	4	6	8	1	5	6	6	6	6	6
220	4	2	1	8	6	2	2	2	2	2
221	2	9	8	9	9	9	9	9
222	4	0	8	1	4	0	0	0	0	0
223	3	4	1	7	4	4	4	4	4
224	2	6	8	6	6	6	6	6
225	3	2	1	5	2	2	2	2	2
226	2	10	1	10	10	10	1	1
227	4	0	8	1	7	0	0	0	0	0
228	2	8	1	1	1	1	1	1
229	3	5	1	4	5	4	4	4	4
230	3	1	10	9	1	1	1	1	1
231	4	9	10	1	4	9	9	9	9	9
232	3	10	1	2	10	10	10	10	10
233	3	5	1	10	5	5	5	5	5
234	2	10	9	10	10	9	9	9
235	2	3	1	3	3	3	1	1
236	3	1	8	6	1	6	6	6	6
237	3	9	8	6	9	6	6	6	6
238	3	2	1	4	2	2	2	2	2
239	4	9	10	1	2	9	2	2	2	2
240	3	1	8	0	1	0	0	0	0
241	4	0	8	1	10	0	10	10	10	10
242	3	4	1	8	4	4	4	4	4
243	3	10	1	4	10	10	10	10	10
244	4	6	8	1	4	6	6	6	6	6
245	3	8	1	3	3	3	3	3	3
246	3	5	1	3	3	3	3	3	3
247	3	5	1	2	5	2	2	2	2
248	3	10	1	2	10	2	2	2	2
249	2	6	8	6	6	6	8	8
250	4	5	1	10	9	9	9	9	9	9
251	4	7	1	8	6	7	7	7	7	7
252	3	9	8	0	9	9	9	0	0
253	4	0	8	1	4	0	4	4	4	4
254	2	8	0	0	0	0	0	0
255	3	9	10	1	1	1	1	1	1
256	4	4	1	10	9	4	9	9	9	9
257	2	8	0	0	0	0	0	0
258	3	1	8	6	1	6	6	6	6
259	3	7	1	4	4	4	4	4	4
260	2	9	8	9	9	9	9	8
261	4	6	8	1	7	6	6	6	6	6
262	3	2	1	4	2	2	2	2	2
263	4	3	1	8	6	3	3	3	3	3
264	3	7	1	3	3	3	3	3	3
265	3	10	1	8	10	1	1	1	1
266	4	10	1	8	0	10	10	10	10	10
267	4	7	1	10	9	9	9	9	9	9
268	3	4	1	5	4	4	4	4	4
269	4	6	8	1	7	6	6	6	6	6
270	3	2	1	7	2	7	7	7	7
271	3	0	8	6	0	0	0	0	0
272	3	10	1	3	10	3	3	3	3
273	4	4	1	8	6	4	6	6	6	6
274	2	1	8	8	8	8	8	8
275	3	0	8	9	0	0	0	0	0
276	3	8	1	3	8	3	3	3	3
277	4	6	8	1	10	6	6	6	6	6
278	3	0	8	6	0	6	6	6	6
279	2	8	9	9	9	9	9	9
280	4	6	8	1	2	6	2	2	2	2
281	2	7	1	7	7	1	1	1
282	4	2	1	10	9	2	2	2	2	2
283	3	6	8	1	6	6	6	6	6
284	4	3	1	8	6	3	3	3	3	3
285	4	9	10	1	4	9	9	9	9	9
286	3	10	1	8	10	10	10	10	10
287	4	3	1	10	9	3	3	3	9	9
288	3	2	1	7	2	2	2	2	2
289	3	7	1	3	3	3	3	3	3
290	4	9	10	1	2	9	10	2	2	2
291	4	2	1	10	9	2	2	2	2	2
292	3	8	1	7	7	7	7	7	7
293	4	5	1	8	0	5	0	0	0	0
294	4	0	8	1	7	0	7	7	7	7
295	3	2	1	4	2	4	4	4	4
296	3	0	8	6	0	0	0	0	6
297	3	9	10	1	9	9	9	9	9
298	4	0	8	1	5	0	0	0	0	0
299	2	1	10	10	10	10	10	10
300	3	6	8	9	6	9	9	9	9
301	4	5	1	8	0	5	0	0	0	0
302	2	1	8	1	1	1	1	8
303	4	0	8	1	2	0	2	2	2	2
304	3	7	1	4	7	4	4	4	4
305	2	10	1	10	10	10	10	10
306	4	9	10	1	7	9	9	7	7	7
307	4	0	8	1	3	0	3	3	3	3
308	4	3	1	8	0	3	3	3	3	3
309	4	6	8	1	2	6	6	6	6	2
310	3	7	1	5	7	7	7	7	7
311	3	6	8	1	6	6	6	6	6
312	2	0	8	0	0	0	0	0
313	3	6	8	1	6	6	6	6	6
314	3	1	8	0	1	0	0	0	0
315	2	1	5	1	1	1	1	5
316	4	3	1	10	9	3	3	3	3	3
317	2	9	8	9	9	8	8	8
318	4	5	1	8	6	5	5	5	5	5
319	2	4	1	1	1	1	1	1
320	2	8	9	9	9	9	9	9
321	3	5	1	3	5	3	3	3	3
322	3	1	8	6	1	6	6	6	6
323	2	1	5	1	1	5	5	5
324	3	8	1	5	8	5	5	5	5
325	4	5	1	8	0	5	0	0	0	0
326	2	3	1	3	3	3	1	1
327	3	7	1	10	7	10	10	10	10
328	3	3	1	2	3	3	3	2	2
329	4	6	8	1	7	6	6	6	6	6
330	3	7	1	8	7	7	7	7	7
331	4	3	1	8	0	3	3	3	3	3
332	3	0	8	9	0	0	0	0	9
333	3	2	1	10	2	2	2	2	2
334	4	2	1	8	0	2	2	2	2	2
335	3	8	1	3	3	3	3	3	3
336	4	6	8	1	4	6	6	6	6	6
337	2	2	1	1	1	1	1	1
338	3	4	1	8	4	4	4	1	1
339	3	4	1	8	4	4	4	4	4
340	3	4	1	10	4	4	4	4	4
341	4	10	1	8	6	10	10	10	10	10
342	3	4	1	10	4	4	4	4	4
343	4	10	1	8	6	10	10	10	10	10
344	3	10	1	5	10	10	10	10	10
345	2	1	2	2	2	2	2	2
346	3	6	8	0	6	6	6	6	6
347	3	8	1	7	8	8	8	8	8
348	4	6	8	1	4	6	6	6	6	6
349	3	8	1	5	5	5	5	5	5
350	2	9	10	9	10	10	10	10
351	3	2	1	7	2	2	2	2	2
352	3	7	1	10	10	10	10	10	10
353	4	2	1	10	9	2	2	2	2	2
354	4	6	8	1	10	6	10	10	10	10
355	4	9	10	1	4	9	4	4	4	4
356	3	9	10	1	9	9	1	1	1
357	3	0	8	9	0	0	0	8	9
358	2	6	8	6	6	6	6	6
359	4	10	1	8	0	10	0	0	0	0
360	4	4	1	8	0	4	0	0	0	0
361	2	8	0	0	0	0	0	0
362	2	0	8	0	0	0	0	0
363	4	7	1	10	9	7	7	7	7	9
364	3	3	1	7	3	3	3	3	3
365	4	10	1	8	6	10	10	6	6	6
366	4	7	1	8	0	7	0	0	0	0
367	4	6	8	1	3	6	3	3	3	3
368	3	8	1	4	4	4	4	4	4
369	3	3	1	2	3	3	3	3	3
370	2	1	7	1	1	7	7	7
371	4	9	10	1	5	9	9	9	9	9
372	2	10	9	10	10	9	9	9
373	3	10	1	7	10	7	7	7	7
374	2	1	2	2	2	2	2	2
375	4	4	1	10	9	9	9	9	9	9
376	4	6	8	1	3	6	3	3	3	3
377	3	3	1	10	3	3	3	3	10
378	4	7	1	8	0	7	7	7	0	0
379	2	5	1	5	5	5	1	1
380	4	0	8	1	2	2	2	2	2	2
381	4	4	1	10	9	4	4	4	4	4
382	2	1	4	4	4	4	4	4
383	2	1	7	1	7	7	7	7
384	3	4	1	5	4	4	4	5	5
385	4	2	1	8	0	2	2	2	2	2
386	2	1	10	10	10	10	10	10
387	4	0	8	1	10	0	10	10	10	10
388	2	1	10	10	10	10	10	10
389	4	9	10	1	2	9	2	2	2	2
390	3	7	1	5	7	7	7	7	7
391	2	8	1	1	1	1	1	1
392	3	2	1	3	2	3	3	3	3
393	4	3	1	8	0	3	3	3	3	3
394	3	2	1	3	2	3	3	3	3
395	3	0	8	9	0	0	0	0	0
396	3	10	1	7	10	10	10	10	10
397	2	1	7	1	1	7	7	7
398	2	1	4	4	4	4	4	4
399	3	5	1	4	5	5	5	4	4
400	4	5	1	10	9	9	9	9	9	9
401	3	2	1	5	2	2	2	2	2
402	4	0	8	1	3	3	3	3	3	3
403	3	3	1	7	3	3	3	7	7
404	4	6	8	1	2	6	2	2	2	2
405	3	1	8	6	1	6	6	6	6
406	4	9	10	1	5	9	9	9	9	9
407	2	5	1	5	5	1	1	1
408	4	3	1	8	0	3	3	3	3	3
409	3	1	10	9	1	9	9	9	9
410	3	8	1	2	8	2	2	2	2
411	4	6	8	1	10	6	6	6	10	10
412	4	0	8	1	7	0	0	0	0	0
413	3	4	1	2	2	2	2	2	2
414	4	9	10	1	3	9	3	3	3	3
415	4	0	8	1	10	10	10	10	10	10
416	4	2	1	8	0	2	0	0	0	0
417	3	10	1	4	10	4	4	4	4
418	3	8	1	2	2	2	2	2	2
419	4	7	1	8	6	6	6	6	6	6
420	3	2	1	5	2	2	2	2	2
421	3	10	1	5	10	5	5	5	5
422	2	9	10	9	10	10	10	10
423	3	5	1	3	5	3	3	3	3
424	3	3	1	10	3	3	3	3	3
425	3	8	1	10	10	10	10	10	10
426	2	7	1	7	1	1	1	1
427	2	10	9	10	10	9	9	9
428	2	9	10	9	9	9	9	9
429	2	1	2	2	2	2	2	2
430	3	2	1	8	2	2	2	2	2
431	4	6	8	1	5	6	6	6	6	6
432	3	7	1	8	7	7	7	7	7
433	3	5	1	2	5	5	5	5	5
434	3	8	1	5	8	8	8	5	5
435	4	9	10	1	2	9	9	9	9	10
436	4	3	1	10	9	3	3	3	3	3
437	2	8	0	8	0	0	0	0
438	4	0	8	1	4	4	4	4	4	4
439	4	5	1	8	0	5	0	0	0	0
