4670.77	-1
-1
12.618	12.6227
11
0	0	8
1	6	8
2	0	8
3	0	8
4	0	8
5	0	8
6	2	8
7	0	8
8	8	8
9	3	8
10	0	8
68
0	6	0	1290.000000	0
0	7	0	60.000000	0
0	8	1165.500000	2340.000000	1
0	9	0	1050.000000	0
1	2	1307.250000	2520.000000	1
1	3	1035.000000	2190.000000	1
1	4	855.000000	1350.000000	1
1	5	765.000000	2160.000000	1
1	7	0	1470.000000	0
1	8	922.500000	3480.000000	1
1	9	0	60.000000	0
1	10	0	2460.000000	0
2	1	780.750000	2520.000000	1
2	3	0	1950.000000	0
2	4	0	1140.000000	0
2	5	0	30.000000	0
2	9	0	1800.000000	0
2	10	0	930.000000	0
3	1	256.500000	2190.000000	1
3	2	0	1950.000000	0
3	4	0	960.000000	0
3	5	0	30.000000	0
4	1	474.750000	1350.000000	1
4	2	0	1140.000000	0
4	3	0	960.000000	0
4	5	0	870.000000	0
4	6	0	60.000000	0
4	7	0	990.000000	0
5	1	279.000000	2160.000000	1
5	2	0	30.000000	0
5	3	0	30.000000	0
5	4	0	870.000000	0
5	7	0	1050.000000	0
5	8	0	30.000000	0
6	0	0	1290.000000	0
6	4	0	60.000000	0
6	7	1575.000000	1920.000000	1
6	8	40.500000	2250.000000	1
6	9	0	30.000000	0
6	10	0	60.000000	0
7	0	0	60.000000	0
7	1	0	1470.000000	0
7	4	0	990.000000	0
7	5	0	1050.000000	0
7	6	22.500000	1920.000000	1
7	8	0	930.000000	0
7	9	0	30.000000	0
7	10	0	30.000000	0
8	0	22.500000	2340.000000	1
8	1	2187.000000	3480.000000	1
8	5	0	30.000000	0
8	6	1980.000000	2250.000000	1
8	7	0	930.000000	0
8	9	1244.250000	2370.000000	1
8	10	0	1470.000000	0
9	0	0	1050.000000	0
9	1	0	60.000000	0
9	2	0	1800.000000	0
9	6	0	30.000000	0
9	7	0	30.000000	0
9	8	1298.250000	2370.000000	1
9	10	1197.000000	3300.000000	1
10	1	0	2460.000000	0
10	2	0	930.000000	0
10	6	0	60.000000	0
10	7	0	30.000000	0
10	8	0	1470.000000	0
10	9	839.250000	3300.000000	1
440
3	1	8	9	8	0	8	1	8	2	8	5	8	4	
3	3	1	5	1	0	1	1	1	2	1	5	1	4	
5	7	6	8	1	3	8	0	8	1	8	5	8	3	8	4	
4	9	8	1	3	8	0	8	1	8	2	8	5	8	4	
5	10	9	8	6	7	8	0	8	1	8	2	8	3	8	4	
4	3	1	8	6	8	0	8	1	8	5	8	3	8	4	
5	4	1	8	6	7	8	0	8	1	8	2	8	5	8	4	
2	1	8	8	0	8	1	8	2	8	1	8	0	
5	7	6	8	1	4	8	0	8	1	8	2	8	3	8	4	
4	0	8	1	2	8	0	8	1	8	2	8	5	8	4	
5	7	6	8	1	3	8	0	8	1	8	2	8	1	8	0	
5	5	1	8	9	10	8	0	8	1	8	5	8	3	8	4	
3	5	1	2	1	0	1	1	1	2	1	5	1	4	
2	8	1	8	0	8	1	8	2	8	1	8	0	
3	8	6	7	8	0	8	1	8	2	8	3	8	4	
3	6	8	0	8	0	8	1	8	5	8	3	8	4	
3	2	1	5	1	0	1	1	1	5	1	3	1	4	
5	7	6	8	1	5	8	0	8	1	8	2	8	5	8	4	
5	5	1	8	6	7	8	0	8	1	8	2	8	1	8	0	
2	8	9	8	0	8	1	8	5	8	3	8	4	
5	4	1	8	9	10	8	0	8	1	8	2	8	5	8	4	
5	5	1	8	9	10	8	0	8	1	8	2	8	5	8	4	
3	8	9	10	8	0	8	1	8	2	8	1	8	0	
4	10	9	8	1	8	0	8	1	8	2	8	5	8	4	
4	0	8	1	5	8	0	8	1	8	2	8	3	8	4	
3	3	1	2	1	0	1	1	1	2	1	5	1	4	
4	1	8	6	7	8	0	8	1	8	5	8	3	8	4	
3	8	1	4	8	0	8	1	8	5	8	3	8	4	
5	2	1	8	9	10	8	0	8	1	8	5	8	3	8	4	
3	2	1	3	1	0	1	1	1	2	1	5	1	4	
2	4	1	1	0	1	1	1	5	1	3	1	4	
4	9	8	1	3	8	0	8	1	8	2	8	3	8	4	
4	0	8	1	3	8	0	8	1	8	2	8	1	8	0	
5	10	9	8	1	2	8	0	8	1	8	2	8	3	8	4	
5	7	6	8	1	4	8	0	8	1	8	2	8	1	8	0	
4	6	8	1	3	8	0	8	1	8	2	8	3	8	4	
4	9	8	1	5	8	0	8	1	8	5	8	3	8	4	
4	4	1	8	0	8	0	8	1	8	2	8	5	8	4	
5	2	1	8	6	7	8	0	8	1	8	2	8	3	8	4	
2	5	1	1	0	1	1	1	2	1	5	1	4	
3	10	9	8	8	0	8	1	8	2	8	5	8	4	
5	3	1	8	6	7	8	0	8	1	8	2	8	1	8	0	
2	6	7	6	0	6	1	6	5	6	3	6	4	
3	3	1	4	1	0	1	1	1	2	1	1	1	0	
3	5	1	8	8	0	8	1	8	2	8	1	8	0	
2	9	8	8	0	8	1	8	2	8	5	8	4	
3	1	8	0	8	0	8	1	8	5	8	3	8	4	
2	1	3	1	0	1	1	1	2	1	1	1	0	
5	2	1	8	9	10	8	0	8	1	8	2	8	1	8	0	
2	1	3	1	0	1	1	1	2	1	3	1	4	
5	4	1	8	6	7	8	0	8	1	8	2	8	3	8	4	
4	0	8	9	10	8	0	8	1	8	2	8	5	8	4	
3	5	1	8	8	0	8	1	8	2	8	5	8	4	
3	8	1	2	8	0	8	1	8	2	8	5	8	4	
3	6	8	9	8	0	8	1	8	2	8	3	8	4	
3	6	8	0	8	0	8	1	8	2	8	1	8	0	
3	9	8	0	8	0	8	1	8	2	8	3	8	4	
4	5	1	8	6	8	0	8	1	8	2	8	3	8	4	
5	3	1	8	6	7	8	0	8	1	8	2	8	5	8	4	
3	9	8	1	8	0	8	1	8	2	8	5	8	4	
5	10	9	8	1	5	8	0	8	1	8	2	8	3	8	4	
4	10	9	8	0	8	0	8	1	8	2	8	1	8	0	
4	7	6	8	1	8	0	8	1	8	2	8	1	8	0	
3	8	6	7	8	0	8	1	8	5	8	3	8	4	
5	3	1	8	9	10	8	0	8	1	8	2	8	5	8	4	
3	3	1	4	1	0	1	1	1	2	1	5	1	4	
3	9	8	6	8	0	8	1	8	5	8	3	8	4	
4	2	1	8	6	8	0	8	1	8	2	8	3	8	4	
3	8	1	5	8	0	8	1	8	2	8	3	8	4	
3	3	1	4	1	0	1	1	1	5	1	3	1	4	
2	7	6	6	0	6	1	6	2	6	3	6	4	
3	0	8	1	8	0	8	1	8	5	8	3	8	4	
4	6	8	1	2	8	0	8	1	8	5	8	3	8	4	
2	1	2	1	0	1	1	1	2	1	1	1	0	
5	10	9	8	1	3	8	0	8	1	8	2	8	5	8	4	
4	10	9	8	6	8	0	8	1	8	5	8	3	8	4	
2	1	3	1	0	1	1	1	2	1	5	1	4	
3	1	8	0	8	0	8	1	8	2	8	3	8	4	
2	1	5	1	0	1	1	1	5	1	3	1	4	
4	4	1	8	6	8	0	8	1	8	2	8	3	8	4	
2	8	6	8	0	8	1	8	5	8	3	8	4	
4	7	6	8	9	8	0	8	1	8	5	8	3	8	4	
2	2	1	1	0	1	1	1	2	1	5	1	4	
5	3	1	8	9	10	8	0	8	1	8	5	8	3	8	4	
4	6	8	9	10	8	0	8	1	8	2	8	1	8	0	
3	4	1	3	1	0	1	1	1	5	1	3	1	4	
4	0	8	1	4	8	0	8	1	8	2	8	5	8	4	
3	3	1	8	8	0	8	1	8	2	8	3	8	4	
3	9	8	6	8	0	8	1	8	2	8	5	8	4	
4	10	9	8	0	8	0	8	1	8	2	8	3	8	4	
3	6	8	9	8	0	8	1	8	2	8	1	8	0	
2	3	1	1	0	1	1	1	2	1	1	1	0	
2	1	8	8	0	8	1	8	2	8	5	8	4	
2	3	1	1	0	1	1	1	5	1	3	1	4	
3	4	1	2	1	0	1	1	1	2	1	1	1	0	
2	2	1	1	0	1	1	1	2	1	3	1	4	
2	0	8	8	0	8	1	8	2	8	3	8	4	
3	5	1	8	8	0	8	1	8	5	8	3	8	4	
4	4	1	8	6	8	0	8	1	8	2	8	5	8	4	
4	4	1	8	9	8	0	8	1	8	2	8	3	8	4	
2	0	8	8	0	8	1	8	2	8	1	8	0	
3	8	9	10	8	0	8	1	8	2	8	5	8	4	
5	7	6	8	1	2	8	0	8	1	8	2	8	1	8	0	
3	2	1	4	1	0	1	1	1	5	1	3	1	4	
3	5	1	8	8	0	8	1	8	2	8	3	8	4	
2	8	6	8	0	8	1	8	2	8	3	8	4	
4	9	8	6	7	8	0	8	1	8	2	8	1	8	0	
4	3	1	8	9	8	0	8	1	8	2	8	5	8	4	
3	6	8	1	8	0	8	1	8	2	8	5	8	4	
5	7	6	8	1	2	8	0	8	1	8	2	8	5	8	4	
3	3	1	8	8	0	8	1	8	2	8	1	8	0	
3	9	8	6	8	0	8	1	8	2	8	3	8	4	
5	5	1	8	6	7	8	0	8	1	8	2	8	5	8	4	
2	8	6	8	0	8	1	8	2	8	1	8	0	
5	10	9	8	1	2	8	0	8	1	8	2	8	5	8	4	
3	8	1	4	8	0	8	1	8	2	8	5	8	4	
5	10	9	8	1	5	8	0	8	1	8	5	8	3	8	4	
4	4	1	8	0	8	0	8	1	8	5	8	3	8	4	
3	6	8	9	8	0	8	1	8	5	8	3	8	4	
3	9	8	0	8	0	8	1	8	5	8	3	8	4	
4	9	8	6	7	8	0	8	1	8	2	8	5	8	4	
5	10	9	8	1	3	8	0	8	1	8	2	8	3	8	4	
3	0	8	6	8	0	8	1	8	2	8	5	8	4	
2	6	8	8	0	8	1	8	2	8	5	8	4	
3	4	1	3	1	0	1	1	1	2	1	1	1	0	
2	2	1	1	0	1	1	1	5	1	3	1	4	
4	0	8	1	3	8	0	8	1	8	5	8	3	8	4	
2	1	5	1	0	1	1	1	2	1	5	1	4	
2	4	1	1	0	1	1	1	2	1	5	1	4	
4	7	6	8	0	8	0	8	1	8	2	8	3	8	4	
3	0	8	1	8	0	8	1	8	2	8	3	8	4	
3	10	9	8	8	0	8	1	8	5	8	3	8	4	
3	3	1	5	1	0	1	1	1	2	1	3	1	4	
3	4	1	8	8	0	8	1	8	2	8	1	8	0	
2	1	3	1	0	1	1	1	5	1	3	1	4	
4	5	1	8	6	8	0	8	1	8	2	8	5	8	4	
4	5	1	8	6	8	0	8	1	8	5	8	3	8	4	
4	2	1	8	9	8	0	8	1	8	2	8	1	8	0	
4	9	8	6	7	8	0	8	1	8	2	8	3	8	4	
4	7	6	8	1	8	0	8	1	8	2	8	5	8	4	
3	5	1	3	1	0	1	1	1	2	1	1	1	0	
4	0	8	1	5	8	0	8	1	8	5	8	3	8	4	
4	4	1	8	0	8	0	8	1	8	2	8	3	8	4	
4	2	1	8	6	8	0	8	1	8	2	8	1	8	0	
3	7	6	8	8	0	8	1	8	2	8	1	8	0	
2	1	4	1	0	1	1	1	2	1	1	1	0	
4	3	1	8	6	8	0	8	1	8	2	8	5	8	4	
3	2	1	3	1	0	1	1	1	2	1	3	1	4	
5	7	6	8	9	10	8	0	8	1	8	2	8	5	8	4	
5	5	1	8	6	7	8	0	8	1	8	2	8	3	8	4	
3	4	1	3	1	0	1	1	1	2	1	5	1	4	
3	4	1	5	1	0	1	1	1	5	1	3	1	4	
4	0	8	6	7	8	0	8	1	8	2	8	1	8	0	
5	7	6	8	1	2	8	0	8	1	8	5	8	3	8	4	
3	0	8	1	8	0	8	1	8	2	8	5	8	4	
3	2	1	8	8	0	8	1	8	2	8	5	8	4	
3	6	8	0	8	0	8	1	8	2	8	3	8	4	
4	2	1	8	6	8	0	8	1	8	5	8	3	8	4	
3	8	1	4	8	0	8	1	8	2	8	1	8	0	
5	10	9	8	1	4	8	0	8	1	8	2	8	5	8	4	
2	9	10	9	0	9	1	9	5	9	3	9	4	
4	6	8	1	3	8	0	8	1	8	5	8	3	8	4	
2	8	6	8	0	8	1	8	2	8	5	8	4	
3	8	9	10	8	0	8	1	8	5	8	3	8	4	
3	5	1	4	1	0	1	1	1	2	1	1	1	0	
5	10	9	8	6	7	8	0	8	1	8	5	8	3	8	4	
3	4	1	2	1	0	1	1	1	5	1	3	1	4	
4	9	8	1	4	8	0	8	1	8	2	8	3	8	4	
3	5	1	2	1	0	1	1	1	2	1	3	1	4	
3	4	1	3	1	0	1	1	1	2	1	3	1	4	
4	0	8	1	2	8	0	8	1	8	2	8	1	8	0	
4	9	8	1	5	8	0	8	1	8	2	8	5	8	4	
4	10	9	8	1	8	0	8	1	8	2	8	3	8	4	
5	7	6	8	1	5	8	0	8	1	8	2	8	1	8	0	
2	4	1	1	0	1	1	1	2	1	1	1	0	
2	10	9	9	0	9	1	9	2	9	1	9	0	
3	7	6	8	8	0	8	1	8	2	8	5	8	4	
4	5	1	8	9	8	0	8	1	8	5	8	3	8	4	
4	6	8	1	5	8	0	8	1	8	2	8	3	8	4	
3	2	1	8	8	0	8	1	8	2	8	3	8	4	
3	3	1	2	1	0	1	1	1	2	1	1	1	0	
3	9	8	0	8	0	8	1	8	2	8	1	8	0	
5	10	9	8	1	4	8	0	8	1	8	2	8	1	8	0	
4	5	1	8	9	8	0	8	1	8	2	8	1	8	0	
3	3	1	8	8	0	8	1	8	2	8	5	8	4	
4	0	8	1	5	8	0	8	1	8	2	8	5	8	4	
3	5	1	4	1	0	1	1	1	5	1	3	1	4	
2	8	9	8	0	8	1	8	2	8	3	8	4	
3	3	1	8	8	0	8	1	8	5	8	3	8	4	
5	7	6	8	1	2	8	0	8	1	8	2	8	3	8	4	
3	8	1	3	8	0	8	1	8	2	8	1	8	0	
4	6	8	1	4	8	0	8	1	8	2	8	3	8	4	
3	0	8	1	8	0	8	1	8	2	8	1	8	0	
5	7	6	8	9	10	8	0	8	1	8	2	8	3	8	4	
4	4	1	8	6	8	0	8	1	8	2	8	1	8	0	
3	4	1	2	1	0	1	1	1	2	1	3	1	4	
2	8	1	8	0	8	1	8	2	8	5	8	4	
2	5	1	1	0	1	1	1	2	1	3	1	4	
5	4	1	8	6	7	8	0	8	1	8	5	8	3	8	4	
4	9	8	1	3	8	0	8	1	8	5	8	3	8	4	
4	7	6	8	9	8	0	8	1	8	2	8	3	8	4	
4	1	8	9	10	8	0	8	1	8	5	8	3	8	4	
5	4	1	8	9	10	8	0	8	1	8	2	8	3	8	4	
2	7	6	6	0	6	1	6	2	6	1	6	0	
3	1	8	9	8	0	8	1	8	2	8	1	8	0	
4	2	1	8	0	8	0	8	1	8	5	8	3	8	4	
3	3	1	5	1	0	1	1	1	2	1	1	1	0	
5	5	1	8	9	10	8	0	8	1	8	2	8	3	8	4	
4	6	8	1	5	8	0	8	1	8	5	8	3	8	4	
2	1	4	1	0	1	1	1	2	1	5	1	4	
3	3	1	5	1	0	1	1	1	5	1	3	1	4	
4	7	6	8	0	8	0	8	1	8	5	8	3	8	4	
3	8	1	2	8	0	8	1	8	2	8	1	8	0	
3	3	1	4	1	0	1	1	1	2	1	3	1	4	
3	4	1	5	1	0	1	1	1	2	1	3	1	4	
5	10	9	8	1	3	8	0	8	1	8	2	8	1	8	0	
5	2	1	8	9	10	8	0	8	1	8	2	8	3	8	4	
5	5	1	8	6	7	8	0	8	1	8	5	8	3	8	4	
3	2	1	8	8	0	8	1	8	2	8	1	8	0	
4	6	8	1	5	8	0	8	1	8	2	8	1	8	0	
4	2	1	8	6	8	0	8	1	8	2	8	5	8	4	
2	9	8	8	0	8	1	8	2	8	1	8	0	
4	0	8	1	4	8	0	8	1	8	2	8	3	8	4	
5	4	1	8	6	7	8	0	8	1	8	2	8	1	8	0	
2	6	8	8	0	8	1	8	2	8	1	8	0	
3	2	1	5	1	0	1	1	1	2	1	1	1	0	
4	10	9	8	1	8	0	8	1	8	5	8	3	8	4	
4	0	8	6	7	8	0	8	1	8	5	8	3	8	4	
2	8	1	8	0	8	1	8	5	8	3	8	4	
3	5	1	4	1	0	1	1	1	2	1	3	1	4	
3	1	8	9	8	0	8	1	8	2	8	3	8	4	
4	9	8	1	4	8	0	8	1	8	5	8	3	8	4	
5	10	9	8	1	2	8	0	8	1	8	2	8	1	8	0	
5	5	1	8	9	10	8	0	8	1	8	2	8	1	8	0	
2	10	9	9	0	9	1	9	2	9	5	9	4	
2	3	1	1	0	1	1	1	2	1	3	1	4	
3	1	8	6	8	0	8	1	8	2	8	3	8	4	
3	9	8	6	8	0	8	1	8	2	8	1	8	0	
3	2	1	4	1	0	1	1	1	2	1	3	1	4	
4	9	8	1	2	8	0	8	1	8	2	8	1	8	0	
3	1	8	0	8	0	8	1	8	2	8	1	8	0	
4	0	8	9	10	8	0	8	1	8	5	8	3	8	4	
3	4	1	8	8	0	8	1	8	2	8	5	8	4	
5	10	9	8	1	4	8	0	8	1	8	5	8	3	8	4	
4	6	8	1	4	8	0	8	1	8	2	8	5	8	4	
3	8	1	3	8	0	8	1	8	2	8	5	8	4	
3	5	1	3	1	0	1	1	1	2	1	3	1	4	
3	5	1	2	1	0	1	1	1	5	1	3	1	4	
5	10	9	8	1	2	8	0	8	1	8	5	8	3	8	4	
2	6	8	8	0	8	1	8	5	8	3	8	4	
4	5	1	8	9	8	0	8	1	8	2	8	5	8	4	
2	7	6	6	0	6	1	6	5	6	3	6	4	
3	9	8	0	8	0	8	1	8	2	8	5	8	4	
4	0	8	1	4	8	0	8	1	8	5	8	3	8	4	
2	8	0	8	0	8	1	8	2	8	3	8	4	
3	9	8	1	8	0	8	1	8	2	8	1	8	0	
4	4	1	8	9	8	0	8	1	8	5	8	3	8	4	
2	8	0	8	0	8	1	8	2	8	1	8	0	
3	1	8	6	8	0	8	1	8	2	8	5	8	4	
5	7	6	8	1	4	8	0	8	1	8	2	8	5	8	4	
2	9	8	8	0	8	1	8	2	8	3	8	4	
2	6	7	6	0	6	1	6	2	6	1	6	0	
3	2	1	4	1	0	1	1	1	2	1	5	1	4	
4	3	1	8	6	8	0	8	1	8	2	8	3	8	4	
5	7	6	8	1	3	8	0	8	1	8	2	8	3	8	4	
3	10	9	8	8	0	8	1	8	2	8	1	8	0	
4	10	9	8	0	8	0	8	1	8	2	8	5	8	4	
4	7	6	8	9	8	0	8	1	8	2	8	1	8	0	
3	4	1	5	1	0	1	1	1	2	1	1	1	0	
2	6	7	6	0	6	1	6	2	6	5	6	4	
5	2	1	8	6	7	8	0	8	1	8	2	8	1	8	0	
3	0	8	6	8	0	8	1	8	2	8	3	8	4	
5	10	9	8	1	3	8	0	8	1	8	5	8	3	8	4	
4	4	1	8	6	8	0	8	1	8	5	8	3	8	4	
2	1	8	8	0	8	1	8	5	8	3	8	4	
3	0	8	9	8	0	8	1	8	5	8	3	8	4	
3	8	1	3	8	0	8	1	8	5	8	3	8	4	
4	6	8	9	10	8	0	8	1	8	5	8	3	8	4	
3	0	8	6	8	0	8	1	8	2	8	1	8	0	
2	8	9	8	0	8	1	8	2	8	1	8	0	
4	6	8	1	2	8	0	8	1	8	2	8	1	8	0	
4	7	6	8	1	8	0	8	1	8	5	8	3	8	4	
4	2	1	8	9	8	0	8	1	8	2	8	5	8	4	
3	6	8	1	8	0	8	1	8	2	8	3	8	4	
4	3	1	8	6	8	0	8	1	8	2	8	1	8	0	
4	9	8	1	4	8	0	8	1	8	2	8	1	8	0	
3	10	9	8	8	0	8	1	8	2	8	3	8	4	
4	3	1	8	9	8	0	8	1	8	2	8	1	8	0	
5	2	1	8	6	7	8	0	8	1	8	5	8	3	8	4	
5	7	6	8	1	3	8	0	8	1	8	2	8	5	8	4	
4	9	8	1	2	8	0	8	1	8	2	8	5	8	4	
4	2	1	8	9	8	0	8	1	8	2	8	3	8	4	
3	8	6	7	8	0	8	1	8	2	8	1	8	0	
4	5	1	8	0	8	0	8	1	8	5	8	3	8	4	
4	0	8	6	7	8	0	8	1	8	2	8	3	8	4	
3	2	1	4	1	0	1	1	1	2	1	1	1	0	
3	0	8	6	8	0	8	1	8	5	8	3	8	4	
3	9	8	1	8	0	8	1	8	2	8	3	8	4	
4	0	8	1	5	8	0	8	1	8	2	8	1	8	0	
4	1	8	9	10	8	0	8	1	8	2	8	1	8	0	
3	6	8	9	8	0	8	1	8	2	8	5	8	4	
4	5	1	8	0	8	0	8	1	8	2	8	1	8	0	
2	1	8	8	0	8	1	8	2	8	3	8	4	
4	0	8	1	2	8	0	8	1	8	5	8	3	8	4	
5	7	6	8	1	4	8	0	8	1	8	5	8	3	8	4	
4	10	9	8	1	8	0	8	1	8	2	8	1	8	0	
4	9	8	6	7	8	0	8	1	8	5	8	3	8	4	
4	0	8	1	3	8	0	8	1	8	2	8	5	8	4	
4	3	1	8	0	8	0	8	1	8	2	8	3	8	4	
4	6	8	1	2	8	0	8	1	8	2	8	3	8	4	
5	7	6	8	1	5	8	0	8	1	8	2	8	3	8	4	
3	6	8	1	8	0	8	1	8	2	8	1	8	0	
2	0	8	8	0	8	1	8	2	8	5	8	4	
3	6	8	1	8	0	8	1	8	5	8	3	8	4	
3	1	8	0	8	0	8	1	8	2	8	5	8	4	
2	1	5	1	0	1	1	1	2	1	3	1	4	
4	3	1	8	9	8	0	8	1	8	5	8	3	8	4	
2	9	8	8	0	8	1	8	5	8	3	8	4	
4	5	1	8	6	8	0	8	1	8	2	8	1	8	0	
2	4	1	1	0	1	1	1	2	1	3	1	4	
2	8	9	9	0	9	1	9	2	9	5	9	4	
3	5	1	3	1	0	1	1	1	5	1	3	1	4	
3	1	8	6	8	0	8	1	8	5	8	3	8	4	
2	1	5	1	0	1	1	1	2	1	1	1	0	
3	8	1	5	8	0	8	1	8	5	8	3	8	4	
4	5	1	8	0	8	0	8	1	8	2	8	3	8	4	
2	3	1	1	0	1	1	1	2	1	5	1	4	
5	7	6	8	9	10	8	0	8	1	8	5	8	3	8	4	
3	3	1	2	1	0	1	1	1	5	1	3	1	4	
2	6	7	6	0	6	1	6	2	6	3	6	4	
3	7	6	8	8	0	8	1	8	2	8	3	8	4	
4	3	1	8	0	8	0	8	1	8	2	8	1	8	0	
3	0	8	9	8	0	8	1	8	2	8	3	8	4	
5	2	1	8	9	10	8	0	8	1	8	2	8	5	8	4	
4	2	1	8	0	8	0	8	1	8	2	8	3	8	4	
3	8	1	3	8	0	8	1	8	2	8	3	8	4	
4	6	8	1	4	8	0	8	1	8	5	8	3	8	4	
2	2	1	1	0	1	1	1	2	1	1	1	0	
3	4	1	8	8	0	8	1	8	5	8	3	8	4	
3	4	1	8	8	0	8	1	8	2	8	3	8	4	
5	4	1	8	9	10	8	0	8	1	8	2	8	1	8	0	
4	10	9	8	6	8	0	8	1	8	2	8	5	8	4	
5	4	1	8	9	10	8	0	8	1	8	5	8	3	8	4	
4	10	9	8	6	8	0	8	1	8	2	8	1	8	0	
5	10	9	8	1	5	8	0	8	1	8	2	8	5	8	4	
2	1	2	1	0	1	1	1	2	1	3	1	4	
3	6	8	0	8	0	8	1	8	2	8	5	8	4	
3	8	6	7	6	0	6	1	6	2	6	5	6	4	
4	6	8	1	4	8	0	8	1	8	2	8	1	8	0	
3	8	1	5	8	0	8	1	8	2	8	1	8	0	
2	9	10	9	0	9	1	9	2	9	1	9	0	
5	2	1	8	6	7	8	0	8	1	8	2	8	5	8	4	
5	7	6	8	9	10	8	0	8	1	8	2	8	1	8	0	
4	2	1	8	9	8	0	8	1	8	5	8	3	8	4	
4	6	8	9	10	8	0	8	1	8	2	8	3	8	4	
4	9	8	1	4	8	0	8	1	8	2	8	5	8	4	
3	9	8	1	8	0	8	1	8	5	8	3	8	4	
3	0	8	9	9	0	9	1	9	2	9	5	9	4	
2	6	8	8	0	8	1	8	2	8	3	8	4	
4	10	9	8	0	8	0	8	1	8	5	8	3	8	4	
4	4	1	8	0	8	0	8	1	8	2	8	1	8	0	
2	8	0	8	0	8	1	8	5	8	3	8	4	
2	0	8	8	0	8	1	8	5	8	3	8	4	
4	7	6	8	9	8	0	8	1	8	2	8	5	8	4	
5	3	1	8	6	7	8	0	8	1	8	5	8	3	8	4	
4	10	9	8	6	8	0	8	1	8	2	8	3	8	4	
4	7	6	8	0	8	0	8	1	8	2	8	1	8	0	
4	6	8	1	3	8	0	8	1	8	2	8	1	8	0	
3	8	1	4	8	0	8	1	8	2	8	3	8	4	
3	3	1	2	1	0	1	1	1	2	1	3	1	4	
4	1	8	6	7	8	0	8	1	8	2	8	3	8	4	
4	9	8	1	5	8	0	8	1	8	2	8	1	8	0	
2	10	9	9	0	9	1	9	2	9	3	9	4	
5	10	9	8	6	7	8	0	8	1	8	2	8	1	8	0	
2	1	2	1	0	1	1	1	2	1	5	1	4	
4	4	1	8	9	8	0	8	1	8	2	8	1	8	0	
4	6	8	1	3	8	0	8	1	8	2	8	5	8	4	
5	3	1	8	9	10	8	0	8	1	8	2	8	3	8	4	
4	7	6	8	0	8	0	8	1	8	2	8	5	8	4	
2	5	1	1	0	1	1	1	5	1	3	1	4	
4	0	8	1	2	8	0	8	1	8	2	8	3	8	4	
4	4	1	8	9	8	0	8	1	8	2	8	5	8	4	
2	1	4	1	0	1	1	1	5	1	3	1	4	
4	1	8	6	7	8	0	8	1	8	2	8	1	8	0	
3	4	1	5	1	0	1	1	1	2	1	5	1	4	
4	2	1	8	0	8	0	8	1	8	2	8	5	8	4	
4	1	8	9	10	8	0	8	1	8	2	8	5	8	4	
4	0	8	9	10	8	0	8	1	8	2	8	3	8	4	
4	1	8	9	10	8	0	8	1	8	2	8	3	8	4	
4	9	8	1	2	8	0	8	1	8	5	8	3	8	4	
5	7	6	8	1	5	8	0	8	1	8	5	8	3	8	4	
2	8	1	8	0	8	1	8	2	8	3	8	4	
3	2	1	3	1	0	1	1	1	2	1	1	1	0	
4	3	1	8	0	8	0	8	1	8	5	8	3	8	4	
3	2	1	3	1	0	1	1	1	5	1	3	1	4	
3	0	8	9	8	0	8	1	8	2	8	1	8	0	
5	10	9	8	6	7	8	0	8	1	8	2	8	5	8	4	
4	1	8	6	7	1	0	1	1	1	2	1	5	1	4	
2	1	4	1	0	1	1	1	2	1	3	1	4	
3	5	1	4	1	0	1	1	1	2	1	5	1	4	
4	5	1	8	9	8	0	8	1	8	2	8	3	8	4	
3	2	1	5	1	0	1	1	1	2	1	5	1	4	
4	0	8	1	3	8	0	8	1	8	2	8	3	8	4	
5	3	1	8	6	7	8	0	8	1	8	2	8	3	8	4	
4	6	8	1	2	8	0	8	1	8	2	8	5	8	4	
3	1	8	6	8	0	8	1	8	2	8	1	8	0	
4	9	8	1	5	8	0	8	1	8	2	8	3	8	4	
2	5	1	1	0	1	1	1	2	1	1	1	0	
4	3	1	8	0	8	0	8	1	8	2	8	5	8	4	
3	1	8	9	8	0	8	1	8	5	8	3	8	4	
3	8	1	2	8	0	8	1	8	5	8	3	8	4	
4	6	8	9	10	8	0	8	1	8	2	8	5	8	4	
4	0	8	6	7	8	0	8	1	8	2	8	5	8	4	
3	4	1	2	1	0	1	1	1	2	1	5	1	4	
4	9	8	1	3	8	0	8	1	8	2	8	1	8	0	
4	0	8	9	10	8	0	8	1	8	2	8	1	8	0	
4	2	1	8	0	8	0	8	1	8	2	8	1	8	0	
5	10	9	8	1	4	8	0	8	1	8	2	8	3	8	4	
3	8	1	2	8	0	8	1	8	2	8	3	8	4	
2	7	6	6	0	6	1	6	2	6	5	6	4	
3	2	1	5	1	0	1	1	1	2	1	3	1	4	
5	10	9	8	1	5	8	0	8	1	8	2	8	1	8	0	
2	9	10	9	0	9	1	9	2	9	5	9	4	
3	5	1	3	1	0	1	1	1	2	1	5	1	4	
5	3	1	8	9	10	8	0	8	1	8	2	8	1	8	0	
3	8	9	10	8	0	8	1	8	2	8	3	8	4	
4	7	6	8	1	8	0	8	1	8	2	8	3	8	4	
2	10	9	9	0	9	1	9	5	9	3	9	4	
2	9	10	9	0	9	1	9	2	9	3	9	4	
2	1	2	1	0	1	1	1	5	1	3	1	4	
3	2	1	8	8	0	8	1	8	5	8	3	8	4	
4	6	8	1	5	8	0	8	1	8	2	8	5	8	4	
3	7	6	8	8	0	8	1	8	5	8	3	8	4	
3	5	1	2	1	0	1	1	1	2	1	1	1	0	
3	8	1	5	8	0	8	1	8	2	8	5	8	4	
4	9	8	1	2	8	0	8	1	8	2	8	3	8	4	
4	3	1	8	9	8	0	8	1	8	2	8	3	8	4	
2	8	0	8	0	8	1	8	2	8	5	8	4	
4	0	8	1	4	8	0	8	1	8	2	8	1	8	0	
4	5	1	8	0	8	0	8	1	8	2	8	5	8	4	
