8065.73	7348.79
4636
1.6043e+07	1.33098e+06
11
0	2	12
1	4	12
2	2	12
3	0	12
4	0	12
5	0	12
6	2	12
7	0	12
8	2	12
9	2	12
10	0	12
68
0	6	0	5933	0
0	7	0	5933	0
0	8	3108	5933	1
0	9	0	5933	0
1	2	3486	5933	1
1	3	1348.69	5933	1
1	4	3170.82	5933	1
1	5	2040	5933	1
1	7	4200	5933	1
1	8	128.179	5933	1
1	9	235.088	5933	1
1	10	3192	5933	1
2	1	2082	5933	1
2	3	0	5933	0
2	4	0	5933	0
2	5	0	5933	0
2	9	0	5933	0
2	10	0	5933	0
3	1	662.649	5933	1
3	2	0	5933	0
3	4	528.163	5933	1
3	5	0	5933	0
4	1	766.854	5933	1
4	2	0	5933	0
4	3	1918.13	5933	1
4	5	0	5933	0
4	6	0	5933	0
4	7	0	5933	0
5	1	744	5933	1
5	2	0	5933	0
5	3	0	5933	0
5	4	0	5933	0
5	7	0	5933	0
5	8	0	5933	0
6	0	0	5933	0
6	4	0	5933	0
6	7	0	5933	0
6	8	1747.87	5933	1
6	9	0	5933	0
6	10	0	5933	0
7	0	0	5933	0
7	1	60	5933	1
7	4	0	5933	0
7	5	0	5933	0
7	6	0	5933	0
7	8	0	5933	0
7	9	0	5933	0
7	10	0	5933	0
8	0	60	5933	1
8	1	5422.7	5933	1
8	5	0	5933	0
8	6	2779.87	5933	1
8	7	0	5933	0
8	9	2089.3	5933	1
8	10	0	5933	0
9	0	0	5933	0
9	1	3406.56	5933	1
9	2	0	5933	0
9	6	0	5933	0
9	7	0	5933	0
9	8	15.8207	5933	1
9	10	0	5933	0
10	1	2238	5933	1
10	2	0	5933	0
10	6	0	5933	0
10	7	0	5933	0
10	8	0	5933	0
10	9	0	5933	0
440
2	1	9	9	0	9	1	9	2	9	5	9	4	
3	3	1	5	1	0	1	1	1	2	1	5	1	4	
3	7	1	3	1	0	1	1	1	5	1	3	1	4	
3	9	1	3	1	0	1	1	1	2	1	5	1	4	
3	10	1	7	1	0	1	1	1	2	1	3	1	4	
4	3	1	8	6	1	0	1	1	1	5	1	3	1	4	
3	4	1	7	1	0	1	1	1	2	1	5	1	4	
2	1	8	1	0	1	1	1	2	1	1	1	0	
3	7	1	4	1	0	1	1	1	2	1	3	1	4	
4	0	8	1	2	1	0	1	1	1	2	1	5	1	4	
3	7	1	3	1	0	1	1	1	2	1	1	1	0	
3	5	1	10	1	0	1	1	1	5	1	3	1	4	
3	5	1	2	1	0	1	1	1	2	1	5	1	4	
2	8	1	1	0	1	1	1	2	1	1	1	0	
3	8	1	7	1	0	1	1	1	2	1	3	1	4	
3	6	8	0	8	0	8	1	8	5	8	3	8	4	
3	2	1	5	1	0	1	1	1	5	1	3	1	4	
3	7	1	5	1	0	1	1	1	2	1	5	1	4	
3	5	1	7	1	0	1	1	1	2	1	1	1	0	
3	8	1	9	8	0	8	1	9	5	9	3	9	4	
3	4	1	10	1	0	1	1	1	2	1	5	1	4	
3	5	1	10	1	0	1	1	1	2	1	5	1	4	
3	8	1	10	1	0	1	1	1	2	1	1	1	0	
2	10	1	1	0	1	1	1	2	1	5	1	4	
4	0	8	1	5	1	0	1	1	1	2	1	3	1	4	
4	3	4	1	2	1	0	1	1	2	2	2	5	2	4	
2	1	7	1	0	1	1	1	5	1	3	1	4	
3	8	1	4	1	0	1	1	1	5	1	3	1	4	
3	2	1	10	1	0	1	1	1	5	1	3	1	4	
4	2	1	4	3	2	0	2	1	2	2	2	5	2	4	
2	4	1	1	0	1	1	1	5	1	3	1	4	
3	9	1	3	9	0	9	1	9	2	9	3	1	4	
4	0	8	1	3	1	0	1	1	1	2	1	1	1	0	
3	10	1	2	1	0	1	1	1	2	1	3	1	4	
3	7	1	4	1	0	1	1	1	2	1	1	1	0	
4	6	8	1	3	1	0	1	1	1	2	1	3	1	4	
3	9	1	5	9	0	9	1	9	5	5	3	5	4	
4	4	1	8	0	1	0	1	1	1	2	1	5	1	4	
3	2	1	7	1	0	1	1	1	2	1	3	1	4	
2	5	1	1	0	1	1	1	2	1	5	1	4	
3	10	1	8	1	0	1	1	1	2	1	5	1	4	
3	3	1	7	1	0	1	1	1	2	1	1	1	0	
4	6	8	1	7	8	0	8	1	8	5	8	3	8	4	
2	3	4	3	0	3	1	3	2	3	1	3	0	
3	5	1	8	1	0	1	1	1	2	1	1	1	0	
2	9	8	8	0	8	1	8	2	8	5	8	4	
3	1	8	0	1	0	1	1	1	5	1	3	1	4	
2	1	3	1	0	1	1	1	2	1	1	1	0	
3	2	1	10	1	0	1	1	1	2	1	1	1	0	
3	1	4	3	1	0	1	1	1	2	1	3	4	4	
3	4	1	7	1	0	1	1	1	2	1	3	1	4	
4	0	8	1	10	1	0	1	1	1	2	1	5	1	4	
3	5	1	8	1	0	1	1	1	2	1	5	1	4	
3	8	1	2	1	0	1	1	1	2	1	5	1	4	
3	6	8	9	8	0	8	1	8	2	8	3	8	4	
3	6	8	0	8	0	8	1	8	2	8	1	8	0	
4	9	1	8	0	9	0	9	1	9	2	9	3	9	4	
4	5	1	8	6	1	0	1	1	1	2	1	3	1	4	
3	3	1	7	1	0	1	1	1	2	1	5	1	4	
2	9	1	1	0	1	1	1	2	1	5	1	4	
3	10	1	5	1	0	1	1	1	2	1	3	1	4	
4	10	1	8	0	1	0	1	1	1	2	1	1	1	0	
2	7	1	1	0	1	1	1	2	1	1	1	0	
3	8	1	7	1	0	1	1	1	5	1	3	1	4	
4	3	4	1	10	1	0	1	1	1	2	10	5	10	4	
2	3	4	3	0	3	1	3	2	3	5	4	4	
3	9	8	6	8	0	8	1	8	5	8	3	8	4	
4	2	1	8	6	1	0	1	1	1	2	1	3	1	4	
3	8	1	5	1	0	1	1	1	2	1	3	1	4	
2	3	4	3	0	3	1	3	5	3	3	3	4	
4	7	1	8	6	1	0	1	1	1	2	1	3	1	4	
3	0	8	1	1	0	1	1	1	5	1	3	1	4	
4	6	8	1	2	1	0	1	1	1	5	1	3	1	4	
2	1	2	1	0	1	1	1	2	1	1	1	0	
4	10	1	4	3	10	0	10	1	10	2	10	5	10	4	
4	10	1	8	6	1	0	1	1	1	5	1	3	1	4	
2	1	3	3	0	3	1	3	2	3	5	3	4	
3	1	8	0	1	0	1	1	1	2	1	3	1	4	
2	1	5	5	0	5	1	5	5	5	3	5	4	
4	4	1	8	6	1	0	1	1	1	2	1	3	1	4	
2	8	6	6	0	6	1	6	5	6	3	6	4	
3	7	1	9	7	0	7	1	7	5	1	3	1	4	
2	2	1	1	0	1	1	1	2	1	5	1	4	
3	3	1	10	1	0	1	1	1	5	1	3	1	4	
4	6	8	1	10	6	0	10	1	10	2	10	1	10	0	
2	4	3	3	0	3	1	3	5	3	3	3	4	
4	0	8	1	4	1	0	1	1	1	2	1	5	1	4	
3	3	1	8	1	0	1	1	1	2	1	3	1	4	
4	9	1	8	6	8	0	8	1	8	2	6	5	6	4	
4	10	1	8	0	1	0	1	1	1	2	1	3	1	4	
3	6	8	9	8	0	8	1	8	2	8	1	8	0	
2	3	1	1	0	1	1	1	2	1	1	1	0	
2	1	8	1	0	1	1	1	2	1	5	1	4	
2	3	1	1	0	1	1	1	5	1	3	1	4	
3	4	1	2	1	0	1	1	1	2	1	1	1	0	
2	2	1	1	0	1	1	1	2	1	3	1	4	
2	0	8	8	0	8	1	8	2	8	3	8	4	
3	5	1	8	1	0	1	1	1	5	1	3	1	4	
4	4	1	8	6	1	0	1	1	1	2	1	5	1	4	
3	4	1	9	4	0	4	1	4	2	4	3	1	4	
2	0	8	8	0	8	1	8	2	8	1	8	0	
3	8	1	10	8	0	8	1	8	2	8	5	8	4	
3	7	1	2	1	0	1	1	1	2	1	1	1	0	
3	2	1	4	2	0	2	1	2	5	2	3	2	4	
3	5	1	8	1	0	1	1	1	2	1	3	1	4	
2	8	6	6	0	6	1	6	2	6	3	6	4	
3	9	1	7	9	0	9	1	9	2	7	1	7	0	
3	3	1	9	9	0	9	1	9	2	9	5	9	4	
3	6	8	1	1	0	1	1	1	2	1	5	1	4	
3	7	1	2	1	0	1	1	1	2	1	5	1	4	
3	3	1	8	1	0	1	1	1	2	1	1	1	0	
3	9	8	6	8	0	8	1	8	2	8	3	8	4	
3	5	1	7	1	0	1	1	1	2	1	5	1	4	
2	8	6	6	0	6	1	6	2	6	1	6	0	
3	10	1	2	1	0	1	1	1	2	1	5	1	4	
4	8	1	3	4	3	0	3	1	3	2	3	5	3	4	
3	10	1	5	1	0	1	1	1	5	1	3	1	4	
4	4	1	8	0	1	0	1	1	1	5	1	3	1	4	
3	6	8	9	8	0	8	1	8	5	8	3	8	4	
3	9	8	0	8	0	8	1	8	5	8	3	8	4	
3	9	1	7	1	0	1	1	7	2	7	5	7	4	
3	10	1	3	1	0	1	1	1	2	1	3	1	4	
3	0	8	6	8	0	8	1	8	2	8	5	8	4	
2	6	8	6	0	6	1	6	2	6	5	6	4	
2	4	3	3	0	3	1	3	2	3	1	3	0	
2	2	1	1	0	1	1	1	5	1	3	1	4	
4	0	8	1	3	1	0	1	1	1	5	1	3	1	4	
2	1	5	5	0	5	1	5	2	5	5	5	4	
2	4	1	1	0	1	1	1	2	1	5	1	4	
4	7	1	8	0	1	0	1	1	1	2	1	3	1	4	
3	0	8	1	1	0	1	1	1	2	1	3	1	4	
3	10	1	8	1	0	1	1	1	5	1	3	1	4	
3	3	1	5	1	0	1	1	1	2	1	3	1	4	
3	4	1	8	1	0	1	1	1	2	1	1	1	0	
2	1	3	3	0	3	1	3	5	3	3	3	4	
4	5	1	8	6	1	0	1	1	1	2	1	5	1	4	
4	5	1	8	6	1	0	1	1	1	5	1	3	1	4	
3	2	1	9	2	0	2	1	2	2	2	1	9	0	
3	9	1	7	9	0	9	1	9	2	1	3	1	4	
2	7	1	1	0	1	1	1	2	1	5	1	4	
3	5	1	3	1	0	1	1	1	2	1	1	1	0	
4	0	8	1	5	1	0	1	1	1	5	1	3	1	4	
4	4	1	8	0	1	0	1	1	1	2	1	3	1	4	
4	2	1	8	6	1	0	1	1	1	2	1	1	1	0	
3	7	1	8	1	0	1	1	1	2	1	1	1	0	
2	1	4	1	0	1	1	1	2	1	1	1	0	
4	3	1	8	6	1	0	1	1	1	2	1	5	1	4	
4	2	1	4	3	2	0	2	1	2	2	4	3	3	4	
3	7	1	10	10	0	10	1	10	2	10	5	10	4	
3	5	1	7	1	0	1	1	1	2	1	3	1	4	
2	4	3	3	0	3	1	3	2	3	5	3	4	
4	4	3	1	5	1	0	1	1	5	5	5	3	5	4	
4	0	8	1	7	1	0	1	1	1	2	1	1	1	0	
3	7	1	2	1	0	1	1	1	5	1	3	1	4	
4	0	8	9	1	1	0	1	1	1	2	1	5	1	4	
3	2	1	8	8	0	8	1	8	2	8	5	8	4	
3	6	8	0	8	0	8	1	8	2	8	3	8	4	
4	2	1	8	6	1	0	1	1	1	5	1	3	1	4	
3	8	1	4	1	0	1	1	1	2	1	1	1	0	
3	10	1	4	10	0	10	1	10	2	10	5	10	4	
3	9	1	10	9	0	9	1	9	5	9	3	9	4	
4	6	8	1	3	1	0	1	1	1	5	1	3	1	4	
2	8	6	6	0	6	1	6	2	6	5	6	4	
3	8	1	10	10	0	10	1	10	5	10	3	10	4	
3	5	1	4	1	0	1	1	1	2	1	1	1	0	
3	10	1	7	1	0	1	1	1	5	1	3	1	4	
3	4	1	2	1	0	1	1	1	5	1	3	1	4	
3	9	1	4	9	0	9	1	9	2	9	3	1	4	
3	5	1	2	1	0	1	1	1	2	1	3	1	4	
3	4	1	3	1	0	1	1	1	2	1	3	1	4	
4	0	8	1	2	1	0	1	1	1	2	1	1	1	0	
3	9	1	5	1	0	1	1	5	2	5	5	5	4	
2	10	1	1	0	1	1	1	2	1	3	1	4	
3	7	1	5	1	0	1	1	1	2	1	1	1	0	
2	4	1	1	0	1	1	1	2	1	1	1	0	
3	10	1	9	10	0	10	1	10	2	10	1	10	0	
3	7	1	8	8	0	8	1	8	2	8	5	8	4	
3	5	1	9	5	0	5	1	5	5	1	3	1	4	
4	6	8	1	5	1	0	1	1	1	2	1	3	1	4	
3	2	1	8	1	0	1	1	1	2	1	3	1	4	
3	3	1	2	1	0	1	1	1	2	1	1	1	0	
3	9	8	0	8	0	8	1	8	2	8	1	8	0	
3	10	1	4	1	0	1	1	1	2	1	1	1	0	
3	5	1	9	5	0	5	1	9	2	9	1	9	0	
3	3	1	8	8	0	8	1	8	2	8	5	8	4	
4	0	8	1	5	8	0	8	1	8	2	8	5	8	4	
3	5	1	4	1	0	1	1	1	5	1	3	1	4	
2	8	9	8	0	8	1	8	2	8	3	8	4	
3	3	1	8	1	0	1	1	1	5	1	3	1	4	
3	7	1	2	1	0	1	1	1	2	1	3	1	4	
3	8	1	3	1	0	1	1	1	2	1	1	1	0	
4	6	8	1	4	1	0	1	1	1	2	1	3	1	4	
3	0	8	1	1	0	1	1	1	2	1	1	1	0	
3	7	1	10	1	0	1	1	1	2	1	3	1	4	
4	4	1	8	6	1	0	1	1	1	2	1	1	1	0	
3	4	1	2	1	0	1	1	1	2	1	3	1	4	
2	8	1	8	0	8	1	8	2	8	5	8	4	
2	5	1	1	0	1	1	1	2	1	3	1	4	
3	4	1	7	4	0	4	1	4	5	4	3	4	4	
3	9	1	3	1	0	1	1	1	5	1	3	3	4	
3	7	1	9	7	0	7	1	7	2	1	3	1	4	
2	1	10	1	0	1	1	1	5	1	3	1	4	
3	4	1	10	1	0	1	1	1	2	1	3	1	4	
4	7	1	8	6	1	0	1	1	1	2	1	1	1	0	
2	1	9	9	0	9	1	9	2	9	1	9	0	
4	2	1	8	0	1	0	1	1	1	5	1	3	1	4	
3	3	1	5	1	0	1	1	1	2	1	1	1	0	
3	5	1	10	1	0	1	1	1	2	1	3	1	4	
4	6	8	1	5	1	0	1	1	1	5	1	3	1	4	
2	1	4	4	0	4	1	4	2	4	5	4	4	
3	3	1	5	1	0	1	1	1	5	1	3	1	4	
4	7	1	8	0	1	0	1	1	1	5	1	3	1	4	
3	8	1	2	1	0	1	1	1	2	1	1	1	0	
3	3	1	4	1	0	1	1	1	2	1	3	1	4	
4	4	3	1	5	4	0	4	1	4	2	4	3	3	4	
3	10	1	3	1	0	1	1	1	2	1	1	1	0	
3	2	1	10	1	0	1	1	1	2	1	3	1	4	
3	5	1	7	5	0	5	1	5	5	5	3	5	4	
3	2	1	8	1	0	1	1	1	2	1	1	1	0	
4	6	8	1	5	1	0	1	1	1	2	1	1	1	0	
4	2	1	8	6	8	0	8	1	8	2	8	5	8	4	
2	9	8	8	0	8	1	8	2	8	1	8	0	
4	0	8	1	4	1	0	1	1	1	2	1	3	1	4	
3	4	1	7	1	0	1	1	1	2	1	1	1	0	
2	6	8	6	0	6	1	6	2	6	1	6	0	
3	2	1	5	1	0	1	1	1	2	1	1	1	0	
2	10	1	10	0	10	1	10	5	10	3	10	4	
4	0	8	1	7	1	0	1	1	1	5	1	3	1	4	
4	8	6	8	1	6	0	6	1	6	5	6	3	6	4	
3	5	1	4	1	0	1	1	1	2	1	3	1	4	
2	1	9	1	0	1	1	1	2	1	3	1	4	
3	9	1	4	9	0	9	1	9	5	1	3	4	4	
3	10	1	2	1	0	1	1	1	2	1	1	1	0	
3	5	1	10	1	0	1	1	1	2	1	1	1	0	
3	10	1	9	9	0	9	1	9	2	9	5	9	4	
2	3	1	1	0	1	1	1	2	1	3	1	4	
3	1	8	6	1	0	1	1	1	2	1	3	1	4	
3	9	8	6	8	0	8	1	8	2	8	1	8	0	
3	2	1	4	1	0	1	1	1	2	1	3	1	4	
3	9	1	2	9	0	9	1	9	2	2	1	2	0	
3	1	8	0	1	0	1	1	1	2	1	1	1	0	
4	0	8	1	10	1	0	1	1	1	5	1	3	1	4	
3	4	1	8	8	0	8	1	8	2	8	5	8	4	
3	10	1	4	1	0	1	1	1	5	1	3	1	4	
4	6	8	1	4	8	0	8	1	8	2	8	5	8	4	
4	8	1	4	3	4	0	4	1	4	2	3	5	3	4	
3	5	1	3	1	0	1	1	1	2	1	3	1	4	
3	5	1	2	1	0	1	1	1	5	1	3	1	4	
3	10	1	2	10	0	10	1	10	5	10	3	10	4	
2	6	8	6	0	6	1	6	5	6	3	6	4	
3	5	1	9	9	0	9	1	9	2	9	5	9	4	
4	7	1	8	6	1	0	1	1	1	5	1	3	1	4	
3	9	8	0	8	0	8	1	8	2	8	5	8	4	
4	0	8	1	4	1	0	1	1	1	5	1	3	1	4	
2	8	0	8	0	8	1	8	2	8	3	8	4	
2	9	1	1	0	1	1	1	2	1	1	1	0	
3	4	1	9	1	0	1	1	1	5	1	3	1	4	
2	8	0	8	0	8	1	8	2	8	1	8	0	
3	1	8	6	8	0	8	1	8	2	8	5	8	4	
3	7	1	4	4	0	4	1	4	2	4	5	4	4	
3	9	1	8	9	0	9	1	9	2	9	3	1	4	
4	6	8	1	7	1	0	1	1	1	2	1	1	1	0	
3	2	1	4	2	0	2	1	2	2	2	5	2	4	
4	3	1	8	6	1	0	1	1	1	2	1	3	1	4	
3	7	1	3	1	0	1	1	1	2	1	3	1	4	
3	10	1	8	1	0	1	1	1	2	1	1	1	0	
4	10	1	8	0	8	0	8	1	8	2	8	5	8	4	
3	7	1	9	7	0	7	1	7	2	7	1	7	0	
3	4	1	5	1	0	1	1	1	2	1	1	1	0	
4	6	8	1	7	8	0	8	1	8	2	8	5	8	4	
3	2	1	7	1	0	1	1	1	2	1	1	1	0	
3	0	8	6	8	0	8	1	8	2	8	3	8	4	
3	10	1	3	1	0	1	1	1	5	1	3	1	4	
4	4	1	8	6	1	0	1	1	1	5	1	3	1	4	
2	1	8	1	0	1	1	1	5	1	3	1	4	
3	0	8	9	8	0	8	1	8	5	8	3	8	4	
3	8	1	3	1	0	1	1	1	5	1	3	1	4	
4	6	8	1	10	8	0	8	1	8	5	8	3	8	4	
3	0	8	6	8	0	8	1	8	2	8	1	8	0	
3	8	1	9	1	0	1	1	1	2	1	1	1	0	
4	6	8	1	2	1	0	1	1	1	2	1	1	1	0	
2	7	1	1	0	1	1	1	5	1	3	1	4	
3	2	1	9	9	0	9	1	9	2	9	5	9	4	
3	6	8	1	1	0	1	1	1	2	1	3	1	4	
4	3	1	8	6	1	0	1	1	1	2	1	1	1	0	
3	9	1	4	9	0	9	1	9	2	9	1	4	0	
3	10	1	8	1	0	1	1	1	2	1	3	1	4	
3	3	1	9	3	0	9	1	9	2	9	1	9	0	
3	2	1	7	1	0	1	1	1	5	1	3	1	4	
3	7	1	3	3	0	3	1	3	2	3	5	3	4	
3	9	1	2	9	0	9	1	9	2	9	5	9	4	
3	2	1	9	2	0	2	1	2	2	2	3	1	4	
3	8	1	7	1	0	1	1	1	2	1	1	1	0	
4	5	1	8	0	1	0	1	1	1	5	1	3	1	4	
4	0	8	1	7	1	0	1	1	1	2	1	3	1	4	
3	2	1	4	1	0	1	1	1	2	1	1	1	0	
3	0	8	6	8	0	8	1	8	5	8	3	8	4	
2	9	1	9	0	9	1	9	2	9	3	1	4	
4	0	8	1	5	1	0	1	1	1	2	1	1	1	0	
2	1	10	1	0	1	1	1	2	1	1	1	0	
3	6	8	9	8	0	8	1	8	2	8	5	8	4	
4	5	1	8	0	1	0	1	1	1	2	1	1	1	0	
2	1	8	1	0	1	1	1	2	1	3	1	4	
4	0	8	1	2	1	0	1	1	1	5	1	3	1	4	
3	7	1	4	1	0	1	1	1	5	1	3	1	4	
2	10	1	1	0	1	1	1	2	1	1	1	0	
3	9	1	7	9	0	9	1	9	5	7	3	7	4	
5	0	8	1	4	3	4	0	4	1	4	2	3	5	3	4	
4	3	1	8	0	1	0	1	1	1	2	1	3	1	4	
4	6	8	1	2	1	0	1	1	1	2	1	3	1	4	
3	7	1	5	1	0	1	1	1	2	1	3	1	4	
3	6	8	1	1	0	1	1	1	2	1	1	1	0	
2	0	8	0	0	0	1	0	2	0	5	0	4	
3	6	8	1	1	0	1	1	1	5	1	3	1	4	
4	1	9	8	0	9	0	9	1	9	2	9	5	9	4	
2	1	5	1	0	1	1	1	2	1	3	1	4	
3	3	1	9	3	0	3	1	3	5	3	3	3	4	
2	9	8	8	0	8	1	8	5	8	3	8	4	
4	5	1	8	6	1	0	1	1	1	2	1	1	1	0	
2	4	1	1	0	1	1	1	2	1	3	1	4	
2	8	9	9	0	9	1	9	2	9	5	9	4	
3	5	1	3	1	0	1	1	1	5	1	3	1	4	
3	1	8	6	1	0	1	1	1	5	1	3	1	4	
2	1	5	1	0	1	1	1	2	1	1	1	0	
3	8	1	5	1	0	1	1	1	5	1	3	1	4	
4	5	1	8	0	1	0	1	1	1	2	1	3	1	4	
2	3	1	3	0	3	1	3	2	3	5	3	4	
3	7	1	10	1	0	1	1	1	5	1	3	1	4	
3	3	1	2	1	0	1	1	1	5	1	3	1	4	
4	6	8	1	7	1	0	1	1	1	2	1	3	1	4	
3	7	1	8	1	0	1	1	1	2	1	3	1	4	
4	3	1	8	0	1	0	1	1	1	2	1	1	1	0	
3	0	8	9	8	0	8	1	8	2	8	3	8	4	
3	2	1	10	10	0	10	1	10	2	10	5	10	4	
4	2	1	8	0	1	0	1	1	1	2	1	3	1	4	
3	8	1	3	1	0	1	1	1	2	1	3	1	4	
4	6	8	1	4	1	0	1	1	1	5	1	3	1	4	
2	2	1	1	0	1	1	1	2	1	1	1	0	
3	4	1	8	1	0	1	1	1	5	1	3	1	4	
3	4	1	8	1	0	1	1	1	2	1	3	1	4	
3	4	1	10	1	0	1	1	1	2	1	1	1	0	
4	10	1	8	6	8	0	8	1	8	2	8	5	8	4	
3	4	1	10	1	0	1	1	1	5	1	3	1	4	
4	10	1	8	6	1	0	1	1	1	2	1	1	1	0	
3	10	1	5	10	0	10	1	10	2	10	5	10	4	
2	1	2	1	0	1	1	1	2	1	3	1	4	
3	6	8	0	8	0	8	1	8	2	8	5	8	4	
3	8	1	7	7	0	7	1	7	2	7	5	7	4	
4	6	8	1	4	1	0	1	1	1	2	1	1	1	0	
3	8	1	5	1	0	1	1	1	2	1	1	1	0	
3	9	1	10	9	0	10	1	10	2	10	1	10	0	
3	2	1	7	2	0	2	1	2	2	2	5	2	4	
3	7	1	10	1	0	1	1	1	2	1	1	1	0	
3	2	1	9	1	0	1	1	1	5	1	3	1	4	
4	6	8	1	10	6	0	6	1	6	2	1	3	1	4	
3	9	1	4	1	0	1	1	1	2	1	5	4	4	
2	9	1	1	0	1	1	1	5	1	3	1	4	
3	0	8	9	9	0	9	1	9	2	9	5	9	4	
2	6	8	6	0	6	1	6	2	6	3	6	4	
4	10	1	8	0	1	0	1	1	1	5	1	3	1	4	
4	4	1	8	0	1	0	1	1	1	2	1	1	1	0	
2	8	0	8	0	8	1	8	5	8	3	8	4	
2	0	8	8	0	8	1	8	5	8	3	8	4	
3	7	1	9	9	0	9	1	9	2	9	5	9	4	
3	3	1	7	1	0	1	1	1	5	1	3	1	4	
4	10	1	8	6	1	0	1	1	1	2	1	3	1	4	
4	7	1	8	0	1	0	1	1	1	2	1	1	1	0	
4	6	8	1	3	1	0	1	1	1	2	1	1	1	0	
3	8	1	4	1	0	1	1	1	2	1	3	1	4	
3	3	1	2	1	0	1	1	1	2	1	3	1	4	
2	1	7	1	0	1	1	1	2	1	3	1	4	
3	9	1	5	9	0	9	1	9	2	9	1	5	0	
3	10	1	9	10	0	10	1	10	2	10	3	1	4	
3	10	1	7	1	0	1	1	1	2	1	1	1	0	
2	1	2	2	0	2	1	2	2	2	5	2	4	
3	4	1	9	4	0	4	1	9	2	9	1	9	0	
5	6	8	1	4	3	1	0	1	1	1	2	3	5	3	4	
3	3	1	10	1	0	1	1	1	2	1	3	1	4	
4	7	1	8	0	8	0	8	1	8	2	8	5	8	4	
2	5	1	1	0	1	1	1	5	1	3	1	4	
4	0	8	1	2	1	0	1	1	1	2	1	3	1	4	
3	4	1	9	9	0	9	1	9	2	9	5	9	4	
2	1	4	4	0	4	1	4	5	4	3	4	4	
2	1	7	1	0	1	1	1	2	1	1	1	0	
4	4	3	1	5	4	0	4	1	4	2	5	5	5	4	
4	2	1	8	0	8	0	8	1	8	2	8	5	8	4	
2	1	10	10	0	10	1	10	2	10	5	10	4	
4	0	8	1	10	1	0	1	1	1	2	1	3	1	4	
2	1	10	1	0	1	1	1	2	1	3	1	4	
3	9	1	2	1	0	1	1	1	5	1	3	1	4	
3	7	1	5	1	0	1	1	1	5	1	3	1	4	
4	8	6	8	1	6	0	6	1	6	2	6	3	6	4	
3	2	1	3	1	0	1	1	1	2	1	1	1	0	
4	3	1	8	0	1	0	1	1	1	5	1	3	1	4	
3	2	1	3	2	0	2	1	2	5	2	3	2	4	
3	0	8	9	8	0	8	1	8	2	8	1	8	0	
3	10	1	7	10	0	10	1	10	2	10	5	10	4	
2	1	7	7	0	7	1	7	2	7	5	7	4	
2	1	4	1	0	1	1	1	2	1	3	1	4	
3	5	1	4	4	0	4	1	4	2	4	5	4	4	
3	5	1	9	5	0	5	1	5	2	5	3	5	4	
3	2	1	5	2	0	2	1	2	2	2	5	2	4	
4	0	8	1	3	1	0	1	1	1	2	1	3	1	4	
3	3	1	7	1	0	1	1	1	2	1	3	1	4	
4	6	8	1	2	8	0	8	1	8	2	8	5	8	4	
3	1	8	6	6	0	6	1	6	2	6	1	6	0	
3	9	1	5	9	0	9	1	9	2	1	3	1	4	
2	5	1	1	0	1	1	1	2	1	1	1	0	
4	3	1	8	0	8	0	8	1	8	2	8	5	8	4	
2	1	9	1	0	1	1	1	5	1	3	9	4	
3	8	1	2	1	0	1	1	1	5	1	3	1	4	
4	6	8	1	10	1	0	1	1	1	2	10	5	10	4	
4	0	8	1	7	8	0	8	1	8	2	8	5	8	4	
3	4	1	2	2	0	2	1	2	2	2	5	2	4	
3	9	1	3	9	0	9	1	9	2	9	1	3	0	
4	0	8	1	10	1	0	1	1	1	2	1	1	1	0	
4	2	1	8	0	1	0	1	1	1	2	1	1	1	0	
3	10	1	4	1	0	1	1	1	2	1	3	1	4	
3	8	1	2	1	0	1	1	1	2	1	3	1	4	
4	7	1	8	6	8	0	8	1	8	2	8	5	8	4	
3	2	1	5	1	0	1	1	1	2	1	3	1	4	
3	10	1	5	1	0	1	1	1	2	1	1	1	0	
3	9	1	10	1	0	1	1	1	2	1	5	1	4	
3	5	1	3	3	0	3	1	3	2	3	5	3	4	
3	3	1	10	1	0	1	1	1	2	1	1	1	0	
3	8	1	10	8	0	8	1	8	2	8	3	8	4	
2	7	1	1	0	1	1	1	2	1	3	1	4	
3	10	1	9	1	0	1	1	1	5	1	3	1	4	
3	9	1	10	1	0	1	1	1	2	10	3	10	4	
2	1	2	2	0	2	1	2	5	2	3	2	4	
3	2	1	8	1	0	1	1	1	5	1	3	1	4	
4	6	8	1	5	8	0	8	1	8	2	8	5	8	4	
3	7	1	8	1	0	1	1	1	5	1	3	1	4	
3	5	1	2	1	0	1	1	1	2	1	1	1	0	
3	8	1	5	8	0	8	1	8	2	8	5	8	4	
3	9	1	2	1	0	1	1	2	2	2	3	2	4	
3	3	1	9	3	0	3	1	3	2	1	3	1	4	
2	8	0	8	0	8	1	8	2	8	5	8	4	
4	0	8	1	4	1	0	1	1	1	2	1	1	1	0	
4	5	1	8	0	8	0	8	1	8	2	8	5	8	4	
