15
7	3	0
6	9	9
12	1	5
7	12	0
14	4	7
13	4	12
0	7	7
1	6	5
0	10	5
3	7	4
2	5	1
1	11	2
8	5	7
5	8	0
4	0	1
10	8	13
9	0	6
6	7	0
11	5	9
10	7	12
7	6	0
6	10	13
12	6	13
14	1	7
13	7	6
0	4	5
4	10	1
3	2	4
2	6	7
9	14	8
8	2	7
5	11	0
4	5	1
10	13	13
9	3	6
6	0	0
11	0	9
7	5	0
12	11	13
14	2	7
13	10	10
0	1	5
3	12	5
1	12	5
8	12	7
3	1	4
2	11	7
5	14	0
10	14	12
6	13	13
7	8	8
14	8	8
13	0	6
12	8	5
0	14	7
3	11	4
2	1	1
8	9	9
4	12	1
2	12	1
9	4	8
5	1	1
10	3	12
7	2	2
6	14	0
12	2	5
11	10	9
14	5	7
13	3	12
12	13	13
1	5	5
0	11	6
3	6	5
1	10	5
8	6	9
4	1	1
10	9	13
9	7	8
6	4	0
5	4	1
11	4	8
10	4	12
7	1	2
6	11	9
12	7	5
11	9	9
14	6	7
13	6	6
0	5	5
1	0	5
0	8	7
4	11	2
3	5	5
2	7	7
9	13	6
8	3	7
5	10	12
4	6	1
9	2	8
6	1	0
5	7	0
11	3	9
7	4	2
14	12	7
12	4	5
14	3	7
13	9	6
0	2	7
1	3	4
8	13	9
4	8	2
3	0	5
2	8	7
9	8	8
8	0	7
5	13	12
6	2	0
11	14	8
7	11	8
14	9	8
12	9	13
13	12	12
3	10	5
1	14	2
8	10	9
4	13	1
2	13	1
9	11	11
5	0	0
10	0	12
12	3	5
11	13	9
7	14	14
14	10	7
13	2	6
12	14	5
1	4	4
0	12	5
3	9	5
2	3	4
1	9	2
8	7	7
4	2	2
2	14	7
9	6	6
6	5	0
5	3	3
11	7	8
10	5	12
7	0	0
6	8	9
12	0	5
11	8	8
7	13	0
14	7	7
13	5	12
0	6	6
1	7	2
0	9	6
3	4	4
2	4	4
9	12	6
8	4	7
5	9	0
4	7	2
10	11	13
9	1	6
5	6	0
11	2	8
10	6	13
14	13	7
12	5	5
14	0	7
13	8	6
0	3	5
3	14	4
1	2	2
8	14	14
4	9	2
2	9	7
8	1	7
5	12	12
10	12	12
6	3	0
11	1	8
7	10	0
12	10	10
13	11	6
3	13	5
1	13	5
8	11	11
4	14	2
2	10	1
9	10	6
10	1	12
6	12	13
11	12	9
7	9	8
14	11	8
13	1	12
13	14	6
0	13	6
3	8	4
2	0	7
1	8	2
4	3	3
9	5	6
5	2	1
11	6	9
10	2	12
