<?xml version="1.0" encoding="utf-8"?>
<svg xmlns="http://www.w3.org/2000/svg" version="1.1" width="60" height="20" style="background: white">
<rect x="0" y="9" width="10" height="11" style="fill:red" />
<rect x="10" y="10" width="10" height="10" style="fill:black" />
<rect x="20" y="10" width="10" height="10" style="fill:green" />
<rect x="30" y="10" width="10" height="10" style="fill:yellow" />
<rect x="40" y="12" width="10" height="8" style="fill:blue" />
<rect x="50" y="8" width="10" height="12" style="fill:grey" />
<rect x="0"  y="0" width="60" height="20" style="fill-opacity:0; stroke:black; stroke-width:1;"/>
</svg>
