50	50	50
0	48	960.0
0	29	600.0
0	46	720.0
1	49	960.0
1	34	280.0
1	47	400.0
2	37	1280.0
2	31	1240.0
2	8	120.0
3	20	440.0
3	31	680.0
3	32	920.0
3	11	280.0
3	43	440.0
4	35	720.0
4	44	1560.0
4	5	920.0
4	22	1120.0
5	21	920.0
5	22	1000.0
5	25	1720.0
5	32	1800.0
6	22	720.0
6	38	520.0
6	7	600.0
7	15	440.0
8	13	400.0
8	11	160.0
9	33	840.0
9	16	1560.0
9	23	200.0
10	14	2480.0
10	35	1120.0
10	44	720.0
10	25	2320.0
11	31	240.0
11	13	400.0
12	14	1440.0
12	29	1480.0
13	49	1320.0
13	25	1280.0
13	31	1160.0
14	48	840.0
15	27	600.0
16	19	1720.0
16	18	1200.0
16	28	1520.0
17	24	1080.0
17	30	520.0
18	19	480.0
18	49	2960.0
18	25	1680.0
19	44	1280.0
19	25	960.0
20	43	160.0
21	27	680.0
21	22	1040.0
21	43	720.0
22	39	480.0
23	28	800.0
23	24	720.0
23	42	120.0
24	33	640.0
24	42	760.0
24	45	1560.0
26	34	720.0
26	30	760.0
27	43	560.0
28	29	2000.0
28	46	520.0
28	44	1160.0
30	45	720.0
31	32	1360.0
32	43	960.0
34	40	160.0
34	37	960.0
34	41	80.0
35	39	400.0
36	48	400.0
36	38	200.0
37	49	2120.0
37	41	920.0
38	48	840.0
38	39	560.0
40	41	440.0
42	46	800.0
45	49	1920.0
45	47	320.0
