15	44
0	5	384579
0	6	384579
0	7	384579
1	2	384579
1	4	384579
1	5	384579
10	12	384579
10	13	384579
11	8	384579
11	9	384579
12	10	384579
12	13	384579
12	5	384579
13	10	384579
13	12	384579
13	6	384579
14	7	384579
14	8	384579
2	1	384579
2	4	384579
2	7	384579
3	4	384579
3	5	384579
4	1	384579
4	2	384579
4	3	384579
5	0	384579
5	1	384579
5	12	384579
5	3	384579
6	0	384579
6	13	384579
6	9	384579
7	0	384579
7	14	384579
7	2	384579
7	8	384579
8	11	384579
8	14	384579
8	7	384579
8	9	384579
9	11	384579
9	6	384579
9	8	384579
