50	176
0	29	7453.0
0	46	7453.0
0	48	7453.0
1	34	7453.0
1	47	7453.0
1	49	7453.0
10	14	7453.0
10	25	7453.0
10	35	7453.0
10	44	7453.0
11	13	7453.0
11	3	7453.0
11	31	7453.0
11	8	7453.0
12	14	7453.0
12	29	7453.0
13	11	7453.0
13	25	7453.0
13	31	7453.0
13	49	7453.0
13	8	7453.0
14	10	7453.0
14	12	7453.0
14	48	7453.0
15	27	7453.0
15	7	7453.0
16	18	7453.0
16	19	7453.0
16	28	7453.0
16	9	7453.0
17	24	7453.0
17	30	7453.0
18	16	7453.0
18	19	7453.0
18	25	7453.0
18	49	7453.0
19	16	7453.0
19	18	7453.0
19	25	7453.0
19	44	7453.0
2	31	7453.0
2	37	7453.0
2	8	7453.0
20	3	7453.0
20	43	7453.0
21	22	7453.0
21	27	7453.0
21	43	7453.0
21	5	7453.0
22	21	7453.0
22	39	7453.0
22	4	7453.0
22	5	7453.0
22	6	7453.0
23	24	7453.0
23	28	7453.0
23	42	7453.0
23	9	7453.0
24	17	7453.0
24	23	7453.0
24	33	7453.0
24	42	7453.0
24	45	7453.0
25	10	7453.0
25	13	7453.0
25	18	7453.0
25	19	7453.0
25	5	7453.0
26	30	7453.0
26	34	7453.0
27	15	7453.0
27	21	7453.0
27	43	7453.0
28	16	7453.0
28	23	7453.0
28	29	7453.0
28	44	7453.0
28	46	7453.0
29	0	7453.0
29	12	7453.0
29	28	7453.0
3	11	7453.0
3	20	7453.0
3	31	7453.0
3	32	7453.0
3	43	7453.0
30	17	7453.0
30	26	7453.0
30	45	7453.0
31	11	7453.0
31	13	7453.0
31	2	7453.0
31	3	7453.0
31	32	7453.0
32	3	7453.0
32	31	7453.0
32	43	7453.0
32	5	7453.0
33	24	7453.0
33	9	7453.0
34	1	7453.0
34	26	7453.0
34	37	7453.0
34	40	7453.0
34	41	7453.0
35	10	7453.0
35	39	7453.0
35	4	7453.0
36	38	7453.0
36	48	7453.0
37	2	7453.0
37	34	7453.0
37	41	7453.0
37	49	7453.0
38	36	7453.0
38	39	7453.0
38	48	7453.0
38	6	7453.0
39	22	7453.0
39	35	7453.0
39	38	7453.0
4	22	7453.0
4	35	7453.0
4	44	7453.0
4	5	7453.0
40	34	7453.0
40	41	7453.0
41	34	7453.0
41	37	7453.0
41	40	7453.0
42	23	7453.0
42	24	7453.0
42	46	7453.0
43	20	7453.0
43	21	7453.0
43	27	7453.0
43	3	7453.0
43	32	7453.0
44	10	7453.0
44	19	7453.0
44	28	7453.0
44	4	7453.0
45	24	7453.0
45	30	7453.0
45	47	7453.0
45	49	7453.0
46	0	7453.0
46	28	7453.0
46	42	7453.0
47	1	7453.0
47	45	7453.0
48	0	7453.0
48	14	7453.0
48	36	7453.0
48	38	7453.0
49	1	7453.0
49	13	7453.0
49	18	7453.0
49	37	7453.0
49	45	7453.0
5	21	7453.0
5	22	7453.0
5	25	7453.0
5	32	7453.0
5	4	7453.0
6	22	7453.0
6	38	7453.0
6	7	7453.0
7	15	7453.0
7	6	7453.0
8	11	7453.0
8	13	7453.0
8	2	7453.0
9	16	7453.0
9	23	7453.0
9	33	7453.0
