1	9	0.6986852697	0	1	2	5	4
3	5	0.6986852697	0	1	2	5	4
7	3	0.0014948829	0	1	5	3	4
9	3	0.6986852697	0	1	2	5	4
10	7	0.1816091073	0	1	2	3	4
3	6	0.0014948829	0	1	5	3	4
4	7	75.4580091226	0	1	2	5	4
1	8	0.1182107402	0	1	2	1	0
7	4	0.1816091073	0	1	2	3	4
0	2	0.6986852697	0	1	2	5	4
7	3	0.1182107402	0	1	2	1	0
5	10	0.0014948829	0	1	5	3	4
5	2	0.6986852697	0	1	2	5	4
8	1	45.3929242209	0	1	2	1	0
8	7	18.1609107287	0	1	2	3	4
6	0	0.0014948829	0	1	5	3	4
2	5	0.0014948829	0	1	5	3	4
7	5	0.6986852697	0	1	2	5	4
5	7	13.5942351182	0	1	2	1	0
8	9	0.3931542029	0	1	5	3	4
4	10	0.6986852697	0	1	2	5	4
5	10	0.6986852697	0	1	2	5	4
8	10	18.9137184254	0	1	2	1	0
10	1	185.8502817279	0	1	2	5	4
0	5	0.1816091073	0	1	2	3	4
3	2	0.6986852697	0	1	2	5	4
1	7	0.2391812641	0	1	5	3	4
8	4	0.0014948829	0	1	5	3	4
2	10	0.0014948829	0	1	5	3	4
2	3	150.2173329756	0	1	2	5	4
4	1	0.0014948829	0	1	5	3	4
9	3	0.1816091073	0	1	2	3	4
0	3	0.1182107402	0	1	2	1	0
10	2	17.9793016214	0	1	2	3	4
7	4	0.1182107402	0	1	2	1	0
6	3	0.1816091073	0	1	2	3	4
9	5	0.0014948829	0	1	5	3	4
4	0	0.6986852697	0	1	2	5	4
2	7	0.1816091073	0	1	2	3	4
5	1	0.6986852697	0	1	2	5	4
10	8	0.6986852697	0	1	2	5	4
3	7	0.1182107402	0	1	2	1	0
6	7	0.3169151750	0	1	5	3	4
3	4	12.4121277167	0	1	2	1	0
5	8	0.1182107402	0	1	2	1	0
9	8	0.6986852697	0	1	2	5	4
1	0	0.0014948829	0	1	5	3	4
1	3	28.0159454176	0	1	2	1	0
2	10	0.1182107402	0	1	2	1	0
1	3	43.0413584269	0	1	2	3	4
4	7	19.6137835870	0	1	2	3	4
0	10	0.6986852697	0	1	2	5	4
5	8	0.6986852697	0	1	2	5	4
8	2	0.6986852697	0	1	2	5	4
6	9	0.1816091073	0	1	2	3	4
6	0	0.1182107402	0	1	2	1	0
9	0	0.1816091073	0	1	2	3	4
5	6	0.1816091073	0	1	2	3	4
3	7	0.6986852697	0	1	2	5	4
9	1	0.6986852697	0	1	2	5	4
10	5	0.1816091073	0	1	2	3	4
10	0	0.1182107402	0	1	2	1	0
7	1	0.1182107402	0	1	2	1	0
8	7	0.1494882901	0	1	5	3	4
3	10	0.6986852697	0	1	2	5	4
3	4	73.3619533137	0	1	2	5	4
9	6	0.0014948829	0	1	5	3	4
2	6	0.1816091073	0	1	2	3	4
8	5	0.1816091073	0	1	2	3	4
3	4	0.1569627046	0	1	5	3	4
7	6	0.1816091073	0	1	2	3	4
0	1	0.0014948829	0	1	5	3	4
6	2	0.0014948829	0	1	5	3	4
1	2	32.8625857641	0	1	2	1	0
10	3	0.6986852697	0	1	2	5	4
10	6	0.0014948829	0	1	5	3	4
1	3	165.5884089080	0	1	2	5	4
1	0	0.1816091073	0	1	2	3	4
1	5	0.3542872475	0	1	5	3	4
4	6	0.1816091073	0	1	2	3	4
8	6	0.3692360765	0	1	5	3	4
7	9	0.0014948829	0	1	5	3	4
2	1	0.6986852697	0	1	2	5	4
3	10	0.0014948829	0	1	5	3	4
6	10	0.1182107402	0	1	2	1	0
4	3	0.0014948829	0	1	5	3	4
0	4	0.6986852697	0	1	2	5	4
3	8	0.1816091073	0	1	2	3	4
9	6	0.6986852697	0	1	2	5	4
10	0	0.1816091073	0	1	2	3	4
6	9	0.1182107402	0	1	2	1	0
3	1	0.1182107402	0	1	2	1	0
1	8	0.6986852697	0	1	2	5	4
3	1	0.0014948829	0	1	5	3	4
4	2	0.1182107402	0	1	2	1	0
2	1	0.1816091073	0	1	2	3	4
0	8	46.8551496799	0	1	2	3	4
5	8	0.0014948829	0	1	5	3	4
4	6	0.6986852697	0	1	2	5	4
4	9	0.1816091073	0	1	2	3	4
0	8	30.4983709609	0	1	2	1	0
8	10	111.7896431446	0	1	2	5	4
7	2	0.1182107402	0	1	2	1	0
2	4	0.1853654797	0	1	5	3	4
5	8	0.1816091073	0	1	2	3	4
8	6	44.8574494998	0	1	2	3	4
9	7	0.1182107402	0	1	2	1	0
3	9	0.6986852697	0	1	2	5	4
6	1	0.6986852697	0	1	2	5	4
7	2	0.6986852697	0	1	2	5	4
3	8	0.1182107402	0	1	2	1	0
9	6	0.1816091073	0	1	2	3	4
5	7	80.3488060102	0	1	2	5	4
8	6	29.1980528192	0	1	2	1	0
10	2	69.1698416957	0	1	2	5	4
8	4	0.6986852697	0	1	2	5	4
10	5	0.0014948829	0	1	5	3	4
4	0	0.0014948829	0	1	5	3	4
6	9	0.0014948829	0	1	5	3	4
9	0	0.0014948829	0	1	5	3	4
9	7	0.6986852697	0	1	2	5	4
10	3	0.1816091073	0	1	2	3	4
0	6	96.4185672122	0	1	2	5	4
6	8	0.6986852697	0	1	2	5	4
4	3	0.1182107402	0	1	2	1	0
2	1	0.0014948829	0	1	5	3	4
0	3	0.0014948829	0	1	5	3	4
1	5	165.5884089080	0	1	2	5	4
4	1	0.6986852697	0	1	2	5	4
7	0	0.1816091073	0	1	2	3	4
0	1	0.1816091073	0	1	2	3	4
10	8	0.0014948829	0	1	5	3	4
3	5	0.1816091073	0	1	2	3	4
4	8	0.1182107402	0	1	2	1	0
1	3	0.3542872475	0	1	5	3	4
5	6	0.6986852697	0	1	2	5	4
5	6	0.0014948829	0	1	5	3	4
2	9	0.1182107402	0	1	2	1	0
9	7	0.1816091073	0	1	2	3	4
7	1	0.6986852697	0	1	2	5	4
5	3	0.1182107402	0	1	2	1	0
0	5	0.0014948829	0	1	5	3	4
4	0	0.1816091073	0	1	2	3	4
2	6	0.1182107402	0	1	2	1	0
7	8	0.1182107402	0	1	2	1	0
1	4	17.0223465829	0	1	2	1	0
3	6	0.6986852697	0	1	2	5	4
2	3	39.0459580666	0	1	2	3	4
7	10	0.6986852697	0	1	2	5	4
5	7	20.8850473380	0	1	2	3	4
4	3	0.6986852697	0	1	2	5	4
4	5	0.1420138756	0	1	5	3	4
0	7	0.1182107402	0	1	2	1	0
7	2	0.0014948829	0	1	5	3	4
0	1	0.6986852697	0	1	2	5	4
2	8	0.6986852697	0	1	2	5	4
6	0	0.1816091073	0	1	2	3	4
2	6	0.0014948829	0	1	5	3	4
8	4	0.1182107402	0	1	2	1	0
10	4	0.6986852697	0	1	2	5	4
9	10	0.5441373759	0	1	5	3	4
6	3	0.0014948829	0	1	5	3	4
8	6	172.5752616045	0	1	2	5	4
8	10	0.2391812641	0	1	5	3	4
5	4	0.1182107402	0	1	2	1	0
10	7	0.0014948829	0	1	5	3	4
4	2	0.0014948829	0	1	5	3	4
9	4	0.1816091073	0	1	2	3	4
5	2	0.1816091073	0	1	2	3	4
4	3	0.1816091073	0	1	2	3	4
0	2	0.1182107402	0	1	2	1	0
9	5	0.6986852697	0	1	2	5	4
10	1	48.3080225382	0	1	2	3	4
7	5	0.1182107402	0	1	2	1	0
4	1	0.1182107402	0	1	2	1	0
10	9	0.1182107402	0	1	2	1	0
7	8	0.6986852697	0	1	2	5	4
5	9	0.0014948829	0	1	5	3	4
6	5	0.1816091073	0	1	2	3	4
2	8	0.1816091073	0	1	2	3	4
3	2	0.1182107402	0	1	2	1	0
9	0	0.1182107402	0	1	2	1	0
10	4	0.1182107402	0	1	2	1	0
5	9	0.1182107402	0	1	2	1	0
3	8	0.6986852697	0	1	2	5	4
0	5	0.6986852697	0	1	2	5	4
5	4	0.0014948829	0	1	5	3	4
8	9	47.7631952164	0	1	2	3	4
3	8	0.0014948829	0	1	5	3	4
7	2	0.1816091073	0	1	2	3	4
8	3	0.1182107402	0	1	2	1	0
6	4	0.1816091073	0	1	2	3	4
0	1	0.1182107402	0	1	2	1	0
7	10	0.1816091073	0	1	2	3	4
4	6	0.1182107402	0	1	2	1	0
4	2	0.1816091073	0	1	2	3	4
8	1	268.2951435471	0	1	2	5	4
5	1	0.1816091073	0	1	2	3	4
4	7	0.1614473533	0	1	5	3	4
9	3	0.0014948829	0	1	5	3	4
7	9	0.1816091073	0	1	2	3	4
1	10	0.0014948829	0	1	5	3	4
4	10	0.1816091073	0	1	2	3	4
7	6	0.1182107402	0	1	2	1	0
1	9	0.1182107402	0	1	2	1	0
2	0	0.0014948829	0	1	5	3	4
3	5	0.1182107402	0	1	2	1	0
5	10	0.1816091073	0	1	2	3	4
6	5	0.0014948829	0	1	5	3	4
1	4	100.6106788302	0	1	2	5	4
3	5	0.0014948829	0	1	5	3	4
7	0	0.0014948829	0	1	5	3	4
8	2	0.1182107402	0	1	2	1	0
3	4	19.0689562651	0	1	2	3	4
4	5	17.2528651922	0	1	2	3	4
10	3	0.1182107402	0	1	2	1	0
2	10	0.1816091073	0	1	2	3	4
5	7	0.1719115336	0	1	5	3	4
2	8	0.1182107402	0	1	2	1	0
6	5	0.1182107402	0	1	2	1	0
2	6	0.6986852697	0	1	2	5	4
9	8	0.1182107402	0	1	2	1	0
0	4	0.1816091073	0	1	2	3	4
4	7	12.7667599371	0	1	2	1	0
6	8	0.1182107402	0	1	2	1	0
2	5	0.1182107402	0	1	2	1	0
10	1	0.3976388516	0	1	5	3	4
0	7	0.0014948829	0	1	5	3	4
8	1	0.5740350339	0	1	5	3	4
5	4	0.1816091073	0	1	2	3	4
1	9	0.1816091073	0	1	2	3	4
9	4	0.0014948829	0	1	5	3	4
10	2	11.7028632757	0	1	2	1	0
5	10	0.1182107402	0	1	2	1	0
10	9	0.6986852697	0	1	2	5	4
3	1	0.1816091073	0	1	2	3	4
1	6	0.1816091073	0	1	2	3	4
9	6	0.1182107402	0	1	2	1	0
2	4	22.5195293035	0	1	2	3	4
9	2	23.2875158113	0	1	2	1	0
1	0	0.1182107402	0	1	2	1	0
0	10	0.0014948829	0	1	5	3	4
4	8	0.6986852697	0	1	2	5	4
10	4	0.0014948829	0	1	5	3	4
6	4	0.6986852697	0	1	2	5	4
8	3	0.6986852697	0	1	2	5	4
5	3	0.1816091073	0	1	2	3	4
5	2	0.0014948829	0	1	5	3	4
10	2	0.1479934072	0	1	5	3	4
6	8	0.0014948829	0	1	5	3	4
5	9	0.6986852697	0	1	2	5	4
7	6	0.0014948829	0	1	5	3	4
9	0	0.6986852697	0	1	2	5	4
0	4	0.0014948829	0	1	5	3	4
8	0	0.1816091073	0	1	2	3	4
9	1	0.1182107402	0	1	2	1	0
4	9	0.0014948829	0	1	5	3	4
8	0	0.1182107402	0	1	2	1	0
1	6	0.6986852697	0	1	2	5	4
7	4	0.6986852697	0	1	2	5	4
9	8	0.1816091073	0	1	2	3	4
6	7	25.0606769136	0	1	2	1	0
2	4	86.6369734371	0	1	2	5	4
3	6	0.1816091073	0	1	2	3	4
7	3	0.1816091073	0	1	2	3	4
10	8	0.1182107402	0	1	2	1	0
10	0	0.6986852697	0	1	2	5	4
7	9	0.1182107402	0	1	2	1	0
4	5	11.2300203151	0	1	2	1	0
6	7	148.1212771666	0	1	2	5	4
2	7	0.1182107402	0	1	2	1	0
0	6	25.0620568056	0	1	2	3	4
10	3	0.0014948829	0	1	5	3	4
4	6	0.0014948829	0	1	5	3	4
1	8	0.0014948829	0	1	5	3	4
0	9	0.1719115336	0	1	5	3	4
8	3	0.0014948829	0	1	5	3	4
6	10	0.0014948829	0	1	5	3	4
0	6	16.3130821419	0	1	2	1	0
8	9	31.0894246617	0	1	2	1	0
6	2	0.1182107402	0	1	2	1	0
7	1	0.0014948829	0	1	5	3	4
2	9	0.6986852697	0	1	2	5	4
6	1	0.1816091073	0	1	2	3	4
3	6	0.1182107402	0	1	2	1	0
9	4	0.1182107402	0	1	2	1	0
10	8	0.1816091073	0	1	2	3	4
3	9	0.1182107402	0	1	2	1	0
2	7	0.0014948829	0	1	5	3	4
7	3	0.6986852697	0	1	2	5	4
9	2	137.6409981218	0	1	2	5	4
2	9	0.1816091073	0	1	2	3	4
8	7	11.8210740159	0	1	2	1	0
5	0	0.0014948829	0	1	5	3	4
0	7	0.1816091073	0	1	2	3	4
2	4	14.6581317797	0	1	2	1	0
0	6	0.2062938403	0	1	5	3	4
9	1	0.1816091073	0	1	2	3	4
0	5	0.1182107402	0	1	2	1	0
1	10	0.1182107402	0	1	2	1	0
6	9	0.6986852697	0	1	2	5	4
5	0	0.1182107402	0	1	2	1	0
1	8	0.1816091073	0	1	2	3	4
0	2	0.0014948829	0	1	5	3	4
7	4	0.0014948829	0	1	5	3	4
10	1	31.4440568822	0	1	2	1	0
9	7	0.0014948829	0	1	5	3	4
0	3	0.6986852697	0	1	2	5	4
3	0	0.1816091073	0	1	2	3	4
6	2	0.1816091073	0	1	2	3	4
7	5	0.1816091073	0	1	2	3	4
6	1	0.1182107402	0	1	2	1	0
0	8	180.2607995707	0	1	2	5	4
6	1	0.0014948829	0	1	5	3	4
1	0	0.6986852697	0	1	2	5	4
1	5	43.0413584269	0	1	2	3	4
3	9	0.0014948829	0	1	5	3	4
9	8	0.0014948829	0	1	5	3	4
5	6	0.1182107402	0	1	2	1	0
4	1	0.1816091073	0	1	2	3	4
8	9	183.7542259190	0	1	2	5	4
5	3	0.0014948829	0	1	5	3	4
1	6	0.0014948829	0	1	5	3	4
1	5	28.0159454176	0	1	2	1	0
8	5	0.0014948829	0	1	5	3	4
5	0	0.1816091073	0	1	2	3	4
3	1	0.6986852697	0	1	2	5	4
7	10	0.0014948829	0	1	5	3	4
3	2	0.0014948829	0	1	5	3	4
6	7	38.5011307448	0	1	2	3	4
7	8	0.1816091073	0	1	2	3	4
3	0	0.1182107402	0	1	2	1	0
0	9	20.8850473380	0	1	2	3	4
2	10	0.6986852697	0	1	2	5	4
2	0	0.1816091073	0	1	2	3	4
8	3	0.1816091073	0	1	2	3	4
6	4	0.0014948829	0	1	5	3	4
2	1	0.1182107402	0	1	2	1	0
4	8	0.0014948829	0	1	5	3	4
4	8	0.1816091073	0	1	2	3	4
4	10	0.1182107402	0	1	2	1	0
10	6	0.6986852697	0	1	2	5	4
4	10	0.0014948829	0	1	5	3	4
10	6	0.1182107402	0	1	2	1	0
10	5	0.6986852697	0	1	2	5	4
1	2	50.4873318257	0	1	2	3	4
6	0	0.6986852697	0	1	2	5	4
8	7	69.8685269654	0	1	2	5	4
6	4	0.1182107402	0	1	2	1	0
8	5	0.1182107402	0	1	2	1	0
9	10	43.0287094178	0	1	2	1	0
2	7	0.6986852697	0	1	2	5	4
7	10	0.1182107402	0	1	2	1	0
2	9	0.0014948829	0	1	5	3	4
6	10	0.1816091073	0	1	2	3	4
9	4	0.6986852697	0	1	2	5	4
9	1	0.0014948829	0	1	5	3	4
0	9	80.3488060102	0	1	2	5	4
6	8	0.1816091073	0	1	2	3	4
10	0	0.0014948829	0	1	5	3	4
4	0	0.1182107402	0	1	2	1	0
8	0	0.0014948829	0	1	5	3	4
0	8	0.3856797884	0	1	5	3	4
7	9	0.6986852697	0	1	2	5	4
3	7	0.0014948829	0	1	5	3	4
10	6	0.1816091073	0	1	2	3	4
7	0	0.1182107402	0	1	2	1	0
6	3	0.1182107402	0	1	2	1	0
8	4	0.1816091073	0	1	2	3	4
3	2	0.1816091073	0	1	2	3	4
1	7	29.0574571659	0	1	2	3	4
9	5	0.1182107402	0	1	2	1	0
10	9	0.1816091073	0	1	2	3	4
10	7	0.1182107402	0	1	2	1	0
1	2	194.2345049638	0	1	2	5	4
4	9	0.1182107402	0	1	2	1	0
6	3	0.6986852697	0	1	2	5	4
3	10	0.1816091073	0	1	2	3	4
7	0	0.6986852697	0	1	2	5	4
5	1	0.0014948829	0	1	5	3	4
0	2	0.1816091073	0	1	2	3	4
4	9	0.6986852697	0	1	2	5	4
1	4	0.2152631377	0	1	5	3	4
1	7	18.9137184254	0	1	2	1	0
4	5	66.3751006171	0	1	2	5	4
2	0	0.6986852697	0	1	2	5	4
1	10	0.6986852697	0	1	2	5	4
0	10	0.1816091073	0	1	2	3	4
1	10	0.1816091073	0	1	2	3	4
9	2	0.2944919315	0	1	5	3	4
7	5	0.0014948829	0	1	5	3	4
8	1	69.7378971981	0	1	2	3	4
2	3	25.4153091341	0	1	2	1	0
3	0	0.0014948829	0	1	5	3	4
2	3	0.3213998237	0	1	5	3	4
0	9	13.5942351182	0	1	2	1	0
10	7	0.6986852697	0	1	2	5	4
1	7	111.7896431446	0	1	2	5	4
1	4	26.1517114493	0	1	2	3	4
5	4	0.6986852697	0	1	2	5	4
5	9	0.1816091073	0	1	2	3	4
2	5	0.6986852697	0	1	2	5	4
0	3	0.1816091073	0	1	2	3	4
3	7	0.1816091073	0	1	2	3	4
6	2	0.6986852697	0	1	2	5	4
1	6	0.1182107402	0	1	2	1	0
9	5	0.1816091073	0	1	2	3	4
5	1	0.1182107402	0	1	2	1	0
3	0	0.6986852697	0	1	2	5	4
1	9	0.0014948829	0	1	5	3	4
8	2	0.0014948829	0	1	5	3	4
6	10	0.6986852697	0	1	2	5	4
0	7	0.6986852697	0	1	2	5	4
4	2	0.6986852697	0	1	2	5	4
9	3	0.1182107402	0	1	2	1	0
0	10	0.1182107402	0	1	2	1	0
2	0	0.1182107402	0	1	2	1	0
10	4	0.1816091073	0	1	2	3	4
8	2	0.1816091073	0	1	2	3	4
7	6	0.6986852697	0	1	2	5	4
2	5	0.1816091073	0	1	2	3	4
10	5	0.1182107402	0	1	2	1	0
9	10	254.3214381540	0	1	2	5	4
5	3	0.6986852697	0	1	2	5	4
3	10	0.1182107402	0	1	2	1	0
8	10	29.0574571659	0	1	2	3	4
7	1	0.1816091073	0	1	2	3	4
10	9	0.0014948829	0	1	5	3	4
9	10	66.1057150523	0	1	2	3	4
1	2	0.4155774464	0	1	5	3	4
2	8	0.0014948829	0	1	5	3	4
6	5	0.6986852697	0	1	2	5	4
7	8	0.0014948829	0	1	5	3	4
5	2	0.1182107402	0	1	2	1	0
8	5	0.6986852697	0	1	2	5	4
9	2	35.7769941355	0	1	2	3	4
3	9	0.1816091073	0	1	2	3	4
8	0	0.6986852697	0	1	2	5	4
0	4	0.1182107402	0	1	2	1	0
5	0	0.6986852697	0	1	2	5	4
