15	15	15
0	5	103.1474377621768
0	6	106.15139510755063
0	7	117.16712315332578
1	2	115.16418047822548
1	4	113.16215113767832
1	5	115.16418047822548
2	4	106.15139510755063
2	7	102.14642309190319
3	4	99.14155241197614
3	5	91.13023837885149
5	12	92.13170971640163
6	9	97.13860973687582
6	13	110.15728045775131
7	8	109.15626578747768
7	14	113.16215113767832
8	9	106.15139510755063
8	11	90.12885837475663
8	14	96.13759506660224
9	11	112.1602231328516
10	12	106.15139510755063
10	13	101.14449508707646
12	13	98.14053774170257
