50	50	50
0	29	39.913391895511964
0	46	41.075926178668425
0	48	45.338531515037836
1	34	44.563529028137786
1	47	43.788465435624936
1	49	44.563529028137786
2	8	41.075926178668425
2	31	39.525921204868354
2	37	38.36338692171188
3	11	35.263315868498914
3	20	35.65078655914257
3	31	37.588323329199056
3	32	42.625992258081276
3	43	42.23846046182488
4	5	43.788465435624936
4	22	41.075926178668425
4	35	34.87578407224251
4	44	37.20085263855544
5	21	43.400994744981325
5	22	41.075926178668425
5	25	39.138389408611914
5	32	37.975855125455475
6	7	45.338531515037836
6	22	38.36338692171188
6	38	35.65078655914257
7	15	42.625992258081276
8	11	35.65078655914257
8	13	39.913391895511964
9	16	37.588323329199056
9	23	44.563529028137786
9	33	46.11353400193786
10	14	39.525921204868354
10	25	39.525921204868354
10	35	41.85092866556844
10	44	46.11353400193786
11	13	45.338531515037836
11	31	39.913391895511964
12	14	41.075926178668425
12	29	35.263315868498914
13	25	43.400994744981325
13	31	38.36338692171188
13	49	36.038318355398964
14	48	43.01346294872491
15	27	46.11353400193786
16	18	40.30092369176837
16	19	37.588323329199056
16	28	37.975855125455475
17	24	40.30092369176837
17	30	36.81332084229902
18	19	34.87578407224251
18	25	43.788465435624936
18	49	41.075926178668425
19	25	35.263315868498914
19	44	42.625992258081276
20	43	44.950999718781404
21	22	36.038318355398964
21	27	35.65078655914257
21	43	42.625992258081276
22	39	41.075926178668425
23	24	35.263315868498914
23	28	40.688394382412014
23	42	40.688394382412014
24	33	40.30092369176837
24	42	45.338531515037836
24	45	44.950999718781404
26	30	36.81332084229902
26	34	41.075926178668425
27	43	38.36338692171188
28	29	39.913391895511964
28	44	41.46345797492483
28	46	44.17599723188139
30	45	40.688394382412014
31	32	39.525921204868354
32	43	40.688394382412014
34	37	40.30092369176837
34	40	45.338531515037836
34	41	40.30092369176837
35	39	40.30092369176837
36	38	36.038318355398964
36	48	42.625992258081276
37	41	37.588323329199056
37	49	41.85092866556844
38	39	37.20085263855544
38	48	37.975855125455475
40	41	37.975855125455475
42	46	44.17599723188139
45	47	36.038318355398964
45	49	39.138389408611914
