50	50	50
0	29	50.07620131040002
0	46	51.53470900118762
0	48	56.88275848367539
1	34	55.91028845843035
1	47	54.9379312029453
1	49	55.91028845843035
2	8	51.53470900118762
2	31	49.58999449021752
2	37	48.13148679942993
3	11	44.24205777748974
3	20	44.72826459767224
3	31	47.159129543944914
3	32	53.47942351215767
3	43	52.993273076855154
4	5	54.9379312029453
4	22	51.53470900118762
4	35	43.755907342187236
4	44	46.67297910864237
5	21	54.451780767642795
5	22	51.53470900118762
5	25	49.10384405491504
5	32	47.64527997924743
6	7	56.88275848367539
6	22	48.13148679942993
6	38	44.72826459767224
7	15	53.47942351215767
8	11	44.72826459767224
8	13	50.07620131040002
9	16	47.159129543944914
9	23	55.91028845843035
9	33	57.854833814760426
10	14	49.58999449021752
10	25	49.58999449021752
10	35	52.50706625667266
10	44	57.854833814760426
11	13	56.88275848367539
11	31	50.07620131040002
12	14	51.53470900118762
12	29	44.24205777748974
13	25	54.451780767642795
13	31	48.13148679942993
13	49	45.2144150329748
14	48	53.9656303323402
15	27	57.854833814760426
16	18	50.56235174570258
16	19	47.159129543944914
16	28	47.64527997924743
17	24	50.56235174570258
17	30	46.18677228845987
18	19	43.755907342187236
18	25	54.9379312029453
18	49	51.53470900118762
19	25	44.24205777748974
19	44	53.47942351215767
20	43	56.39672081813285
21	22	45.2144150329748
21	27	44.72826459767224
21	43	53.47942351215767
22	39	51.53470900118762
23	24	44.24205777748974
23	28	51.04855856588509
23	42	51.04855856588509
24	33	50.56235174570258
24	42	56.88275848367539
24	45	56.39672081813285
26	30	46.18677228845987
26	34	51.53470900118762
27	43	48.13148679942993
28	29	50.07620131040002
28	44	52.02091582137014
28	46	55.42413802312778
30	45	51.04855856588509
31	32	49.58999449021752
32	43	51.04855856588509
34	37	50.56235174570258
34	40	56.88275848367539
34	41	50.56235174570258
35	39	50.56235174570258
36	38	45.2144150329748
36	48	53.47942351215767
37	41	47.159129543944914
37	49	52.50706625667266
38	39	46.67297910864237
38	48	47.64527997924743
40	41	47.64527997924743
42	46	55.42413802312778
45	47	45.2144150329748
45	49	49.10384405491504
