50	50	50
0	29	69.95428643270749
0	46	71.99227432042375
0	48	79.46274432242973
1	34	78.1044770493377
1	47	76.74620977624572
1	49	78.1044770493377
2	8	71.99227432042375
2	31	69.27515279616149
2	37	67.23775188652353
3	11	61.80468279415544
3	20	62.48381643070151
3	31	65.87948461343149
3	32	74.70880886660774
3	43	74.02967523006171
4	5	76.74620977624572
4	22	71.99227432042375
4	35	61.125549157609484
4	44	65.20035097688546
5	21	76.06707613969972
5	22	71.99227432042375
5	25	68.5960191596155
5	32	66.55861824997747
6	7	79.46274432242973
6	22	67.23775188652353
6	38	62.48381643070151
7	15	74.70880886660774
8	11	62.48381643070151
8	13	69.95428643270749
9	16	65.87948461343149
9	23	78.1044770493377
9	33	80.8215985736
10	14	69.27515279616149
10	25	69.27515279616149
10	35	73.35054159351574
10	44	80.8215985736
11	13	79.46274432242973
11	31	69.95428643270749
12	14	71.99227432042375
12	29	61.80468279415544
13	25	76.06707613969972
13	31	67.23775188652353
13	49	63.162950067247465
14	48	75.38794250315372
15	27	80.8215985736
16	18	70.63400704733168
16	19	65.87948461343149
16	28	66.55861824997747
17	24	70.63400704733168
17	30	64.52121734033949
18	19	61.125549157609484
18	25	76.74620977624572
18	49	71.99227432042375
19	25	61.80468279415544
19	44	74.70880886660774
20	43	78.7836106858837
21	22	63.162950067247465
21	27	62.48381643070151
21	43	74.70880886660774
22	39	71.99227432042375
23	24	61.80468279415544
23	28	71.31314068387773
23	42	71.31314068387773
24	33	70.63400704733168
24	42	79.46274432242973
24	45	78.7836106858837
26	30	64.52121734033949
26	34	71.99227432042375
27	43	67.23775188652353
28	29	69.95428643270749
28	44	72.67140795696974
28	46	77.4253434127917
30	45	71.31314068387773
31	32	69.27515279616149
32	43	71.31314068387773
34	37	70.63400704733168
34	40	79.46274432242973
34	41	70.63400704733168
35	39	70.63400704733168
36	38	63.162950067247465
36	48	74.70880886660774
37	41	65.87948461343149
37	49	73.35054159351574
38	39	65.20035097688546
38	48	66.55861824997747
40	41	66.55861824997747
42	46	77.4253434127917
45	47	63.162950067247465
45	49	68.5960191596155
