0	-1
1	1855
2	1803
3	1443
4	1706
5	2554
6	-1
7	-1
8	1168
9	-1
10	2258
11	1412
12	-1
13	2383
14	2860
15	-1
16	2025
17	-1
18	2428
19	1584
20	-1
21	2314
22	2779
23	1665
24	2006
25	2446
26	-1
27	-1
28	2007
29	1503
30	-1
31	2047
32	1773
33	-1
34	-1
35	1327
36	-1
37	3230
38	-1
39	-1
40	-1
41	-1
42	1629
43	2011
44	1855
45	2325
46	2396
47	-1
48	-1
49	1997
