0	-1
1	-1
2	-1
3	-1
4	2466
5	3809
6	-1
7	-1
8	1523
9	-1
10	4420
11	2202
12	-1
13	3451
14	-1
15	-1
16	2782
17	-1
18	3248
19	2197
20	-1
21	-1
22	4741
23	-1
24	-1
25	3484
26	-1
27	-1
28	5160
29	-1
30	-1
31	3288
32	2884
33	-1
34	-1
35	-1
36	-1
37	4076
38	-1
39	-1
40	-1
41	-1
42	-1
43	-1
44	2839
45	4981
46	-1
47	-1
48	-1
49	2976
