0	1376
1	1345
2	1338
3	1041
4	1181
5	1932
6	1541
7	-1
8	865
9	1015
10	1979
11	969
12	1077
13	1931
14	1421
15	-1
16	1544
17	1170
18	1844
19	1112
20	861
21	1512
22	1404
23	1345
24	1188
25	1968
26	957
27	1124
28	1591
29	1060
30	1080
31	1519
32	1301
33	837
34	1169
35	1076
36	670
37	1547
38	1164
39	992
40	-1
41	1067
42	1262
43	1401
44	1361
45	1537
46	1251
47	1046
48	1216
49	1742
