0	1443
1	1348
2	1427
3	1215
4	1305
5	1983
6	1670
7	-1
8	949
9	1090
10	1971
11	1075
12	1096
13	1961
14	1446
15	-1
16	1590
17	1212
18	1821
19	1172
20	-1
21	1490
22	1526
23	1371
24	1266
25	2066
26	-1
27	1169
28	1647
29	1097
30	1208
31	1621
32	1387
33	880
34	1431
35	1164
36	-1
37	2108
38	1252
39	1066
40	-1
41	-1
42	1286
43	1548
44	1411
45	1587
46	1294
47	1068
48	1327
49	1736
