0	-1
1	1943
2	1674
3	1407
4	1577
5	2580
6	2281
7	-1
8	1104
9	1225
10	2127
11	1311
12	-1
13	2421
14	1731
15	-1
16	1755
17	-1
18	2277
19	1492
20	-1
21	2047
22	1812
23	1547
24	1927
25	2407
26	-1
27	-1
28	1968
29	1242
30	-1
31	1879
32	1622
33	-1
34	-1
35	1260
36	-1
37	2862
38	-1
39	-1
40	-1
41	-1
42	1424
43	1953
44	1746
45	2180
46	1728
47	-1
48	2290
49	1939
