0	-1
1	-1
2	2195
3	-1
4	2093
5	3310
6	-1
7	-1
8	1275
9	-1
10	2744
11	1973
12	-1
13	2741
14	3426
15	-1
16	2377
17	-1
18	2763
19	1757
20	-1
21	2932
22	3365
23	1904
24	2950
25	2783
26	-1
27	-1
28	2956
29	-1
30	-1
31	2526
32	2196
33	-1
34	-1
35	1512
36	-1
37	3236
38	-1
39	-1
40	-1
41	-1
42	-1
43	-1
44	2338
45	2862
46	-1
47	-1
48	-1
49	2434
