50	50	50
0	29	50.92922144876949
0	46	52.41262531636279
0	48	57.85188789031417
1	34	56.862721859699484
1	47	55.87378594797074
1	49	56.862721859699484
2	8	52.41262531636279
2	31	50.43475349290509
2	37	48.95140715503331
3	11	44.995721037839516
3	20	45.490188993703924
3	31	47.962471243304506
3	32	54.39043961009896
3	43	53.895971654234515
4	5	55.87378594797074
4	22	52.41262531636279
4	35	44.501253081975086
4	44	47.46800328744012
5	21	55.37937552182778
5	22	52.41262531636279
5	25	49.94028553704068
5	32	48.45693919916892
6	7	57.85188789031417
6	22	48.95140715503331
6	38	45.490188993703924
7	15	54.39043961009896
8	11	45.490188993703924
8	13	50.92922144876949
9	16	47.962471243304506
9	23	56.862721859699484
9	33	58.840823802043005
10	14	50.43475349290509
10	25	50.43475349290509
10	35	53.401503698370135
10	44	58.840823802043005
11	13	57.85188789031417
11	31	50.92922144876949
12	14	52.41262531636279
12	29	44.995721037839516
13	25	55.37937552182778
13	31	48.95140715503331
13	49	45.98465694956835
14	48	54.88490756596336
15	27	58.840823802043005
16	18	51.423689404633926
16	19	47.962471243304506
16	28	48.45693919916892
17	24	51.423689404633926
17	30	46.9735353315757
18	19	44.501253081975086
18	25	55.87378594797074
18	49	52.41262531636279
19	25	44.995721037839516
19	44	54.39043961009896
20	43	57.35718981556398
21	22	45.98465694956835
21	27	45.490188993703924
21	43	54.39043961009896
22	39	52.41262531636279
23	24	44.995721037839516
23	28	51.91815736049835
23	42	51.91815736049835
24	33	51.423689404633926
24	42	57.85188789031417
24	45	57.35718981556398
26	30	46.9735353315757
26	34	52.41262531636279
27	43	48.95140715503331
28	29	50.92922144876949
28	44	52.90703574250572
28	46	56.36825390383511
30	45	51.91815736049835
31	32	50.43475349290509
32	43	51.91815736049835
34	37	51.423689404633926
34	40	57.85188789031417
34	41	51.423689404633926
35	39	51.423689404633926
36	38	45.98465694956835
36	48	54.39043961009896
37	41	47.962471243304506
37	49	53.401503698370135
38	39	47.46800328744012
38	48	48.45693919916892
40	41	48.45693919916892
42	46	56.36825390383511
45	47	45.98465694956835
45	49	49.94028553704068
