0	-1
1	2070
2	1934
3	1842
4	1727
5	2724
6	-1
7	-1
8	1131
9	-1
10	2333
11	1488
12	-1
13	2606
14	2904
15	-1
16	2171
17	-1
18	2511
19	1598
20	-1
21	2688
22	2937
23	1739
24	2392
25	2450
26	-1
27	-1
28	2209
29	1526
30	-1
31	2180
32	1780
33	-1
34	-1
35	1409
36	-1
37	3174
38	-1
39	-1
40	-1
41	-1
42	-1
43	-1
44	2050
45	2374
46	2673
47	-1
48	-1
49	2126
