50	50	50
0	29	95.60872872511429
0	46	98.39347228242025
0	48	108.60403864406412
1	34	106.74770295433788
1	47	104.8908872191786
1	49	106.74770295433788
2	8	98.39347228242025
2	31	94.68032085753462
2	37	91.89557730022881
3	11	84.46975449589067
3	20	85.39816236347029
3	31	90.03924161050246
3	32	102.10614366187268
3	43	101.17821583972606
4	5	104.8908872191786
4	22	98.39347228242025
4	35	83.54134662831102
4	44	89.11083374292282
5	21	103.96295939703198
5	22	98.39347228242025
5	25	93.75191298995497
5	32	90.96716943264909
6	7	108.60403864406412
6	22	91.89557730022881
6	38	85.39816236347029
7	15	102.10614366187268
8	11	85.39816236347029
8	13	95.60872872511429
9	16	90.03924161050246
9	23	106.74770295433788
9	33	110.46037433379038
10	14	94.68032085753462
10	25	94.68032085753462
10	35	100.24980797214643
10	44	110.46037433379038
11	13	108.60403864406412
11	31	95.60872872511429
12	14	98.39347228242025
12	29	84.46975449589067
13	25	103.96295939703198
13	31	91.89557730022881
13	49	86.32609018561696
14	48	103.03455152945236
15	27	110.46037433379038
16	18	96.53665654726082
16	19	90.03924161050246
16	28	90.96716943264909
17	24	96.53665654726082
17	30	88.18290592077626
18	19	83.54134662831102
18	25	104.8908872191786
18	49	98.39347228242025
19	25	84.46975449589067
19	44	102.10614366187268
20	43	107.67563077648452
21	22	86.32609018561696
21	27	85.39816236347029
21	43	102.10614366187268
22	39	98.39347228242025
23	24	84.46975449589067
23	28	97.46506441484064
23	42	97.46506441484064
24	33	96.53665654726082
24	42	108.60403864406412
24	45	107.67563077648452
26	30	88.18290592077626
26	34	98.39347228242025
27	43	91.89557730022881
28	29	95.60872872511429
28	44	99.32140010456682
28	46	105.81929508675827
30	45	97.46506441484064
31	32	94.68032085753462
32	43	97.46506441484064
34	37	96.53665654726082
34	40	108.60403864406412
34	41	96.53665654726082
35	39	96.53665654726082
36	38	86.32609018561696
36	48	102.10614366187268
37	41	90.03924161050246
37	49	100.24980797214643
38	39	89.11083374292282
38	48	90.96716943264909
40	41	90.96716943264909
42	46	105.81929508675827
45	47	86.32609018561696
45	49	93.75191298995497
