10	10	10
0	1	168.87909040200003
0	2	173.79790847100003
0	5	191.83390469100001
1	2	188.55436267800002
1	3	185.275810566
1	4	188.55436267800002
2	3	173.79790847100003
2	4	167.239814346
3	4	162.320996277
3	9	149.203818126
4	5	150.84408408299998
5	6	159.04145426399998
5	9	180.35699249700002
6	7	178.71672654
6	8	185.275810566
7	8	173.79790847100003
8	9	147.56454207
