65	65	65
0	13	39.716570983349044
0	30	40.873352816370556
0	42	45.11475463202423
1	9	44.34374217279925
1	38	43.5725542841182
1	53	44.34374217279925
2	27	40.873352816370556
2	29	39.330977039008516
2	51	38.17415134862298
3	48	35.08939979389885
3	58	35.474993738239384
4	24	37.40296345994192
4	50	42.41572859373263
5	16	42.030134649392146
5	62	43.5725542841182
6	15	40.873352816370556
6	39	34.703805849558336
7	34	37.017369515601445
7	44	43.18691648241365
8	20	40.873352816370556
8	29	38.945383094667996
8	32	37.78855740428248
9	27	45.11475463202423
9	29	38.17415134862298
9	32	35.474993738239384
9	41	42.41572859373263
9	46	35.474993738239384
10	34	39.716570983349044
11	34	37.40296345994192
11	59	44.34374217279925
12	15	45.88620566488932
12	22	39.330977039008516
12	39	39.330977039008516
12	42	41.64454070505161
12	61	45.88620566488932
12	64	45.11475463202423
13	21	39.716570983349044
13	30	40.873352816370556
13	40	35.08939979389885
14	23	43.18691648241365
14	25	38.17415134862298
14	58	35.860587682579876
15	39	42.80132253807317
15	61	45.88620566488932
16	18	40.10216492768956
16	26	37.40296345994192
17	43	37.78855740428248
17	63	40.10216492768956
18	44	36.63177557126094
19	37	34.703805849558336
19	57	43.5725542841182
20	57	40.873352816370556
21	40	35.08939979389885
21	52	42.41572859373263
22	40	44.729248402411734
23	25	35.860587682579876
23	47	35.474993738239384
23	50	42.41572859373263
23	54	40.873352816370556
24	37	35.08939979389885
24	60	40.48775887203007
24	62	40.48775887203007
25	48	40.10216492768956
26	48	45.11475463202423
26	62	44.729248402411734
27	28	36.63177557126094
27	29	40.873352816370556
27	30	38.17415134862298
27	31	39.716570983349044
27	38	41.258946760711076
27	45	43.95823594318671
27	52	40.48775887203007
27	54	39.330977039008516
28	29	40.48775887203007
29	32	40.10216492768956
29	39	45.11475463202423
29	51	40.10216492768956
29	57	40.10216492768956
29	62	35.860587682579876
30	31	42.41572859373263
30	38	37.40296345994192
32	37	41.64454070505161
32	62	37.017369515601445
33	54	37.78855740428248
33	63	37.78855740428248
34	44	43.95823594318671
34	58	35.860587682579876
35	49	38.945383094667996
35	52	40.10216492768956
36	45	42.030134649392146
36	53	39.330977039008516
38	45	34.703805849558336
39	49	44.729248402411734
41	44	41.64454070505161
41	46	42.030134649392146
42	64	43.18691648241365
43	55	40.873352816370556
44	46	37.017369515601445
44	58	43.95823594318671
45	64	45.88620566488932
47	60	40.48775887203007
50	54	38.5597452929635
51	54	40.10216492768956
54	55	45.50069943527679
56	58	41.258946760711076
56	59	42.80132253807317
58	59	41.258946760711076
58	62	35.474993738239384
