65	65	65
0	13	40.07531859840385
0	30	41.242565478266364
0	42	45.52241339162561
1	9	44.74439208705879
1	38	43.96594093646734
1	53	44.74439208705879
2	27	41.242565478266364
2	29	39.68626496151798
2	51	38.51901808165548
3	48	35.40637406355624
3	58	35.79542770044211
4	24	37.740867823281235
4	50	42.79890897961716
5	16	42.40981235812885
5	62	43.96594093646734
6	15	41.242565478266364
6	39	35.01727744206793
7	34	37.351771201792964
7	44	43.57693028418398
8	20	41.242565478266364
8	29	39.297168340029614
8	32	38.12992146016712
9	27	45.52241339162561
9	29	38.51901808165548
9	32	35.79542770044211
9	41	42.79890897961716
9	46	35.79542770044211
10	34	40.07531859840385
11	34	37.740867823281235
11	59	44.74439208705879
12	15	46.30043469619236
12	22	39.68626496151798
12	39	39.68626496151798
12	42	42.02075872124299
12	61	46.30043469619236
12	64	45.52241339162561
13	21	40.07531859840385
13	30	41.242565478266364
13	40	35.40637406355624
14	23	43.57693028418398
14	25	38.51901808165548
14	58	36.18452432193043
15	39	43.18791963190056
15	61	46.30043469619236
16	18	40.46441521989216
16	26	37.740867823281235
17	43	38.12992146016712
17	63	40.46441521989216
18	44	36.96267458030463
19	37	35.01727744206793
19	57	43.96594093646734
20	57	41.242565478266364
21	40	35.40637406355624
21	52	42.79890897961716
22	40	45.13340273934221
23	25	36.18452432193043
23	47	35.79542770044211
23	50	42.79890897961716
23	54	41.242565478266364
24	37	35.40637406355624
24	60	40.853511841380474
24	62	40.853511841380474
25	48	40.46441521989216
26	48	45.52241339162561
26	62	45.13340273934221
27	28	36.96267458030463
27	29	41.242565478266364
27	30	38.51901808165548
27	31	40.07531859840385
27	38	41.63166209975468
27	45	44.35538143477541
27	52	40.853511841380474
27	54	39.68626496151798
28	29	40.853511841380474
29	32	40.46441521989216
29	39	45.52241339162561
29	51	40.46441521989216
29	57	40.46441521989216
29	62	36.18452432193043
30	31	42.79890897961716
30	38	37.740867823281235
32	37	42.02075872124299
32	62	37.351771201792964
33	54	38.12992146016712
33	63	38.12992146016712
34	44	44.35538143477541
34	58	36.18452432193043
35	49	39.297168340029614
35	52	40.46441521989216
36	45	42.40981235812885
36	53	39.68626496151798
38	45	35.01727744206793
39	49	45.13340273934221
41	44	42.02075872124299
41	46	42.40981235812885
42	64	43.57693028418398
43	55	41.242565478266364
44	46	37.351771201792964
44	58	44.35538143477541
45	64	46.30043469619236
47	60	40.853511841380474
50	54	38.908114703143795
51	54	40.46441521989216
54	55	45.91142404390899
56	58	41.63166209975468
56	59	43.18791963190056
58	59	41.63166209975468
58	62	35.79542770044211
