0	-1
1	2125
2	1600
3	-1
4	-1
5	1798
6	-1
7	-1
8	1732
9	3376
10	-1
11	-1
12	4350
13	-1
14	2517
15	1779
16	-1
17	-1
18	-1
19	-1
20	-1
21	-1
22	-1
23	4222
24	2601
25	-1
26	2155
27	5103
28	1078
29	7013
30	4200
31	1242
32	1692
33	-1
34	-1
35	-1
36	-1
37	2169
38	1442
39	4909
40	-1
41	1833
42	-1
43	-1
44	3053
45	3222
46	2461
47	-1
48	-1
49	-1
50	1850
51	2262
52	3101
53	-1
54	6079
55	-1
56	-1
57	2602
58	5450
59	-1
60	-1
61	-1
62	4262
63	-1
64	-1
