65	65	65
0	13	39.79045963788648
0	30	40.94941048947377
0	42	45.1987393350848
1	9	44.426306028838106
1	38	43.65344287656677
1	53	44.426306028838106
2	27	40.94941048947377
2	29	39.404157015558205
2	51	38.245206163970884
3	48	35.15469921613977
3	58	35.541001838468034
4	24	37.47255793471189
4	50	42.49466396338933
5	16	42.10836134106108
5	62	43.65344287656677
6	15	40.94941048947377
6	39	34.768353609209
7	34	37.08625531238361
7	44	43.26744114645576
8	20	40.94941048947377
8	29	39.01781140862744
8	32	37.85890354164263
9	27	45.1987393350848
9	29	38.245206163970884
9	32	35.541001838468034
9	41	42.49466396338933
9	46	35.541001838468034
10	34	39.79045963788648
11	34	37.47255793471189
11	59	44.426306028838106
12	15	45.97160248735613
12	22	39.404157015558205
12	39	39.404157015558205
12	42	41.72201573413033
12	61	45.97160248735613
12	64	45.1987393350848
13	21	39.79045963788648
13	30	40.94941048947377
13	40	35.15469921613977
14	23	43.26744114645576
14	25	38.245206163970884
14	58	35.927304460796286
15	39	42.88096658571762
15	61	45.97160248735613
16	18	40.176762260214744
16	26	37.47255793471189
17	43	37.85890354164263
17	63	40.176762260214744
18	44	36.69995269005536
19	37	34.768353609209
19	57	43.65344287656677
20	57	40.94941048947377
21	40	35.15469921613977
21	52	42.49466396338933
22	40	44.81273760497379
23	25	35.927304460796286
23	47	35.541001838468034
23	50	42.49466396338933
23	54	40.94941048947377
24	37	35.15469921613977
24	60	40.563107867145504
24	62	40.563107867145504
25	48	40.176762260214744
26	48	45.1987393350848
26	62	44.81273760497379
27	28	36.69995269005536
27	29	40.94941048947377
27	30	38.245206163970884
27	31	39.79045963788648
27	38	41.33571311180206
27	45	44.03987445270246
27	52	40.563107867145504
27	54	39.404157015558205
28	29	40.563107867145504
29	32	40.176762260214744
29	39	45.1987393350848
29	51	40.176762260214744
29	57	40.176762260214744
29	62	35.927304460796286
30	31	42.49466396338933
30	38	37.47255793471189
32	37	41.72201573413033
32	62	37.08625531238361
33	54	37.85890354164263
33	63	37.85890354164263
34	44	44.03987445270246
34	58	35.927304460796286
35	49	39.01781140862744
35	52	40.176762260214744
36	45	42.10836134106108
36	53	39.404157015558205
38	45	34.768353609209
39	49	44.81273760497379
41	44	41.72201573413033
41	46	42.10836134106108
42	64	43.26744114645576
43	55	40.94941048947377
44	46	37.08625531238361
44	58	44.03987445270246
45	64	45.97160248735613
47	60	40.563107867145504
50	54	38.63150878629919
51	54	40.176762260214744
54	55	45.585170911220445
56	58	41.33571311180206
56	59	42.88096658571762
58	59	41.33571311180206
58	62	35.541001838468034
