0	-1
1	2107
2	1573
3	-1
4	-1
5	1926
6	-1
7	-1
8	1849
9	3456
10	-1
11	-1
12	4041
13	-1
14	2678
15	-1
16	-1
17	-1
18	-1
19	-1
20	-1
21	-1
22	-1
23	4249
24	2815
25	-1
26	2218
27	5234
28	1149
29	7424
30	4284
31	1225
32	1660
33	-1
34	-1
35	-1
36	-1
37	2082
38	1424
39	5225
40	-1
41	1933
42	-1
43	-1
44	3068
45	3249
46	2641
47	-1
48	-1
49	-1
50	1845
51	2267
52	3073
53	-1
54	6166
55	-1
56	-1
57	2635
58	5557
59	-1
60	-1
61	-1
62	4457
63	-1
64	-1
