65	65	65
0	13	39.949102727308706
0	30	41.112682451751205
0	42	45.37921453698026
1	9	44.60337776771458
1	38	43.82767257054093
1	53	44.60337776771458
2	27	41.112682451751205
2	29	39.56122820003989
2	51	38.397692332961405
3	48	35.294827686902806
3	58	35.68270221417168
4	24	37.62198713578777
4	50	42.66409284609849
5	16	42.276218318829656
5	62	43.82767257054093
6	15	41.112682451751205
6	39	34.906997016998
7	34	37.23411260851894
7	44	43.43979804327211
8	20	41.112682451751205
8	29	39.17339753013505
8	32	38.00981780569261
9	27	45.37921453698026
9	29	38.397692332961405
9	32	35.68270221417168
9	41	42.66409284609849
9	46	35.68270221417168
10	34	39.949102727308706
11	34	37.62198713578777
11	59	44.60337776771458
12	15	46.15461273260582
12	22	39.56122820003989
12	39	39.56122820003989
12	42	41.8883876489248
12	61	46.15461273260582
12	64	45.37921453698026
13	21	39.949102727308706
13	30	41.112682451751205
13	40	35.294827686902806
14	23	43.43979804327211
14	25	38.397692332961405
14	58	36.070532884076506
15	39	43.051923516003264
15	61	46.15461273260582
16	18	40.336977254577555
16	26	37.62198713578777
17	43	38.00981780569261
17	63	40.336977254577555
18	44	36.846238081250114
19	37	34.906997016998
19	57	43.82767257054093
20	57	41.112682451751205
21	40	35.294827686902806
21	52	42.66409284609849
22	40	44.99107686552737
23	25	36.070532884076506
23	47	35.68270221417168
23	50	42.66409284609849
23	54	41.112682451751205
24	37	35.294827686902806
24	60	40.72480792448237
24	62	40.72480792448237
25	48	40.336977254577555
26	48	45.37921453698026
26	62	44.99107686552737
27	28	36.846238081250114
27	29	41.112682451751205
27	30	38.397692332961405
27	31	39.949102727308706
27	38	41.50051312165599
27	45	44.2156786699018
27	52	40.72480792448237
27	54	39.56122820003989
28	29	40.72480792448237
29	32	40.336977254577555
29	39	45.37921453698026
29	51	40.336977254577555
29	57	40.336977254577555
29	62	36.070532884076506
30	31	42.66409284609849
30	38	37.62198713578777
32	37	41.8883876489248
32	62	37.23411260851894
33	54	38.00981780569261
33	63	38.00981780569261
34	44	44.2156786699018
34	58	36.070532884076506
35	49	39.17339753013505
35	52	40.336977254577555
36	45	42.276218318829656
36	53	39.56122820003989
38	45	34.906997016998
39	49	44.99107686552737
41	44	41.8883876489248
41	46	42.276218318829656
42	64	43.43979804327211
43	55	41.112682451751205
44	46	37.23411260851894
44	58	44.2156786699018
45	64	46.15461273260582
47	60	40.72480792448237
50	54	38.78552300286624
51	54	40.336977254577555
54	55	45.76691363479304
56	58	41.50051312165599
56	59	43.051923516003264
58	59	41.50051312165599
58	62	35.68270221417168
