15	15	15
0	5	379.649
0	6	396.3
0	7	343.016
1	2	369.658
1	4	372.988
1	5	366.328
2	4	326.365
2	7	343.016
3	4	316.374
3	5	396.3
5	12	386.309
6	9	366.328
6	13	319.704
7	8	372.988
7	14	339.686
8	9	343.016
8	11	323.034
8	14	316.374
9	11	313.044
10	12	319.704
10	13	369.658
12	13	369.658
