15	15	15
0	5	100.403
0	6	116.425
0	7	108.948
1	2	97.1989
1	4	124.97
1	5	112.153
2	4	100.403
2	7	124.97
3	4	113.221
3	5	116.425
5	12	102.54
6	9	123.902
6	13	96.1308
7	8	111.084
7	14	119.629
8	9	102.54
8	11	124.97
8	14	102.54
9	11	102.54
10	12	126.038
10	13	122.834
12	13	119.629
