15	15	15
0	5	91.3305
0	6	91.3305
0	7	103.961
1	2	104.933
1	4	87.4441
1	5	101.047
2	4	90.3589
2	7	105.905
3	4	88.4157
3	5	113.677
5	12	108.819
6	9	105.905
6	13	108.819
7	8	112.706
7	14	107.848
8	9	113.677
8	11	92.3021
8	14	104.933
9	11	98.1317
10	12	112.706
10	13	90.3589
12	13	106.876
