15	15	15
0	5	109.929
0	6	120.108
0	7	119.09
1	2	97.7146
1	4	97.7146
1	5	121.125
2	4	110.947
2	7	103.822
3	4	94.661
3	5	92.6253
5	12	92.6253
6	9	103.822
6	13	97.7146
7	8	92.6253
7	14	99.7504
8	9	94.661
8	11	120.108
8	14	116.036
9	11	106.875
10	12	121.125
10	13	97.7146
12	13	120.108
