15	15	15
0	5	169.242
0	6	137.79
0	7	149.772
1	2	154.265
1	4	140.786
1	5	134.795
2	4	170.74
2	7	172.238
3	4	137.79
3	5	136.292
5	12	166.247
6	9	143.781
6	13	155.763
7	8	158.758
7	14	137.79
8	9	163.251
8	11	142.283
8	14	140.786
9	11	166.247
10	12	169.242
10	13	164.749
12	13	151.27
