15	15	15
0	5	106.366
0	6	89.4667
0	7	109.348
1	2	94.4371
1	4	117.301
1	5	112.33
2	4	91.4549
2	7	117.301
3	4	91.4549
3	5	116.307
5	12	114.319
6	9	95.4312
6	13	118.295
7	8	105.372
7	14	116.307
8	9	104.378
8	11	117.301
8	14	103.384
9	11	99.4075
10	12	103.384
10	13	93.443
12	13	113.325
