15	15	15
0	5	320.913
0	6	268.799
0	7	318.17
1	2	285.256
1	4	277.027
1	5	274.285
2	4	246.856
2	7	307.199
3	4	315.427
3	5	315.427
5	12	290.742
6	9	246.856
6	13	282.513
7	8	290.742
7	14	312.684
8	9	320.913
8	11	274.285
8	14	266.056
9	11	246.856
10	12	320.913
10	13	326.399
12	13	249.599
