15	15	15
0	5	110.089
0	6	95.4108
0	7	117.429
1	2	114.283
1	4	101.702
1	5	103.799
2	4	98.5562
2	7	107.992
3	4	97.5077
3	5	98.5562
5	12	119.526
6	9	94.3623
6	13	119.526
7	8	115.332
7	14	103.799
8	9	105.895
8	11	95.4108
8	14	111.138
9	11	116.38
10	12	109.041
10	13	110.089
12	13	94.3623
