15	15	15
0	5	138.283
0	6	129.729
0	7	128.304
1	2	148.262
1	4	151.113
1	5	142.56
2	4	138.283
2	7	149.688
3	4	134.006
3	5	139.708
5	12	129.729
6	9	135.432
6	13	169.646
7	8	158.241
7	14	131.155
8	9	166.795
8	11	159.667
8	14	132.58
9	11	128.304
10	12	134.006
10	13	139.708
12	13	149.688
