15	15	15
0	5	89.7983
0	6	94.6262
0	7	87.8672
1	2	96.5573
1	4	104.282
1	5	96.5573
2	4	86.9016
2	7	104.282
3	4	88.8327
3	5	105.247
5	12	96.5573
6	9	114.903
6	13	88.8327
7	8	109.11
7	14	107.179
8	9	96.5573
8	11	104.282
8	14	105.247
9	11	105.247
10	12	95.5917
10	13	111.041
12	13	112.972
