15

7
5	8
5	6	8
4	5	7	8
4	5	7	8	13
4	5	6	7	8	13
4	5	6	7	8	12	13
0	1	4	7	8	9	12	13
1	4	5	6	7	8	9	10	12
1	4	5	6	7	8	9	10	11	12
0	1	2	4	5	6	7	8	9	12	13
0	1	2	3	4	5	6	7	8	9	12	13
0	1	2	3	4	5	6	7	8	9	12	13	14
0	1	2	3	4	5	6	7	8	9	11	12	13	14
0	1	2	3	4	5	6	7	8	9	10	11	12	13	14
