15	15	15
0	5	106.175
0	6	123.51
0	7	122.427
1	2	114.843
1	4	112.676
1	5	110.509
2	4	119.177
2	7	109.426
3	4	112.676
3	5	122.427
5	12	101.842
6	9	119.177
6	13	104.009
7	8	109.426
7	14	118.093
8	9	118.093
8	11	112.676
8	14	115.926
9	11	126.76
10	12	121.343
10	13	123.51
12	13	125.677
