15	15	15
0	5	102.346
0	6	100.339
0	7	100.339
1	2	99.3356
1	4	109.37
1	5	99.3356
2	4	114.386
2	7	104.353
3	4	114.386
3	5	108.366
5	12	98.3322
6	9	91.3085
6	13	117.397
7	8	90.3051
7	14	90.3051
8	9	111.376
8	11	99.3356
8	14	111.376
9	11	99.3356
10	12	100.339
10	13	105.356
12	13	106.359
