15	15	15
0	5	729.086
0	6	634.808
0	7	659.949
1	2	622.237
1	4	653.663
1	5	710.23
2	4	716.516
2	7	703.945
3	4	647.378
3	5	622.237
5	12	672.519
6	9	697.66
6	13	615.952
7	8	741.657
7	14	659.949
8	9	672.519
8	11	584.526
8	14	678.804
9	11	659.949
10	12	691.375
10	13	590.811
12	13	578.241
