15	15	15
0	5	103.066
0	6	98.0142
0	7	120.244
1	2	118.223
1	4	111.15
1	5	106.098
2	4	119.234
2	7	112.161
3	4	97.0037
3	5	104.077
5	12	110.14
6	9	113.171
6	13	112.161
7	8	107.108
7	14	104.077
8	9	95.9933
8	11	100.035
8	14	109.129
9	11	103.066
10	12	103.066
10	13	105.087
12	13	99.0246
