15	15	15
0	5	121.133
0	6	126.492
0	7	121.133
1	2	111.485
1	4	112.557
1	5	96.4773
2	4	101.837
2	7	107.197
3	4	127.564
3	5	124.349
5	12	118.989
6	9	109.341
6	13	99.6932
7	8	121.133
7	14	117.917
8	9	113.629
8	11	115.773
8	14	110.413
9	11	113.629
10	12	124.349
10	13	120.061
12	13	102.909
