15	15	15
0	5	113.784
0	6	116.888
0	7	119.991
1	2	116.888
1	4	119.991
1	5	103.44
2	4	93.0964
2	7	105.509
3	4	101.372
3	5	96.1996
5	12	123.094
6	9	113.784
6	13	112.75
7	8	106.544
7	14	103.44
8	9	109.647
8	11	115.853
8	14	110.681
9	11	117.922
10	12	104.475
10	13	100.337
12	13	113.784
