15	15	15
0	5	117.695
0	6	109.783
0	7	104.838
1	2	102.859
1	4	96.9252
1	5	99.8923
2	4	98.9033
2	7	117.695
3	4	113.739
3	5	115.717
5	12	90.991
6	9	113.739
6	13	111.761
7	8	114.728
7	14	107.805
8	9	92.9691
8	11	114.728
8	14	101.87
9	11	94.9472
10	12	117.695
10	13	96.9252
12	13	106.816
