15	15	15
0	5	105.087
0	6	109.129
0	7	110.14
1	2	106.098
1	4	95.9933
1	5	105.087
2	4	93.9724
2	7	108.119
3	4	101.046
3	5	111.15
5	12	101.046
6	9	98.0142
6	13	104.077
7	8	108.119
7	14	95.9933
8	9	102.056
8	11	115.192
8	14	114.181
9	11	98.0142
10	12	94.9828
10	13	114.181
12	13	103.066
