15	15	15
0	5	89.1496
0	6	99.9259
0	7	92.0886
1	2	114.621
1	4	114.621
1	5	93.0682
2	4	110.702
2	7	110.702
3	4	114.621
3	5	107.763
5	12	102.865
6	9	95.0276
6	13	109.723
7	8	104.824
7	14	106.784
8	9	106.784
8	11	106.784
8	14	96.0072
9	11	102.865
10	12	102.865
10	13	92.0886
12	13	98.9462
