15	15	15
0	5	90.941
0	6	116.202
0	7	106.098
1	2	98.0142
1	4	110.14
1	5	93.9724
2	4	102.056
2	7	104.077
3	4	100.035
3	5	94.9828
5	12	90.941
6	9	120.244
6	13	116.202
7	8	110.14
7	14	113.171
8	9	118.223
8	11	98.0142
8	14	116.202
9	11	112.161
10	12	100.035
10	13	109.129
12	13	92.9619
