15	15	15
0	5	333.145
0	6	316.148
0	7	350.142
1	2	316.148
1	4	387.536
1	5	326.346
2	4	343.344
2	7	333.145
3	4	346.743
3	5	350.142
5	12	394.335
6	9	343.344
6	13	367.14
7	8	401.134
7	14	397.735
8	9	377.338
8	11	346.743
8	14	370.539
9	11	401.134
10	12	363.74
10	13	356.941
12	13	346.743
