15	15	15
0	5	108.655
0	6	124.667
0	7	132.673
1	2	129.242
1	4	115.517
1	5	130.385
2	4	117.804
2	7	108.655
3	4	113.229
3	5	112.086
5	12	112.086
6	9	131.529
6	13	131.529
7	8	122.379
7	14	115.517
8	9	118.948
8	11	136.104
8	14	128.098
9	11	129.242
10	12	132.673
10	13	133.817
12	13	117.804
