15	15	15
0	5	102.166
0	6	109.177
0	7	104.169
1	2	109.177
1	4	113.184
1	5	92.1497
2	4	104.169
2	7	90.1464
3	4	114.185
3	5	105.171
5	12	94.1529
6	9	99.161
6	13	108.176
7	8	108.176
7	14	97.1578
8	9	110.179
8	11	101.164
8	14	95.1545
9	11	97.1578
10	12	116.189
10	13	100.163
12	13	115.187
