15	15	15
0	5	119.887
0	6	127.956
0	7	119.887
1	2	136.025
1	4	109.512
1	5	116.428
2	4	111.817
2	7	111.817
3	4	110.665
3	5	134.872
5	12	104.901
6	9	116.428
6	13	133.72
7	8	106.054
7	14	108.359
8	9	104.901
8	11	127.956
8	14	132.567
9	11	123.345
10	12	122.192
10	13	104.901
12	13	124.498
