15	15	15
0	5	104.077
0	6	106.098
0	7	101.046
1	2	100.035
1	4	114.181
1	5	108.119
2	4	100.035
2	7	109.129
3	4	98.0142
3	5	110.14
5	12	102.056
6	9	112.161
6	13	114.181
7	8	106.098
7	14	111.15
8	9	109.129
8	11	98.0142
8	14	111.15
9	11	109.129
10	12	119.234
10	13	112.161
12	13	97.0037
