15	15	15
0	5	95.07904031947903
0	6	97.84827068468837
0	7	108.00272424682487
1	2	106.15687511486966
1	4	104.3101126483613
1	5	106.15687511486966
2	4	97.84827068468837
2	7	94.15657242077802
3	4	91.38734205556864
3	5	84.00211885864154
5	12	84.9252260915298
6	9	89.54076225597095
6	13	101.54088228315196
7	8	100.61750104989777
7	14	104.3101126483613
8	9	97.84827068468837
8	11	83.07901162575331
8	14	88.6176550230827
9	11	103.38764474966031
10	12	97.84827068468837
10	13	93.23319118752384
12	13	90.46386948885916
