15	15	15
0	5	103.30646930833936
0	6	106.31601745198613
0	7	117.3487799130559
1	2	115.34297633370015
1	4	113.33632997973119
1	5	115.34297633370015
2	4	106.31601745198613
2	7	102.30356751866145
3	4	99.29486214962783
3	5	91.27080505759173
5	12	92.27370684726955
6	9	97.28905857027209
6	13	110.3276246106976
7	8	109.32472282101972
7	14	113.33632997973119
8	9	106.31601745198613
8	11	90.26790326791382
8	14	96.28615678059421
9	11	112.33342819005335
10	12	106.31601745198613
10	13	101.30066572898357
12	13	98.29196035994994
