15	15	15
0	5	97.5679
0	6	103.364
0	7	89.8397
1	2	97.5679
1	4	97.5679
1	5	97.5679
2	4	87.9077
2	7	113.99
3	4	114.956
3	5	105.296
5	12	113.024
6	9	91.7718
6	13	101.432
7	8	92.7378
7	14	95.6358
8	9	97.5679
8	11	110.126
8	14	87.9077
9	11	104.33
10	12	89.8397
10	13	93.7038
12	13	88.8737
