15	15	15
0	5	95.9933
0	6	117.213
0	7	90.941
1	2	104.077
1	4	95.9933
1	5	93.9724
2	4	111.15
2	7	114.181
3	4	116.202
3	5	101.046
5	12	120.244
6	9	108.119
6	13	117.213
7	8	97.0037
7	14	94.9828
8	9	105.087
8	11	108.119
8	14	98.0142
9	11	92.9619
10	12	109.129
10	13	99.0246
12	13	94.9828
