15	15	15
0	5	168.9
0	6	175.523
0	7	187.115
1	2	160.62
1	4	175.523
1	5	168.9
2	4	185.459
2	7	152.341
3	4	170.556
3	5	192.082
5	12	193.738
6	9	162.276
6	13	172.212
7	8	152.341
7	14	160.62
8	9	158.965
8	11	160.62
8	14	185.459
9	11	178.835
10	12	188.77
10	13	197.05
12	13	150.685
