15	15	15
0	5	222.677
0	6	247.419
0	7	215.929
1	2	231.674
1	4	202.433
1	5	254.166
2	4	258.665
2	7	238.422
3	4	211.431
3	5	229.425
5	12	224.926
6	9	229.425
6	13	242.92
7	8	263.164
7	14	204.683
8	9	227.175
8	11	240.671
8	14	247.419
9	11	256.416
10	12	204.683
10	13	213.68
12	13	240.671
