15	15	15
0	5	114.728
0	6	113.739
0	7	102.859
1	2	113.739
1	4	114.728
1	5	100.881
2	4	98.9033
2	7	89.013
3	4	93.9581
3	5	114.728
5	12	108.794
6	9	98.9033
6	13	103.848
7	8	95.9362
7	14	90.002
8	9	108.794
8	11	107.805
8	14	94.9472
9	11	103.848
10	12	107.805
10	13	94.9472
12	13	99.8923
