15	15	15
0	5	110.14
0	6	92.9619
0	7	110.14
1	2	101.046
1	4	97.0037
1	5	111.15
2	4	119.234
2	7	102.056
3	4	115.192
3	5	119.234
5	12	103.066
6	9	93.9724
6	13	113.171
7	8	95.9933
7	14	116.202
8	9	106.098
8	11	99.0246
8	14	108.119
9	11	107.108
10	12	91.9514
10	13	99.0246
12	13	93.9724
