15	15	15
0	5	92.9619
0	6	104.077
0	7	97.0037
1	2	115.192
1	4	113.171
1	5	107.108
2	4	94.9828
2	7	110.14
3	4	110.14
3	5	92.9619
5	12	111.15
6	9	97.0037
6	13	113.171
7	8	113.171
7	14	94.9828
8	9	115.192
8	11	90.941
8	14	117.213
9	11	109.129
10	12	108.119
10	13	90.941
12	13	116.202
