15	15	15
0	5	343.831
0	6	347.413
0	7	350.994
1	2	419.044
1	4	408.3
1	5	401.136
2	4	383.229
2	7	372.484
3	4	376.065
3	5	426.207
5	12	358.158
6	9	419.044
6	13	361.739
7	8	393.973
7	14	322.342
8	9	397.555
8	11	322.342
8	14	376.065
9	11	419.044
10	12	340.25
10	13	393.973
12	13	408.3
