15	15	15
0	5	95.1108
0	6	114.133
0	7	109.127
1	2	102.119
1	4	112.131
1	5	99.1155
2	4	112.131
2	7	116.135
3	4	100.117
3	5	95.1108
5	12	110.128
6	9	110.128
6	13	109.127
7	8	102.119
7	14	102.119
8	9	109.127
8	11	104.121
8	14	116.135
9	11	112.131
10	12	100.117
10	13	113.132
12	13	114.133
