15	15	15
0	5	105.087
0	6	117.213
0	7	91.9514
1	2	91.9514
1	4	92.9619
1	5	120.244
2	4	102.056
2	7	101.046
3	4	116.202
3	5	116.202
5	12	118.223
6	9	107.108
6	13	118.223
7	8	98.0142
7	14	92.9619
8	9	109.129
8	11	108.119
8	14	92.9619
9	11	109.129
10	12	92.9619
10	13	105.087
12	13	110.14
