15	15	15
0	5	94.6574
0	6	99.6923
0	7	102.713
1	2	111.776
1	4	98.6854
1	5	95.6644
2	4	104.727
2	7	90.6294
3	4	119.832
3	5	115.804
5	12	97.6784
6	9	96.6714
6	13	114.797
7	8	110.769
7	14	114.797
8	9	114.797
8	11	91.6364
8	14	115.804
9	11	94.6574
10	12	97.6784
10	13	104.727
12	13	96.6714
