0	1560
1	1591
2	1518
3	1225
4	1390
5	2074
6	1762
7	-1
8	923
9	1218
10	2046
11	1116
12	1158
13	2215
14	1502
15	-1
16	1607
17	-1
18	2097
19	1265
20	-1
21	1642
22	1552
23	1387
24	1554
25	2100
26	-1
27	1187
28	1699
29	1159
30	1273
31	1741
32	1475
33	-1
34	-1
35	1209
36	-1
37	2528
38	1255
39	1091
40	-1
41	-1
42	1246
43	1573
44	1531
45	1751
46	1383
47	1088
48	1420
49	1678
