50	50	50
0	29	41.61508748387367
0	46	42.82718780469624
0	48	47.27153465569068
1	34	46.4634887671639
1	47	45.65537990257228
1	49	46.4634887671639
2	8	42.82718780469624
2	31	41.211096027642725
2	37	39.998995706820175
3	11	36.7667491766483
3	20	37.17080360894413
3	31	39.190949818293426
3	32	44.443342557814624
3	43	44.039288125518794
4	5	45.65537990257228
4	22	42.82718780469624
4	35	36.362694744352474
4	44	38.78689538599762
5	21	45.25138844634138
5	22	42.82718780469624
5	25	40.80704159534693
5	32	39.59494127452435
6	7	47.27153465569068
6	22	39.998995706820175
6	38	37.17080360894413
7	15	44.443342557814624
8	11	37.17080360894413
8	13	41.61508748387367
9	16	39.190949818293426
9	23	46.4634887671639
9	33	48.07958054421741
10	14	41.211096027642725
10	25	41.211096027642725
10	35	43.63523369322298
10	44	48.07958054421741
11	13	47.27153465569068
11	31	41.61508748387367
12	14	42.82718780469624
12	29	36.7667491766483
13	25	45.25138844634138
13	31	39.998995706820175
13	49	37.57479506517505
14	48	44.84733401404552
15	27	48.07958054421741
16	18	42.01914191616949
16	19	39.190949818293426
16	28	39.59494127452435
17	24	42.01914191616949
17	30	38.3828409537018
18	19	36.362694744352474
18	25	45.65537990257228
18	49	42.82718780469624
19	25	36.7667491766483
19	44	44.443342557814624
20	43	46.867480223394836
21	22	37.57479506517505
21	27	37.17080360894413
21	43	44.443342557814624
22	39	42.82718780469624
23	24	36.7667491766483
23	28	42.42313337240044
23	42	42.42313337240044
24	33	42.01914191616949
24	42	47.27153465569068
24	45	46.867480223394836
26	30	38.3828409537018
26	34	42.82718780469624
27	43	39.998995706820175
28	29	41.61508748387367
28	44	43.231242236992045
28	46	46.05943433486814
30	45	42.42313337240044
31	32	41.211096027642725
32	43	42.42313337240044
34	37	42.01914191616949
34	40	47.27153465569068
34	41	42.01914191616949
35	39	42.01914191616949
36	38	37.57479506517505
36	48	44.443342557814624
37	41	39.190949818293426
37	49	43.63523369322298
38	39	38.78689538599762
38	48	39.59494127452435
40	41	39.59494127452435
42	46	46.05943433486814
45	47	37.57479506517505
45	49	40.80704159534693
