0	-1
1	2105
2	1842
3	1712
4	1681
5	2756
6	-1
7	-1
8	1094
9	-1
10	2353
11	1355
12	-1
13	2444
14	2948
15	-1
16	2166
17	-1
18	2529
19	1630
20	-1
21	2641
22	2919
23	1737
24	2059
25	2415
26	-1
27	-1
28	2086
29	1475
30	-1
31	2119
32	1882
33	-1
34	-1
35	1376
36	-1
37	3163
38	-1
39	-1
40	-1
41	-1
42	1706
43	-1
44	1881
45	2346
46	2369
47	-1
48	-1
49	2047
