50	50	50
0	29	40.17325874793851
0	46	41.34340492323284
0	48	45.63372885868952
1	34	44.853652612555585
1	47	44.073576366421605
1	49	44.853652612555585
2	8	41.34340492323284
2	31	39.78325243096489
2	37	38.61316986785733
3	11	35.49292849550816
3	20	35.882934812481814
3	31	37.83309362172334
3	32	42.90349380331404
3	43	42.51348748634043
4	5	44.073576366421605
4	22	41.34340492323284
4	35	35.102858566347855
4	44	37.44308730474975
5	21	43.68357004944801
5	22	41.34340492323284
5	25	39.39324611399129
5	32	38.22309993869697
6	7	45.63372885868952
6	22	38.61316986785733
6	38	35.882934812481814
7	15	42.90349380331404
8	11	35.882934812481814
8	13	40.17325874793851
9	16	37.83309362172334
9	23	44.853652612555585
9	33	46.41380510482353
10	14	39.78325243096489
10	25	39.78325243096489
10	35	42.123417557180055
10	44	46.41380510482353
11	13	45.63372885868952
11	31	40.17325874793851
12	14	41.34340492323284
12	29	35.49292849550816
13	25	43.68357004944801
13	31	38.61316986785733
13	49	36.27294112945541
14	48	43.293563732474375
15	27	46.41380510482353
16	18	40.56332867709886
16	19	37.83309362172334
16	28	38.22309993869697
17	24	40.56332867709886
17	30	37.05301737558937
18	19	35.102858566347855
18	25	44.073576366421605
18	49	41.34340492323284
19	25	35.49292849550816
19	44	42.90349380331404
20	43	45.243722541715954
21	22	36.27294112945541
21	27	35.882934812481814
21	43	42.90349380331404
22	39	41.34340492323284
23	24	35.49292849550816
23	28	40.95333499407247
23	42	40.95333499407247
24	33	40.56332867709886
24	42	45.63372885868952
24	45	45.243722541715954
26	30	37.05301737558937
26	34	41.34340492323284
27	43	38.61316986785733
28	29	40.17325874793851
28	44	41.73341124020645
28	46	44.46364629558195
30	45	40.95333499407247
31	32	39.78325243096489
32	43	40.95333499407247
34	37	40.56332867709886
34	40	45.63372885868952
34	41	40.56332867709886
35	39	40.56332867709886
36	38	36.27294112945541
36	48	42.90349380331404
37	41	37.83309362172334
37	49	42.123417557180055
38	39	37.44308730474975
38	48	38.22309993869697
40	41	38.22309993869697
42	46	44.46364629558195
45	47	36.27294112945541
45	49	39.39324611399129
