50	50	50
0	29	39.82530771987008
0	46	40.98526385896868
0	48	45.23841537697526
1	34	44.46513227626448
1	47	43.6918491755537
1	49	44.46513227626448
2	8	40.98526385896868
2	31	39.43863468148223
2	37	38.27867854238362
3	11	35.18548316347566
3	20	35.572093225798604
3	31	37.505395441672874
3	32	42.53189303645511
3	43	42.14521999806727
4	5	43.6918491755537
4	22	40.98526385896868
4	35	34.798810125087826
4	44	37.118722403285034
5	21	43.305176137165866
5	22	40.98526385896868
5	25	39.051961643094415
5	32	37.89200550399581
6	7	45.23841537697526
6	22	38.27867854238362
6	38	35.572093225798604
7	15	42.53189303645511
8	11	35.572093225798604
8	13	39.82530771987008
9	16	37.505395441672874
9	23	44.46513227626448
9	33	46.0117614537509
10	14	39.43863468148223
10	25	39.43863468148223
10	35	41.75854695967944
10	44	46.0117614537509
11	13	45.23841537697526
11	31	39.82530771987008
12	14	40.98526385896868
12	29	35.18548316347566
13	25	43.305176137165866
13	31	38.27867854238362
13	49	35.95876626418642
14	48	42.91850309877803
15	27	46.0117614537509
16	18	40.21198075825789
16	19	37.505395441672874
16	28	37.89200550399581
17	24	40.21198075825789
17	30	36.73204936489721
18	19	34.798810125087826
18	25	43.6918491755537
18	49	40.98526385896868
19	25	35.18548316347566
19	44	42.53189303645511
20	43	44.85180531465231
21	22	35.95876626418642
21	27	35.572093225798604
21	43	42.53189303645511
22	39	40.98526385896868
23	24	35.18548316347566
23	28	40.59859082058083
23	42	40.59859082058083
24	33	40.21198075825789
24	42	45.23841537697526
24	45	44.85180531465231
26	30	36.73204936489721
26	34	40.98526385896868
27	43	38.27867854238362
28	29	39.82530771987008
28	44	41.37193689735651
28	46	44.07845923787667
30	45	40.59859082058083
31	32	39.43863468148223
32	43	40.59859082058083
34	37	40.21198075825789
34	40	45.23841537697526
34	41	40.21198075825789
35	39	40.21198075825789
36	38	35.95876626418642
36	48	42.53189303645511
37	41	37.505395441672874
37	49	41.75854695967944
38	39	37.118722403285034
38	48	37.89200550399581
40	41	37.89200550399581
42	46	44.07845923787667
45	47	35.95876626418642
45	49	39.051961643094415
