0	-1
1	-1
2	-1
3	-1
4	2132
5	3419
6	-1
7	-1
8	1401
9	-1
10	4209
11	1949
12	-1
13	3182
14	-1
15	-1
16	2539
17	-1
18	3056
19	2034
20	-1
21	3066
22	3841
23	2188
24	3049
25	3234
26	-1
27	-1
28	3695
29	-1
30	-1
31	3059
32	2375
33	-1
34	-1
35	-1
36	-1
37	3887
38	-1
39	-1
40	-1
41	-1
42	-1
43	-1
44	2357
45	3109
46	-1
47	-1
48	-1
49	2781
