50	50	50
0	29	40.12521666251636
0	46	41.29393866050242
0	48	45.579108633155066
1	34	44.79998120877811
1	47	44.020853784401176
1	49	44.79998120877811
2	8	41.29393866050242
2	31	39.73568381174848
2	37	38.56696181376245
3	11	35.45045211625462
3	20	35.839984967022495
3	31	37.78783438938547
3	32	42.85219350925632
3	43	42.462598935647236
4	5	44.020853784401176
4	22	41.29393866050242
4	35	35.06085754264553
4	44	37.398239815776435
5	21	43.63132093363328
5	22	41.29393866050242
5	25	39.34608923813942
5	32	38.177367240153366
6	7	45.579108633155066
6	22	38.56696181376245
6	38	35.839984967022495
7	15	42.85219350925632
8	11	35.839984967022495
8	13	40.12521666251636
9	16	37.78783438938547
9	23	44.79998120877811
9	33	46.35829778037324
10	14	39.73568381174848
10	25	39.73568381174848
10	35	42.073066084879365
10	44	46.35829778037324
11	13	45.579108633155066
11	31	40.12521666251636
12	14	41.29393866050242
12	29	35.45045211625462
13	25	43.63132093363328
13	31	38.56696181376245
13	49	36.22957954063157
14	48	43.24172636002418
15	27	46.35829778037324
16	18	40.51481123612543
16	19	37.78783438938547
16	28	38.177367240153366
17	24	40.51481123612543
17	30	37.00870696500853
18	19	35.06085754264553
18	25	44.020853784401176
18	49	41.29393866050242
19	25	35.45045211625462
19	44	42.85219350925632
20	43	45.189575782387195
21	22	36.22957954063157
21	27	35.839984967022495
21	43	42.85219350925632
22	39	41.29393866050242
23	24	35.45045211625462
23	28	40.90434408689333
23	42	40.90434408689333
24	33	40.51481123612543
24	42	45.579108633155066
24	45	45.189575782387195
26	30	37.00870696500853
26	34	41.29393866050242
27	43	38.56696181376245
28	29	40.12521666251636
28	44	41.683471511270284
28	46	44.41044835801023
30	45	40.90434408689333
31	32	39.73568381174848
32	43	40.90434408689333
34	37	40.51481123612543
34	40	45.579108633155066
34	41	40.51481123612543
35	39	40.51481123612543
36	38	36.22957954063157
36	48	42.85219350925632
37	41	37.78783438938547
37	49	42.073066084879365
38	39	37.398239815776435
38	48	38.177367240153366
40	41	38.177367240153366
42	46	44.41044835801023
45	47	36.22957954063157
45	49	39.34608923813942
