50	50	50
0	29	67.4812
0	46	68.1301
0	48	77.2141
1	34	68.1301
1	47	72.6721
1	49	62.2904
2	8	71.3744
2	31	66.8324
2	37	70.0767
3	11	75.2675
3	20	58.3972
3	31	66.8324
3	32	74.6187
3	43	76.5652
4	5	71.3744
4	22	77.2141
4	35	67.4812
4	44	72.0232
5	21	76.5652
5	22	62.9392
5	25	77.2141
5	32	72.0232
6	7	71.3744
6	22	75.2675
6	38	65.5347
7	15	60.9927
8	11	60.3438
8	13	60.3438
9	16	72.0232
9	23	60.9927
9	33	59.0461
10	14	76.5652
10	25	65.5347
10	35	58.3972
10	44	66.8324
11	13	74.6187
11	31	76.5652
12	14	74.6187
12	29	63.5881
13	25	63.5881
13	31	67.4812
13	49	64.2369
14	48	72.0232
15	27	59.0461
16	18	77.2141
16	19	60.3438
16	28	58.3972
17	24	66.8324
17	30	69.4278
18	19	77.2141
18	25	66.1835
18	49	68.779
19	25	71.3744
19	44	60.3438
20	43	60.9927
21	22	73.9698
21	27	77.2141
21	43	62.9392
22	39	75.9164
23	24	72.0232
23	28	60.3438
23	42	76.5652
24	33	65.5347
24	42	62.2904
24	45	71.3744
26	30	68.779
26	34	59.6949
27	43	64.8858
28	29	66.1835
28	44	64.8858
28	46	65.5347
30	45	75.2675
31	32	65.5347
32	43	59.6949
34	37	70.7255
34	40	60.3438
34	41	76.5652
35	39	70.7255
36	38	68.779
36	48	68.1301
37	41	64.8858
37	49	72.0232
38	39	59.0461
38	48	73.321
40	41	68.779
42	46	61.6415
45	47	69.4278
45	49	68.1301
