50	50	50
0	29	41.08350652018771
0	46	42.28011472904883
0	48	46.66765716951787
1	34	45.86993935563211
1	47	45.07215856568148
1	49	45.86993935563211
2	8	42.28011472904883
2	31	40.68461612521242
2	37	39.48800791635131
3	11	36.297073684743324
3	20	36.695901103653775
3	31	38.690290102465546
3	32	43.875550356820355
3	43	43.47672293790994
4	5	45.07215856568148
4	22	42.28011472904883
4	35	35.898183289768
4	44	38.29139970749021
5	21	44.67333114677102
5	22	42.28011472904883
5	25	40.28572573023707
5	32	39.08911752137598
6	7	46.66765716951787
6	22	39.48800791635131
6	38	36.695901103653775
7	15	43.875550356820355
8	11	36.695901103653775
8	13	41.08350652018771
9	16	38.690290102465546
9	23	45.86993935563211
9	33	47.46537498340366
10	14	40.68461612521242
10	25	40.68461612521242
10	35	43.0778325429346
10	44	47.46537498340366
11	13	46.66765716951787
11	31	41.08350652018771
12	14	42.28011472904883
12	29	36.297073684743324
13	25	44.67333114677102
13	31	39.48800791635131
13	49	37.0947914986291
14	48	44.27444075179568
15	27	47.46537498340366
16	18	41.48233393909818
16	19	38.690290102465546
16	28	39.08911752137598
17	24	41.48233393909818
17	30	37.892509312514896
18	19	35.898183289768
18	25	45.07215856568148
18	49	42.28011472904883
19	25	36.297073684743324
19	44	43.875550356820355
20	43	46.268766774542584
21	22	37.0947914986291
21	27	36.695901103653775
21	43	43.875550356820355
22	39	42.28011472904883
23	24	36.297073684743324
23	28	41.88122433407351
23	42	41.88122433407351
24	33	41.48233393909818
24	42	46.66765716951787
24	45	46.268766774542584
26	30	37.892509312514896
26	34	42.28011472904883
27	43	39.48800791635131
28	29	41.08350652018771
28	44	42.67894214795925
28	46	45.47104896065677
30	45	41.88122433407351
31	32	40.68461612521242
32	43	41.88122433407351
34	37	41.48233393909818
34	40	46.66765716951787
34	41	41.48233393909818
35	39	41.48233393909818
36	38	37.0947914986291
36	48	43.875550356820355
37	41	38.690290102465546
37	49	43.0778325429346
38	39	38.29139970749021
38	48	39.08911752137598
40	41	39.08911752137598
42	46	45.47104896065677
45	47	37.0947914986291
45	49	40.28572573023707
