50	50	50
0	29	39.760542880294615
0	46	40.91866635229289
0	48	45.16490704233079
1	34	44.39284593172752
1	47	43.620784821124225
1	49	44.39284593172752
2	8	40.91866635229289
2	31	39.374544131086324
2	37	38.21648427127481
3	11	35.12823982886171
3	20	35.51430219025671
3	31	37.44442316067153
3	32	42.4627249613127
3	43	42.07672621210445
4	5	43.620784821124225
4	22	40.91866635229289
4	35	34.74224107965343
4	44	37.05836079927653
5	21	43.234786071916005
5	22	40.91866635229289
5	25	38.98848176969132
5	32	37.83042190987979
6	7	45.16490704233079
6	22	38.21648427127481
6	38	35.51430219025671
7	15	42.4627249613127
8	11	35.51430219025671
8	13	39.760542880294615
9	16	37.44442316067153
9	23	44.39284593172752
9	33	45.93696815293407
10	14	39.374544131086324
10	25	39.374544131086324
10	35	41.690663850709406
10	44	45.93696815293407
11	13	45.16490704233079
11	31	39.760542880294615
12	14	40.91866635229289
12	29	35.12823982886171
13	25	43.234786071916005
13	31	38.21648427127481
13	49	35.90030093946498
14	48	42.848787322707715
15	27	45.93696815293407
16	18	40.14660524168961
16	19	37.44442316067153
16	28	37.83042190987979
17	24	40.14660524168961
17	30	36.672362050068266
18	19	34.74224107965343
18	25	43.620784821124225
18	49	40.91866635229289
19	25	35.12823982886171
19	44	42.4627249613127
20	43	44.77890829312254
21	22	35.90030093946498
21	27	35.51430219025671
21	43	42.4627249613127
22	39	40.91866635229289
23	24	35.12823982886171
23	28	40.53260399089787
23	42	40.53260399089787
24	33	40.14660524168961
24	42	45.16490704233079
24	45	44.77890829312254
26	30	36.672362050068266
26	34	40.91866635229289
27	43	38.21648427127481
28	29	39.760542880294615
28	44	41.30466510150116
28	46	44.00684718251926
30	45	40.53260399089787
31	32	39.374544131086324
32	43	40.53260399089787
34	37	40.14660524168961
34	40	45.16490704233079
34	41	40.14660524168961
35	39	40.14660524168961
36	38	35.90030093946498
36	48	42.4627249613127
37	41	37.44442316067153
37	49	41.690663850709406
38	39	37.05836079927653
38	48	37.83042190987979
40	41	37.83042190987979
42	46	44.00684718251926
45	47	35.90030093946498
45	49	38.98848176969132
