50	50	50
0	29	105.36045741452064
0	46	108.42890668546136
0	48	119.68131710818261
1	34	117.6353268202375
1	47	115.58933653229246
1	49	117.6353268202375
2	8	108.42890668546136
2	31	104.33746227054809
2	37	101.26847683863033
3	11	93.08558800880365
3	20	94.1080469917992
3	31	99.2230227116622
3	32	112.52088726135169
3	43	111.49789211737908
4	5	115.58933653229246
4	22	108.42890668546136
4	35	92.06259286483105
4	44	98.20002756768959
5	21	114.56634138831994
5	22	108.42890668546136
5	25	103.31446712657548
5	32	100.2454816946578
6	7	119.68131710818261
6	22	101.26847683863033
6	38	94.1080469917992
7	15	112.52088726135169
8	11	94.1080469917992
8	13	105.36045741452064
9	16	99.2230227116622
9	23	117.6353268202375
9	33	121.72677123515093
10	14	104.33746227054809
10	25	104.33746227054809
10	35	110.47489697340656
10	44	121.72677123515093
11	13	119.68131710818261
11	31	105.36045741452064
12	14	108.42890668546136
12	29	93.08558800880365
13	25	114.56634138831994
13	31	101.26847683863033
13	49	95.13104213577182
14	48	113.5438824053242
15	27	121.72677123515093
16	18	106.38345255849312
16	19	99.2230227116622
16	28	100.2454816946578
17	24	106.38345255849312
17	30	97.17703242371691
18	19	92.06259286483105
18	25	115.58933653229246
18	49	108.42890668546136
19	25	93.08558800880365
19	44	112.52088726135169
20	43	118.65832196421006
21	22	95.13104213577182
21	27	94.1080469917992
21	43	112.52088726135169
22	39	108.42890668546136
23	24	93.08558800880365
23	28	107.40591154148883
23	42	107.40591154148883
24	33	106.38345255849312
24	42	119.68131710818261
24	45	118.65832196421006
26	30	97.17703242371691
26	34	108.42890668546136
27	43	101.26847683863033
28	29	105.36045741452064
28	44	109.45190182943396
28	46	116.612331676265
30	45	107.40591154148883
31	32	104.33746227054809
32	43	107.40591154148883
34	37	106.38345255849312
34	40	119.68131710818261
34	41	106.38345255849312
35	39	106.38345255849312
36	38	95.13104213577182
36	48	112.52088726135169
37	41	99.2230227116622
37	49	110.47489697340656
38	39	98.20002756768959
38	48	100.2454816946578
40	41	100.2454816946578
42	46	116.612331676265
45	47	95.13104213577182
45	49	103.31446712657548
