0	-1
1	1951
2	1742
3	1433
4	1633
5	2609
6	2330
7	-1
8	1152
9	-1
10	2260
11	1311
12	-1
13	2405
14	1787
15	-1
16	1975
17	-1
18	2376
19	1519
20	-1
21	2089
22	1763
23	1746
24	1922
25	2424
26	-1
27	-1
28	1929
29	1294
30	-1
31	1890
32	1633
33	-1
34	-1
35	1258
36	-1
37	3006
38	-1
39	-1
40	-1
41	-1
42	1542
43	1960
44	1760
45	2157
46	1741
47	-1
48	2222
49	1928
