50	50	50
0	29	62.283
0	46	55.8801
0	48	53.5518
1	34	65.1934
1	47	67.5218
1	49	67.5218
2	8	68.1039
2	31	55.8801
2	37	59.3726
3	11	53.5518
3	20	65.7755
3	31	64.0293
3	32	52.3876
3	43	66.9397
4	5	59.3726
4	22	64.6114
4	35	56.4622
4	44	64.6114
5	21	64.6114
5	22	56.4622
5	25	60.5368
5	32	66.3576
6	7	67.5218
6	22	62.283
6	38	66.3576
7	15	62.8651
8	11	62.8651
8	13	57.6263
9	16	58.2084
9	23	58.7905
9	33	53.5518
10	14	63.4472
10	25	62.283
10	35	54.7159
10	44	58.7905
11	13	55.298
11	31	65.1934
12	14	57.0443
12	29	58.7905
13	25	67.5218
13	31	58.7905
13	49	67.5218
14	48	57.6263
15	27	54.1338
16	18	65.1934
16	19	64.6114
16	28	62.283
17	24	69.268
17	30	59.3726
18	19	57.0443
18	25	68.6859
18	49	62.8651
19	25	54.1338
19	44	61.7009
20	43	55.298
21	22	63.4472
21	27	54.7159
21	43	65.7755
22	39	68.6859
23	24	60.5368
23	28	67.5218
23	42	65.1934
24	33	54.1338
24	42	55.8801
24	45	67.5218
26	30	55.8801
26	34	58.7905
27	43	58.7905
28	29	61.1189
28	44	65.7755
28	46	56.4622
30	45	62.8651
31	32	58.7905
32	43	61.7009
34	37	64.6114
34	40	66.9397
34	41	69.268
35	39	52.3876
36	38	66.3576
36	48	58.7905
37	41	57.6263
37	49	61.1189
38	39	65.1934
38	48	54.7159
40	41	52.9697
42	46	68.1039
45	47	65.7755
45	49	68.6859
