0	-1
1	-1
2	-1
3	-1
4	-1
5	6041
6	-1
7	-1
8	-1
9	-1
10	-1
11	-1
12	2286
13	6937
14	-1
15	-1
16	-1
17	-1
18	-1
19	-1
20	-1
21	-1
22	3553
23	-1
24	4767
25	7247
26	1873
27	2938
28	-1
29	-1
30	-1
31	-1
32	-1
33	-1
34	2553
35	-1
36	-1
37	4244
38	2911
39	2186
40	1558
41	-1
42	-1
43	-1
44	-1
45	4249
46	3813
47	-1
48	3645
49	-1
