0	1377
1	1304
2	1294
3	1054
4	1201
5	1896
6	1526
7	891
8	884
9	998
10	1876
11	1056
12	1070
13	1922
14	1291
15	-1
16	1491
17	1145
18	1723
19	1120
20	856
21	1491
22	1520
23	1314
24	1194
25	1953
26	940
27	1064
28	1623
29	990
30	1116
31	1434
32	1261
33	845
34	1226
35	1117
36	678
37	1486
38	1164
39	979
40	-1
41	1065
42	1174
43	1418
44	1350
45	1446
46	1231
47	1034
48	1167
49	1681
