0	1317
1	1139
2	1012
3	1149
4	1170
5	1835
6	1216
7	1071
8	778
9	883
10	1661
11	996
12	1000
13	1944
14	1260
15	1067
16	1189
17	1079
18	1577
19	1192
20	742
21	1357
22	1513
23	1323
24	1418
25	1793
26	955
27	1003
28	1621
29	1179
30	1242
31	1389
32	1424
33	843
34	1315
35	948
36	637
37	1704
38	1051
39	1090
40	687
41	695
42	1295
43	1037
44	1368
45	1366
46	1182
47	959
48	1382
49	1989
