50	50	50
0	29	91.224
0	46	106.428
0	48	94.2648
1	34	91.224
1	47	98.3192
1	49	120.618
2	8	100.346
2	31	112.51
2	37	99.3328
3	11	104.401
3	20	100.346
3	31	116.564
3	32	109.469
3	43	111.496
4	5	99.3328
4	22	94.2648
4	35	112.51
4	44	106.428
5	21	103.387
5	22	94.2648
5	25	98.3192
5	32	112.51
6	7	110.482
6	22	111.496
6	38	104.401
7	15	107.442
8	11	101.36
8	13	115.55
9	16	115.55
9	23	117.578
9	33	91.224
10	14	116.564
10	25	102.374
10	35	117.578
10	44	108.455
11	13	102.374
11	31	108.455
12	14	117.578
12	29	93.2512
13	25	116.564
13	31	92.2376
13	49	102.374
14	48	104.401
15	27	111.496
16	18	92.2376
16	19	112.51
16	28	114.537
17	24	105.414
17	30	119.605
18	19	119.605
18	25	108.455
18	49	96.292
19	25	102.374
19	44	97.3056
20	43	109.469
21	22	115.55
21	27	105.414
21	43	119.605
22	39	109.469
23	24	100.346
23	28	115.55
23	42	101.36
24	33	95.2784
24	42	118.591
24	45	97.3056
26	30	104.401
26	34	99.3328
27	43	107.442
28	29	93.2512
28	44	94.2648
28	46	102.374
30	45	94.2648
31	32	97.3056
32	43	107.442
34	37	106.428
34	40	91.224
34	41	98.3192
35	39	92.2376
36	38	105.414
36	48	96.292
37	41	120.618
37	49	93.2512
38	39	94.2648
38	48	93.2512
40	41	91.224
42	46	112.51
45	47	117.578
45	49	106.428
