50	50	50
0	29	314.821
0	46	301.593
0	48	275.138
1	34	296.302
1	47	296.302
1	49	298.948
2	8	264.556
2	31	314.821
2	37	312.176
3	11	251.328
3	20	283.074
3	31	267.201
3	32	259.264
3	43	253.973
4	5	277.783
4	22	240.746
4	35	288.366
4	44	312.176
5	21	259.264
5	22	285.72
5	25	301.593
5	32	312.176
6	7	267.201
6	22	243.391
6	38	298.948
7	15	264.556
8	11	293.657
8	13	280.429
9	16	293.657
9	23	269.847
9	33	301.593
10	14	269.847
10	25	253.973
10	35	238.1
10	44	251.328
11	13	293.657
11	31	301.593
12	14	277.783
12	29	291.011
13	25	275.138
13	31	269.847
13	49	256.619
14	48	304.239
15	27	293.657
16	18	272.492
16	19	264.556
16	28	275.138
17	24	301.593
17	30	238.1
18	19	296.302
18	25	251.328
18	49	304.239
19	25	291.011
19	44	280.429
20	43	288.366
21	22	253.973
21	27	306.884
21	43	267.201
22	39	296.302
23	24	261.91
23	28	277.783
23	42	259.264
24	33	275.138
24	42	296.302
24	45	261.91
26	30	288.366
26	34	272.492
27	43	246.037
28	29	306.884
28	44	304.239
28	46	261.91
30	45	261.91
31	32	243.391
32	43	251.328
34	37	296.302
34	40	256.619
34	41	256.619
35	39	253.973
36	38	298.948
36	48	259.264
37	41	291.011
37	49	312.176
38	39	304.239
38	48	264.556
40	41	275.138
42	46	253.973
45	47	259.264
45	49	243.391
