10	10	10
0	1	168.607857528
0	2	173.51875638899998
0	5	191.52505557900002
1	2	188.25145297199998
1	3	184.977850365
1	4	188.25145297199998
2	3	173.51875638899998
2	4	166.970561274
3	4	162.05966241299998
3	9	148.964262084
4	5	150.60155833800002
5	6	158.786059806
5	9	180.066951504
6	7	178.42965524999997
6	8	184.977850365
7	8	173.51875638899998
8	9	147.32696583
