0	-1
1	-1
2	1892
3	-1
4	-1
5	-1
6	-1
7	-1
8	2104
9	4525
10	-1
11	-1
12	-1
13	-1
14	-1
15	-1
16	-1
17	-1
18	-1
19	-1
20	-1
21	-1
22	-1
23	5028
24	3569
25	-1
26	-1
27	6647
28	1273
29	8598
30	5246
31	-1
32	2498
33	-1
34	-1
35	-1
36	-1
37	-1
38	1984
39	8663
40	-1
41	2582
42	-1
43	-1
44	-1
45	4313
46	3301
47	-1
48	-1
49	-1
50	-1
51	3239
52	3854
53	-1
54	6797
55	-1
56	-1
57	3263
58	7501
59	-1
60	-1
61	-1
62	6841
63	-1
64	-1
