0	-1
1	-1
2	1919
3	-1
4	-1
5	-1
6	-1
7	-1
8	-1
9	4822
10	-1
11	-1
12	-1
13	-1
14	-1
15	-1
16	-1
17	-1
18	-1
19	-1
20	-1
21	-1
22	-1
23	5105
24	-1
25	-1
26	-1
27	6800
28	1453
29	10684
30	5366
31	-1
32	3306
33	-1
34	-1
35	-1
36	-1
37	-1
38	2106
39	9475
40	-1
41	2818
42	-1
43	-1
44	-1
45	4456
46	3681
47	-1
48	-1
49	-1
50	-1
51	3513
52	4180
53	-1
54	7300
55	-1
56	-1
57	-1
58	8167
59	-1
60	-1
61	-1
62	8474
63	-1
64	-1
