0	-1
1	-1
2	1977
3	-1
4	-1
5	-1
6	-1
7	-1
8	-1
9	4660
10	-1
11	-1
12	-1
13	-1
14	-1
15	-1
16	-1
17	-1
18	-1
19	-1
20	-1
21	-1
22	-1
23	5094
24	-1
25	-1
26	-1
27	6635
28	1498
29	9128
30	5294
31	-1
32	3073
33	-1
34	-1
35	-1
36	-1
37	-1
38	2169
39	9212
40	-1
41	2731
42	-1
43	-1
44	-1
45	4313
46	3495
47	-1
48	-1
49	-1
50	-1
51	3465
52	4015
53	-1
54	7157
55	-1
56	-1
57	3254
58	8079
59	-1
60	-1
61	-1
62	8153
63	-1
64	-1
