65	65	65
0	13	39.91691985690289
0	30	41.079559634178096
0	42	45.34240363401844
1	9	44.567226190750524
1	38	43.79247003957137
1	53	44.567226190750524
2	27	41.079559634178096
2	29	39.5293732644778
2	51	38.366733487202566
3	48	35.26640287701084
3	58	35.6539494694359
4	24	37.5916403023524
4	50	42.62970387466951
5	16	42.2421151530356
5	62	43.79247003957137
6	15	41.079559634178096
6	39	34.87885628458579
7	34	37.20409370992736
7	44	43.40488131793741
8	20	41.079559634178096
8	29	39.14182667205271
8	32	37.979186894777506
9	27	45.34240363401844
9	29	38.366733487202566
9	32	35.6539494694359
9	41	42.62970387466951
9	46	35.6539494694359
10	34	39.91691985690289
11	34	37.5916403023524
11	59	44.567226190750524
12	15	46.1175810772863
12	22	39.5293732644778
12	39	39.5293732644778
12	42	41.85461068981942
12	61	46.1175810772863
12	64	45.34240363401844
13	21	39.91691985690289
13	30	41.079559634178096
13	40	35.26640287701084
14	23	43.40488131793741
14	25	38.366733487202566
14	58	36.041496061861
15	39	43.01729259630344
15	61	46.1175810772863
16	18	40.30446644932797
16	26	37.5916403023524
17	43	37.979186894777506
17	63	40.30446644932797
18	44	36.816589246711196
19	37	34.87885628458579
19	57	43.79247003957137
20	57	41.079559634178096
21	40	35.26640287701084
21	52	42.62970387466951
22	40	44.95481491238449
23	25	36.041496061861
23	47	35.6539494694359
23	50	42.62970387466951
23	54	41.079559634178096
24	37	35.26640287701084
24	60	40.69201304175299
24	62	40.69201304175299
25	48	40.30446644932797
26	48	45.34240363401844
26	62	44.95481491238449
27	28	36.816589246711196
27	29	41.079559634178096
27	30	38.366733487202566
27	31	39.91691985690289
27	38	41.467064097394314
27	45	44.18005876120531
27	52	40.69201304175299
27	54	39.5293732644778
28	29	40.69201304175299
29	32	40.30446644932797
29	39	45.34240363401844
29	51	40.30446644932797
29	57	40.30446644932797
29	62	36.041496061861
30	31	42.62970387466951
30	38	37.5916403023524
32	37	41.85461068981942
32	62	37.20409370992736
33	54	37.979186894777506
33	63	37.979186894777506
34	44	44.18005876120531
34	58	36.041496061861
35	49	39.14182667205271
35	52	40.30446644932797
36	45	42.2421151530356
36	53	39.5293732644778
38	45	34.87885628458579
39	49	44.95481491238449
41	44	41.85461068981942
41	46	42.2421151530356
42	64	43.40488131793741
43	55	41.079559634178096
44	46	37.20409370992736
44	58	44.18005876120531
45	64	46.1175810772863
47	60	40.69201304175299
50	54	38.754280079627684
51	54	40.30446644932797
54	55	45.72999235565237
56	58	41.467064097394314
56	59	43.01729259630344
58	59	41.467064097394314
58	62	35.6539494694359
