65	65	65
0	13	98.7947678424194
0	30	101.67240140596121
0	42	112.22349008958429
1	9	110.30495052254112
1	38	108.3867625295437
1	53	110.30495052254112
2	27	101.67240140596121
2	29	97.83567384592074
2	51	94.9583918564245
3	48	87.2849367363433
3	58	88.24403073284215
4	24	93.03985228938143
4	50	105.5091289660019
5	16	104.55003496950316
5	62	108.3867625295437
6	15	101.67240140596121
6	39	86.3258427398446
7	34	92.08075829288266
7	44	107.42766853304491
8	20	101.67240140596121
8	29	96.87657984942196
8	32	93.99894628588018
9	27	112.22349008958429
9	29	94.9583918564245
9	32	88.24403073284215
9	41	105.5091289660019
9	46	88.24403073284215
10	34	98.7947678424194
11	34	93.03985228938143
11	59	110.30495052254112
12	15	114.14167808258176
12	22	97.83567384592074
12	39	97.83567384592074
12	42	103.59094097300438
12	61	114.14167808258176
12	64	112.22349008958429
13	21	98.7947678424194
13	30	101.67240140596121
13	40	87.2849367363433
14	23	107.42766853304491
14	25	94.9583918564245
14	58	89.20312472934084
15	39	106.46822296250058
15	61	114.14167808258176
16	18	99.75421341296381
16	26	93.03985228938143
17	43	93.99894628588018
17	63	99.75421341296381
18	44	91.12166429638387
19	37	86.3258427398446
19	57	108.3867625295437
20	57	101.67240140596121
21	40	87.2849367363433
21	52	105.5091289660019
22	40	111.26404451903991
23	25	89.20312472934084
23	47	88.24403073284215
23	50	105.5091289660019
23	54	101.67240140596121
24	37	87.2849367363433
24	60	100.71330740946256
24	62	100.71330740946256
25	48	99.75421341296381
26	48	112.22349008958429
26	62	111.26404451903991
27	28	91.12166429638387
27	29	101.67240140596121
27	30	94.9583918564245
27	31	98.7947678424194
27	38	102.63149540245995
27	45	109.34585652604244
27	52	100.71330740946256
27	54	97.83567384592074
28	29	100.71330740946256
29	32	99.75421341296381
29	39	112.22349008958429
29	51	99.75421341296381
29	57	99.75421341296381
29	62	89.20312472934084
30	31	105.5091289660019
30	38	93.03985228938143
32	37	103.59094097300438
32	62	92.08075829288266
33	54	93.99894628588018
33	63	93.99894628588018
34	44	109.34585652604244
34	58	89.20312472934084
35	49	96.87657984942196
35	52	99.75421341296381
36	45	104.55003496950316
36	53	97.83567384592074
38	45	86.3258427398446
39	49	111.26404451903991
41	44	103.59094097300438
41	46	104.55003496950316
42	64	107.42766853304491
43	55	101.67240140596121
44	46	92.08075829288266
44	58	109.34585652604244
45	64	114.14167808258176
47	60	100.71330740946256
50	54	95.91748585292324
51	54	99.75421341296381
54	55	113.18258408608304
56	58	102.63149540245995
56	59	106.46822296250058
58	59	102.63149540245995
58	62	88.24403073284215
