65	65	65
0	13	52.1039724444866
0	30	53.621509962928535
0	42	59.18594640992855
1	9	58.17412251825434
1	38	57.16269526471882
1	53	58.17412251825434
2	27	53.621509962928535
2	29	51.597862179580225
2	51	50.08032466113826
3	48	46.03342573258029
3	58	46.539535997486695
4	24	49.06889740760277
4	50	55.644761108138304
5	16	55.139047481370476
5	62	57.16269526471882
6	15	53.621509962928535
6	39	45.52771210581252
7	34	48.56278714269637
7	44	56.656584999812395
8	20	53.621509962928535
8	29	51.09214855281246
8	32	49.57461103437053
9	27	59.18594640992855
9	29	50.08032466113826
9	32	46.539535997486695
9	41	55.644761108138304
9	46	46.539535997486695
10	34	52.1039724444866
11	34	49.06889740760277
11	59	58.17412251825434
12	15	60.1977703016027
12	22	51.597862179580225
12	39	51.597862179580225
12	42	54.63333385460268
12	61	60.1977703016027
12	64	59.18594640992855
13	21	52.1039724444866
13	30	53.621509962928535
13	40	46.03342573258029
14	23	56.656584999812395
14	25	50.08032466113826
14	58	47.0452496242544
15	39	56.150871373044616
15	61	60.1977703016027
16	18	52.60968607125436
16	26	49.06889740760277
17	43	49.57461103437053
17	63	52.60968607125436
18	44	48.057073515928586
19	37	45.52771210581252
19	57	57.16269526471882
20	57	53.621509962928535
21	40	46.03342573258029
21	52	55.644761108138304
22	40	58.68023278316077
23	25	47.0452496242544
23	47	46.539535997486695
23	50	55.644761108138304
23	54	53.621509962928535
24	37	46.03342573258029
24	60	53.11579633616079
24	62	53.11579633616079
25	48	52.60968607125436
26	48	59.18594640992855
26	62	58.68023278316077
27	28	48.057073515928586
27	29	53.621509962928535
27	30	50.08032466113826
27	31	52.1039724444866
27	38	54.12722358969628
27	45	57.6684088914866
27	52	53.11579633616079
27	54	51.597862179580225
28	29	53.11579633616079
29	32	52.60968607125436
29	39	59.18594640992855
29	51	52.60968607125436
29	57	52.60968607125436
29	62	47.0452496242544
30	31	55.644761108138304
30	38	49.06889740760277
32	37	54.63333385460268
32	62	48.56278714269637
33	54	49.57461103437053
33	63	49.57461103437053
34	44	57.6684088914866
34	58	47.0452496242544
35	49	51.09214855281246
35	52	52.60968607125436
36	45	55.139047481370476
36	53	51.597862179580225
38	45	45.52771210581252
39	49	58.68023278316077
41	44	54.63333385460268
41	46	55.139047481370476
42	64	56.656584999812395
43	55	53.621509962928535
44	46	48.56278714269637
44	58	57.6684088914866
45	64	60.1977703016027
47	60	53.11579633616079
50	54	50.5864349260447
51	54	52.60968607125436
54	55	59.691660036696256
56	58	54.12722358969628
56	59	56.150871373044616
58	59	54.12722358969628
58	62	46.539535997486695
