65
27
29
58
9
12
44
54
62
23
30
32
34
39
13
15
24
38
45
0
1
2
8
14
16
21
25
26
37
40
41
42
46
48
50
51
52
57
59
64
3
4
5
6
7
11
17
18
19
20
22
28
31
33
35
36
43
47
49
53
55
56
60
61
63
10
