65	65	65
0	13	39.94819619559471
0	30	41.111732939820435
0	42	45.37784618722323
1	9	44.60238659128806
1	38	43.82649280744916
1	53	44.60238659128806
2	27	41.111732939820435
2	29	39.56033614125597
2	51	38.39679939703025
3	48	35.29404921869175
3	58	35.681865854240066
4	24	37.621122707143215
4	50	42.66312973838487
5	16	42.275269684046215
5	62	43.82649280744916
6	15	41.111732939820435
6	39	34.90618916435302
7	34	37.233262652804505
7	44	43.4387630094816
8	20	41.111732939820435
8	29	39.17247608691727
8	32	38.008939342691555
9	27	45.37784618722323
9	29	38.39679939703025
9	32	35.681865854240066
9	41	42.66312973838487
9	46	35.681865854240066
10	34	39.94819619559471
11	34	37.621122707143215
11	59	44.60238659128806
12	15	46.15373997106215
12	22	39.56033614125597
12	39	39.56033614125597
12	42	41.887409629707456
12	61	46.15373997106215
12	64	45.37784618722323
13	21	39.94819619559471
13	30	41.111732939820435
13	40	35.29404921869175
14	23	43.4387630094816
14	25	38.39679939703025
14	58	36.06972590857875
15	39	43.05094637393322
15	61	46.15373997106215
16	18	40.3360562499334
16	26	37.621122707143215
17	43	38.008939342691555
17	63	40.3360562499334
18	44	36.84540259846578
19	37	34.90618916435302
19	57	43.82649280744916
20	57	41.111732939820435
21	40	35.29404921869175
21	52	42.66312973838487
22	40	44.99011638925566
23	25	36.06972590857875
23	47	35.681865854240066
23	50	42.66312973838487
23	54	41.111732939820435
24	37	35.29404921869175
24	60	40.72387288548174
24	62	40.72387288548174
25	48	40.3360562499334
26	48	45.37784618722323
26	62	44.99011638925566
27	28	36.84540259846578
27	29	41.111732939820435
27	30	38.39679939703025
27	31	39.94819619559471
27	38	41.49959299415916
27	45	44.21465679332044
27	52	40.72387288548174
27	54	39.56033614125597
28	29	40.72387288548174
29	32	40.3360562499334
29	39	45.37784618722323
29	51	40.3360562499334
29	57	40.3360562499334
29	62	36.06972590857875
30	31	42.66312973838487
30	38	37.621122707143215
32	37	41.887409629707456
32	62	37.233262652804505
33	54	38.008939342691555
33	63	38.008939342691555
34	44	44.21465679332044
34	58	36.06972590857875
35	49	39.17247608691727
35	52	40.3360562499334
36	45	42.275269684046215
36	53	39.56033614125597
38	45	34.90618916435302
39	49	44.99011638925566
41	44	41.887409629707456
41	46	42.275269684046215
42	64	43.4387630094816
43	55	41.111732939820435
44	46	37.233262652804505
44	58	44.21465679332044
45	64	46.15373997106215
47	60	40.72387288548174
50	54	38.784659451368945
51	54	40.3360562499334
54	55	45.76601017309451
56	58	41.49959299415916
56	59	43.05094637393322
58	59	41.49959299415916
58	62	35.681865854240066
