65	65	65
0	13	40.05209736094032
0	30	41.21867342049168
0	42	45.49594529701852
1	9	44.71831476156502
1	38	43.940684226111536
1	53	44.71831476156502
2	27	41.21867342049168
2	29	39.663238674423226
2	51	38.496662614871866
3	48	35.38583654152526
3	58	35.774695228042404
4	24	37.71894524183763
4	50	42.77406474776982
5	16	42.385206061252696
5	62	43.940684226111536
6	15	41.21867342049168
6	39	34.99697785500818
7	34	37.33008655532049
7	44	43.551651864432955
8	20	41.21867342049168
8	29	39.2743799879061
8	32	38.107803928354755
9	27	45.49594529701852
9	29	38.496662614871866
9	32	35.774695228042404
9	41	42.77406474776982
9	46	35.774695228042404
10	34	40.05209736094032
11	34	37.71894524183763
11	59	44.71831476156502
12	15	46.273575832472076
12	22	39.663238674423226
12	39	39.663238674423226
12	42	41.996347374735585
12	61	46.273575832472076
12	64	45.49594529701852
13	21	40.05209736094032
13	30	41.21867342049168
13	40	35.38583654152526
14	23	43.551651864432955
14	25	38.496662614871866
14	58	36.1635539145595
15	39	43.1629234342869
15	61	46.273575832472076
16	18	40.44095604745746
16	26	37.71894524183763
17	43	38.107803928354755
17	63	40.44095604745746
18	44	36.94127128759373
19	37	34.99697785500818
19	57	43.940684226111536
20	57	41.21867342049168
21	40	35.38583654152526
21	52	42.77406474776982
22	40	45.107347123243606
23	25	36.1635539145595
23	47	35.774695228042404
23	50	42.77406474776982
23	54	41.21867342049168
24	37	35.38583654152526
24	60	40.829814733974565
24	62	40.829814733974565
25	48	40.44095604745746
26	48	45.49594529701852
26	62	45.107347123243606
27	28	36.94127128759373
27	29	41.21867342049168
27	30	38.496662614871866
27	31	40.05209736094032
27	38	41.6075321070088
27	45	44.32971658779013
27	52	40.829814733974565
27	54	39.663238674423226
28	29	40.829814733974565
29	32	40.44095604745746
29	39	45.49594529701852
29	51	40.44095604745746
29	57	40.44095604745746
29	62	36.1635539145595
30	31	42.77406474776982
30	38	37.71894524183763
32	37	41.996347374735585
32	62	37.33008655532049
33	54	38.107803928354755
33	63	38.107803928354755
34	44	44.32971658779013
34	58	36.1635539145595
35	49	39.2743799879061
35	52	40.44095604745746
36	45	42.385206061252696
36	53	39.663238674423226
38	45	34.99697785500818
39	49	45.107347123243606
41	44	41.996347374735585
41	46	42.385206061252696
42	64	43.551651864432955
43	55	41.21867342049168
44	46	37.33008655532049
44	58	44.32971658779013
45	64	46.273575832472076
47	60	40.829814733974565
50	54	38.885521301388984
51	54	40.44095604745746
54	55	45.884977658697146
56	58	41.6075321070088
56	59	43.1629234342869
58	59	41.6075321070088
58	62	35.774695228042404
