65	65	65
0	13	39.95304373854763
0	30	41.11674610809115
0	42	45.38337109804096
1	9	44.6075978881829
1	38	43.831824678324935
1	53	44.6075978881829
2	27	41.11674610809115
2	29	39.56515713361866
2	51	38.401454764075154
3	48	35.29831936988664
3	58	35.68620597481567
4	24	37.62568155421713
4	50	42.66837763732005
5	16	42.28040592287817
5	62	43.831824678324935
6	15	41.11674610809115
6	39	34.91043276495762
7	34	37.23779494928811
7	44	43.444150847178086
8	20	41.11674610809115
8	29	39.17727052868963
8	32	38.013568159146146
9	27	45.38337109804096
9	29	38.401454764075154
9	32	35.68620597481567
9	41	42.66837763732005
9	46	35.68620597481567
10	34	39.95304373854763
11	34	37.62568155421713
11	59	44.6075978881829
12	15	46.15914430789892
12	22	39.56515713361866
12	39	39.56515713361866
12	42	41.89251931794913
12	61	46.15914430789892
12	64	45.38337109804096
13	21	39.95304373854763
13	30	41.11674610809115
13	40	35.29831936988664
14	23	43.444150847178086
14	25	38.401454764075154
14	58	36.07409257974468
15	39	43.05605146846686
15	61	46.15914430789892
16	18	40.34093034347669
16	26	37.62568155421713
17	43	38.013568159146146
17	63	40.34093034347669
18	44	36.849908344359115
19	37	34.91043276495762
19	57	43.831824678324935
20	57	41.11674610809115
21	40	35.29831936988664
21	52	42.66837763732005
22	40	44.99569726689411
23	25	36.07409257974468
23	47	35.68620597481567
23	50	42.66837763732005
23	54	41.11674610809115
24	37	35.29831936988664
24	60	40.72881694840567
24	62	40.72881694840567
25	48	40.34093034347669
26	48	45.38337109804096
26	62	44.99569726689411
27	28	36.849908344359115
27	29	41.11674610809115
27	30	38.401454764075154
27	31	39.95304373854763
27	38	41.50463271302015
27	45	44.21992405703611
27	52	40.72881694840567
27	54	39.56515713361866
28	29	40.72881694840567
29	32	40.34093034347669
29	39	45.38337109804096
29	51	40.34093034347669
29	57	40.34093034347669
29	62	36.07409257974468
30	31	42.66837763732005
30	38	37.62568155421713
32	37	41.89251931794913
32	62	37.23779494928811
33	54	38.013568159146146
33	63	38.013568159146146
34	44	44.21992405703611
34	58	36.07409257974468
35	49	39.17727052868963
35	52	40.34093034347669
36	45	42.28040592287817
36	53	39.56515713361866
38	45	34.91043276495762
39	49	44.99569726689411
41	44	41.89251931794913
41	46	42.28040592287817
42	64	43.444150847178086
43	55	41.11674610809115
44	46	37.23779494928811
44	58	44.21992405703611
45	64	46.15914430789892
47	60	40.72881694840567
50	54	38.7893839237606
51	54	40.34093034347669
54	55	45.77147047675212
56	58	41.50463271302015
56	59	43.05605146846686
58	59	41.50463271302015
58	62	35.68620597481567
