0	-1
1	-1
2	1942
3	-1
4	-1
5	-1
6	-1
7	-1
8	2094
9	4511
10	-1
11	-1
12	-1
13	-1
14	-1
15	-1
16	-1
17	-1
18	-1
19	-1
20	-1
21	-1
22	-1
23	4931
24	3542
25	-1
26	-1
27	6265
28	1334
29	8590
30	5313
31	1324
32	2465
33	-1
34	-1
35	-1
36	-1
37	-1
38	1959
39	8742
40	-1
41	2710
42	-1
43	-1
44	-1
45	4234
46	3074
47	-1
48	-1
49	-1
50	-1
51	3024
52	3653
53	-1
54	6741
55	-1
56	-1
57	3211
58	7508
59	-1
60	-1
61	-1
62	6784
63	-1
64	-1
