0	-1
1	1994
2	1377
3	-1
4	1629
5	1726
6	-1
7	-1
8	1655
9	3123
10	-1
11	-1
12	3469
13	-1
14	2114
15	1681
16	-1
17	-1
18	-1
19	-1
20	-1
21	-1
22	-1
23	3685
24	2143
25	1391
26	1913
27	4463
28	950
29	7117
30	3774
31	1129
32	1493
33	2320
34	2119
35	-1
36	-1
37	1926
38	1323
39	3911
40	-1
41	1729
42	-1
43	-1
44	2329
45	2628
46	2277
47	-1
48	-1
49	-1
50	1526
51	2039
52	2732
53	-1
54	3753
55	2962
56	-1
57	2323
58	4990
59	-1
60	-1
61	-1
62	3662
63	-1
64	1785
