10
0	6	1e+12
0	7	1e+12
0	8	1e+12
1	2	1e+12
2	1	1e+12
2	3	1e+12
2	6	1e+12
2	7	1e+12
3	2	1e+12
3	4	1e+12
4	3	1e+12
4	5	1e+12
5	4	1e+12
5	8	1e+12
5	9	1e+12
6	0	1e+12
6	2	1e+12
7	0	1e+12
7	2	1e+12
8	0	1e+12
8	5	1e+12
9	5	1e+12
