20
0	11	1e+12
0	18	1e+12
1	2	1e+12
1	12	1e+12
1	14	1e+12
2	1	1e+12
2	15	1e+12
2	16	1e+12
3	5	1e+12
3	9	1e+12
3	11	1e+12
4	6	1e+12
4	16	1e+12
4	19	1e+12
5	3	1e+12
6	4	1e+12
6	11	1e+12
6	14	1e+12
7	8	1e+12
7	9	1e+12
7	10	1e+12
7	17	1e+12
8	7	1e+12
8	9	1e+12
8	14	1e+12
8	19	1e+12
9	3	1e+12
9	7	1e+12
9	8	1e+12
9	10	1e+12
9	11	1e+12
9	18	1e+12
10	7	1e+12
10	9	1e+12
11	0	1e+12
11	3	1e+12
11	6	1e+12
11	9	1e+12
11	17	1e+12
12	1	1e+12
12	13	1e+12
13	12	1e+12
13	16	1e+12
13	17	1e+12
14	1	1e+12
14	6	1e+12
14	8	1e+12
14	16	1e+12
14	17	1e+12
15	2	1e+12
15	16	1e+12
15	17	1e+12
16	2	1e+12
16	4	1e+12
16	13	1e+12
16	14	1e+12
16	15	1e+12
16	17	1e+12
17	7	1e+12
17	11	1e+12
17	13	1e+12
17	14	1e+12
17	15	1e+12
17	16	1e+12
17	19	1e+12
18	0	1e+12
18	9	1e+12
19	4	1e+12
19	8	1e+12
19	17	1e+12
