18
0	4	1e+12
0	16	1e+12
1	3	1e+12
1	9	1e+12
2	3	1e+12
2	5	1e+12
2	12	1e+12
2	15	1e+12
3	1	1e+12
3	2	1e+12
3	9	1e+12
3	11	1e+12
4	0	1e+12
4	16	1e+12
5	2	1e+12
5	8	1e+12
5	9	1e+12
5	10	1e+12
6	15	1e+12
7	14	1e+12
7	15	1e+12
7	17	1e+12
8	5	1e+12
8	12	1e+12
8	16	1e+12
9	1	1e+12
9	3	1e+12
9	5	1e+12
9	11	1e+12
9	14	1e+12
9	16	1e+12
10	5	1e+12
10	14	1e+12
11	3	1e+12
11	9	1e+12
11	13	1e+12
11	17	1e+12
12	2	1e+12
12	8	1e+12
13	11	1e+12
13	16	1e+12
14	7	1e+12
14	9	1e+12
14	10	1e+12
14	16	1e+12
15	2	1e+12
15	6	1e+12
15	7	1e+12
16	0	1e+12
16	4	1e+12
16	8	1e+12
16	9	1e+12
16	13	1e+12
16	14	1e+12
17	7	1e+12
17	11	1e+12
