100000	100000	100000	100000	1000	10000	100000	1000	1000	100000	10000
0	1	1.11336e+07	8	8	0	9	8
0	2	1.10078e+07	8	8	0	9	8
0	3	1.10224e+07	8	8	0	9	8
0	4	1.11231e+07	8	8	0	9	8
0	5	1.10186e+07	8	8	0	9	8
0	6	1.10796e+07	8	8	0	9	8
0	7	1.10275e+07	8	8	0	9	8
0	8	1.11634e+07	8	8	0	9	8
0	9	1.10774e+07	8	8	0	9	8
1	0	1.12095e+07	8	8	0	9	8
1	2	1.11425e+07	8	8	0	9	8
1	3	1.11364e+07	8	8	0	9	8
1	4	1.10415e+07	8	8	0	9	8
1	5	1.1112e+07	8	8	0	9	8
1	6	1.10332e+07	8	8	0	9	8
1	7	1.11444e+07	8	8	0	9	8
1	8	1.10154e+07	8	8	0	9	8
1	9	1.11313e+07	8	8	0	9	8
2	0	1.10138e+07	8	8	0	9	8
2	1	1.12219e+07	8	8	0	9	8
2	3	1.1125e+07	8	8	0	9	8
2	4	1.1139e+07	8	8	0	9	8
2	5	1.10964e+07	8	8	0	9	8
2	6	1.11288e+07	8	8	0	9	8
2	7	1.11501e+07	8	8	0	9	8
2	8	1.11367e+07	8	8	0	9	8
2	9	1.10948e+07	8	8	0	9	8
3	0	1.1166e+07	8	8	0	9	8
3	1	1.11545e+07	8	8	0	9	8
3	2	1.11758e+07	8	8	0	9	8
3	4	1.11863e+07	8	8	0	9	8
3	5	1.10783e+07	8	8	0	9	8
3	6	1.10961e+07	8	8	0	9	8
3	7	1.10211e+07	8	8	0	9	8
3	8	1.10688e+07	8	8	0	9	8
3	9	1.1132e+07	8	8	0	9	8
4	0	1.11504e+07	8	8	0	9	8
4	1	1.1064e+07	8	8	0	9	8
4	2	1.11279e+07	8	8	0	9	8
4	3	1.10494e+07	8	8	0	9	8
4	5	1.11691e+07	8	8	0	9	8
4	6	1.10869e+07	8	8	0	9	8
4	7	1.10491e+07	8	8	0	9	8
4	8	1.1071e+07	8	8	0	9	8
4	9	1.11282e+07	8	8	0	9	8
5	0	1.10989e+07	8	8	0	9	8
5	1	1.1267e+07	8	8	0	9	8
5	2	1.10373e+07	8	8	0	9	8
5	3	1.10516e+07	8	8	0	9	8
5	4	1.11129e+07	8	8	0	9	8
5	6	1.11574e+07	8	8	0	9	8
5	7	1.1092e+07	8	8	0	9	8
5	8	1.11279e+07	8	8	0	9	8
5	9	1.1138e+07	8	8	0	9	8
6	0	1.10211e+07	8	8	0	9	8
6	1	1.10882e+07	8	8	0	9	8
6	2	1.10481e+07	8	8	0	9	8
6	3	1.10824e+07	8	8	0	9	8
6	4	1.10932e+07	8	8	0	9	8
6	5	1.10964e+07	8	8	0	9	8
6	7	1.10948e+07	8	8	0	9	8
6	8	1.10313e+07	8	8	0	9	8
6	9	1.1043e+07	8	8	0	9	8
7	0	1.1171e+07	8	8	0	9	8
7	1	1.11393e+07	8	8	0	9	8
7	2	1.11787e+07	8	8	0	9	8
7	3	1.10208e+07	8	8	0	9	8
7	4	1.10059e+07	8	8	0	9	8
7	5	1.11151e+07	8	8	0	9	8
7	6	1.12597e+07	8	8	0	9	8
7	8	1.12076e+07	8	8	0	9	8
7	9	1.11364e+07	8	8	0	9	8
8	0	1.11498e+07	8	8	0	9	8
8	1	1.11091e+07	8	8	0	9	8
8	2	1.11606e+07	8	8	0	9	8
8	3	1.11237e+07	8	8	0	9	8
8	4	1.11568e+07	8	8	0	9	8
8	5	1.10894e+07	8	8	0	9	8
8	6	1.12e+07	8	8	0	9	8
8	7	1.11568e+07	8	8	0	9	8
8	9	1.11415e+07	8	8	0	9	8
9	0	1.09706e+07	8	8	0	9	8
9	1	1.1118e+07	8	8	0	9	8
9	2	1.11806e+07	8	8	0	9	8
9	3	1.11628e+07	8	8	0	9	8
9	4	1.11043e+07	8	8	0	9	8
9	5	1.11333e+07	8	8	0	9	8
9	6	1.12635e+07	8	8	0	9	8
9	7	1.10573e+07	8	8	0	9	8
9	8	1.11053e+07	8	8	0	9	8
