100000	100000	100000	10000	1000	1000
0	1	29632	0	1	2	1	0
0	1	73200	0	1	2	3	4
0	1	1.11575e+07	0	1	2	5	4
0	1	450	0	1	5	3	4
0	2	28032	0	1	2	1	0
0	2	74300	0	1	2	3	4
0	2	1.08012e+07	0	1	2	5	4
0	2	150	0	1	5	3	4
0	3	30016	0	1	2	1	0
0	3	70200	0	1	2	3	4
0	3	1.08216e+07	0	1	2	5	4
0	3	350	0	1	5	3	4
0	4	29952	0	1	2	1	0
0	4	72400	0	1	2	3	4
0	4	1.06865e+07	0	1	2	5	4
0	4	250	0	1	5	3	4
0	5	28544	0	1	2	1	0
0	5	70000	0	1	2	3	4
0	5	1.07766e+07	0	1	2	5	4
0	5	350	0	1	5	3	4
0	6	31104	0	1	2	1	0
0	6	68400	0	1	2	3	4
0	6	1.09445e+07	0	1	2	5	4
0	6	350	0	1	5	3	4
0	7	28928	0	1	2	1	0
0	7	73500	0	1	2	3	4
0	7	1.10961e+07	0	1	2	5	4
0	7	200	0	1	5	3	4
0	8	29248	0	1	2	1	0
0	8	68100	0	1	2	3	4
0	8	1.07848e+07	0	1	2	5	4
0	8	200	0	1	5	3	4
0	9	29376	0	1	2	1	0
0	9	71100	0	1	2	3	4
0	9	1.09445e+07	0	1	2	5	4
0	9	200	0	1	5	3	4
1	0	28928	0	1	2	1	0
1	0	74500	0	1	2	3	4
1	0	1.12599e+07	0	1	2	5	4
1	0	150	0	1	5	3	4
1	2	29312	0	1	2	1	0
1	2	66300	0	1	2	3	4
1	2	1.12845e+07	0	1	2	5	4
1	2	100	0	1	5	3	4
1	3	27584	0	1	2	1	0
1	3	70200	0	1	2	3	4
1	3	1.12271e+07	0	1	2	5	4
1	3	300	0	1	5	3	4
1	4	29824	0	1	2	1	0
1	4	69700	0	1	2	3	4
1	4	1.09732e+07	0	1	2	5	4
1	4	400	0	1	5	3	4
1	5	28672	0	1	2	1	0
1	5	69200	0	1	2	3	4
1	5	1.07233e+07	0	1	2	5	4
1	5	300	0	1	5	3	4
1	6	29504	0	1	2	1	0
1	6	72500	0	1	2	3	4
1	6	1.07356e+07	0	1	2	5	4
1	6	500	0	1	5	3	4
1	7	30016	0	1	2	1	0
1	7	70700	0	1	2	3	4
1	7	1.08708e+07	0	1	2	5	4
1	7	150	0	1	5	3	4
1	8	29120	0	1	2	1	0
1	8	65900	0	1	2	3	4
1	8	1.09445e+07	0	1	2	5	4
1	8	200	0	1	5	3	4
1	9	30592	0	1	2	1	0
1	9	72500	0	1	2	3	4
1	9	1.10305e+07	0	1	2	5	4
1	9	250	0	1	5	3	4
2	0	27648	0	1	2	1	0
2	0	70400	0	1	2	3	4
2	0	1.08093e+07	0	1	2	5	4
2	0	250	0	1	5	3	4
2	1	29184	0	1	2	1	0
2	1	72800	0	1	2	3	4
2	1	1.13091e+07	0	1	2	5	4
2	1	400	0	1	5	3	4
2	3	28928	0	1	2	1	0
2	3	67700	0	1	2	3	4
2	3	1.1391e+07	0	1	2	5	4
2	3	250	0	1	5	3	4
2	4	28544	0	1	2	1	0
2	4	66500	0	1	2	3	4
2	4	1.06496e+07	0	1	2	5	4
2	4	350	0	1	5	3	4
2	5	28160	0	1	2	1	0
2	5	74800	0	1	2	3	4
2	5	1.09076e+07	0	1	2	5	4
2	5	200	0	1	5	3	4
2	6	26560	0	1	2	1	0
2	6	69600	0	1	2	3	4
2	6	1.05841e+07	0	1	2	5	4
2	6	400	0	1	5	3	4
2	7	28736	0	1	2	1	0
2	7	66400	0	1	2	3	4
2	7	1.09814e+07	0	1	2	5	4
2	7	250	0	1	5	3	4
2	8	28800	0	1	2	1	0
2	8	66500	0	1	2	3	4
2	8	1.13582e+07	0	1	2	5	4
2	8	150	0	1	5	3	4
2	9	28480	0	1	2	1	0
2	9	71900	0	1	2	3	4
2	9	1.0965e+07	0	1	2	5	4
2	9	400	0	1	5	3	4
3	0	29056	0	1	2	1	0
3	0	72000	0	1	2	3	4
3	0	1.09281e+07	0	1	2	5	4
3	0	550	0	1	5	3	4
3	1	29632	0	1	2	1	0
3	1	73600	0	1	2	3	4
3	1	1.06619e+07	0	1	2	5	4
3	1	200	0	1	5	3	4
3	2	30208	0	1	2	1	0
3	2	70100	0	1	2	3	4
3	2	1.1006e+07	0	1	2	5	4
3	2	350	0	1	5	3	4
3	4	30528	0	1	2	1	0
3	4	69800	0	1	2	3	4
3	4	1.10715e+07	0	1	2	5	4
3	4	50	0	1	5	3	4
3	5	27904	0	1	2	1	0
3	5	70000	0	1	2	3	4
3	5	1.11206e+07	0	1	2	5	4
3	5	400	0	1	5	3	4
3	6	29760	0	1	2	1	0
3	6	69200	0	1	2	3	4
3	6	1.09199e+07	0	1	2	5	4
3	6	250	0	1	5	3	4
3	7	29504	0	1	2	1	0
3	7	67600	0	1	2	3	4
3	7	1.08913e+07	0	1	2	5	4
3	7	250	0	1	5	3	4
3	8	28992	0	1	2	1	0
3	8	71600	0	1	2	3	4
3	8	1.10879e+07	0	1	2	5	4
3	8	200	0	1	5	3	4
3	9	28096	0	1	2	1	0
3	9	68900	0	1	2	3	4
3	9	1.13172e+07	0	1	2	5	4
3	9	200	0	1	5	3	4
4	0	30976	0	1	2	1	0
4	0	65200	0	1	2	3	4
4	0	1.10346e+07	0	1	2	5	4
4	0	250	0	1	5	3	4
4	1	27456	0	1	2	1	0
4	1	66500	0	1	2	3	4
4	1	1.1092e+07	0	1	2	5	4
4	1	500	0	1	5	3	4
4	2	28096	0	1	2	1	0
4	2	73300	0	1	2	3	4
4	2	1.07889e+07	0	1	2	5	4
4	2	150	0	1	5	3	4
4	3	32320	0	1	2	1	0
4	3	72300	0	1	2	3	4
4	3	1.08298e+07	0	1	2	5	4
4	3	250	0	1	5	3	4
4	5	29888	0	1	2	1	0
4	5	68300	0	1	2	3	4
4	5	1.12189e+07	0	1	2	5	4
4	5	350	0	1	5	3	4
4	6	29312	0	1	2	1	0
4	6	71200	0	1	2	3	4
4	6	1.04161e+07	0	1	2	5	4
4	6	400	0	1	5	3	4
4	7	28096	0	1	2	1	0
4	7	68000	0	1	2	3	4
4	7	1.08093e+07	0	1	2	5	4
4	7	200	0	1	5	3	4
4	8	32512	0	1	2	1	0
4	8	65600	0	1	2	3	4
4	8	1.1051e+07	0	1	2	5	4
4	8	300	0	1	5	3	4
4	9	28544	0	1	2	1	0
4	9	66900	0	1	2	3	4
4	9	1.1264e+07	0	1	2	5	4
4	9	150	0	1	5	3	4
5	0	29824	0	1	2	1	0
5	0	70500	0	1	2	3	4
5	0	1.0838e+07	0	1	2	5	4
5	0	250	0	1	5	3	4
5	1	28800	0	1	2	1	0
5	1	72000	0	1	2	3	4
5	1	1.14196e+07	0	1	2	5	4
5	1	250	0	1	5	3	4
5	2	30080	0	1	2	1	0
5	2	67200	0	1	2	3	4
5	2	1.11043e+07	0	1	2	5	4
5	2	200	0	1	5	3	4
5	3	31744	0	1	2	1	0
5	3	66800	0	1	2	3	4
5	3	1.08585e+07	0	1	2	5	4
5	3	150	0	1	5	3	4
5	4	28928	0	1	2	1	0
5	4	73000	0	1	2	3	4
5	4	1.10756e+07	0	1	2	5	4
5	4	300	0	1	5	3	4
5	6	27968	0	1	2	1	0
5	6	69600	0	1	2	3	4
5	6	1.1178e+07	0	1	2	5	4
5	6	450	0	1	5	3	4
5	7	31936	0	1	2	1	0
5	7	67400	0	1	2	3	4
5	7	1.101e+07	0	1	2	5	4
5	7	400	0	1	5	3	4
5	8	30080	0	1	2	1	0
5	8	69200	0	1	2	3	4
5	8	1.06865e+07	0	1	2	5	4
5	8	500	0	1	5	3	4
5	9	28544	0	1	2	1	0
5	9	66100	0	1	2	3	4
5	9	1.10674e+07	0	1	2	5	4
5	9	150	0	1	5	3	4
6	0	27136	0	1	2	1	0
6	0	68200	0	1	2	3	4
6	0	1.08421e+07	0	1	2	5	4
6	0	250	0	1	5	3	4
6	1	28288	0	1	2	1	0
6	1	69300	0	1	2	3	4
6	1	1.11124e+07	0	1	2	5	4
6	1	350	0	1	5	3	4
6	2	27456	0	1	2	1	0
6	2	68600	0	1	2	3	4
6	2	1.08708e+07	0	1	2	5	4
6	2	250	0	1	5	3	4
6	3	27968	0	1	2	1	0
6	3	69600	0	1	2	3	4
6	3	1.11534e+07	0	1	2	5	4
6	3	200	0	1	5	3	4
6	4	29248	0	1	2	1	0
6	4	69900	0	1	2	3	4
6	4	1.08626e+07	0	1	2	5	4
6	4	250	0	1	5	3	4
6	5	26944	0	1	2	1	0
6	5	67600	0	1	2	3	4
6	5	1.10756e+07	0	1	2	5	4
6	5	450	0	1	5	3	4
6	7	26752	0	1	2	1	0
6	7	68400	0	1	2	3	4
6	7	1.11575e+07	0	1	2	5	4
6	7	150	0	1	5	3	4
6	8	29440	0	1	2	1	0
6	8	64800	0	1	2	3	4
6	8	1.06291e+07	0	1	2	5	4
6	8	250	0	1	5	3	4
6	9	28864	0	1	2	1	0
6	9	73900	0	1	2	3	4
6	9	1.07725e+07	0	1	2	5	4
6	9	200	0	1	5	3	4
7	0	28864	0	1	2	1	0
7	0	68200	0	1	2	3	4
7	0	1.10797e+07	0	1	2	5	4
7	0	450	0	1	5	3	4
7	1	29632	0	1	2	1	0
7	1	69400	0	1	2	3	4
7	1	1.101e+07	0	1	2	5	4
7	1	450	0	1	5	3	4
7	2	30976	0	1	2	1	0
7	2	69800	0	1	2	3	4
7	2	1.11452e+07	0	1	2	5	4
7	2	200	0	1	5	3	4
7	3	28160	0	1	2	1	0
7	3	73800	0	1	2	3	4
7	3	1.08175e+07	0	1	2	5	4
7	3	200	0	1	5	3	4
7	4	28864	0	1	2	1	0
7	4	66300	0	1	2	3	4
7	4	1.06168e+07	0	1	2	5	4
7	4	250	0	1	5	3	4
7	5	29312	0	1	2	1	0
7	5	71400	0	1	2	3	4
7	5	1.10838e+07	0	1	2	5	4
7	5	250	0	1	5	3	4
7	6	29184	0	1	2	1	0
7	6	72400	0	1	2	3	4
7	6	1.09773e+07	0	1	2	5	4
7	6	300	0	1	5	3	4
7	8	28736	0	1	2	1	0
7	8	67800	0	1	2	3	4
7	8	1.11821e+07	0	1	2	5	4
7	8	300	0	1	5	3	4
7	9	28800	0	1	2	1	0
7	9	68100	0	1	2	3	4
7	9	1.11084e+07	0	1	2	5	4
7	9	150	0	1	5	3	4
8	0	31168	0	1	2	1	0
8	0	66700	0	1	2	3	4
8	0	1.10592e+07	0	1	2	5	4
8	0	400	0	1	5	3	4
8	1	28288	0	1	2	1	0
8	1	70800	0	1	2	3	4
8	1	1.1522e+07	0	1	2	5	4
8	1	250	0	1	5	3	4
8	2	27712	0	1	2	1	0
8	2	72900	0	1	2	3	4
8	2	1.14606e+07	0	1	2	5	4
8	2	400	0	1	5	3	4
8	3	29120	0	1	2	1	0
8	3	74000	0	1	2	3	4
8	3	1.12886e+07	0	1	2	5	4
8	3	350	0	1	5	3	4
8	4	28928	0	1	2	1	0
8	4	69500	0	1	2	3	4
8	4	1.12026e+07	0	1	2	5	4
8	4	150	0	1	5	3	4
8	5	30208	0	1	2	1	0
8	5	66900	0	1	2	3	4
8	5	1.07684e+07	0	1	2	5	4
8	5	250	0	1	5	3	4
8	6	30592	0	1	2	1	0
8	6	71400	0	1	2	3	4
8	6	1.15057e+07	0	1	2	5	4
8	6	150	0	1	5	3	4
8	7	29440	0	1	2	1	0
8	7	68900	0	1	2	3	4
8	7	1.10469e+07	0	1	2	5	4
8	7	600	0	1	5	3	4
8	9	30272	0	1	2	1	0
8	9	66700	0	1	2	3	4
8	9	1.09486e+07	0	1	2	5	4
8	9	400	0	1	5	3	4
9	0	28992	0	1	2	1	0
9	0	68700	0	1	2	3	4
9	0	1.07479e+07	0	1	2	5	4
9	0	200	0	1	5	3	4
9	1	29312	0	1	2	1	0
9	1	75700	0	1	2	3	4
9	1	1.12026e+07	0	1	2	5	4
9	1	350	0	1	5	3	4
9	2	29888	0	1	2	1	0
9	2	70400	0	1	2	3	4
9	2	1.11247e+07	0	1	2	5	4
9	2	150	0	1	5	3	4
9	3	30720	0	1	2	1	0
9	3	76200	0	1	2	3	4
9	3	1.09732e+07	0	1	2	5	4
9	3	450	0	1	5	3	4
9	4	29632	0	1	2	1	0
9	4	69700	0	1	2	3	4
9	4	1.14278e+07	0	1	2	5	4
9	4	300	0	1	5	3	4
9	5	27200	0	1	2	1	0
9	5	72700	0	1	2	3	4
9	5	1.09158e+07	0	1	2	5	4
9	5	300	0	1	5	3	4
9	6	30080	0	1	2	1	0
9	6	69800	0	1	2	3	4
9	6	1.11698e+07	0	1	2	5	4
9	6	250	0	1	5	3	4
9	7	29248	0	1	2	1	0
9	7	67500	0	1	2	3	4
9	7	1.11985e+07	0	1	2	5	4
9	7	150	0	1	5	3	4
9	8	30784	0	1	2	1	0
9	8	67800	0	1	2	3	4
9	8	1.12394e+07	0	1	2	5	4
9	8	350	0	1	5	3	4
