100000	100000	100000	10000	1000	1000
0	1	4096	0	1	2	5	4
0	2	4096	0	1	2	5	4
0	9	4096	0	1	2	5	4
1	4	64	0	1	2	1	0
1	6	8192	0	1	2	5	4
1	7	100	0	1	2	3	4
2	0	64	0	1	2	1	0
2	1	100	0	1	2	3	4
2	3	64	0	1	2	1	0
2	5	100	0	1	2	3	4
2	5	8192	0	1	2	5	4
2	6	8192	0	1	2	5	4
2	7	12288	0	1	2	5	4
3	1	4096	0	1	2	5	4
3	2	4096	0	1	2	5	4
3	6	64	0	1	2	1	0
5	0	4096	0	1	2	5	4
5	4	4096	0	1	2	5	4
7	1	4096	0	1	2	5	4
7	4	4096	0	1	2	5	4
7	8	4096	0	1	2	5	4
8	1	4096	0	1	2	5	4
8	2	100	0	1	2	3	4
8	3	100	0	1	2	3	4
8	3	4096	0	1	2	5	4
8	7	8192	0	1	2	5	4
9	5	4096	0	1	2	5	4
9	6	4096	0	1	2	5	4
9	7	64	0	1	2	1	0
