100000	100000	100000	10000	1000	1000
0	1	54272	0	1	2	1	0
0	1	132600	0	1	2	3	4
0	1	2.04677e+07	0	1	2	5	4
0	1	150	0	1	5	3	4
0	2	39232	0	1	2	1	0
0	2	107500	0	1	2	3	4
0	2	1.59908e+07	0	1	2	5	4
0	2	350	0	1	5	3	4
0	3	112832	0	1	2	1	0
0	3	277800	0	1	2	3	4
0	3	4.32456e+07	0	1	2	5	4
0	3	950	0	1	5	3	4
0	4	35968	0	1	2	1	0
0	4	82000	0	1	2	3	4
0	4	1.28573e+07	0	1	2	5	4
0	4	300	0	1	5	3	4
0	5	29824	0	1	2	1	0
0	5	71400	0	1	2	3	4
0	5	1.18579e+07	0	1	2	5	4
0	5	200	0	1	5	3	4
0	6	46656	0	1	2	1	0
0	6	105500	0	1	2	3	4
0	6	1.67281e+07	0	1	2	5	4
0	6	250	0	1	5	3	4
0	7	20224	0	1	2	1	0
0	7	51500	0	1	2	3	4
0	7	7.59808e+06	0	1	2	5	4
0	7	300	0	1	5	3	4
0	8	37248	0	1	2	1	0
0	8	93800	0	1	2	3	4
0	8	1.39756e+07	0	1	2	5	4
0	8	450	0	1	5	3	4
0	9	24704	0	1	2	1	0
0	9	58100	0	1	2	3	4
0	9	9.2201e+06	0	1	2	5	4
0	9	300	0	1	5	3	4
1	0	53184	0	1	2	1	0
1	0	130400	0	1	2	3	4
1	0	2.06193e+07	0	1	2	5	4
1	0	850	0	1	5	3	4
1	2	32256	0	1	2	1	0
1	2	74800	0	1	2	3	4
1	2	1.18538e+07	0	1	2	5	4
1	2	150	0	1	5	3	4
1	3	43008	0	1	2	1	0
1	3	100700	0	1	2	3	4
1	3	1.5401e+07	0	1	2	5	4
1	3	350	0	1	5	3	4
1	4	18240	0	1	2	1	0
1	4	42800	0	1	2	3	4
1	4	6.87309e+06	0	1	2	5	4
1	4	200	0	1	5	3	4
1	5	17216	0	1	2	1	0
1	5	37300	0	1	2	3	4
1	5	6.16448e+06	0	1	2	5	4
1	5	250	0	1	5	3	4
1	6	20416	0	1	2	1	0
1	6	46600	0	1	2	3	4
1	6	7.8848e+06	0	1	2	5	4
1	6	100	0	1	5	3	4
1	7	19904	0	1	2	1	0
1	7	44300	0	1	2	3	4
1	7	7.28269e+06	0	1	2	5	4
1	7	200	0	1	5	3	4
1	8	53888	0	1	2	1	0
1	8	132500	0	1	2	3	4
1	8	2.06356e+07	0	1	2	5	4
1	8	300	0	1	5	3	4
1	9	26112	0	1	2	1	0
1	9	58900	0	1	2	3	4
1	9	9.71981e+06	0	1	2	5	4
1	9	350	0	1	5	3	4
2	0	45568	0	1	2	1	0
2	0	108800	0	1	2	3	4
2	0	1.62734e+07	0	1	2	5	4
2	0	600	0	1	5	3	4
2	1	32384	0	1	2	1	0
2	1	75500	0	1	2	3	4
2	1	1.14647e+07	0	1	2	5	4
2	1	50	0	1	5	3	4
2	3	32064	0	1	2	1	0
2	3	82600	0	1	2	3	4
2	3	1.2415e+07	0	1	2	5	4
2	3	250	0	1	5	3	4
2	4	30080	0	1	2	1	0
2	4	67500	0	1	2	3	4
2	4	1.08626e+07	0	1	2	5	4
2	4	350	0	1	5	3	4
2	5	27904	0	1	2	1	0
2	5	67100	0	1	2	3	4
2	5	1.01048e+07	0	1	2	5	4
2	5	550	0	1	5	3	4
2	6	47488	0	1	2	1	0
2	6	116000	0	1	2	3	4
2	6	1.89358e+07	0	1	2	5	4
2	6	750	0	1	5	3	4
2	7	21888	0	1	2	1	0
2	7	49300	0	1	2	3	4
2	7	8.62208e+06	0	1	2	5	4
2	7	100	0	1	5	3	4
2	8	21888	0	1	2	1	0
2	8	53500	0	1	2	3	4
2	8	8.09779e+06	0	1	2	5	4
2	8	100	0	1	5	3	4
2	9	42816	0	1	2	1	0
2	9	101300	0	1	2	3	4
2	9	1.5487e+07	0	1	2	5	4
2	9	500	0	1	5	3	4
3	0	112192	0	1	2	1	0
3	0	272300	0	1	2	3	4
3	0	4.31923e+07	0	1	2	5	4
3	0	1450	0	1	5	3	4
3	1	39104	0	1	2	1	0
3	1	91500	0	1	2	3	4
3	1	1.55648e+07	0	1	2	5	4
3	1	600	0	1	5	3	4
3	2	33280	0	1	2	1	0
3	2	78200	0	1	2	3	4
3	2	1.20218e+07	0	1	2	5	4
3	2	200	0	1	5	3	4
3	4	25216	0	1	2	1	0
3	4	58500	0	1	2	3	4
3	4	9.59693e+06	0	1	2	5	4
3	4	100	0	1	5	3	4
3	5	23808	0	1	2	1	0
3	5	60500	0	1	2	3	4
3	5	8.9047e+06	0	1	2	5	4
3	5	150	0	1	5	3	4
3	6	42240	0	1	2	1	0
3	6	106800	0	1	2	3	4
3	6	1.65437e+07	0	1	2	5	4
3	6	600	0	1	5	3	4
3	7	13440	0	1	2	1	0
3	7	33300	0	1	2	3	4
3	7	5.16096e+06	0	1	2	5	4
3	7	100	0	1	5	3	4
3	8	40000	0	1	2	1	0
3	8	89800	0	1	2	3	4
3	8	1.46063e+07	0	1	2	5	4
3	8	150	0	1	5	3	4
3	9	17984	0	1	2	1	0
3	9	44600	0	1	2	3	4
3	9	6.90995e+06	0	1	2	5	4
3	9	250	0	1	5	3	4
4	0	34176	0	1	2	1	0
4	0	81800	0	1	2	3	4
4	0	1.26444e+07	0	1	2	5	4
4	0	400	0	1	5	3	4
4	1	16896	0	1	2	1	0
4	1	42200	0	1	2	3	4
4	1	6.97139e+06	0	1	2	5	4
4	1	300	0	1	5	3	4
4	2	27712	0	1	2	1	0
4	2	71700	0	1	2	3	4
4	2	1.11329e+07	0	1	2	5	4
4	2	100	0	1	5	3	4
4	3	25408	0	1	2	1	0
4	3	62500	0	1	2	3	4
4	3	9.78125e+06	0	1	2	5	4
4	3	350	0	1	5	3	4
4	5	20928	0	1	2	1	0
4	5	51400	0	1	2	3	4
4	5	7.97901e+06	0	1	2	5	4
4	5	200	0	1	5	3	4
4	6	40576	0	1	2	1	0
4	6	94300	0	1	2	3	4
4	6	1.46842e+07	0	1	2	5	4
4	6	400	0	1	5	3	4
4	7	14208	0	1	2	1	0
4	7	30400	0	1	2	3	4
4	7	4.46054e+06	0	1	2	5	4
4	7	100	0	1	5	3	4
4	8	11904	0	1	2	1	0
4	8	25600	0	1	2	3	4
4	8	4.46054e+06	0	1	2	5	4
4	8	150	0	1	5	3	4
4	9	11072	0	1	2	1	0
4	9	27400	0	1	2	3	4
4	9	4.08781e+06	0	1	2	5	4
4	9	200	0	1	5	3	4
5	0	31680	0	1	2	1	0
5	0	75400	0	1	2	3	4
5	0	1.1436e+07	0	1	2	5	4
5	0	400	0	1	5	3	4
5	1	15616	0	1	2	1	0
5	1	37100	0	1	2	3	4
5	1	6.27507e+06	0	1	2	5	4
5	1	250	0	1	5	3	4
5	2	26688	0	1	2	1	0
5	2	60900	0	1	2	3	4
5	2	1.01622e+07	0	1	2	5	4
5	2	450	0	1	5	3	4
5	3	20992	0	1	2	1	0
5	3	55400	0	1	2	3	4
5	3	8.704e+06	0	1	2	5	4
5	3	150	0	1	5	3	4
5	4	20480	0	1	2	1	0
5	4	51300	0	1	2	3	4
5	4	8.01997e+06	0	1	2	5	4
5	4	200	0	1	5	3	4
5	6	37504	0	1	2	1	0
5	6	81500	0	1	2	3	4
5	6	1.32055e+07	0	1	2	5	4
5	6	200	0	1	5	3	4
5	7	33216	0	1	2	1	0
5	7	78300	0	1	2	3	4
5	7	1.22307e+07	0	1	2	5	4
5	7	350	0	1	5	3	4
5	8	11328	0	1	2	1	0
5	8	24800	0	1	2	3	4
5	8	3.75603e+06	0	1	2	5	4
5	8	100	0	1	5	3	4
5	9	13504	0	1	2	1	0
5	9	33500	0	1	2	3	4
5	9	5.54598e+06	0	1	2	5	4
5	9	200	0	1	5	3	4
6	0	41728	0	1	2	1	0
6	0	106600	0	1	2	3	4
6	0	1.64905e+07	0	1	2	5	4
6	0	300	0	1	5	3	4
6	1	19968	0	1	2	1	0
6	1	48000	0	1	2	3	4
6	1	7.96262e+06	0	1	2	5	4
6	1	100	0	1	5	3	4
6	2	46336	0	1	2	1	0
6	2	115500	0	1	2	3	4
6	2	1.85876e+07	0	1	2	5	4
6	2	700	0	1	5	3	4
6	3	43392	0	1	2	1	0
6	3	99400	0	1	2	3	4
6	3	1.57245e+07	0	1	2	5	4
6	3	550	0	1	5	3	4
6	4	37632	0	1	2	1	0
6	4	93200	0	1	2	3	4
6	4	1.48193e+07	0	1	2	5	4
6	4	300	0	1	5	3	4
6	5	38400	0	1	2	1	0
6	5	83800	0	1	2	3	4
6	5	1.38158e+07	0	1	2	5	4
6	5	400	0	1	5	3	4
6	7	15168	0	1	2	1	0
6	7	39400	0	1	2	3	4
6	7	5.90234e+06	0	1	2	5	4
6	7	300	0	1	5	3	4
6	8	14592	0	1	2	1	0
6	8	33400	0	1	2	3	4
6	8	5.40672e+06	0	1	2	5	4
6	8	50	0	1	5	3	4
6	9	12864	0	1	2	1	0
6	9	33700	0	1	2	3	4
6	9	5.16915e+06	0	1	2	5	4
6	9	200	0	1	5	3	4
7	0	20480	0	1	2	1	0
7	0	46900	0	1	2	3	4
7	0	8.0855e+06	0	1	2	5	4
7	0	150	0	1	5	3	4
7	1	18880	0	1	2	1	0
7	1	48500	0	1	2	3	4
7	1	7.18438e+06	0	1	2	5	4
7	1	250	0	1	5	3	4
7	2	25088	0	1	2	1	0
7	2	54600	0	1	2	3	4
7	2	8.73267e+06	0	1	2	5	4
7	2	50	0	1	5	3	4
7	3	13440	0	1	2	1	0
7	3	36200	0	1	2	3	4
7	3	5.15277e+06	0	1	2	5	4
7	3	150	0	1	5	3	4
7	4	12352	0	1	2	1	0
7	4	29800	0	1	2	3	4
7	4	4.52608e+06	0	1	2	5	4
7	4	150	0	1	5	3	4
7	5	31424	0	1	2	1	0
7	5	81600	0	1	2	3	4
7	5	1.26689e+07	0	1	2	5	4
7	5	200	0	1	5	3	4
7	6	13440	0	1	2	1	0
7	6	34900	0	1	2	3	4
7	6	5.75078e+06	0	1	2	5	4
7	8	12736	0	1	2	1	0
7	8	33800	0	1	2	3	4
7	8	5.34118e+06	0	1	2	5	4
7	8	200	0	1	5	3	4
7	9	25856	0	1	2	1	0
7	9	57700	0	1	2	3	4
7	9	9.58054e+06	0	1	2	5	4
7	9	300	0	1	5	3	4
8	0	40320	0	1	2	1	0
8	0	87900	0	1	2	3	4
8	0	1.45121e+07	0	1	2	5	4
8	0	450	0	1	5	3	4
8	1	51776	0	1	2	1	0
8	1	121300	0	1	2	3	4
8	1	2.09101e+07	0	1	2	5	4
8	1	900	0	1	5	3	4
8	2	21952	0	1	2	1	0
8	2	52300	0	1	2	3	4
8	2	7.9913e+06	0	1	2	5	4
8	2	350	0	1	5	3	4
8	3	38144	0	1	2	1	0
8	3	89600	0	1	2	3	4
8	3	1.48726e+07	0	1	2	5	4
8	3	350	0	1	5	3	4
8	4	11584	0	1	2	1	0
8	4	28300	0	1	2	3	4
8	4	4.08781e+06	0	1	2	5	4
8	4	150	0	1	5	3	4
8	5	10752	0	1	2	1	0
8	5	24400	0	1	2	3	4
8	5	3.73146e+06	0	1	2	5	4
8	5	150	0	1	5	3	4
8	6	14080	0	1	2	1	0
8	6	35400	0	1	2	3	4
8	6	5.4313e+06	0	1	2	5	4
8	6	250	0	1	5	3	4
8	7	12800	0	1	2	1	0
8	7	31800	0	1	2	3	4
8	7	5.06266e+06	0	1	2	5	4
8	7	150	0	1	5	3	4
8	9	26496	0	1	2	1	0
8	9	57000	0	1	2	3	4
8	9	8.95386e+06	0	1	2	5	4
8	9	350	0	1	5	3	4
9	0	23808	0	1	2	1	0
9	0	57600	0	1	2	3	4
9	0	9.26515e+06	0	1	2	5	4
9	0	250	0	1	5	3	4
9	1	24064	0	1	2	1	0
9	1	61800	0	1	2	3	4
9	1	9.84678e+06	0	1	2	5	4
9	1	250	0	1	5	3	4
9	2	41344	0	1	2	1	0
9	2	103600	0	1	2	3	4
9	2	1.57778e+07	0	1	2	5	4
9	2	250	0	1	5	3	4
9	3	19456	0	1	2	1	0
9	3	47300	0	1	2	3	4
9	3	6.8608e+06	0	1	2	5	4
9	4	11712	0	1	2	1	0
9	4	28000	0	1	2	3	4
9	4	4.1001e+06	0	1	2	5	4
9	4	100	0	1	5	3	4
9	5	14784	0	1	2	1	0
9	5	37600	0	1	2	3	4
9	5	5.78355e+06	0	1	2	5	4
9	5	150	0	1	5	3	4
9	6	12736	0	1	2	1	0
9	6	33500	0	1	2	3	4
9	6	5.29203e+06	0	1	2	5	4
9	6	100	0	1	5	3	4
9	7	24768	0	1	2	1	0
9	7	63300	0	1	2	3	4
9	7	9.64198e+06	0	1	2	5	4
9	7	250	0	1	5	3	4
9	8	25856	0	1	2	1	0
9	8	53800	0	1	2	3	4
9	8	9.37574e+06	0	1	2	5	4
9	8	150	0	1	5	3	4
