100000	100000	100000	10000	1000	1000
0	1	11584	0	1	2	1	0
0	1	27600	0	1	2	3	4
0	1	4.34995e+06	0	1	2	5	4
0	1	150	0	1	5	3	4
0	2	13056	0	1	2	1	0
0	2	27200	0	1	2	3	4
0	2	4.10419e+06	0	1	2	5	4
0	2	150	0	1	5	3	4
0	3	11264	0	1	2	1	0
0	3	25900	0	1	2	3	4
0	3	4.096e+06	0	1	2	5	4
0	3	100	0	1	5	3	4
0	4	11456	0	1	2	1	0
0	4	25900	0	1	2	3	4
0	4	4.22707e+06	0	1	2	5	4
0	4	100	0	1	5	3	4
0	5	9664	0	1	2	1	0
0	5	28000	0	1	2	3	4
0	5	4.11648e+06	0	1	2	5	4
0	6	10752	0	1	2	1	0
0	6	27900	0	1	2	3	4
0	6	4.24755e+06	0	1	2	5	4
0	6	50	0	1	5	3	4
0	7	12288	0	1	2	1	0
0	7	28400	0	1	2	3	4
0	7	4.07962e+06	0	1	2	5	4
0	7	250	0	1	5	3	4
0	8	11008	0	1	2	1	0
0	8	26600	0	1	2	3	4
0	8	3.94854e+06	0	1	2	5	4
0	8	50	0	1	5	3	4
0	9	10560	0	1	2	1	0
0	9	24800	0	1	2	3	4
0	9	4.25984e+06	0	1	2	5	4
0	9	200	0	1	5	3	4
0	10	9856	0	1	2	1	0
0	10	28300	0	1	2	3	4
0	10	4.21069e+06	0	1	2	5	4
0	10	50	0	1	5	3	4
0	11	11776	0	1	2	1	0
0	11	28000	0	1	2	3	4
0	11	4.1943e+06	0	1	2	5	4
0	11	100	0	1	5	3	4
0	12	10112	0	1	2	1	0
0	12	25200	0	1	2	3	4
0	12	4.00998e+06	0	1	2	5	4
0	12	50	0	1	5	3	4
0	13	10112	0	1	2	1	0
0	13	27300	0	1	2	3	4
0	13	4.12877e+06	0	1	2	5	4
0	13	200	0	1	5	3	4
0	14	10240	0	1	2	1	0
0	14	24800	0	1	2	3	4
0	14	4.08371e+06	0	1	2	5	4
0	14	50	0	1	5	3	4
0	15	10176	0	1	2	1	0
0	15	24300	0	1	2	3	4
0	15	4.17382e+06	0	1	2	5	4
0	15	100	0	1	5	3	4
1	0	11200	0	1	2	1	0
1	0	27600	0	1	2	3	4
1	0	4.25574e+06	0	1	2	5	4
1	0	50	0	1	5	3	4
1	2	9728	0	1	2	1	0
1	2	27900	0	1	2	3	4
1	2	4.31718e+06	0	1	2	5	4
1	2	50	0	1	5	3	4
1	3	10112	0	1	2	1	0
1	3	27500	0	1	2	3	4
1	3	4.13286e+06	0	1	2	5	4
1	3	200	0	1	5	3	4
1	4	11648	0	1	2	1	0
1	4	26700	0	1	2	3	4
1	4	4.38682e+06	0	1	2	5	4
1	4	150	0	1	5	3	4
1	5	11520	0	1	2	1	0
1	5	27400	0	1	2	3	4
1	5	4.07552e+06	0	1	2	5	4
1	5	100	0	1	5	3	4
1	6	11136	0	1	2	1	0
1	6	22600	0	1	2	3	4
1	6	4.11238e+06	0	1	2	5	4
1	6	250	0	1	5	3	4
1	7	11264	0	1	2	1	0
1	7	28300	0	1	2	3	4
1	7	4.2967e+06	0	1	2	5	4
1	7	200	0	1	5	3	4
1	8	9856	0	1	2	1	0
1	8	24300	0	1	2	3	4
1	8	4.25984e+06	0	1	2	5	4
1	8	100	0	1	5	3	4
1	9	10624	0	1	2	1	0
1	9	26000	0	1	2	3	4
1	9	4.22707e+06	0	1	2	5	4
1	9	100	0	1	5	3	4
1	10	10304	0	1	2	1	0
1	10	25500	0	1	2	3	4
1	10	4.17382e+06	0	1	2	5	4
1	10	100	0	1	5	3	4
1	11	11968	0	1	2	1	0
1	11	23900	0	1	2	3	4
1	11	4.12058e+06	0	1	2	5	4
1	11	200	0	1	5	3	4
1	12	10624	0	1	2	1	0
1	12	26100	0	1	2	3	4
1	12	4.25984e+06	0	1	2	5	4
1	12	150	0	1	5	3	4
1	13	10752	0	1	2	1	0
1	13	25600	0	1	2	3	4
1	13	4.10419e+06	0	1	2	5	4
1	13	50	0	1	5	3	4
1	14	11456	0	1	2	1	0
1	14	25200	0	1	2	3	4
1	14	3.9936e+06	0	1	2	5	4
1	14	100	0	1	5	3	4
1	15	11008	0	1	2	1	0
1	15	24600	0	1	2	3	4
1	15	4.15744e+06	0	1	2	5	4
1	15	50	0	1	5	3	4
2	0	9920	0	1	2	1	0
2	0	25300	0	1	2	3	4
2	0	3.94035e+06	0	1	2	5	4
2	1	10816	0	1	2	1	0
2	1	30500	0	1	2	3	4
2	1	4.21888e+06	0	1	2	5	4
2	1	150	0	1	5	3	4
2	3	12416	0	1	2	1	0
2	3	27900	0	1	2	3	4
2	3	4.00998e+06	0	1	2	5	4
2	3	150	0	1	5	3	4
2	4	11072	0	1	2	1	0
2	4	24800	0	1	2	3	4
2	4	4.0919e+06	0	1	2	5	4
2	4	100	0	1	5	3	4
2	5	9280	0	1	2	1	0
2	5	24400	0	1	2	3	4
2	5	4.12877e+06	0	1	2	5	4
2	5	100	0	1	5	3	4
2	6	11968	0	1	2	1	0
2	6	26200	0	1	2	3	4
2	6	4.20659e+06	0	1	2	5	4
2	7	10752	0	1	2	1	0
2	7	26800	0	1	2	3	4
2	7	4.4073e+06	0	1	2	5	4
2	7	100	0	1	5	3	4
2	8	10432	0	1	2	1	0
2	8	28600	0	1	2	3	4
2	8	3.90349e+06	0	1	2	5	4
2	8	200	0	1	5	3	4
2	9	10944	0	1	2	1	0
2	9	24500	0	1	2	3	4
2	9	4.05094e+06	0	1	2	5	4
2	9	100	0	1	5	3	4
2	10	10304	0	1	2	1	0
2	10	24500	0	1	2	3	4
2	10	4.01818e+06	0	1	2	5	4
2	10	200	0	1	5	3	4
2	11	9024	0	1	2	1	0
2	11	25700	0	1	2	3	4
2	11	3.81747e+06	0	1	2	5	4
2	11	100	0	1	5	3	4
2	12	11776	0	1	2	1	0
2	12	24800	0	1	2	3	4
2	12	3.91578e+06	0	1	2	5	4
2	12	50	0	1	5	3	4
2	13	9792	0	1	2	1	0
2	13	27200	0	1	2	3	4
2	13	3.95674e+06	0	1	2	5	4
2	13	100	0	1	5	3	4
2	14	9856	0	1	2	1	0
2	14	24600	0	1	2	3	4
2	14	4.16563e+06	0	1	2	5	4
2	14	100	0	1	5	3	4
2	15	12864	0	1	2	1	0
2	15	26600	0	1	2	3	4
2	15	4.1001e+06	0	1	2	5	4
2	15	100	0	1	5	3	4
3	0	11072	0	1	2	1	0
3	0	24600	0	1	2	3	4
3	0	4.02227e+06	0	1	2	5	4
3	0	150	0	1	5	3	4
3	1	10880	0	1	2	1	0
3	1	26700	0	1	2	3	4
3	1	4.01408e+06	0	1	2	5	4
3	1	150	0	1	5	3	4
3	2	10880	0	1	2	1	0
3	2	26400	0	1	2	3	4
3	2	4.08781e+06	0	1	2	5	4
3	2	50	0	1	5	3	4
3	4	11392	0	1	2	1	0
3	4	24900	0	1	2	3	4
3	4	4.36224e+06	0	1	2	5	4
3	4	200	0	1	5	3	4
3	5	10368	0	1	2	1	0
3	5	27100	0	1	2	3	4
3	5	4.14106e+06	0	1	2	5	4
3	5	100	0	1	5	3	4
3	6	10688	0	1	2	1	0
3	6	25200	0	1	2	3	4
3	6	4.05504e+06	0	1	2	5	4
3	6	50	0	1	5	3	4
3	7	10752	0	1	2	1	0
3	7	26200	0	1	2	3	4
3	7	4.00179e+06	0	1	2	5	4
3	7	100	0	1	5	3	4
3	8	10688	0	1	2	1	0
3	8	27300	0	1	2	3	4
3	8	4.15744e+06	0	1	2	5	4
3	8	50	0	1	5	3	4
3	9	8896	0	1	2	1	0
3	9	25200	0	1	2	3	4
3	9	4.34176e+06	0	1	2	5	4
3	9	100	0	1	5	3	4
3	10	11776	0	1	2	1	0
3	10	25300	0	1	2	3	4
3	10	4.25574e+06	0	1	2	5	4
3	11	11136	0	1	2	1	0
3	11	26300	0	1	2	3	4
3	11	4.1943e+06	0	1	2	5	4
3	11	300	0	1	5	3	4
3	12	10880	0	1	2	1	0
3	12	27100	0	1	2	3	4
3	12	4.00179e+06	0	1	2	5	4
3	13	10496	0	1	2	1	0
3	13	27500	0	1	2	3	4
3	13	4.16154e+06	0	1	2	5	4
3	13	100	0	1	5	3	4
3	14	10752	0	1	2	1	0
3	14	23900	0	1	2	3	4
3	14	4.01818e+06	0	1	2	5	4
3	14	100	0	1	5	3	4
3	15	10624	0	1	2	1	0
3	15	24600	0	1	2	3	4
3	15	3.95674e+06	0	1	2	5	4
3	15	150	0	1	5	3	4
4	0	9664	0	1	2	1	0
4	0	24900	0	1	2	3	4
4	0	4.17382e+06	0	1	2	5	4
4	0	250	0	1	5	3	4
4	1	12160	0	1	2	1	0
4	1	25900	0	1	2	3	4
4	1	4.00998e+06	0	1	2	5	4
4	1	50	0	1	5	3	4
4	2	11008	0	1	2	1	0
4	2	24300	0	1	2	3	4
4	2	4.25165e+06	0	1	2	5	4
4	2	100	0	1	5	3	4
4	3	10496	0	1	2	1	0
4	3	28300	0	1	2	3	4
4	3	4.00589e+06	0	1	2	5	4
4	3	50	0	1	5	3	4
4	5	11392	0	1	2	1	0
4	5	25700	0	1	2	3	4
4	5	4.03456e+06	0	1	2	5	4
4	5	150	0	1	5	3	4
4	6	10752	0	1	2	1	0
4	6	25700	0	1	2	3	4
4	6	4.06733e+06	0	1	2	5	4
4	6	50	0	1	5	3	4
4	7	10240	0	1	2	1	0
4	7	25200	0	1	2	3	4
4	7	4.10419e+06	0	1	2	5	4
4	7	50	0	1	5	3	4
4	8	10432	0	1	2	1	0
4	8	28600	0	1	2	3	4
4	8	4.41549e+06	0	1	2	5	4
4	8	100	0	1	5	3	4
4	9	11328	0	1	2	1	0
4	9	26200	0	1	2	3	4
4	9	4.11238e+06	0	1	2	5	4
4	9	50	0	1	5	3	4
4	10	10816	0	1	2	1	0
4	10	29300	0	1	2	3	4
4	10	4.28851e+06	0	1	2	5	4
4	10	150	0	1	5	3	4
4	11	10432	0	1	2	1	0
4	11	23400	0	1	2	3	4
4	11	4.12058e+06	0	1	2	5	4
4	12	10944	0	1	2	1	0
4	12	24500	0	1	2	3	4
4	12	4.28032e+06	0	1	2	5	4
4	12	100	0	1	5	3	4
4	13	10304	0	1	2	1	0
4	13	25400	0	1	2	3	4
4	13	4.14106e+06	0	1	2	5	4
4	13	150	0	1	5	3	4
4	14	11008	0	1	2	1	0
4	14	25300	0	1	2	3	4
4	14	4.03456e+06	0	1	2	5	4
4	15	10048	0	1	2	1	0
4	15	30300	0	1	2	3	4
4	15	3.98131e+06	0	1	2	5	4
4	15	100	0	1	5	3	4
5	0	11456	0	1	2	1	0
5	0	26200	0	1	2	3	4
5	0	4.07142e+06	0	1	2	5	4
5	1	10880	0	1	2	1	0
5	1	27700	0	1	2	3	4
5	1	4.04275e+06	0	1	2	5	4
5	1	100	0	1	5	3	4
5	2	10432	0	1	2	1	0
5	2	25600	0	1	2	3	4
5	2	4.08371e+06	0	1	2	5	4
5	2	50	0	1	5	3	4
5	3	11584	0	1	2	1	0
5	3	26600	0	1	2	3	4
5	3	3.85434e+06	0	1	2	5	4
5	3	100	0	1	5	3	4
5	4	11136	0	1	2	1	0
5	4	25900	0	1	2	3	4
5	4	4.11648e+06	0	1	2	5	4
5	4	150	0	1	5	3	4
5	6	11200	0	1	2	1	0
5	6	24200	0	1	2	3	4
5	6	4.14106e+06	0	1	2	5	4
5	6	150	0	1	5	3	4
5	7	9792	0	1	2	1	0
5	7	25900	0	1	2	3	4
5	7	4.24755e+06	0	1	2	5	4
5	7	100	0	1	5	3	4
5	8	11712	0	1	2	1	0
5	8	23600	0	1	2	3	4
5	8	4.17792e+06	0	1	2	5	4
5	8	100	0	1	5	3	4
5	9	10944	0	1	2	1	0
5	9	26900	0	1	2	3	4
5	9	4.31309e+06	0	1	2	5	4
5	9	100	0	1	5	3	4
5	10	12032	0	1	2	1	0
5	10	24700	0	1	2	3	4
5	10	4.00589e+06	0	1	2	5	4
5	10	200	0	1	5	3	4
5	11	11392	0	1	2	1	0
5	11	26200	0	1	2	3	4
5	11	4.21069e+06	0	1	2	5	4
5	11	200	0	1	5	3	4
5	12	10368	0	1	2	1	0
5	12	26000	0	1	2	3	4
5	12	4.14515e+06	0	1	2	5	4
5	12	150	0	1	5	3	4
5	13	11136	0	1	2	1	0
5	13	24800	0	1	2	3	4
5	13	4.19021e+06	0	1	2	5	4
5	13	100	0	1	5	3	4
5	14	10816	0	1	2	1	0
5	14	26300	0	1	2	3	4
5	14	3.94854e+06	0	1	2	5	4
5	14	100	0	1	5	3	4
5	15	11712	0	1	2	1	0
5	15	23700	0	1	2	3	4
5	15	4.18202e+06	0	1	2	5	4
5	15	100	0	1	5	3	4
6	0	12032	0	1	2	1	0
6	0	26200	0	1	2	3	4
6	0	4.01818e+06	0	1	2	5	4
6	0	100	0	1	5	3	4
6	1	11328	0	1	2	1	0
6	1	27100	0	1	2	3	4
6	1	3.93626e+06	0	1	2	5	4
6	1	100	0	1	5	3	4
6	2	10688	0	1	2	1	0
6	2	28900	0	1	2	3	4
6	2	4.24755e+06	0	1	2	5	4
6	2	50	0	1	5	3	4
6	3	10880	0	1	2	1	0
6	3	25900	0	1	2	3	4
6	3	3.97312e+06	0	1	2	5	4
6	3	200	0	1	5	3	4
6	4	9536	0	1	2	1	0
6	4	27100	0	1	2	3	4
6	4	4.16973e+06	0	1	2	5	4
6	4	50	0	1	5	3	4
6	5	9728	0	1	2	1	0
6	5	28000	0	1	2	3	4
6	5	4.07142e+06	0	1	2	5	4
6	5	250	0	1	5	3	4
6	7	12224	0	1	2	1	0
6	7	26300	0	1	2	3	4
6	7	4.26394e+06	0	1	2	5	4
6	7	50	0	1	5	3	4
6	8	11136	0	1	2	1	0
6	8	26300	0	1	2	3	4
6	8	4.00179e+06	0	1	2	5	4
6	8	150	0	1	5	3	4
6	9	10944	0	1	2	1	0
6	9	27500	0	1	2	3	4
6	9	4.05094e+06	0	1	2	5	4
6	9	100	0	1	5	3	4
6	10	9024	0	1	2	1	0
6	10	27900	0	1	2	3	4
6	10	4.06733e+06	0	1	2	5	4
6	10	50	0	1	5	3	4
6	11	10048	0	1	2	1	0
6	11	25400	0	1	2	3	4
6	11	4.01818e+06	0	1	2	5	4
6	11	250	0	1	5	3	4
6	12	10752	0	1	2	1	0
6	12	24900	0	1	2	3	4
6	12	4.06323e+06	0	1	2	5	4
6	12	100	0	1	5	3	4
6	13	12288	0	1	2	1	0
6	13	25300	0	1	2	3	4
6	13	4.0919e+06	0	1	2	5	4
6	13	200	0	1	5	3	4
6	14	9664	0	1	2	1	0
6	14	25900	0	1	2	3	4
6	14	4.18611e+06	0	1	2	5	4
6	14	50	0	1	5	3	4
6	15	10368	0	1	2	1	0
6	15	26000	0	1	2	3	4
6	15	4.08781e+06	0	1	2	5	4
6	15	200	0	1	5	3	4
7	0	11456	0	1	2	1	0
7	0	25100	0	1	2	3	4
7	0	4.14106e+06	0	1	2	5	4
7	0	200	0	1	5	3	4
7	1	11968	0	1	2	1	0
7	1	26400	0	1	2	3	4
7	1	4.12467e+06	0	1	2	5	4
7	1	100	0	1	5	3	4
7	2	9728	0	1	2	1	0
7	2	25900	0	1	2	3	4
7	2	4.37453e+06	0	1	2	5	4
7	2	100	0	1	5	3	4
7	3	10368	0	1	2	1	0
7	3	25100	0	1	2	3	4
7	3	3.95674e+06	0	1	2	5	4
7	4	11712	0	1	2	1	0
7	4	24500	0	1	2	3	4
7	4	4.15334e+06	0	1	2	5	4
7	4	50	0	1	5	3	4
7	5	9856	0	1	2	1	0
7	5	24200	0	1	2	3	4
7	5	3.93216e+06	0	1	2	5	4
7	6	10624	0	1	2	1	0
7	6	21600	0	1	2	3	4
7	6	4.08371e+06	0	1	2	5	4
7	6	50	0	1	5	3	4
7	8	10688	0	1	2	1	0
7	8	26200	0	1	2	3	4
7	8	4.23526e+06	0	1	2	5	4
7	8	200	0	1	5	3	4
7	9	11840	0	1	2	1	0
7	9	24700	0	1	2	3	4
7	9	4.13286e+06	0	1	2	5	4
7	9	150	0	1	5	3	4
7	10	9216	0	1	2	1	0
7	10	25500	0	1	2	3	4
7	10	4.32128e+06	0	1	2	5	4
7	10	50	0	1	5	3	4
7	11	10240	0	1	2	1	0
7	11	24000	0	1	2	3	4
7	11	4.07962e+06	0	1	2	5	4
7	11	100	0	1	5	3	4
7	12	10944	0	1	2	1	0
7	12	25100	0	1	2	3	4
7	12	4.23526e+06	0	1	2	5	4
7	12	300	0	1	5	3	4
7	13	12736	0	1	2	1	0
7	13	25800	0	1	2	3	4
7	13	3.86253e+06	0	1	2	5	4
7	13	100	0	1	5	3	4
7	14	11392	0	1	2	1	0
7	14	25200	0	1	2	3	4
7	14	3.98541e+06	0	1	2	5	4
7	14	100	0	1	5	3	4
7	15	9856	0	1	2	1	0
7	15	27700	0	1	2	3	4
7	15	4.32128e+06	0	1	2	5	4
7	15	100	0	1	5	3	4
8	0	11904	0	1	2	1	0
8	0	24100	0	1	2	3	4
8	0	4.25165e+06	0	1	2	5	4
8	0	50	0	1	5	3	4
8	1	10432	0	1	2	1	0
8	1	26900	0	1	2	3	4
8	1	3.98131e+06	0	1	2	5	4
8	1	250	0	1	5	3	4
8	2	12800	0	1	2	1	0
8	2	26500	0	1	2	3	4
8	2	3.96902e+06	0	1	2	5	4
8	3	11648	0	1	2	1	0
8	3	25500	0	1	2	3	4
8	3	4.19021e+06	0	1	2	5	4
8	3	200	0	1	5	3	4
8	4	10944	0	1	2	1	0
8	4	27200	0	1	2	3	4
8	4	4.33357e+06	0	1	2	5	4
8	4	100	0	1	5	3	4
8	5	10752	0	1	2	1	0
8	5	26200	0	1	2	3	4
8	5	3.9936e+06	0	1	2	5	4
8	5	50	0	1	5	3	4
8	6	11264	0	1	2	1	0
8	6	25300	0	1	2	3	4
8	6	4.06733e+06	0	1	2	5	4
8	6	100	0	1	5	3	4
8	7	10880	0	1	2	1	0
8	7	28200	0	1	2	3	4
8	7	4.08371e+06	0	1	2	5	4
8	7	50	0	1	5	3	4
8	9	9856	0	1	2	1	0
8	9	25200	0	1	2	3	4
8	9	4.16973e+06	0	1	2	5	4
8	9	100	0	1	5	3	4
8	10	9920	0	1	2	1	0
8	10	25600	0	1	2	3	4
8	10	3.92397e+06	0	1	2	5	4
8	10	100	0	1	5	3	4
8	11	9600	0	1	2	1	0
8	11	27800	0	1	2	3	4
8	11	4.096e+06	0	1	2	5	4
8	11	150	0	1	5	3	4
8	12	10816	0	1	2	1	0
8	12	22800	0	1	2	3	4
8	12	4.11648e+06	0	1	2	5	4
8	12	50	0	1	5	3	4
8	13	11520	0	1	2	1	0
8	13	27700	0	1	2	3	4
8	13	3.96902e+06	0	1	2	5	4
8	13	100	0	1	5	3	4
8	14	10688	0	1	2	1	0
8	14	25300	0	1	2	3	4
8	14	4.01408e+06	0	1	2	5	4
8	14	50	0	1	5	3	4
8	15	10880	0	1	2	1	0
8	15	24100	0	1	2	3	4
8	15	4.2967e+06	0	1	2	5	4
8	15	100	0	1	5	3	4
9	0	11712	0	1	2	1	0
9	0	26400	0	1	2	3	4
9	0	4.18611e+06	0	1	2	5	4
9	0	50	0	1	5	3	4
9	1	11392	0	1	2	1	0
9	1	24900	0	1	2	3	4
9	1	4.1984e+06	0	1	2	5	4
9	2	10880	0	1	2	1	0
9	2	25700	0	1	2	3	4
9	2	4.26803e+06	0	1	2	5	4
9	2	50	0	1	5	3	4
9	3	9728	0	1	2	1	0
9	3	28700	0	1	2	3	4
9	3	4.43187e+06	0	1	2	5	4
9	3	100	0	1	5	3	4
9	4	10944	0	1	2	1	0
9	4	24400	0	1	2	3	4
9	4	3.94445e+06	0	1	2	5	4
9	4	100	0	1	5	3	4
9	5	11712	0	1	2	1	0
9	5	27800	0	1	2	3	4
9	5	4.18202e+06	0	1	2	5	4
9	5	50	0	1	5	3	4
9	6	13120	0	1	2	1	0
9	6	22900	0	1	2	3	4
9	6	4.35814e+06	0	1	2	5	4
9	6	250	0	1	5	3	4
9	7	12160	0	1	2	1	0
9	7	26100	0	1	2	3	4
9	7	4.1943e+06	0	1	2	5	4
9	7	100	0	1	5	3	4
9	8	11072	0	1	2	1	0
9	8	24400	0	1	2	3	4
9	8	4.12877e+06	0	1	2	5	4
9	8	100	0	1	5	3	4
9	10	9792	0	1	2	1	0
9	10	23400	0	1	2	3	4
9	10	4.0919e+06	0	1	2	5	4
9	10	50	0	1	5	3	4
9	11	11008	0	1	2	1	0
9	11	26900	0	1	2	3	4
9	11	4.13286e+06	0	1	2	5	4
9	11	50	0	1	5	3	4
9	12	10048	0	1	2	1	0
9	12	25400	0	1	2	3	4
9	12	4.0919e+06	0	1	2	5	4
9	12	150	0	1	5	3	4
9	13	10176	0	1	2	1	0
9	13	27000	0	1	2	3	4
9	13	4.02637e+06	0	1	2	5	4
9	13	100	0	1	5	3	4
9	14	11200	0	1	2	1	0
9	14	30400	0	1	2	3	4
9	14	4.15334e+06	0	1	2	5	4
9	14	50	0	1	5	3	4
9	15	11456	0	1	2	1	0
9	15	26300	0	1	2	3	4
9	15	4.05914e+06	0	1	2	5	4
9	15	100	0	1	5	3	4
10	0	11392	0	1	2	1	0
10	0	26600	0	1	2	3	4
10	0	4.23117e+06	0	1	2	5	4
10	0	200	0	1	5	3	4
10	1	10304	0	1	2	1	0
10	1	27600	0	1	2	3	4
10	1	4.3008e+06	0	1	2	5	4
10	1	100	0	1	5	3	4
10	2	10688	0	1	2	1	0
10	2	26200	0	1	2	3	4
10	2	4.01818e+06	0	1	2	5	4
10	2	200	0	1	5	3	4
10	3	11264	0	1	2	1	0
10	3	23300	0	1	2	3	4
10	3	4.07552e+06	0	1	2	5	4
10	3	150	0	1	5	3	4
10	4	11200	0	1	2	1	0
10	4	26300	0	1	2	3	4
10	4	4.14925e+06	0	1	2	5	4
10	4	50	0	1	5	3	4
10	5	11456	0	1	2	1	0
10	5	25300	0	1	2	3	4
10	5	4.1001e+06	0	1	2	5	4
10	5	250	0	1	5	3	4
10	6	10304	0	1	2	1	0
10	6	26700	0	1	2	3	4
10	6	3.84205e+06	0	1	2	5	4
10	6	200	0	1	5	3	4
10	7	10688	0	1	2	1	0
10	7	26100	0	1	2	3	4
10	7	4.11238e+06	0	1	2	5	4
10	8	11968	0	1	2	1	0
10	8	25600	0	1	2	3	4
10	8	4.12877e+06	0	1	2	5	4
10	8	300	0	1	5	3	4
10	9	10688	0	1	2	1	0
10	9	26600	0	1	2	3	4
10	9	4.1001e+06	0	1	2	5	4
10	9	100	0	1	5	3	4
10	11	10624	0	1	2	1	0
10	11	27600	0	1	2	3	4
10	11	4.26394e+06	0	1	2	5	4
10	11	150	0	1	5	3	4
10	12	11008	0	1	2	1	0
10	12	23500	0	1	2	3	4
10	12	4.26394e+06	0	1	2	5	4
10	12	100	0	1	5	3	4
10	13	10112	0	1	2	1	0
10	13	25700	0	1	2	3	4
10	13	4.01408e+06	0	1	2	5	4
10	13	100	0	1	5	3	4
10	14	11136	0	1	2	1	0
10	14	26400	0	1	2	3	4
10	14	4.14515e+06	0	1	2	5	4
10	14	50	0	1	5	3	4
10	15	11456	0	1	2	1	0
10	15	26000	0	1	2	3	4
10	15	4.30899e+06	0	1	2	5	4
10	15	100	0	1	5	3	4
11	0	11264	0	1	2	1	0
11	0	28600	0	1	2	3	4
11	0	4.0919e+06	0	1	2	5	4
11	0	100	0	1	5	3	4
11	1	12224	0	1	2	1	0
11	1	27400	0	1	2	3	4
11	1	3.7929e+06	0	1	2	5	4
11	1	250	0	1	5	3	4
11	2	11456	0	1	2	1	0
11	2	25400	0	1	2	3	4
11	2	4.11648e+06	0	1	2	5	4
11	3	10176	0	1	2	1	0
11	3	26900	0	1	2	3	4
11	3	4.16563e+06	0	1	2	5	4
11	4	10112	0	1	2	1	0
11	4	24900	0	1	2	3	4
11	4	4.1984e+06	0	1	2	5	4
11	4	50	0	1	5	3	4
11	5	11520	0	1	2	1	0
11	5	27200	0	1	2	3	4
11	5	3.97722e+06	0	1	2	5	4
11	6	9984	0	1	2	1	0
11	6	24700	0	1	2	3	4
11	6	4.08781e+06	0	1	2	5	4
11	6	100	0	1	5	3	4
11	7	11008	0	1	2	1	0
11	7	27000	0	1	2	3	4
11	7	3.90758e+06	0	1	2	5	4
11	8	10240	0	1	2	1	0
11	8	24200	0	1	2	3	4
11	8	4.05504e+06	0	1	2	5	4
11	8	50	0	1	5	3	4
11	9	11776	0	1	2	1	0
11	9	27500	0	1	2	3	4
11	9	4.14515e+06	0	1	2	5	4
11	9	150	0	1	5	3	4
11	10	10176	0	1	2	1	0
11	10	25000	0	1	2	3	4
11	10	4.30899e+06	0	1	2	5	4
11	10	50	0	1	5	3	4
11	12	11008	0	1	2	1	0
11	12	24100	0	1	2	3	4
11	12	4.1001e+06	0	1	2	5	4
11	12	200	0	1	5	3	4
11	13	10432	0	1	2	1	0
11	13	27800	0	1	2	3	4
11	13	4.33357e+06	0	1	2	5	4
11	13	100	0	1	5	3	4
11	14	12224	0	1	2	1	0
11	14	27700	0	1	2	3	4
11	14	4.18202e+06	0	1	2	5	4
11	14	150	0	1	5	3	4
11	15	13120	0	1	2	1	0
11	15	26500	0	1	2	3	4
11	15	4.04685e+06	0	1	2	5	4
12	0	10816	0	1	2	1	0
12	0	26800	0	1	2	3	4
12	0	4.33357e+06	0	1	2	5	4
12	0	150	0	1	5	3	4
12	1	10816	0	1	2	1	0
12	1	24800	0	1	2	3	4
12	1	4.08371e+06	0	1	2	5	4
12	1	200	0	1	5	3	4
12	2	9664	0	1	2	1	0
12	2	25900	0	1	2	3	4
12	2	4.25574e+06	0	1	2	5	4
12	3	10112	0	1	2	1	0
12	3	26300	0	1	2	3	4
12	3	3.98131e+06	0	1	2	5	4
12	3	150	0	1	5	3	4
12	4	11968	0	1	2	1	0
12	4	26200	0	1	2	3	4
12	4	4.12877e+06	0	1	2	5	4
12	5	10432	0	1	2	1	0
12	5	25700	0	1	2	3	4
12	5	3.95264e+06	0	1	2	5	4
12	5	50	0	1	5	3	4
12	6	9664	0	1	2	1	0
12	6	28500	0	1	2	3	4
12	6	4.03866e+06	0	1	2	5	4
12	6	100	0	1	5	3	4
12	7	10944	0	1	2	1	0
12	7	28600	0	1	2	3	4
12	7	4.11648e+06	0	1	2	5	4
12	7	50	0	1	5	3	4
12	8	11136	0	1	2	1	0
12	8	26600	0	1	2	3	4
12	8	4.05094e+06	0	1	2	5	4
12	8	50	0	1	5	3	4
12	9	12032	0	1	2	1	0
12	9	26500	0	1	2	3	4
12	9	4.02637e+06	0	1	2	5	4
12	9	100	0	1	5	3	4
12	10	10624	0	1	2	1	0
12	10	28700	0	1	2	3	4
12	10	4.17792e+06	0	1	2	5	4
12	10	150	0	1	5	3	4
12	11	11392	0	1	2	1	0
12	11	27000	0	1	2	3	4
12	11	4.35814e+06	0	1	2	5	4
12	11	100	0	1	5	3	4
12	13	11456	0	1	2	1	0
12	13	26400	0	1	2	3	4
12	13	4.10419e+06	0	1	2	5	4
12	13	50	0	1	5	3	4
12	14	10688	0	1	2	1	0
12	14	23500	0	1	2	3	4
12	14	4.096e+06	0	1	2	5	4
12	14	50	0	1	5	3	4
12	15	10560	0	1	2	1	0
12	15	23700	0	1	2	3	4
12	15	4.23117e+06	0	1	2	5	4
12	15	50	0	1	5	3	4
13	0	10560	0	1	2	1	0
13	0	25900	0	1	2	3	4
13	0	4.42778e+06	0	1	2	5	4
13	0	350	0	1	5	3	4
13	1	12544	0	1	2	1	0
13	1	26100	0	1	2	3	4
13	1	4.00179e+06	0	1	2	5	4
13	1	100	0	1	5	3	4
13	2	11456	0	1	2	1	0
13	2	23800	0	1	2	3	4
13	2	4.10419e+06	0	1	2	5	4
13	2	50	0	1	5	3	4
13	3	11776	0	1	2	1	0
13	3	28600	0	1	2	3	4
13	3	4.05914e+06	0	1	2	5	4
13	3	150	0	1	5	3	4
13	4	11136	0	1	2	1	0
13	4	26900	0	1	2	3	4
13	4	4.41139e+06	0	1	2	5	4
13	4	100	0	1	5	3	4
13	5	11136	0	1	2	1	0
13	5	25200	0	1	2	3	4
13	5	4.04685e+06	0	1	2	5	4
13	5	150	0	1	5	3	4
13	6	12096	0	1	2	1	0
13	6	24700	0	1	2	3	4
13	6	4.01408e+06	0	1	2	5	4
13	6	150	0	1	5	3	4
13	7	11904	0	1	2	1	0
13	7	27200	0	1	2	3	4
13	7	4.22298e+06	0	1	2	5	4
13	7	350	0	1	5	3	4
13	8	10624	0	1	2	1	0
13	8	23100	0	1	2	3	4
13	8	4.31718e+06	0	1	2	5	4
13	8	100	0	1	5	3	4
13	9	10688	0	1	2	1	0
13	9	23600	0	1	2	3	4
13	9	3.9895e+06	0	1	2	5	4
13	9	100	0	1	5	3	4
13	10	12800	0	1	2	1	0
13	10	28300	0	1	2	3	4
13	10	4.16973e+06	0	1	2	5	4
13	10	50	0	1	5	3	4
13	11	11328	0	1	2	1	0
13	11	28800	0	1	2	3	4
13	11	4.22298e+06	0	1	2	5	4
13	11	200	0	1	5	3	4
13	12	10240	0	1	2	1	0
13	12	25000	0	1	2	3	4
13	12	4.05914e+06	0	1	2	5	4
13	12	100	0	1	5	3	4
13	14	11520	0	1	2	1	0
13	14	25900	0	1	2	3	4
13	14	4.3008e+06	0	1	2	5	4
13	15	10816	0	1	2	1	0
13	15	26900	0	1	2	3	4
13	15	3.94035e+06	0	1	2	5	4
14	0	10560	0	1	2	1	0
14	0	26300	0	1	2	3	4
14	0	4.15334e+06	0	1	2	5	4
14	0	50	0	1	5	3	4
14	1	10752	0	1	2	1	0
14	1	26600	0	1	2	3	4
14	1	3.9895e+06	0	1	2	5	4
14	2	11072	0	1	2	1	0
14	2	25100	0	1	2	3	4
14	2	4.12058e+06	0	1	2	5	4
14	3	10560	0	1	2	1	0
14	3	27200	0	1	2	3	4
14	3	4.32947e+06	0	1	2	5	4
14	3	50	0	1	5	3	4
14	4	10688	0	1	2	1	0
14	4	27000	0	1	2	3	4
14	4	4.13286e+06	0	1	2	5	4
14	4	150	0	1	5	3	4
14	5	11456	0	1	2	1	0
14	5	27100	0	1	2	3	4
14	5	4.4073e+06	0	1	2	5	4
14	5	100	0	1	5	3	4
14	6	12672	0	1	2	1	0
14	6	24000	0	1	2	3	4
14	6	3.95674e+06	0	1	2	5	4
14	6	250	0	1	5	3	4
14	7	10176	0	1	2	1	0
14	7	26300	0	1	2	3	4
14	7	4.08781e+06	0	1	2	5	4
14	8	10560	0	1	2	1	0
14	8	24100	0	1	2	3	4
14	8	4.03046e+06	0	1	2	5	4
14	8	150	0	1	5	3	4
14	9	9216	0	1	2	1	0
14	9	26100	0	1	2	3	4
14	9	4.03866e+06	0	1	2	5	4
14	9	200	0	1	5	3	4
14	10	11200	0	1	2	1	0
14	10	27300	0	1	2	3	4
14	10	4.38272e+06	0	1	2	5	4
14	11	10624	0	1	2	1	0
14	11	25500	0	1	2	3	4
14	11	4.17792e+06	0	1	2	5	4
14	11	150	0	1	5	3	4
14	12	11200	0	1	2	1	0
14	12	26300	0	1	2	3	4
14	12	4.20659e+06	0	1	2	5	4
14	12	150	0	1	5	3	4
14	13	12096	0	1	2	1	0
14	13	27400	0	1	2	3	4
14	13	4.28851e+06	0	1	2	5	4
14	13	200	0	1	5	3	4
14	15	10816	0	1	2	1	0
14	15	29700	0	1	2	3	4
14	15	3.9977e+06	0	1	2	5	4
15	0	11456	0	1	2	1	0
15	0	29700	0	1	2	3	4
15	0	4.08781e+06	0	1	2	5	4
15	0	50	0	1	5	3	4
15	1	11264	0	1	2	1	0
15	1	26200	0	1	2	3	4
15	1	4.35405e+06	0	1	2	5	4
15	1	50	0	1	5	3	4
15	2	11328	0	1	2	1	0
15	2	26000	0	1	2	3	4
15	2	3.87072e+06	0	1	2	5	4
15	2	150	0	1	5	3	4
15	3	12160	0	1	2	1	0
15	3	26300	0	1	2	3	4
15	3	4.25165e+06	0	1	2	5	4
15	3	50	0	1	5	3	4
15	4	10624	0	1	2	1	0
15	4	27300	0	1	2	3	4
15	4	4.14106e+06	0	1	2	5	4
15	4	50	0	1	5	3	4
15	5	10944	0	1	2	1	0
15	5	28300	0	1	2	3	4
15	5	4.21888e+06	0	1	2	5	4
15	5	50	0	1	5	3	4
15	6	9536	0	1	2	1	0
15	6	23900	0	1	2	3	4
15	6	4.18611e+06	0	1	2	5	4
15	6	150	0	1	5	3	4
15	7	10496	0	1	2	1	0
15	7	27400	0	1	2	3	4
15	7	4.10829e+06	0	1	2	5	4
15	7	300	0	1	5	3	4
15	8	10240	0	1	2	1	0
15	8	24600	0	1	2	3	4
15	8	4.16154e+06	0	1	2	5	4
15	8	50	0	1	5	3	4
15	9	12160	0	1	2	1	0
15	9	26200	0	1	2	3	4
15	9	4.10419e+06	0	1	2	5	4
15	9	250	0	1	5	3	4
15	10	11456	0	1	2	1	0
15	10	24700	0	1	2	3	4
15	10	4.21069e+06	0	1	2	5	4
15	10	200	0	1	5	3	4
15	11	11648	0	1	2	1	0
15	11	28000	0	1	2	3	4
15	11	4.27622e+06	0	1	2	5	4
15	11	50	0	1	5	3	4
15	12	11264	0	1	2	1	0
15	12	25800	0	1	2	3	4
15	12	4.25984e+06	0	1	2	5	4
15	12	150	0	1	5	3	4
15	13	10240	0	1	2	1	0
15	13	26400	0	1	2	3	4
15	13	4.00998e+06	0	1	2	5	4
15	13	200	0	1	5	3	4
15	14	11520	0	1	2	1	0
15	14	26400	0	1	2	3	4
15	14	4.10829e+06	0	1	2	5	4
15	14	200	0	1	5	3	4
