100000	100000	100000	10000	1000	1000
0	1	28544	0	1	2	1	0
0	1	72000	0	1	2	3	4
0	1	1.12681e+07	0	1	2	5	4
0	1	450	0	1	5	3	4
0	2	28736	0	1	2	1	0
0	2	67700	0	1	2	3	4
0	2	1.07397e+07	0	1	2	5	4
0	2	250	0	1	5	3	4
0	3	30144	0	1	2	1	0
0	3	67400	0	1	2	3	4
0	3	1.13623e+07	0	1	2	5	4
0	3	250	0	1	5	3	4
0	4	31232	0	1	2	1	0
0	4	71200	0	1	2	3	4
0	4	1.08626e+07	0	1	2	5	4
0	4	350	0	1	5	3	4
0	5	28544	0	1	2	1	0
0	5	66400	0	1	2	3	4
0	5	1.1178e+07	0	1	2	5	4
0	5	300	0	1	5	3	4
0	6	27904	0	1	2	1	0
0	6	71500	0	1	2	3	4
0	6	1.08012e+07	0	1	2	5	4
0	6	250	0	1	5	3	4
0	7	30592	0	1	2	1	0
0	7	70500	0	1	2	3	4
0	7	1.10592e+07	0	1	2	5	4
0	7	200	0	1	5	3	4
0	8	29568	0	1	2	1	0
0	8	67900	0	1	2	3	4
0	8	1.09732e+07	0	1	2	5	4
0	8	300	0	1	5	3	4
0	9	29184	0	1	2	1	0
0	9	65500	0	1	2	3	4
0	9	1.10961e+07	0	1	2	5	4
0	9	200	0	1	5	3	4
1	0	26752	0	1	2	1	0
1	0	72500	0	1	2	3	4
1	0	1.07397e+07	0	1	2	5	4
1	0	350	0	1	5	3	4
1	2	27264	0	1	2	1	0
1	2	71100	0	1	2	3	4
1	2	1.08585e+07	0	1	2	5	4
1	2	350	0	1	5	3	4
1	3	28416	0	1	2	1	0
1	3	68700	0	1	2	3	4
1	3	1.10469e+07	0	1	2	5	4
1	3	100	0	1	5	3	4
1	4	30080	0	1	2	1	0
1	4	69100	0	1	2	3	4
1	4	1.09281e+07	0	1	2	5	4
1	4	450	0	1	5	3	4
1	5	29184	0	1	2	1	0
1	5	69000	0	1	2	3	4
1	5	1.11247e+07	0	1	2	5	4
1	5	400	0	1	5	3	4
1	6	29824	0	1	2	1	0
1	6	73300	0	1	2	3	4
1	6	1.08831e+07	0	1	2	5	4
1	6	250	0	1	5	3	4
1	7	30080	0	1	2	1	0
1	7	73600	0	1	2	3	4
1	7	1.09199e+07	0	1	2	5	4
1	7	100	0	1	5	3	4
1	8	29760	0	1	2	1	0
1	8	69700	0	1	2	3	4
1	8	1.09322e+07	0	1	2	5	4
1	8	300	0	1	5	3	4
1	9	27712	0	1	2	1	0
1	9	69700	0	1	2	3	4
1	9	1.11124e+07	0	1	2	5	4
1	9	200	0	1	5	3	4
2	0	31232	0	1	2	1	0
2	0	73800	0	1	2	3	4
2	0	1.06537e+07	0	1	2	5	4
2	0	200	0	1	5	3	4
2	1	26304	0	1	2	1	0
2	1	72700	0	1	2	3	4
2	1	1.0924e+07	0	1	2	5	4
2	1	100	0	1	5	3	4
2	3	27264	0	1	2	1	0
2	3	68200	0	1	2	3	4
2	3	1.13213e+07	0	1	2	5	4
2	3	500	0	1	5	3	4
2	4	30464	0	1	2	1	0
2	4	77900	0	1	2	3	4
2	4	1.08954e+07	0	1	2	5	4
2	4	350	0	1	5	3	4
2	5	29696	0	1	2	1	0
2	5	74900	0	1	2	3	4
2	5	1.10264e+07	0	1	2	5	4
2	5	150	0	1	5	3	4
2	6	28416	0	1	2	1	0
2	6	62900	0	1	2	3	4
2	6	1.08667e+07	0	1	2	5	4
2	6	150	0	1	5	3	4
2	7	28224	0	1	2	1	0
2	7	69000	0	1	2	3	4
2	7	1.10961e+07	0	1	2	5	4
2	7	150	0	1	5	3	4
2	8	28096	0	1	2	1	0
2	8	67800	0	1	2	3	4
2	8	1.11903e+07	0	1	2	5	4
2	8	500	0	1	5	3	4
2	9	30592	0	1	2	1	0
2	9	68000	0	1	2	3	4
2	9	1.11329e+07	0	1	2	5	4
2	9	450	0	1	5	3	4
3	0	29184	0	1	2	1	0
3	0	73200	0	1	2	3	4
3	0	1.07397e+07	0	1	2	5	4
3	0	200	0	1	5	3	4
3	1	29632	0	1	2	1	0
3	1	69000	0	1	2	3	4
3	1	1.10879e+07	0	1	2	5	4
3	1	250	0	1	5	3	4
3	2	31616	0	1	2	1	0
3	2	70800	0	1	2	3	4
3	2	1.09732e+07	0	1	2	5	4
3	2	200	0	1	5	3	4
3	4	27904	0	1	2	1	0
3	4	71600	0	1	2	3	4
3	4	1.12722e+07	0	1	2	5	4
3	4	200	0	1	5	3	4
3	5	26752	0	1	2	1	0
3	5	66500	0	1	2	3	4
3	5	1.07397e+07	0	1	2	5	4
3	5	350	0	1	5	3	4
3	6	26560	0	1	2	1	0
3	6	69400	0	1	2	3	4
3	6	1.11616e+07	0	1	2	5	4
3	6	450	0	1	5	3	4
3	7	31104	0	1	2	1	0
3	7	77600	0	1	2	3	4
3	7	1.09568e+07	0	1	2	5	4
3	7	150	0	1	5	3	4
3	8	30016	0	1	2	1	0
3	8	68900	0	1	2	3	4
3	8	1.09445e+07	0	1	2	5	4
3	8	350	0	1	5	3	4
3	9	30592	0	1	2	1	0
3	9	67300	0	1	2	3	4
3	9	1.11084e+07	0	1	2	5	4
3	9	400	0	1	5	3	4
4	0	26944	0	1	2	1	0
4	0	66600	0	1	2	3	4
4	0	1.09363e+07	0	1	2	5	4
4	0	350	0	1	5	3	4
4	1	29760	0	1	2	1	0
4	1	72700	0	1	2	3	4
4	1	1.09117e+07	0	1	2	5	4
4	1	450	0	1	5	3	4
4	2	29504	0	1	2	1	0
4	2	68000	0	1	2	3	4
4	2	1.13254e+07	0	1	2	5	4
4	2	250	0	1	5	3	4
4	3	25920	0	1	2	1	0
4	3	73700	0	1	2	3	4
4	3	1.07848e+07	0	1	2	5	4
4	3	350	0	1	5	3	4
4	5	29056	0	1	2	1	0
4	5	68900	0	1	2	3	4
4	5	1.09732e+07	0	1	2	5	4
4	5	50	0	1	5	3	4
4	6	27712	0	1	2	1	0
4	6	68800	0	1	2	3	4
4	6	1.11247e+07	0	1	2	5	4
4	6	350	0	1	5	3	4
4	7	27968	0	1	2	1	0
4	7	72800	0	1	2	3	4
4	7	1.08175e+07	0	1	2	5	4
4	7	350	0	1	5	3	4
4	8	29760	0	1	2	1	0
4	8	70800	0	1	2	3	4
4	8	1.12968e+07	0	1	2	5	4
4	8	450	0	1	5	3	4
4	9	26752	0	1	2	1	0
4	9	68700	0	1	2	3	4
4	9	1.12026e+07	0	1	2	5	4
4	9	250	0	1	5	3	4
5	0	30208	0	1	2	1	0
5	0	68500	0	1	2	3	4
5	0	1.11043e+07	0	1	2	5	4
5	0	350	0	1	5	3	4
5	1	31296	0	1	2	1	0
5	1	71300	0	1	2	3	4
5	1	1.06619e+07	0	1	2	5	4
5	1	200	0	1	5	3	4
5	2	28416	0	1	2	1	0
5	2	72000	0	1	2	3	4
5	2	1.10715e+07	0	1	2	5	4
5	2	250	0	1	5	3	4
5	3	30144	0	1	2	1	0
5	3	69300	0	1	2	3	4
5	3	1.08954e+07	0	1	2	5	4
5	3	100	0	1	5	3	4
5	4	30144	0	1	2	1	0
5	4	69000	0	1	2	3	4
5	4	1.11534e+07	0	1	2	5	4
5	4	350	0	1	5	3	4
5	6	28288	0	1	2	1	0
5	6	69500	0	1	2	3	4
5	6	1.09609e+07	0	1	2	5	4
5	6	450	0	1	5	3	4
5	7	30336	0	1	2	1	0
5	7	68500	0	1	2	3	4
5	7	1.09199e+07	0	1	2	5	4
5	7	250	0	1	5	3	4
5	8	27264	0	1	2	1	0
5	8	73900	0	1	2	3	4
5	8	1.1137e+07	0	1	2	5	4
5	8	600	0	1	5	3	4
5	9	26432	0	1	2	1	0
5	9	70800	0	1	2	3	4
5	9	1.1178e+07	0	1	2	5	4
5	9	350	0	1	5	3	4
6	0	28032	0	1	2	1	0
6	0	68400	0	1	2	3	4
6	0	1.09486e+07	0	1	2	5	4
6	0	350	0	1	5	3	4
6	1	28992	0	1	2	1	0
6	1	73900	0	1	2	3	4
6	1	1.06947e+07	0	1	2	5	4
6	1	450	0	1	5	3	4
6	2	27008	0	1	2	1	0
6	2	70700	0	1	2	3	4
6	2	1.07315e+07	0	1	2	5	4
6	2	250	0	1	5	3	4
6	3	29568	0	1	2	1	0
6	3	69000	0	1	2	3	4
6	3	1.11206e+07	0	1	2	5	4
6	3	350	0	1	5	3	4
6	4	27328	0	1	2	1	0
6	4	71000	0	1	2	3	4
6	4	1.08626e+07	0	1	2	5	4
6	4	350	0	1	5	3	4
6	5	29568	0	1	2	1	0
6	5	74600	0	1	2	3	4
6	5	1.10961e+07	0	1	2	5	4
6	5	250	0	1	5	3	4
6	7	31424	0	1	2	1	0
6	7	73200	0	1	2	3	4
6	7	1.07192e+07	0	1	2	5	4
6	7	350	0	1	5	3	4
6	8	30208	0	1	2	1	0
6	8	69100	0	1	2	3	4
6	8	1.08175e+07	0	1	2	5	4
6	8	300	0	1	5	3	4
6	9	30656	0	1	2	1	0
6	9	73300	0	1	2	3	4
6	9	1.13418e+07	0	1	2	5	4
6	9	400	0	1	5	3	4
7	0	31936	0	1	2	1	0
7	0	75100	0	1	2	3	4
7	0	1.11534e+07	0	1	2	5	4
7	0	300	0	1	5	3	4
7	1	28288	0	1	2	1	0
7	1	72500	0	1	2	3	4
7	1	1.12886e+07	0	1	2	5	4
7	1	250	0	1	5	3	4
7	2	30976	0	1	2	1	0
7	2	68500	0	1	2	3	4
7	2	1.11452e+07	0	1	2	5	4
7	2	200	0	1	5	3	4
7	3	30336	0	1	2	1	0
7	3	69100	0	1	2	3	4
7	3	1.08216e+07	0	1	2	5	4
7	3	300	0	1	5	3	4
7	4	29440	0	1	2	1	0
7	4	67600	0	1	2	3	4
7	4	1.07971e+07	0	1	2	5	4
7	4	150	0	1	5	3	4
7	5	29056	0	1	2	1	0
7	5	70800	0	1	2	3	4
7	5	1.09117e+07	0	1	2	5	4
7	5	200	0	1	5	3	4
7	6	28480	0	1	2	1	0
7	6	71200	0	1	2	3	4
7	6	1.05554e+07	0	1	2	5	4
7	6	100	0	1	5	3	4
7	8	30656	0	1	2	1	0
7	8	72300	0	1	2	3	4
7	8	1.11821e+07	0	1	2	5	4
7	8	300	0	1	5	3	4
7	9	32512	0	1	2	1	0
7	9	73900	0	1	2	3	4
7	9	1.13787e+07	0	1	2	5	4
7	9	150	0	1	5	3	4
8	0	29632	0	1	2	1	0
8	0	69800	0	1	2	3	4
8	0	1.1391e+07	0	1	2	5	4
8	0	250	0	1	5	3	4
8	1	29568	0	1	2	1	0
8	1	71600	0	1	2	3	4
8	1	1.09896e+07	0	1	2	5	4
8	1	250	0	1	5	3	4
8	2	28608	0	1	2	1	0
8	2	71800	0	1	2	3	4
8	2	1.07069e+07	0	1	2	5	4
8	2	200	0	1	5	3	4
8	3	28224	0	1	2	1	0
8	3	70400	0	1	2	3	4
8	3	1.11411e+07	0	1	2	5	4
8	3	100	0	1	5	3	4
8	4	28928	0	1	2	1	0
8	4	67200	0	1	2	3	4
8	4	1.07684e+07	0	1	2	5	4
8	4	350	0	1	5	3	4
8	5	26496	0	1	2	1	0
8	5	67600	0	1	2	3	4
8	5	1.12558e+07	0	1	2	5	4
8	5	250	0	1	5	3	4
8	6	28736	0	1	2	1	0
8	6	69500	0	1	2	3	4
8	6	1.09978e+07	0	1	2	5	4
8	6	300	0	1	5	3	4
8	7	31808	0	1	2	1	0
8	7	67600	0	1	2	3	4
8	7	1.09937e+07	0	1	2	5	4
8	7	400	0	1	5	3	4
8	9	30336	0	1	2	1	0
8	9	71700	0	1	2	3	4
8	9	1.09363e+07	0	1	2	5	4
8	9	350	0	1	5	3	4
9	0	30208	0	1	2	1	0
9	0	70400	0	1	2	3	4
9	0	1.06578e+07	0	1	2	5	4
9	0	300	0	1	5	3	4
9	1	27776	0	1	2	1	0
9	1	70100	0	1	2	3	4
9	1	1.17064e+07	0	1	2	5	4
9	1	300	0	1	5	3	4
9	2	27648	0	1	2	1	0
9	2	65700	0	1	2	3	4
9	2	1.10305e+07	0	1	2	5	4
9	2	100	0	1	5	3	4
9	3	28800	0	1	2	1	0
9	3	67400	0	1	2	3	4
9	3	1.11534e+07	0	1	2	5	4
9	3	100	0	1	5	3	4
9	4	28224	0	1	2	1	0
9	4	67400	0	1	2	3	4
9	4	1.07151e+07	0	1	2	5	4
9	4	450	0	1	5	3	4
9	5	28544	0	1	2	1	0
9	5	67700	0	1	2	3	4
9	5	1.12026e+07	0	1	2	5	4
9	5	350	0	1	5	3	4
9	6	29248	0	1	2	1	0
9	6	70200	0	1	2	3	4
9	6	1.11247e+07	0	1	2	5	4
9	6	250	0	1	5	3	4
9	7	28864	0	1	2	1	0
9	7	73900	0	1	2	3	4
9	7	1.11124e+07	0	1	2	5	4
9	7	200	0	1	5	3	4
9	8	28032	0	1	2	1	0
9	8	70800	0	1	2	3	4
9	8	1.11534e+07	0	1	2	5	4
9	8	100	0	1	5	3	4
