100000	100000	10000	1000	100000	10000
0	1	1.13092e+07	5	4	5	1	3	5	2	1
0	2	1.13062e+07	5	4	5	1	3	5	2	1
0	3	1.10446e+07	5	4	5	1	3	5	2	1
0	4	1.10746e+07	5	4	5	1	3	5	2	1
0	5	1.11107e+07	5	4	5	1	3	5	2	1
0	6	1.13243e+07	5	4	5	1	3	5	2	1
0	7	1.14536e+07	5	4	5	1	3	5	2	1
0	8	1.13995e+07	5	4	5	1	3	5	2	1
0	9	1.09212e+07	5	4	5	1	3	5	2	1
1	0	1.09754e+07	5	4	5	1	3	5	2	1
1	2	1.09814e+07	5	4	5	1	3	5	2	1
1	3	1.0843e+07	5	4	5	1	3	5	2	1
1	4	1.10355e+07	5	4	5	1	3	5	2	1
1	5	1.10596e+07	5	4	5	1	3	5	2	1
1	6	1.11137e+07	5	4	5	1	3	5	2	1
1	7	1.10837e+07	5	4	5	1	3	5	2	1
1	8	1.11859e+07	5	4	5	1	3	5	2	1
1	9	1.1225e+07	5	4	5	1	3	5	2	1
2	0	1.1207e+07	5	4	5	1	3	5	2	1
2	1	1.11498e+07	5	4	5	1	3	5	2	1
2	3	1.11468e+07	5	4	5	1	3	5	2	1
2	4	1.0813e+07	5	4	5	1	3	5	2	1
2	5	1.06957e+07	5	4	5	1	3	5	2	1
2	6	1.11679e+07	5	4	5	1	3	5	2	1
2	7	1.11077e+07	5	4	5	1	3	5	2	1
2	8	1.10506e+07	5	4	5	1	3	5	2	1
2	9	1.13243e+07	5	4	5	1	3	5	2	1
3	0	1.15108e+07	5	4	5	1	3	5	2	1
3	1	1.11558e+07	5	4	5	1	3	5	2	1
3	2	1.11348e+07	5	4	5	1	3	5	2	1
3	4	1.1216e+07	5	4	5	1	3	5	2	1
3	5	1.10626e+07	5	4	5	1	3	5	2	1
3	6	1.09032e+07	5	4	5	1	3	5	2	1
3	7	1.12431e+07	5	4	5	1	3	5	2	1
3	8	1.13273e+07	5	4	5	1	3	5	2	1
3	9	1.11799e+07	5	4	5	1	3	5	2	1
4	0	1.13784e+07	5	4	5	1	3	5	2	1
4	1	1.11408e+07	5	4	5	1	3	5	2	1
4	2	1.11949e+07	5	4	5	1	3	5	2	1
4	3	1.09453e+07	5	4	5	1	3	5	2	1
4	5	1.1207e+07	5	4	5	1	3	5	2	1
4	6	1.1201e+07	5	4	5	1	3	5	2	1
4	7	1.11589e+07	5	4	5	1	3	5	2	1
4	8	1.11047e+07	5	4	5	1	3	5	2	1
4	9	1.10536e+07	5	4	5	1	3	5	2	1
5	0	1.09844e+07	5	4	5	1	3	5	2	1
5	1	1.08821e+07	5	4	5	1	3	5	2	1
5	2	1.10115e+07	5	4	5	1	3	5	2	1
5	3	1.13664e+07	5	4	5	1	3	5	2	1
5	4	1.13002e+07	5	4	5	1	3	5	2	1
5	6	1.1198e+07	5	4	5	1	3	5	2	1
5	7	1.07799e+07	5	4	5	1	3	5	2	1
5	8	1.10115e+07	5	4	5	1	3	5	2	1
5	9	1.11047e+07	5	4	5	1	3	5	2	1
6	0	1.09573e+07	5	4	5	1	3	5	2	1
6	1	1.12371e+07	5	4	5	1	3	5	2	1
6	2	1.11739e+07	5	4	5	1	3	5	2	1
6	3	1.11348e+07	5	4	5	1	3	5	2	1
6	4	1.09814e+07	5	4	5	1	3	5	2	1
6	5	1.10476e+07	5	4	5	1	3	5	2	1
6	7	1.10175e+07	5	4	5	1	3	5	2	1
6	8	1.13002e+07	5	4	5	1	3	5	2	1
6	9	1.10716e+07	5	4	5	1	3	5	2	1
7	0	1.10055e+07	5	4	5	1	3	5	2	1
7	1	1.10626e+07	5	4	5	1	3	5	2	1
7	2	1.10987e+07	5	4	5	1	3	5	2	1
7	3	1.13514e+07	5	4	5	1	3	5	2	1
7	4	1.10837e+07	5	4	5	1	3	5	2	1
7	5	1.11739e+07	5	4	5	1	3	5	2	1
7	6	1.09002e+07	5	4	5	1	3	5	2	1
7	8	1.11528e+07	5	4	5	1	3	5	2	1
7	9	1.10115e+07	5	4	5	1	3	5	2	1
8	0	1.08821e+07	5	4	5	1	3	5	2	1
8	1	1.10055e+07	5	4	5	1	3	5	2	1
8	2	1.11047e+07	5	4	5	1	3	5	2	1
8	3	1.0822e+07	5	4	5	1	3	5	2	1
8	4	1.11107e+07	5	4	5	1	3	5	2	1
8	5	1.09393e+07	5	4	5	1	3	5	2	1
8	6	1.11167e+07	5	4	5	1	3	5	2	1
8	7	1.11077e+07	5	4	5	1	3	5	2	1
8	9	1.11679e+07	5	4	5	1	3	5	2	1
9	0	1.11198e+07	5	4	5	1	3	5	2	1
9	1	1.12792e+07	5	4	5	1	3	5	2	1
9	2	1.06987e+07	5	4	5	1	3	5	2	1
9	3	1.13574e+07	5	4	5	1	3	5	2	1
9	4	1.08521e+07	5	4	5	1	3	5	2	1
9	5	1.11739e+07	5	4	5	1	3	5	2	1
9	6	1.10686e+07	5	4	5	1	3	5	2	1
9	7	1.13814e+07	5	4	5	1	3	5	2	1
9	8	1.11859e+07	5	4	5	1	3	5	2	1
