100000	100000	100000	10000	1000	1000
0	1	88384	0	1	2	1	0
0	1	211300	0	1	2	3	4
0	1	3.33087e+07	0	1	2	5	4
0	1	700	0	1	5	3	4
0	2	235328	0	1	2	1	0
0	2	566200	0	1	2	3	4
0	2	8.94362e+07	0	1	2	5	4
0	2	2700	0	1	5	3	4
0	3	57664	0	1	2	1	0
0	3	141300	0	1	2	3	4
0	3	2.2528e+07	0	1	2	5	4
0	3	650	0	1	5	3	4
0	4	138880	0	1	2	1	0
0	4	336200	0	1	2	3	4
0	4	5.30309e+07	0	1	2	5	4
0	4	1200	0	1	5	3	4
0	5	55040	0	1	2	1	0
0	5	145900	0	1	2	3	4
0	5	2.24051e+07	0	1	2	5	4
0	5	800	0	1	5	3	4
0	6	47168	0	1	2	1	0
0	6	125200	0	1	2	3	4
0	6	1.86532e+07	0	1	2	5	4
0	6	400	0	1	5	3	4
0	7	28608	0	1	2	1	0
0	7	68000	0	1	2	3	4
0	7	1.09117e+07	0	1	2	5	4
0	7	350	0	1	5	3	4
0	8	40320	0	1	2	1	0
0	8	95800	0	1	2	3	4
0	8	1.47743e+07	0	1	2	5	4
0	8	350	0	1	5	3	4
0	9	22080	0	1	2	1	0
0	9	55900	0	1	2	3	4
0	9	9.15456e+06	0	1	2	5	4
0	9	250	0	1	5	3	4
1	0	85248	0	1	2	1	0
1	0	216900	0	1	2	3	4
1	0	3.33865e+07	0	1	2	5	4
1	0	1000	0	1	5	3	4
1	2	31424	0	1	2	1	0
1	2	71600	0	1	2	3	4
1	2	1.10838e+07	0	1	2	5	4
1	2	150	0	1	5	3	4
1	3	41920	0	1	2	1	0
1	3	109300	0	1	2	3	4
1	3	1.64372e+07	0	1	2	5	4
1	3	450	0	1	5	3	4
1	4	23360	0	1	2	1	0
1	4	58000	0	1	2	3	4
1	4	9.24467e+06	0	1	2	5	4
1	4	300	0	1	5	3	4
1	5	14208	0	1	2	1	0
1	5	33200	0	1	2	3	4
1	5	5.75488e+06	0	1	2	5	4
1	5	100	0	1	5	3	4
1	6	24256	0	1	2	1	0
1	6	59200	0	1	2	3	4
1	6	9.35526e+06	0	1	2	5	4
1	6	450	0	1	5	3	4
1	7	43520	0	1	2	1	0
1	7	105100	0	1	2	3	4
1	7	1.72483e+07	0	1	2	5	4
1	7	250	0	1	5	3	4
1	8	12992	0	1	2	1	0
1	8	31600	0	1	2	3	4
1	8	4.89882e+06	0	1	2	5	4
1	8	50	0	1	5	3	4
1	9	9600	0	1	2	1	0
1	9	22000	0	1	2	3	4
1	9	3.34643e+06	0	1	2	5	4
2	0	229632	0	1	2	1	0
2	0	556300	0	1	2	3	4
2	0	8.93747e+07	0	1	2	5	4
2	0	2350	0	1	5	3	4
2	1	26752	0	1	2	1	0
2	1	70800	0	1	2	3	4
2	1	1.1137e+07	0	1	2	5	4
2	1	400	0	1	5	3	4
2	3	30272	0	1	2	1	0
2	3	67200	0	1	2	3	4
2	3	1.12067e+07	0	1	2	5	4
2	3	500	0	1	5	3	4
2	4	23808	0	1	2	1	0
2	4	54500	0	1	2	3	4
2	4	8.99072e+06	0	1	2	5	4
2	4	400	0	1	5	3	4
2	5	38912	0	1	2	1	0
2	5	93300	0	1	2	3	4
2	5	1.4676e+07	0	1	2	5	4
2	5	350	0	1	5	3	4
2	6	16832	0	1	2	1	0
2	6	43100	0	1	2	3	4
2	6	6.31603e+06	0	1	2	5	4
2	6	100	0	1	5	3	4
2	7	9344	0	1	2	1	0
2	7	22700	0	1	2	3	4
2	7	3.76832e+06	0	1	2	5	4
2	7	100	0	1	5	3	4
2	8	25728	0	1	2	1	0
2	8	60100	0	1	2	3	4
2	8	1.01089e+07	0	1	2	5	4
2	8	200	0	1	5	3	4
2	9	12096	0	1	2	1	0
2	9	25900	0	1	2	3	4
2	9	4.45645e+06	0	1	2	5	4
2	9	100	0	1	5	3	4
3	0	57856	0	1	2	1	0
3	0	143900	0	1	2	3	4
3	0	2.22249e+07	0	1	2	5	4
3	0	600	0	1	5	3	4
3	1	40768	0	1	2	1	0
3	1	100000	0	1	2	3	4
3	1	1.63226e+07	0	1	2	5	4
3	1	400	0	1	5	3	4
3	2	29760	0	1	2	1	0
3	2	73500	0	1	2	3	4
3	2	1.09281e+07	0	1	2	5	4
3	2	300	0	1	5	3	4
3	4	12032	0	1	2	1	0
3	4	29000	0	1	2	3	4
3	4	4.38272e+06	0	1	2	5	4
3	4	100	0	1	5	3	4
3	5	8960	0	1	2	1	0
3	5	24100	0	1	2	3	4
3	5	3.65773e+06	0	1	2	5	4
3	5	50	0	1	5	3	4
3	6	12416	0	1	2	1	0
3	6	32500	0	1	2	3	4
3	6	4.62029e+06	0	1	2	5	4
3	6	50	0	1	5	3	4
3	7	22848	0	1	2	1	0
3	7	53600	0	1	2	3	4
3	7	8.2903e+06	0	1	2	5	4
3	7	300	0	1	5	3	4
3	8	19712	0	1	2	1	0
3	8	47500	0	1	2	3	4
3	8	7.3728e+06	0	1	2	5	4
3	8	100	0	1	5	3	4
3	9	9472	0	1	2	1	0
3	9	20100	0	1	2	3	4
3	9	3.30138e+06	0	1	2	5	4
3	9	250	0	1	5	3	4
4	0	142144	0	1	2	1	0
4	0	347000	0	1	2	3	4
4	0	5.25107e+07	0	1	2	5	4
4	0	1750	0	1	5	3	4
4	1	21568	0	1	2	1	0
4	1	59200	0	1	2	3	4
4	1	8.99072e+06	0	1	2	5	4
4	1	100	0	1	5	3	4
4	2	21056	0	1	2	1	0
4	2	53400	0	1	2	3	4
4	2	9.12179e+06	0	1	2	5	4
4	2	150	0	1	5	3	4
4	3	10880	0	1	2	1	0
4	3	30400	0	1	2	3	4
4	3	4.48922e+06	0	1	2	5	4
4	3	150	0	1	5	3	4
4	5	22784	0	1	2	1	0
4	5	55900	0	1	2	3	4
4	5	8.85555e+06	0	1	2	5	4
4	5	200	0	1	5	3	4
4	6	19200	0	1	2	1	0
4	6	47000	0	1	2	3	4
4	6	7.65952e+06	0	1	2	5	4
4	6	100	0	1	5	3	4
4	7	9152	0	1	2	1	0
4	7	20600	0	1	2	3	4
4	7	3.35872e+06	0	1	2	5	4
4	8	8128	0	1	2	1	0
4	8	19800	0	1	2	3	4
4	8	2.8713e+06	0	1	2	5	4
4	9	7424	0	1	2	1	0
4	9	17200	0	1	2	3	4
4	9	2.59686e+06	0	1	2	5	4
5	0	60160	0	1	2	1	0
5	0	138800	0	1	2	3	4
5	0	2.1844e+07	0	1	2	5	4
5	0	550	0	1	5	3	4
5	1	14080	0	1	2	1	0
5	1	34600	0	1	2	3	4
5	1	5.57466e+06	0	1	2	5	4
5	1	150	0	1	5	3	4
5	2	37824	0	1	2	1	0
5	2	89100	0	1	2	3	4
5	2	1.4463e+07	0	1	2	5	4
5	2	200	0	1	5	3	4
5	3	8960	0	1	2	1	0
5	3	23200	0	1	2	3	4
5	3	3.90758e+06	0	1	2	5	4
5	3	50	0	1	5	3	4
5	4	23488	0	1	2	1	0
5	4	54400	0	1	2	3	4
5	4	8.76954e+06	0	1	2	5	4
5	4	150	0	1	5	3	4
5	6	8640	0	1	2	1	0
5	6	20700	0	1	2	3	4
5	6	3.1785e+06	0	1	2	5	4
5	6	100	0	1	5	3	4
5	7	5760	0	1	2	1	0
5	7	11400	0	1	2	3	4
5	7	1.82682e+06	0	1	2	5	4
5	8	6400	0	1	2	1	0
5	8	14000	0	1	2	3	4
5	8	2.20365e+06	0	1	2	5	4
5	8	50	0	1	5	3	4
5	9	11392	0	1	2	1	0
5	9	26700	0	1	2	3	4
5	9	4.22298e+06	0	1	2	5	4
5	9	100	0	1	5	3	4
6	0	52096	0	1	2	1	0
6	0	123800	0	1	2	3	4
6	0	1.92512e+07	0	1	2	5	4
6	0	250	0	1	5	3	4
6	1	24384	0	1	2	1	0
6	1	59600	0	1	2	3	4
6	1	9.57235e+06	0	1	2	5	4
6	1	300	0	1	5	3	4
6	2	19392	0	1	2	1	0
6	2	44900	0	1	2	3	4
6	2	6.19315e+06	0	1	2	5	4
6	2	150	0	1	5	3	4
6	3	13248	0	1	2	1	0
6	3	31200	0	1	2	3	4
6	3	4.55885e+06	0	1	2	5	4
6	3	200	0	1	5	3	4
6	4	19840	0	1	2	1	0
6	4	47200	0	1	2	3	4
6	4	7.24582e+06	0	1	2	5	4
6	4	200	0	1	5	3	4
6	5	8128	0	1	2	1	0
6	5	19100	0	1	2	3	4
6	5	3.23994e+06	0	1	2	5	4
6	7	11776	0	1	2	1	0
6	7	32000	0	1	2	3	4
6	7	4.87424e+06	0	1	2	5	4
6	7	250	0	1	5	3	4
6	8	10432	0	1	2	1	0
6	8	28400	0	1	2	3	4
6	8	4.24346e+06	0	1	2	5	4
6	8	100	0	1	5	3	4
6	9	5056	0	1	2	1	0
6	9	12000	0	1	2	3	4
6	9	1.93331e+06	0	1	2	5	4
6	9	100	0	1	5	3	4
7	0	29824	0	1	2	1	0
7	0	73200	0	1	2	3	4
7	0	1.11821e+07	0	1	2	5	4
7	0	200	0	1	5	3	4
7	1	45376	0	1	2	1	0
7	1	108200	0	1	2	3	4
7	1	1.61792e+07	0	1	2	5	4
7	1	700	0	1	5	3	4
7	2	10112	0	1	2	1	0
7	2	21100	0	1	2	3	4
7	2	3.55942e+06	0	1	2	5	4
7	2	50	0	1	5	3	4
7	3	22592	0	1	2	1	0
7	3	50000	0	1	2	3	4
7	3	8.46234e+06	0	1	2	5	4
7	3	50	0	1	5	3	4
7	4	8576	0	1	2	1	0
7	4	21900	0	1	2	3	4
7	4	3.39558e+06	0	1	2	5	4
7	4	50	0	1	5	3	4
7	5	5376	0	1	2	1	0
7	5	12400	0	1	2	3	4
7	5	1.97427e+06	0	1	2	5	4
7	6	12032	0	1	2	1	0
7	6	29400	0	1	2	3	4
7	6	4.68173e+06	0	1	2	5	4
7	6	100	0	1	5	3	4
7	8	5376	0	1	2	1	0
7	8	11200	0	1	2	3	4
7	8	1.8473e+06	0	1	2	5	4
7	9	2880	0	1	2	1	0
7	9	8800	0	1	2	3	4
7	9	1.16326e+06	0	1	2	5	4
7	9	100	0	1	5	3	4
8	0	39616	0	1	2	1	0
8	0	89600	0	1	2	3	4
8	0	1.54419e+07	0	1	2	5	4
8	0	100	0	1	5	3	4
8	1	12800	0	1	2	1	0
8	1	32300	0	1	2	3	4
8	1	4.82099e+06	0	1	2	5	4
8	1	250	0	1	5	3	4
8	2	25664	0	1	2	1	0
8	2	63700	0	1	2	3	4
8	2	1.00065e+07	0	1	2	5	4
8	2	150	0	1	5	3	4
8	3	19392	0	1	2	1	0
8	3	48500	0	1	2	3	4
8	3	7.45882e+06	0	1	2	5	4
8	3	150	0	1	5	3	4
8	4	8000	0	1	2	1	0
8	4	20900	0	1	2	3	4
8	4	2.85082e+06	0	1	2	5	4
8	4	50	0	1	5	3	4
8	5	6976	0	1	2	1	0
8	5	14100	0	1	2	3	4
8	5	2.48627e+06	0	1	2	5	4
8	5	50	0	1	5	3	4
8	6	10432	0	1	2	1	0
8	6	28100	0	1	2	3	4
8	6	4.31718e+06	0	1	2	5	4
8	6	100	0	1	5	3	4
8	7	4480	0	1	2	1	0
8	7	10900	0	1	2	3	4
8	7	1.95379e+06	0	1	2	5	4
8	9	8576	0	1	2	1	0
8	9	19100	0	1	2	3	4
8	9	3.03923e+06	0	1	2	5	4
8	9	350	0	1	5	3	4
9	0	24384	0	1	2	1	0
9	0	53200	0	1	2	3	4
9	0	8.76954e+06	0	1	2	5	4
9	0	100	0	1	5	3	4
9	1	8704	0	1	2	1	0
9	1	20700	0	1	2	3	4
9	1	3.2727e+06	0	1	2	5	4
9	1	50	0	1	5	3	4
9	2	10816	0	1	2	1	0
9	2	29500	0	1	2	3	4
9	2	4.47283e+06	0	1	2	5	4
9	2	150	0	1	5	3	4
9	3	7936	0	1	2	1	0
9	3	22800	0	1	2	3	4
9	3	3.41197e+06	0	1	2	5	4
9	3	100	0	1	5	3	4
9	4	7744	0	1	2	1	0
9	4	17500	0	1	2	3	4
9	4	2.50266e+06	0	1	2	5	4
9	4	50	0	1	5	3	4
9	5	13120	0	1	2	1	0
9	5	28300	0	1	2	3	4
9	5	4.13696e+06	0	1	2	5	4
9	5	50	0	1	5	3	4
9	6	5888	0	1	2	1	0
9	6	11300	0	1	2	3	4
9	6	1.9497e+06	0	1	2	5	4
9	7	3008	0	1	2	1	0
9	7	5600	0	1	2	3	4
9	7	1.19603e+06	0	1	2	5	4
9	8	6912	0	1	2	1	0
9	8	19500	0	1	2	3	4
9	8	2.89178e+06	0	1	2	5	4
9	8	200	0	1	5	3	4
