100000	1000	10000	10000	1000	10000
0	1	1.11424e+07	5	4	0	2	0	1	4	3	3
0	2	1.11346e+07	5	4	0	2	0	1	4	3	3
0	3	1.1216e+07	5	4	0	2	0	1	4	3	3
0	4	1.09331e+07	5	4	0	2	0	1	4	3	3
0	5	1.12897e+07	5	4	0	2	0	1	4	3	3
0	6	1.11811e+07	5	4	0	2	0	1	4	3	3
0	7	1.12238e+07	5	4	0	2	0	1	4	3	3
0	8	1.07819e+07	5	4	0	2	0	1	4	3	3
0	9	1.13439e+07	5	4	0	2	0	1	4	3	3
1	0	1.0999e+07	5	4	0	2	0	1	4	3	3
1	2	1.12431e+07	5	4	0	2	0	1	4	3	3
1	3	1.11424e+07	5	4	0	2	0	1	4	3	3
1	4	1.12431e+07	5	4	0	2	0	1	4	3	3
1	5	1.13672e+07	5	4	0	2	0	1	4	3	3
1	6	1.12586e+07	5	4	0	2	0	1	4	3	3
1	7	1.1247e+07	5	4	0	2	0	1	4	3	3
1	8	1.15454e+07	5	4	0	2	0	1	4	3	3
1	9	1.10571e+07	5	4	0	2	0	1	4	3	3
2	0	1.11269e+07	5	4	0	2	0	1	4	3	3
2	1	1.15842e+07	5	4	0	2	0	1	4	3	3
2	3	1.10261e+07	5	4	0	2	0	1	4	3	3
2	4	1.07277e+07	5	4	0	2	0	1	4	3	3
2	5	1.09137e+07	5	4	0	2	0	1	4	3	3
2	6	1.13478e+07	5	4	0	2	0	1	4	3	3
2	7	1.08788e+07	5	4	0	2	0	1	4	3	3
2	8	1.11269e+07	5	4	0	2	0	1	4	3	3
2	9	1.12431e+07	5	4	0	2	0	1	4	3	3
3	0	1.10339e+07	5	4	0	2	0	1	4	3	3
3	1	1.07975e+07	5	4	0	2	0	1	4	3	3
3	2	1.06424e+07	5	4	0	2	0	1	4	3	3
3	4	1.11385e+07	5	4	0	2	0	1	4	3	3
3	5	1.11618e+07	5	4	0	2	0	1	4	3	3
3	6	1.11889e+07	5	4	0	2	0	1	4	3	3
3	7	1.12005e+07	5	4	0	2	0	1	4	3	3
3	8	1.08866e+07	5	4	0	2	0	1	4	3	3
3	9	1.13052e+07	5	4	0	2	0	1	4	3	3
4	0	1.07819e+07	5	4	0	2	0	1	4	3	3
4	1	1.12509e+07	5	4	0	2	0	1	4	3	3
4	2	1.11463e+07	5	4	0	2	0	1	4	3	3
4	3	1.14718e+07	5	4	0	2	0	1	4	3	3
4	5	1.14214e+07	5	4	0	2	0	1	4	3	3
4	6	1.12431e+07	5	4	0	2	0	1	4	3	3
4	7	1.11579e+07	5	4	0	2	0	1	4	3	3
4	8	1.11889e+07	5	4	0	2	0	1	4	3	3
4	9	1.12083e+07	5	4	0	2	0	1	4	3	3
5	0	1.15183e+07	5	4	0	2	0	1	4	3	3
5	1	1.07548e+07	5	4	0	2	0	1	4	3	3
5	2	1.07819e+07	5	4	0	2	0	1	4	3	3
5	3	1.15028e+07	5	4	0	2	0	1	4	3	3
5	4	1.12819e+07	5	4	0	2	0	1	4	3	3
5	6	1.07819e+07	5	4	0	2	0	1	4	3	3
5	7	1.07083e+07	5	4	0	2	0	1	4	3	3
5	8	1.09331e+07	5	4	0	2	0	1	4	3	3
5	9	1.08827e+07	5	4	0	2	0	1	4	3	3
6	0	1.13284e+07	5	4	0	2	0	1	4	3	3
6	1	1.10184e+07	5	4	0	2	0	1	4	3	3
6	2	1.12703e+07	5	4	0	2	0	1	4	3	3
6	3	1.10881e+07	5	4	0	2	0	1	4	3	3
6	4	1.1154e+07	5	4	0	2	0	1	4	3	3
6	5	1.0906e+07	5	4	0	2	0	1	4	3	3
6	7	1.08711e+07	5	4	0	2	0	1	4	3	3
6	8	1.07703e+07	5	4	0	2	0	1	4	3	3
6	9	1.14369e+07	5	4	0	2	0	1	4	3	3
7	0	1.1402e+07	5	4	0	2	0	1	4	3	3
7	1	1.10804e+07	5	4	0	2	0	1	4	3	3
7	2	1.0561e+07	5	4	0	2	0	1	4	3	3
7	3	1.1154e+07	5	4	0	2	0	1	4	3	3
7	4	1.06967e+07	5	4	0	2	0	1	4	3	3
7	5	1.1278e+07	5	4	0	2	0	1	4	3	3
7	6	1.08478e+07	5	4	0	2	0	1	4	3	3
7	8	1.07664e+07	5	4	0	2	0	1	4	3	3
7	9	1.13517e+07	5	4	0	2	0	1	4	3	3
8	0	1.12974e+07	5	4	0	2	0	1	4	3	3
8	1	1.12935e+07	5	4	0	2	0	1	4	3	3
8	2	1.11269e+07	5	4	0	2	0	1	4	3	3
8	3	1.07277e+07	5	4	0	2	0	1	4	3	3
8	4	1.11889e+07	5	4	0	2	0	1	4	3	3
8	5	1.11734e+07	5	4	0	2	0	1	4	3	3
8	6	1.12315e+07	5	4	0	2	0	1	4	3	3
8	7	1.13633e+07	5	4	0	2	0	1	4	3	3
8	9	1.0906e+07	5	4	0	2	0	1	4	3	3
9	0	1.14292e+07	5	4	0	2	0	1	4	3	3
9	1	1.0813e+07	5	4	0	2	0	1	4	3	3
9	2	1.14679e+07	5	4	0	2	0	1	4	3	3
9	3	1.08595e+07	5	4	0	2	0	1	4	3	3
9	4	1.09292e+07	5	4	0	2	0	1	4	3	3
9	5	1.10532e+07	5	4	0	2	0	1	4	3	3
9	6	1.10687e+07	5	4	0	2	0	1	4	3	3
9	7	1.11695e+07	5	4	0	2	0	1	4	3	3
9	8	1.12238e+07	5	4	0	2	0	1	4	3	3
