100000	100000	100000	10000	1000	1000
0	1	898112	0	1	2	1	0
0	1	2.1615e+06	0	1	2	3	4
0	1	3.3751e+08	0	1	2	5	4
0	1	8450	0	1	5	3	4
0	2	174016	0	1	2	1	0
0	2	415300	0	1	2	3	4
0	2	6.6007e+07	0	1	2	5	4
0	2	1800	0	1	5	3	4
0	3	165376	0	1	2	1	0
0	3	399200	0	1	2	3	4
0	3	6.31439e+07	0	1	2	5	4
0	3	1650	0	1	5	3	4
0	4	23360	0	1	2	1	0
0	4	54100	0	1	2	3	4
0	4	8.85555e+06	0	1	2	5	4
0	4	350	0	1	5	3	4
0	5	10816	0	1	2	1	0
0	5	30400	0	1	2	3	4
0	5	4.36224e+06	0	1	2	5	4
0	5	200	0	1	5	3	4
0	6	8320	0	1	2	1	0
0	6	20700	0	1	2	3	4
0	6	3.44474e+06	0	1	2	5	4
0	6	50	0	1	5	3	4
0	7	3392	0	1	2	1	0
0	7	7500	0	1	2	3	4
0	7	937984	0	1	2	5	4
0	8	4096	0	1	2	1	0
0	8	7500	0	1	2	3	4
0	8	1.20013e+06	0	1	2	5	4
0	9	1216	0	1	2	1	0
0	9	3700	0	1	2	3	4
0	9	565248	0	1	2	5	4
1	0	889792	0	1	2	1	0
1	0	2.1386e+06	0	1	2	3	4
1	0	3.38686e+08	0	1	2	5	4
1	0	9050	0	1	5	3	4
1	2	12096	0	1	2	1	0
1	2	24400	0	1	2	3	4
1	2	4.11238e+06	0	1	2	5	4
1	2	100	0	1	5	3	4
1	3	5440	0	1	2	1	0
1	3	12300	0	1	2	3	4
1	3	1.92922e+06	0	1	2	5	4
1	3	100	0	1	5	3	4
1	4	1152	0	1	2	1	0
1	4	1900	0	1	2	3	4
1	4	417792	0	1	2	5	4
1	4	50	0	1	5	3	4
1	5	640	0	1	2	1	0
1	5	1600	0	1	2	3	4
1	5	172032	0	1	2	5	4
1	6	384	0	1	2	1	0
1	6	1100	0	1	2	3	4
1	6	147456	0	1	2	5	4
1	7	256	0	1	2	1	0
1	7	500	0	1	2	3	4
1	7	81920	0	1	2	5	4
1	8	576	0	1	2	1	0
1	8	1100	0	1	2	3	4
1	8	159744	0	1	2	5	4
1	9	256	0	1	2	1	0
1	9	400	0	1	2	3	4
1	9	53248	0	1	2	5	4
2	0	176384	0	1	2	1	0
2	0	411500	0	1	2	3	4
2	0	6.70843e+07	0	1	2	5	4
2	0	2400	0	1	5	3	4
2	1	9728	0	1	2	1	0
2	1	25300	0	1	2	3	4
2	1	4.11238e+06	0	1	2	5	4
2	1	150	0	1	5	3	4
2	3	1408	0	1	2	1	0
2	3	3300	0	1	2	3	4
2	3	413696	0	1	2	5	4
2	4	576	0	1	2	1	0
2	4	1200	0	1	2	3	4
2	4	143360	0	1	2	5	4
2	5	320	0	1	2	1	0
2	5	300	0	1	2	3	4
2	5	106496	0	1	2	5	4
2	6	192	0	1	2	1	0
2	6	700	0	1	2	3	4
2	6	102400	0	1	2	5	4
2	7	100	0	1	2	3	4
2	7	20480	0	1	2	5	4
2	8	64	0	1	2	1	0
2	8	12288	0	1	2	5	4
2	9	64	0	1	2	1	0
2	9	300	0	1	2	3	4
2	9	24576	0	1	2	5	4
3	0	169280	0	1	2	1	0
3	0	413400	0	1	2	3	4
3	0	6.38075e+07	0	1	2	5	4
3	0	1450	0	1	5	3	4
3	1	5248	0	1	2	1	0
3	1	12300	0	1	2	3	4
3	1	2.08896e+06	0	1	2	5	4
3	2	896	0	1	2	1	0
3	2	2800	0	1	2	3	4
3	2	389120	0	1	2	5	4
3	2	50	0	1	5	3	4
3	4	400	0	1	2	3	4
3	4	49152	0	1	2	5	4
3	5	128	0	1	2	1	0
3	5	40960	0	1	2	5	4
3	6	64	0	1	2	1	0
3	6	24576	0	1	2	5	4
3	7	100	0	1	2	3	4
3	7	12288	0	1	2	5	4
3	8	100	0	1	2	3	4
3	8	16384	0	1	2	5	4
3	9	8192	0	1	2	5	4
4	0	21440	0	1	2	1	0
4	0	59400	0	1	2	3	4
4	0	8.65075e+06	0	1	2	5	4
4	0	150	0	1	5	3	4
4	1	1280	0	1	2	1	0
4	1	2300	0	1	2	3	4
4	1	409600	0	1	2	5	4
4	1	50	0	1	5	3	4
4	2	512	0	1	2	1	0
4	2	400	0	1	2	3	4
4	2	143360	0	1	2	5	4
4	3	64	0	1	2	1	0
4	3	400	0	1	2	3	4
4	3	28672	0	1	2	5	4
4	5	64	0	1	2	1	0
4	5	100	0	1	2	3	4
4	5	8192	0	1	2	5	4
4	6	8192	0	1	2	5	4
4	7	64	0	1	2	1	0
4	7	100	0	1	2	3	4
5	0	11648	0	1	2	1	0
5	0	24400	0	1	2	3	4
5	0	4.26394e+06	0	1	2	5	4
5	0	100	0	1	5	3	4
5	1	384	0	1	2	1	0
5	1	1100	0	1	2	3	4
5	1	176128	0	1	2	5	4
5	1	50	0	1	5	3	4
5	2	64	0	1	2	1	0
5	2	500	0	1	2	3	4
5	2	77824	0	1	2	5	4
5	3	8192	0	1	2	5	4
5	4	64	0	1	2	1	0
5	4	100	0	1	2	3	4
5	4	12288	0	1	2	5	4
6	0	10304	0	1	2	1	0
6	0	19900	0	1	2	3	4
6	0	3.50618e+06	0	1	2	5	4
6	1	512	0	1	2	1	0
6	1	800	0	1	2	3	4
6	1	176128	0	1	2	5	4
6	1	100	0	1	5	3	4
6	2	320	0	1	2	1	0
6	2	300	0	1	2	3	4
6	2	73728	0	1	2	5	4
6	3	100	0	1	2	3	4
6	3	36864	0	1	2	5	4
6	4	64	0	1	2	1	0
6	4	8192	0	1	2	5	4
6	5	8192	0	1	2	5	4
6	7	4096	0	1	2	5	4
7	0	2816	0	1	2	1	0
7	0	5800	0	1	2	3	4
7	0	1.06086e+06	0	1	2	5	4
7	1	64	0	1	2	1	0
7	1	300	0	1	2	3	4
7	1	94208	0	1	2	5	4
7	2	200	0	1	2	3	4
7	2	24576	0	1	2	5	4
7	3	100	0	1	2	3	4
7	4	64	0	1	2	1	0
7	5	4096	0	1	2	5	4
8	0	2944	0	1	2	1	0
8	0	7500	0	1	2	3	4
8	0	1.30662e+06	0	1	2	5	4
8	1	448	0	1	2	1	0
8	1	1200	0	1	2	3	4
8	1	176128	0	1	2	5	4
8	2	100	0	1	2	3	4
8	2	24576	0	1	2	5	4
8	3	8192	0	1	2	5	4
8	4	64	0	1	2	1	0
8	4	4096	0	1	2	5	4
9	0	1600	0	1	2	1	0
9	0	3300	0	1	2	3	4
9	0	421888	0	1	2	5	4
9	1	128	0	1	2	1	0
9	1	300	0	1	2	3	4
9	1	77824	0	1	2	5	4
9	2	64	0	1	2	1	0
9	2	200	0	1	2	3	4
9	2	20480	0	1	2	5	4
9	3	8192	0	1	2	5	4
9	4	100	0	1	2	3	4
