100000	100000	100000	10000	1000	1000
0	1	2560	0	1	2	1	0
0	1	7300	0	1	2	3	4
0	1	970752	0	1	2	5	4
0	1	150	0	1	5	3	4
0	2	2432	0	1	2	1	0
0	2	8400	0	1	2	3	4
0	2	1.16736e+06	0	1	2	5	4
0	3	2496	0	1	2	1	0
0	3	7000	0	1	2	3	4
0	3	1.14688e+06	0	1	2	5	4
0	4	3136	0	1	2	1	0
0	4	9100	0	1	2	3	4
0	4	1.24518e+06	0	1	2	5	4
0	5	2368	0	1	2	1	0
0	5	6400	0	1	2	3	4
0	5	1.10592e+06	0	1	2	5	4
0	6	3072	0	1	2	1	0
0	6	8200	0	1	2	3	4
0	6	1.024e+06	0	1	2	5	4
0	6	50	0	1	5	3	4
0	7	2816	0	1	2	1	0
0	7	6600	0	1	2	3	4
0	7	1.10592e+06	0	1	2	5	4
0	7	50	0	1	5	3	4
0	8	2816	0	1	2	1	0
0	8	7200	0	1	2	3	4
0	8	1.11002e+06	0	1	2	5	4
0	8	50	0	1	5	3	4
0	9	2752	0	1	2	1	0
0	9	7200	0	1	2	3	4
0	9	1.17965e+06	0	1	2	5	4
1	0	3392	0	1	2	1	0
1	0	5400	0	1	2	3	4
1	0	1.11411e+06	0	1	2	5	4
1	0	50	0	1	5	3	4
1	2	3136	0	1	2	1	0
1	2	7700	0	1	2	3	4
1	2	1.09773e+06	0	1	2	5	4
1	2	50	0	1	5	3	4
1	3	3392	0	1	2	1	0
1	3	5900	0	1	2	3	4
1	3	1.11821e+06	0	1	2	5	4
1	3	50	0	1	5	3	4
1	4	2816	0	1	2	1	0
1	4	6500	0	1	2	3	4
1	4	987136	0	1	2	5	4
1	4	50	0	1	5	3	4
1	5	2944	0	1	2	1	0
1	5	7000	0	1	2	3	4
1	5	1.11821e+06	0	1	2	5	4
1	6	2368	0	1	2	1	0
1	6	5400	0	1	2	3	4
1	6	1.13869e+06	0	1	2	5	4
1	7	3776	0	1	2	1	0
1	7	6300	0	1	2	3	4
1	7	1.15098e+06	0	1	2	5	4
1	8	3520	0	1	2	1	0
1	8	7000	0	1	2	3	4
1	8	995328	0	1	2	5	4
1	8	50	0	1	5	3	4
1	9	2880	0	1	2	1	0
1	9	6600	0	1	2	3	4
1	9	1.06496e+06	0	1	2	5	4
1	9	100	0	1	5	3	4
2	0	2752	0	1	2	1	0
2	0	7300	0	1	2	3	4
2	0	1.08134e+06	0	1	2	5	4
2	1	2688	0	1	2	1	0
2	1	6600	0	1	2	3	4
2	1	1.14278e+06	0	1	2	5	4
2	3	2560	0	1	2	1	0
2	3	6900	0	1	2	3	4
2	3	1.05267e+06	0	1	2	5	4
2	3	50	0	1	5	3	4
2	4	2880	0	1	2	1	0
2	4	6100	0	1	2	3	4
2	4	1.06086e+06	0	1	2	5	4
2	5	2624	0	1	2	1	0
2	5	7600	0	1	2	3	4
2	5	1.1264e+06	0	1	2	5	4
2	5	50	0	1	5	3	4
2	6	2496	0	1	2	1	0
2	6	7400	0	1	2	3	4
2	6	1.13869e+06	0	1	2	5	4
2	7	2368	0	1	2	1	0
2	7	6400	0	1	2	3	4
2	7	962560	0	1	2	5	4
2	8	3072	0	1	2	1	0
2	8	6900	0	1	2	3	4
2	8	1.11002e+06	0	1	2	5	4
2	8	50	0	1	5	3	4
2	9	3136	0	1	2	1	0
2	9	7000	0	1	2	3	4
2	9	1.09773e+06	0	1	2	5	4
2	9	50	0	1	5	3	4
3	0	2496	0	1	2	1	0
3	0	6800	0	1	2	3	4
3	0	1.10182e+06	0	1	2	5	4
3	1	2816	0	1	2	1	0
3	1	6600	0	1	2	3	4
3	1	1.08544e+06	0	1	2	5	4
3	1	50	0	1	5	3	4
3	2	2496	0	1	2	1	0
3	2	7600	0	1	2	3	4
3	2	1.08954e+06	0	1	2	5	4
3	2	50	0	1	5	3	4
3	4	3072	0	1	2	1	0
3	4	5700	0	1	2	3	4
3	4	1.14278e+06	0	1	2	5	4
3	4	50	0	1	5	3	4
3	5	2048	0	1	2	1	0
3	5	7600	0	1	2	3	4
3	5	1.15098e+06	0	1	2	5	4
3	5	100	0	1	5	3	4
3	6	2816	0	1	2	1	0
3	6	7200	0	1	2	3	4
3	6	1.11821e+06	0	1	2	5	4
3	6	50	0	1	5	3	4
3	7	2944	0	1	2	1	0
3	7	7300	0	1	2	3	4
3	7	1.01171e+06	0	1	2	5	4
3	8	3968	0	1	2	1	0
3	8	6700	0	1	2	3	4
3	8	1.13869e+06	0	1	2	5	4
3	8	50	0	1	5	3	4
3	9	3072	0	1	2	1	0
3	9	7500	0	1	2	3	4
3	9	1.06496e+06	0	1	2	5	4
3	9	100	0	1	5	3	4
4	0	3328	0	1	2	1	0
4	0	7300	0	1	2	3	4
4	0	1.16326e+06	0	1	2	5	4
4	1	3584	0	1	2	1	0
4	1	5800	0	1	2	3	4
4	1	1.16326e+06	0	1	2	5	4
4	1	50	0	1	5	3	4
4	2	2752	0	1	2	1	0
4	2	7500	0	1	2	3	4
4	2	1.15507e+06	0	1	2	5	4
4	2	100	0	1	5	3	4
4	3	2624	0	1	2	1	0
4	3	8100	0	1	2	3	4
4	3	1.10592e+06	0	1	2	5	4
4	3	50	0	1	5	3	4
4	5	3136	0	1	2	1	0
4	5	7300	0	1	2	3	4
4	5	1.17146e+06	0	1	2	5	4
4	6	2880	0	1	2	1	0
4	6	7500	0	1	2	3	4
4	6	1.16326e+06	0	1	2	5	4
4	6	50	0	1	5	3	4
4	7	2624	0	1	2	1	0
4	7	6700	0	1	2	3	4
4	7	1.1305e+06	0	1	2	5	4
4	8	2624	0	1	2	1	0
4	8	8200	0	1	2	3	4
4	8	1.07315e+06	0	1	2	5	4
4	8	50	0	1	5	3	4
4	9	3264	0	1	2	1	0
4	9	5700	0	1	2	3	4
4	9	1.06906e+06	0	1	2	5	4
4	9	50	0	1	5	3	4
5	0	3456	0	1	2	1	0
5	0	6600	0	1	2	3	4
5	0	1.22061e+06	0	1	2	5	4
5	0	50	0	1	5	3	4
5	1	2880	0	1	2	1	0
5	1	6700	0	1	2	3	4
5	1	1.17965e+06	0	1	2	5	4
5	2	2304	0	1	2	1	0
5	2	7200	0	1	2	3	4
5	2	1.08544e+06	0	1	2	5	4
5	3	2624	0	1	2	1	0
5	3	5900	0	1	2	3	4
5	3	1.06086e+06	0	1	2	5	4
5	4	3392	0	1	2	1	0
5	4	6500	0	1	2	3	4
5	4	1.04038e+06	0	1	2	5	4
5	6	2752	0	1	2	1	0
5	6	6000	0	1	2	3	4
5	6	1.11821e+06	0	1	2	5	4
5	7	2560	0	1	2	1	0
5	7	8300	0	1	2	3	4
5	7	1.18784e+06	0	1	2	5	4
5	7	50	0	1	5	3	4
5	8	3712	0	1	2	1	0
5	8	7100	0	1	2	3	4
5	8	1.1223e+06	0	1	2	5	4
5	8	50	0	1	5	3	4
5	9	3072	0	1	2	1	0
5	9	8000	0	1	2	3	4
5	9	1.24109e+06	0	1	2	5	4
6	0	2496	0	1	2	1	0
6	0	7900	0	1	2	3	4
6	0	1.00762e+06	0	1	2	5	4
6	0	100	0	1	5	3	4
6	1	2560	0	1	2	1	0
6	1	6800	0	1	2	3	4
6	1	1.24109e+06	0	1	2	5	4
6	1	50	0	1	5	3	4
6	2	3072	0	1	2	1	0
6	2	7100	0	1	2	3	4
6	2	1.01581e+06	0	1	2	5	4
6	2	50	0	1	5	3	4
6	3	2304	0	1	2	1	0
6	3	5700	0	1	2	3	4
6	3	1.13869e+06	0	1	2	5	4
6	3	50	0	1	5	3	4
6	4	3520	0	1	2	1	0
6	4	5700	0	1	2	3	4
6	4	1.14278e+06	0	1	2	5	4
6	5	2688	0	1	2	1	0
6	5	7200	0	1	2	3	4
6	5	1.024e+06	0	1	2	5	4
6	7	3008	0	1	2	1	0
6	7	7300	0	1	2	3	4
6	7	1.20422e+06	0	1	2	5	4
6	7	50	0	1	5	3	4
6	8	2624	0	1	2	1	0
6	8	6600	0	1	2	3	4
6	8	1.08954e+06	0	1	2	5	4
6	8	50	0	1	5	3	4
6	9	3200	0	1	2	1	0
6	9	7300	0	1	2	3	4
6	9	1.11411e+06	0	1	2	5	4
6	9	100	0	1	5	3	4
7	0	3136	0	1	2	1	0
7	0	7100	0	1	2	3	4
7	0	1.20832e+06	0	1	2	5	4
7	0	100	0	1	5	3	4
7	1	2624	0	1	2	1	0
7	1	7300	0	1	2	3	4
7	1	1.1305e+06	0	1	2	5	4
7	2	3136	0	1	2	1	0
7	2	6400	0	1	2	3	4
7	2	1.06086e+06	0	1	2	5	4
7	3	2432	0	1	2	1	0
7	3	7900	0	1	2	3	4
7	3	1.17555e+06	0	1	2	5	4
7	4	2752	0	1	2	1	0
7	4	7900	0	1	2	3	4
7	4	1.08544e+06	0	1	2	5	4
7	5	3456	0	1	2	1	0
7	5	4900	0	1	2	3	4
7	5	937984	0	1	2	5	4
7	6	2816	0	1	2	1	0
7	6	7200	0	1	2	3	4
7	6	1.07315e+06	0	1	2	5	4
7	8	3136	0	1	2	1	0
7	8	8200	0	1	2	3	4
7	8	1.03629e+06	0	1	2	5	4
7	9	2880	0	1	2	1	0
7	9	8200	0	1	2	3	4
7	9	1.08954e+06	0	1	2	5	4
7	9	100	0	1	5	3	4
8	0	3520	0	1	2	1	0
8	0	6800	0	1	2	3	4
8	0	1.2329e+06	0	1	2	5	4
8	0	50	0	1	5	3	4
8	1	2688	0	1	2	1	0
8	1	7200	0	1	2	3	4
8	1	1.08544e+06	0	1	2	5	4
8	2	3840	0	1	2	1	0
8	2	6200	0	1	2	3	4
8	2	1.1264e+06	0	1	2	5	4
8	2	50	0	1	5	3	4
8	3	2368	0	1	2	1	0
8	3	8900	0	1	2	3	4
8	3	1.024e+06	0	1	2	5	4
8	3	100	0	1	5	3	4
8	4	2816	0	1	2	1	0
8	4	6600	0	1	2	3	4
8	4	978944	0	1	2	5	4
8	4	50	0	1	5	3	4
8	5	3584	0	1	2	1	0
8	5	6700	0	1	2	3	4
8	5	1.10592e+06	0	1	2	5	4
8	5	50	0	1	5	3	4
8	6	2368	0	1	2	1	0
8	6	5800	0	1	2	3	4
8	6	1.08544e+06	0	1	2	5	4
8	6	50	0	1	5	3	4
8	7	3328	0	1	2	1	0
8	7	8000	0	1	2	3	4
8	7	1.17555e+06	0	1	2	5	4
8	7	50	0	1	5	3	4
8	9	3008	0	1	2	1	0
8	9	8000	0	1	2	3	4
8	9	1.05677e+06	0	1	2	5	4
9	0	2368	0	1	2	1	0
9	0	8300	0	1	2	3	4
9	0	1.05267e+06	0	1	2	5	4
9	1	2944	0	1	2	1	0
9	1	7700	0	1	2	3	4
9	1	1.07315e+06	0	1	2	5	4
9	1	50	0	1	5	3	4
9	2	3264	0	1	2	1	0
9	2	7400	0	1	2	3	4
9	2	1.07725e+06	0	1	2	5	4
9	2	100	0	1	5	3	4
9	3	2752	0	1	2	1	0
9	3	6900	0	1	2	3	4
9	3	1.07725e+06	0	1	2	5	4
9	4	3520	0	1	2	1	0
9	4	7000	0	1	2	3	4
9	4	1.09773e+06	0	1	2	5	4
9	5	3200	0	1	2	1	0
9	5	7100	0	1	2	3	4
9	5	991232	0	1	2	5	4
9	5	50	0	1	5	3	4
9	6	2624	0	1	2	1	0
9	6	5700	0	1	2	3	4
9	6	1.11411e+06	0	1	2	5	4
9	7	3136	0	1	2	1	0
9	7	6700	0	1	2	3	4
9	7	946176	0	1	2	5	4
9	8	3776	0	1	2	1	0
9	8	7700	0	1	2	3	4
9	8	1.05677e+06	0	1	2	5	4
