20
0	8	1e+12
0	13	1e+12
0	15	1e+12
0	17	1e+12
0	19	1e+12
1	2	1e+12
1	4	1e+12
1	5	1e+12
1	18	1e+12
2	1	1e+12
2	8	1e+12
2	12	1e+12
3	10	1e+12
3	12	1e+12
3	18	1e+12
4	1	1e+12
4	7	1e+12
4	8	1e+12
4	19	1e+12
5	1	1e+12
5	8	1e+12
5	14	1e+12
6	10	1e+12
6	14	1e+12
6	16	1e+12
7	4	1e+12
7	8	1e+12
7	11	1e+12
7	14	1e+12
8	0	1e+12
8	2	1e+12
8	4	1e+12
8	5	1e+12
8	7	1e+12
8	11	1e+12
8	17	1e+12
9	12	1e+12
9	16	1e+12
10	3	1e+12
10	6	1e+12
10	13	1e+12
11	7	1e+12
11	8	1e+12
11	13	1e+12
11	14	1e+12
12	2	1e+12
12	3	1e+12
12	9	1e+12
13	0	1e+12
13	10	1e+12
13	11	1e+12
13	14	1e+12
14	5	1e+12
14	6	1e+12
14	7	1e+12
14	11	1e+12
14	13	1e+12
15	0	1e+12
15	18	1e+12
16	6	1e+12
16	9	1e+12
16	17	1e+12
16	18	1e+12
17	0	1e+12
17	8	1e+12
17	16	1e+12
18	1	1e+12
18	3	1e+12
18	15	1e+12
18	16	1e+12
19	0	1e+12
19	4	1e+12
