100000	1000	10000	100000	1000	10000
0	1	1.13373e+07	3	2	1	3	3	2
0	2	1.0872e+07	3	2	1	3	3	2
0	3	1.10885e+07	3	2	1	3	3	2
0	4	1.09367e+07	3	2	1	3	3	2
0	5	1.09367e+07	3	2	1	3	3	2
0	6	1.11144e+07	3	2	1	3	3	2
0	7	1.10562e+07	3	2	1	3	3	2
0	8	1.07848e+07	3	2	1	3	3	2
0	9	1.08914e+07	3	2	1	3	3	2
1	0	1.15279e+07	3	2	1	3	3	2
1	2	1.10724e+07	3	2	1	3	3	2
1	3	1.13244e+07	3	2	1	3	3	2
1	4	1.09657e+07	3	2	1	3	3	2
1	5	1.09754e+07	3	2	1	3	3	2
1	6	1.10077e+07	3	2	1	3	3	2
1	7	1.12694e+07	3	2	1	3	3	2
1	8	1.12501e+07	3	2	1	3	3	2
1	9	1.10788e+07	3	2	1	3	3	2
2	0	1.13502e+07	3	2	1	3	3	2
2	1	1.14407e+07	3	2	1	3	3	2
2	3	1.12307e+07	3	2	1	3	3	2
2	4	1.11402e+07	3	2	1	3	3	2
2	5	1.10465e+07	3	2	1	3	3	2
2	6	1.08785e+07	3	2	1	3	3	2
2	7	1.13825e+07	3	2	1	3	3	2
2	8	1.09981e+07	3	2	1	3	3	2
2	9	1.10465e+07	3	2	1	3	3	2
3	0	1.08947e+07	3	2	1	3	3	2
3	1	1.09981e+07	3	2	1	3	3	2
3	2	1.1389e+07	3	2	1	3	3	2
3	4	1.10788e+07	3	2	1	3	3	2
3	5	1.11531e+07	3	2	1	3	3	2
3	6	1.10756e+07	3	2	1	3	3	2
3	7	1.14051e+07	3	2	1	3	3	2
3	8	1.1011e+07	3	2	1	3	3	2
3	9	1.12113e+07	3	2	1	3	3	2
4	0	1.08624e+07	3	2	1	3	3	2
4	1	1.1011e+07	3	2	1	3	3	2
4	2	1.11984e+07	3	2	1	3	3	2
4	3	1.12145e+07	3	2	1	3	3	2
4	5	1.12242e+07	3	2	1	3	3	2
4	6	1.09593e+07	3	2	1	3	3	2
4	7	1.11047e+07	3	2	1	3	3	2
4	8	1.10207e+07	3	2	1	3	3	2
4	9	1.08074e+07	3	2	1	3	3	2
5	0	1.10304e+07	3	2	1	3	3	2
5	1	1.13987e+07	3	2	1	3	3	2
5	2	1.08591e+07	3	2	1	3	3	2
5	3	1.10788e+07	3	2	1	3	3	2
5	4	1.10917e+07	3	2	1	3	3	2
5	6	1.09981e+07	3	2	1	3	3	2
5	7	1.12113e+07	3	2	1	3	3	2
5	8	1.10045e+07	3	2	1	3	3	2
5	9	1.08785e+07	3	2	1	3	3	2
6	0	1.09948e+07	3	2	1	3	3	2
6	1	1.13438e+07	3	2	1	3	3	2
6	2	1.12501e+07	3	2	1	3	3	2
6	3	1.13599e+07	3	2	1	3	3	2
6	4	1.13308e+07	3	2	1	3	3	2
6	5	1.11241e+07	3	2	1	3	3	2
6	7	1.12307e+07	3	2	1	3	3	2
6	8	1.09496e+07	3	2	1	3	3	2
6	9	1.12436e+07	3	2	1	3	3	2
7	0	1.11273e+07	3	2	1	3	3	2
7	1	1.08914e+07	3	2	1	3	3	2
7	2	1.14116e+07	3	2	1	3	3	2
7	3	1.08074e+07	3	2	1	3	3	2
7	4	1.10724e+07	3	2	1	3	3	2
7	5	1.10562e+07	3	2	1	3	3	2
7	6	1.1305e+07	3	2	1	3	3	2
7	8	1.09011e+07	3	2	1	3	3	2
7	9	1.14827e+07	3	2	1	3	3	2
8	0	1.12501e+07	3	2	1	3	3	2
8	1	1.11047e+07	3	2	1	3	3	2
8	2	1.11402e+07	3	2	1	3	3	2
8	3	1.12694e+07	3	2	1	3	3	2
8	4	1.08171e+07	3	2	1	3	3	2
8	5	1.09722e+07	3	2	1	3	3	2
8	6	1.11144e+07	3	2	1	3	3	2
8	7	1.12339e+07	3	2	1	3	3	2
8	9	1.12598e+07	3	2	1	3	3	2
9	0	1.10142e+07	3	2	1	3	3	2
9	1	1.09367e+07	3	2	1	3	3	2
9	2	1.11434e+07	3	2	1	3	3	2
9	3	1.13179e+07	3	2	1	3	3	2
9	4	1.09722e+07	3	2	1	3	3	2
9	5	1.11758e+07	3	2	1	3	3	2
9	6	1.11176e+07	3	2	1	3	3	2
9	7	1.10207e+07	3	2	1	3	3	2
9	8	1.10853e+07	3	2	1	3	3	2
