10
0	4	1e+12
0	6	1e+12
0	8	1e+12
0	9	1e+12
1	2	1e+12
1	3	1e+12
1	7	1e+12
2	1	1e+12
2	8	1e+12
2	9	1e+12
3	1	1e+12
4	0	1e+12
4	7	1e+12
5	9	1e+12
6	0	1e+12
7	1	1e+12
7	4	1e+12
8	0	1e+12
8	2	1e+12
8	9	1e+12
9	0	1e+12
9	2	1e+12
9	5	1e+12
9	8	1e+12
