100000	100000	100000	10000	1000	1000
0	1	7296	0	1	2	1	0
0	1	17000	0	1	2	3	4
0	1	2.60915e+06	0	1	2	5	4
0	1	150	0	1	5	3	4
0	2	7616	0	1	2	1	0
0	2	16900	0	1	2	3	4
0	2	2.40435e+06	0	1	2	5	4
0	2	50	0	1	5	3	4
0	3	7360	0	1	2	1	0
0	3	18300	0	1	2	3	4
0	3	2.65011e+06	0	1	2	5	4
0	3	50	0	1	5	3	4
0	4	7872	0	1	2	1	0
0	4	16500	0	1	2	3	4
0	4	2.6624e+06	0	1	2	5	4
0	5	6016	0	1	2	1	0
0	5	17300	0	1	2	3	4
0	5	2.56819e+06	0	1	2	5	4
0	5	50	0	1	5	3	4
0	6	6848	0	1	2	1	0
0	6	17100	0	1	2	3	4
0	6	2.62963e+06	0	1	2	5	4
0	7	6208	0	1	2	1	0
0	7	17000	0	1	2	3	4
0	7	2.63373e+06	0	1	2	5	4
0	7	150	0	1	5	3	4
0	8	5440	0	1	2	1	0
0	8	18400	0	1	2	3	4
0	8	2.71565e+06	0	1	2	5	4
0	8	150	0	1	5	3	4
0	9	7104	0	1	2	1	0
0	9	14700	0	1	2	3	4
0	9	2.62144e+06	0	1	2	5	4
0	10	7296	0	1	2	1	0
0	10	17000	0	1	2	3	4
0	10	2.4576e+06	0	1	2	5	4
0	11	5952	0	1	2	1	0
0	11	14300	0	1	2	3	4
0	11	2.62144e+06	0	1	2	5	4
0	11	50	0	1	5	3	4
0	12	7808	0	1	2	1	0
0	12	15600	0	1	2	3	4
0	12	2.57638e+06	0	1	2	5	4
0	13	7360	0	1	2	1	0
0	13	15800	0	1	2	3	4
0	13	2.78938e+06	0	1	2	5	4
0	13	50	0	1	5	3	4
0	14	6336	0	1	2	1	0
0	14	16700	0	1	2	3	4
0	14	2.57229e+06	0	1	2	5	4
0	15	7104	0	1	2	1	0
0	15	18700	0	1	2	3	4
0	15	2.61734e+06	0	1	2	5	4
0	15	50	0	1	5	3	4
0	16	7680	0	1	2	1	0
0	16	17300	0	1	2	3	4
0	16	2.62554e+06	0	1	2	5	4
0	16	100	0	1	5	3	4
0	17	6400	0	1	2	1	0
0	17	17100	0	1	2	3	4
0	17	2.56819e+06	0	1	2	5	4
0	18	7232	0	1	2	1	0
0	18	16000	0	1	2	3	4
0	18	2.59686e+06	0	1	2	5	4
0	19	7360	0	1	2	1	0
0	19	15400	0	1	2	3	4
0	19	2.59686e+06	0	1	2	5	4
0	19	50	0	1	5	3	4
1	0	7424	0	1	2	1	0
1	0	16500	0	1	2	3	4
1	0	2.54362e+06	0	1	2	5	4
1	2	6784	0	1	2	1	0
1	2	17900	0	1	2	3	4
1	2	2.82214e+06	0	1	2	5	4
1	2	50	0	1	5	3	4
1	3	6144	0	1	2	1	0
1	3	17400	0	1	2	3	4
1	3	2.44941e+06	0	1	2	5	4
1	3	50	0	1	5	3	4
1	4	7104	0	1	2	1	0
1	4	18200	0	1	2	3	4
1	4	2.59686e+06	0	1	2	5	4
1	4	50	0	1	5	3	4
1	5	7104	0	1	2	1	0
1	5	15800	0	1	2	3	4
1	5	2.62963e+06	0	1	2	5	4
1	6	6912	0	1	2	1	0
1	6	17400	0	1	2	3	4
1	6	2.75661e+06	0	1	2	5	4
1	7	7104	0	1	2	1	0
1	7	16000	0	1	2	3	4
1	7	2.49037e+06	0	1	2	5	4
1	7	100	0	1	5	3	4
1	8	7552	0	1	2	1	0
1	8	18300	0	1	2	3	4
1	8	2.67878e+06	0	1	2	5	4
1	8	50	0	1	5	3	4
1	9	7232	0	1	2	1	0
1	9	15300	0	1	2	3	4
1	9	2.81395e+06	0	1	2	5	4
1	9	150	0	1	5	3	4
1	10	7232	0	1	2	1	0
1	10	18800	0	1	2	3	4
1	10	2.49856e+06	0	1	2	5	4
1	10	100	0	1	5	3	4
1	11	7168	0	1	2	1	0
1	11	16100	0	1	2	3	4
1	11	2.62963e+06	0	1	2	5	4
1	12	6464	0	1	2	1	0
1	12	15700	0	1	2	3	4
1	12	2.53133e+06	0	1	2	5	4
1	12	100	0	1	5	3	4
1	13	6016	0	1	2	1	0
1	13	16300	0	1	2	3	4
1	13	2.36749e+06	0	1	2	5	4
1	13	50	0	1	5	3	4
1	14	6336	0	1	2	1	0
1	14	18300	0	1	2	3	4
1	14	2.89997e+06	0	1	2	5	4
1	15	6400	0	1	2	1	0
1	15	17800	0	1	2	3	4
1	15	2.65011e+06	0	1	2	5	4
1	15	50	0	1	5	3	4
1	16	6912	0	1	2	1	0
1	16	15600	0	1	2	3	4
1	16	2.60096e+06	0	1	2	5	4
1	17	7232	0	1	2	1	0
1	17	17200	0	1	2	3	4
1	17	2.59277e+06	0	1	2	5	4
1	17	100	0	1	5	3	4
1	18	7360	0	1	2	1	0
1	18	15600	0	1	2	3	4
1	18	2.62144e+06	0	1	2	5	4
1	19	6528	0	1	2	1	0
1	19	18700	0	1	2	3	4
1	19	2.58867e+06	0	1	2	5	4
2	0	7168	0	1	2	1	0
2	0	19200	0	1	2	3	4
2	0	2.7607e+06	0	1	2	5	4
2	1	6848	0	1	2	1	0
2	1	16500	0	1	2	3	4
2	1	2.71155e+06	0	1	2	5	4
2	3	6912	0	1	2	1	0
2	3	18200	0	1	2	3	4
2	3	2.41254e+06	0	1	2	5	4
2	3	100	0	1	5	3	4
2	4	6400	0	1	2	1	0
2	4	14800	0	1	2	3	4
2	4	2.61734e+06	0	1	2	5	4
2	4	100	0	1	5	3	4
2	5	6848	0	1	2	1	0
2	5	15800	0	1	2	3	4
2	5	2.70746e+06	0	1	2	5	4
2	5	150	0	1	5	3	4
2	6	6976	0	1	2	1	0
2	6	16300	0	1	2	3	4
2	6	2.53133e+06	0	1	2	5	4
2	6	50	0	1	5	3	4
2	7	7872	0	1	2	1	0
2	7	16400	0	1	2	3	4
2	7	2.60915e+06	0	1	2	5	4
2	7	100	0	1	5	3	4
2	8	6208	0	1	2	1	0
2	8	17000	0	1	2	3	4
2	8	2.55181e+06	0	1	2	5	4
2	8	150	0	1	5	3	4
2	9	7104	0	1	2	1	0
2	9	15900	0	1	2	3	4
2	9	2.53542e+06	0	1	2	5	4
2	9	100	0	1	5	3	4
2	10	5760	0	1	2	1	0
2	10	16800	0	1	2	3	4
2	10	2.90816e+06	0	1	2	5	4
2	11	8128	0	1	2	1	0
2	11	15500	0	1	2	3	4
2	11	2.62554e+06	0	1	2	5	4
2	11	50	0	1	5	3	4
2	12	6592	0	1	2	1	0
2	12	15500	0	1	2	3	4
2	12	2.7648e+06	0	1	2	5	4
2	13	6720	0	1	2	1	0
2	13	17000	0	1	2	3	4
2	13	2.46989e+06	0	1	2	5	4
2	13	50	0	1	5	3	4
2	14	6016	0	1	2	1	0
2	14	16600	0	1	2	3	4
2	14	2.62963e+06	0	1	2	5	4
2	14	50	0	1	5	3	4
2	15	7680	0	1	2	1	0
2	15	17400	0	1	2	3	4
2	15	2.48627e+06	0	1	2	5	4
2	15	50	0	1	5	3	4
2	16	7680	0	1	2	1	0
2	16	16000	0	1	2	3	4
2	16	2.63782e+06	0	1	2	5	4
2	17	6848	0	1	2	1	0
2	17	16200	0	1	2	3	4
2	17	2.53952e+06	0	1	2	5	4
2	18	6208	0	1	2	1	0
2	18	16600	0	1	2	3	4
2	18	2.63373e+06	0	1	2	5	4
2	18	100	0	1	5	3	4
2	19	6272	0	1	2	1	0
2	19	17500	0	1	2	3	4
2	19	2.63782e+06	0	1	2	5	4
2	19	50	0	1	5	3	4
3	0	6336	0	1	2	1	0
3	0	16900	0	1	2	3	4
3	0	2.7648e+06	0	1	2	5	4
3	1	6912	0	1	2	1	0
3	1	18100	0	1	2	3	4
3	1	2.69107e+06	0	1	2	5	4
3	2	6528	0	1	2	1	0
3	2	13100	0	1	2	3	4
3	2	2.6583e+06	0	1	2	5	4
3	2	50	0	1	5	3	4
3	4	7360	0	1	2	1	0
3	4	15000	0	1	2	3	4
3	4	2.61734e+06	0	1	2	5	4
3	4	300	0	1	5	3	4
3	5	7680	0	1	2	1	0
3	5	15100	0	1	2	3	4
3	5	2.61325e+06	0	1	2	5	4
3	5	150	0	1	5	3	4
3	6	8064	0	1	2	1	0
3	6	17100	0	1	2	3	4
3	6	2.51085e+06	0	1	2	5	4
3	6	50	0	1	5	3	4
3	7	7168	0	1	2	1	0
3	7	15600	0	1	2	3	4
3	7	2.67059e+06	0	1	2	5	4
3	7	100	0	1	5	3	4
3	8	5632	0	1	2	1	0
3	8	16100	0	1	2	3	4
3	8	2.6624e+06	0	1	2	5	4
3	8	150	0	1	5	3	4
3	9	7488	0	1	2	1	0
3	9	16000	0	1	2	3	4
3	9	2.67878e+06	0	1	2	5	4
3	10	6080	0	1	2	1	0
3	10	16500	0	1	2	3	4
3	10	2.51904e+06	0	1	2	5	4
3	10	100	0	1	5	3	4
3	11	7680	0	1	2	1	0
3	11	17700	0	1	2	3	4
3	11	2.6583e+06	0	1	2	5	4
3	11	50	0	1	5	3	4
3	12	6976	0	1	2	1	0
3	12	16800	0	1	2	3	4
3	12	2.72384e+06	0	1	2	5	4
3	12	150	0	1	5	3	4
3	13	6528	0	1	2	1	0
3	13	16100	0	1	2	3	4
3	13	2.5641e+06	0	1	2	5	4
3	13	100	0	1	5	3	4
3	14	5760	0	1	2	1	0
3	14	17000	0	1	2	3	4
3	14	2.61325e+06	0	1	2	5	4
3	14	100	0	1	5	3	4
3	15	6592	0	1	2	1	0
3	15	15400	0	1	2	3	4
3	15	2.7689e+06	0	1	2	5	4
3	15	50	0	1	5	3	4
3	16	6464	0	1	2	1	0
3	16	14500	0	1	2	3	4
3	16	2.53542e+06	0	1	2	5	4
3	16	50	0	1	5	3	4
3	17	6912	0	1	2	1	0
3	17	14800	0	1	2	3	4
3	17	2.6665e+06	0	1	2	5	4
3	17	100	0	1	5	3	4
3	18	6016	0	1	2	1	0
3	18	17600	0	1	2	3	4
3	18	2.65421e+06	0	1	2	5	4
3	18	100	0	1	5	3	4
3	19	7552	0	1	2	1	0
3	19	15900	0	1	2	3	4
3	19	2.44531e+06	0	1	2	5	4
3	19	50	0	1	5	3	4
4	0	6272	0	1	2	1	0
4	0	18200	0	1	2	3	4
4	0	2.3593e+06	0	1	2	5	4
4	0	100	0	1	5	3	4
4	1	8832	0	1	2	1	0
4	1	19900	0	1	2	3	4
4	1	2.68698e+06	0	1	2	5	4
4	2	6848	0	1	2	1	0
4	2	16500	0	1	2	3	4
4	2	2.58458e+06	0	1	2	5	4
4	2	100	0	1	5	3	4
4	3	7488	0	1	2	1	0
4	3	15900	0	1	2	3	4
4	3	2.41254e+06	0	1	2	5	4
4	3	150	0	1	5	3	4
4	5	6592	0	1	2	1	0
4	5	16800	0	1	2	3	4
4	5	2.78118e+06	0	1	2	5	4
4	6	7168	0	1	2	1	0
4	6	18200	0	1	2	3	4
4	6	2.7648e+06	0	1	2	5	4
4	6	100	0	1	5	3	4
4	7	7232	0	1	2	1	0
4	7	16600	0	1	2	3	4
4	7	2.71155e+06	0	1	2	5	4
4	7	50	0	1	5	3	4
4	8	7296	0	1	2	1	0
4	8	15000	0	1	2	3	4
4	8	2.71565e+06	0	1	2	5	4
4	8	50	0	1	5	3	4
4	9	7296	0	1	2	1	0
4	9	18900	0	1	2	3	4
4	9	2.72384e+06	0	1	2	5	4
4	9	50	0	1	5	3	4
4	10	6272	0	1	2	1	0
4	10	17600	0	1	2	3	4
4	10	2.64192e+06	0	1	2	5	4
4	11	6592	0	1	2	1	0
4	11	16700	0	1	2	3	4
4	11	2.6624e+06	0	1	2	5	4
4	11	100	0	1	5	3	4
4	12	6912	0	1	2	1	0
4	12	16100	0	1	2	3	4
4	12	2.59686e+06	0	1	2	5	4
4	12	100	0	1	5	3	4
4	13	6528	0	1	2	1	0
4	13	14700	0	1	2	3	4
4	13	2.49446e+06	0	1	2	5	4
4	13	100	0	1	5	3	4
4	14	6400	0	1	2	1	0
4	14	15200	0	1	2	3	4
4	14	2.53133e+06	0	1	2	5	4
4	14	200	0	1	5	3	4
4	15	6400	0	1	2	1	0
4	15	17000	0	1	2	3	4
4	15	2.61734e+06	0	1	2	5	4
4	15	50	0	1	5	3	4
4	16	7040	0	1	2	1	0
4	16	17000	0	1	2	3	4
4	16	2.84262e+06	0	1	2	5	4
4	16	50	0	1	5	3	4
4	17	6336	0	1	2	1	0
4	17	17000	0	1	2	3	4
4	17	2.52314e+06	0	1	2	5	4
4	18	6080	0	1	2	1	0
4	18	14100	0	1	2	3	4
4	18	2.52723e+06	0	1	2	5	4
4	18	50	0	1	5	3	4
4	19	7616	0	1	2	1	0
4	19	14800	0	1	2	3	4
4	19	2.64192e+06	0	1	2	5	4
4	19	50	0	1	5	3	4
5	0	7424	0	1	2	1	0
5	0	16300	0	1	2	3	4
5	0	2.6624e+06	0	1	2	5	4
5	0	50	0	1	5	3	4
5	1	7872	0	1	2	1	0
5	1	18900	0	1	2	3	4
5	1	2.54771e+06	0	1	2	5	4
5	2	6336	0	1	2	1	0
5	2	15200	0	1	2	3	4
5	2	2.65421e+06	0	1	2	5	4
5	2	100	0	1	5	3	4
5	3	6912	0	1	2	1	0
5	3	19200	0	1	2	3	4
5	3	2.56e+06	0	1	2	5	4
5	3	100	0	1	5	3	4
5	4	6144	0	1	2	1	0
5	4	17100	0	1	2	3	4
5	4	2.63782e+06	0	1	2	5	4
5	4	50	0	1	5	3	4
5	6	6144	0	1	2	1	0
5	6	17000	0	1	2	3	4
5	6	2.57638e+06	0	1	2	5	4
5	7	8128	0	1	2	1	0
5	7	15200	0	1	2	3	4
5	7	2.71565e+06	0	1	2	5	4
5	8	7040	0	1	2	1	0
5	8	13700	0	1	2	3	4
5	8	2.64192e+06	0	1	2	5	4
5	9	5952	0	1	2	1	0
5	9	15900	0	1	2	3	4
5	9	2.69517e+06	0	1	2	5	4
5	10	5760	0	1	2	1	0
5	10	17300	0	1	2	3	4
5	10	2.59686e+06	0	1	2	5	4
5	10	50	0	1	5	3	4
5	11	7872	0	1	2	1	0
5	11	15400	0	1	2	3	4
5	11	2.58048e+06	0	1	2	5	4
5	11	250	0	1	5	3	4
5	12	6400	0	1	2	1	0
5	12	16000	0	1	2	3	4
5	12	2.61325e+06	0	1	2	5	4
5	12	100	0	1	5	3	4
5	13	6272	0	1	2	1	0
5	13	15700	0	1	2	3	4
5	13	2.58458e+06	0	1	2	5	4
5	13	200	0	1	5	3	4
5	14	6720	0	1	2	1	0
5	14	15200	0	1	2	3	4
5	14	2.75661e+06	0	1	2	5	4
5	14	100	0	1	5	3	4
5	15	6400	0	1	2	1	0
5	15	15900	0	1	2	3	4
5	15	2.46989e+06	0	1	2	5	4
5	15	100	0	1	5	3	4
5	16	6848	0	1	2	1	0
5	16	17400	0	1	2	3	4
5	16	2.54362e+06	0	1	2	5	4
5	16	50	0	1	5	3	4
5	17	7040	0	1	2	1	0
5	17	16100	0	1	2	3	4
5	17	2.56819e+06	0	1	2	5	4
5	18	6592	0	1	2	1	0
5	18	18000	0	1	2	3	4
5	18	2.50675e+06	0	1	2	5	4
5	18	100	0	1	5	3	4
5	19	6528	0	1	2	1	0
5	19	14600	0	1	2	3	4
5	19	2.69926e+06	0	1	2	5	4
5	19	50	0	1	5	3	4
6	0	8128	0	1	2	1	0
6	0	16900	0	1	2	3	4
6	0	2.65421e+06	0	1	2	5	4
6	1	5952	0	1	2	1	0
6	1	18200	0	1	2	3	4
6	1	2.67059e+06	0	1	2	5	4
6	2	7040	0	1	2	1	0
6	2	20100	0	1	2	3	4
6	2	2.71974e+06	0	1	2	5	4
6	2	100	0	1	5	3	4
6	3	7104	0	1	2	1	0
6	3	16100	0	1	2	3	4
6	3	2.40435e+06	0	1	2	5	4
6	3	100	0	1	5	3	4
6	4	7168	0	1	2	1	0
6	4	16800	0	1	2	3	4
6	4	2.56819e+06	0	1	2	5	4
6	4	50	0	1	5	3	4
6	5	7040	0	1	2	1	0
6	5	14900	0	1	2	3	4
6	5	2.50675e+06	0	1	2	5	4
6	5	100	0	1	5	3	4
6	7	6272	0	1	2	1	0
6	7	16100	0	1	2	3	4
6	7	2.52723e+06	0	1	2	5	4
6	7	50	0	1	5	3	4
6	8	8256	0	1	2	1	0
6	8	16900	0	1	2	3	4
6	8	2.55181e+06	0	1	2	5	4
6	8	150	0	1	5	3	4
6	9	6208	0	1	2	1	0
6	9	16100	0	1	2	3	4
6	9	2.57638e+06	0	1	2	5	4
6	10	6080	0	1	2	1	0
6	10	17400	0	1	2	3	4
6	10	2.64192e+06	0	1	2	5	4
6	10	100	0	1	5	3	4
6	11	8448	0	1	2	1	0
6	11	17400	0	1	2	3	4
6	11	2.70336e+06	0	1	2	5	4
6	11	100	0	1	5	3	4
6	12	6720	0	1	2	1	0
6	12	15800	0	1	2	3	4
6	12	2.71155e+06	0	1	2	5	4
6	12	100	0	1	5	3	4
6	13	7488	0	1	2	1	0
6	13	16000	0	1	2	3	4
6	13	2.69926e+06	0	1	2	5	4
6	14	7488	0	1	2	1	0
6	14	17000	0	1	2	3	4
6	14	2.56819e+06	0	1	2	5	4
6	14	50	0	1	5	3	4
6	15	7360	0	1	2	1	0
6	15	16800	0	1	2	3	4
6	15	2.46989e+06	0	1	2	5	4
6	15	50	0	1	5	3	4
6	16	7616	0	1	2	1	0
6	16	13000	0	1	2	3	4
6	16	2.69517e+06	0	1	2	5	4
6	16	150	0	1	5	3	4
6	17	6784	0	1	2	1	0
6	17	16200	0	1	2	3	4
6	17	2.59277e+06	0	1	2	5	4
6	17	100	0	1	5	3	4
6	18	7616	0	1	2	1	0
6	18	17800	0	1	2	3	4
6	18	2.4535e+06	0	1	2	5	4
6	18	50	0	1	5	3	4
6	19	8384	0	1	2	1	0
6	19	16300	0	1	2	3	4
6	19	2.64192e+06	0	1	2	5	4
6	19	50	0	1	5	3	4
7	0	7360	0	1	2	1	0
7	0	16900	0	1	2	3	4
7	0	2.62554e+06	0	1	2	5	4
7	1	6720	0	1	2	1	0
7	1	17700	0	1	2	3	4
7	1	2.3593e+06	0	1	2	5	4
7	1	200	0	1	5	3	4
7	2	7552	0	1	2	1	0
7	2	16900	0	1	2	3	4
7	2	2.54771e+06	0	1	2	5	4
7	2	100	0	1	5	3	4
7	3	6144	0	1	2	1	0
7	3	15000	0	1	2	3	4
7	3	2.51085e+06	0	1	2	5	4
7	3	100	0	1	5	3	4
7	4	7552	0	1	2	1	0
7	4	15400	0	1	2	3	4
7	4	2.63373e+06	0	1	2	5	4
7	4	50	0	1	5	3	4
7	5	7552	0	1	2	1	0
7	5	15900	0	1	2	3	4
7	5	2.52723e+06	0	1	2	5	4
7	6	7360	0	1	2	1	0
7	6	15700	0	1	2	3	4
7	6	2.56819e+06	0	1	2	5	4
7	6	50	0	1	5	3	4
7	8	7296	0	1	2	1	0
7	8	15000	0	1	2	3	4
7	8	2.62554e+06	0	1	2	5	4
7	9	7936	0	1	2	1	0
7	9	17500	0	1	2	3	4
7	9	2.70336e+06	0	1	2	5	4
7	9	50	0	1	5	3	4
7	10	6976	0	1	2	1	0
7	10	16900	0	1	2	3	4
7	10	2.53952e+06	0	1	2	5	4
7	11	7296	0	1	2	1	0
7	11	19500	0	1	2	3	4
7	11	2.51085e+06	0	1	2	5	4
7	12	6976	0	1	2	1	0
7	12	17400	0	1	2	3	4
7	12	2.58048e+06	0	1	2	5	4
7	12	50	0	1	5	3	4
7	13	7232	0	1	2	1	0
7	13	16500	0	1	2	3	4
7	13	2.5559e+06	0	1	2	5	4
7	14	5824	0	1	2	1	0
7	14	16900	0	1	2	3	4
7	14	2.61325e+06	0	1	2	5	4
7	14	100	0	1	5	3	4
7	15	7616	0	1	2	1	0
7	15	16300	0	1	2	3	4
7	15	2.42893e+06	0	1	2	5	4
7	15	100	0	1	5	3	4
7	16	7360	0	1	2	1	0
7	16	16800	0	1	2	3	4
7	16	2.46989e+06	0	1	2	5	4
7	16	100	0	1	5	3	4
7	17	7424	0	1	2	1	0
7	17	15200	0	1	2	3	4
7	17	2.75251e+06	0	1	2	5	4
7	18	7296	0	1	2	1	0
7	18	14500	0	1	2	3	4
7	18	2.67469e+06	0	1	2	5	4
7	18	150	0	1	5	3	4
7	19	6592	0	1	2	1	0
7	19	15200	0	1	2	3	4
7	19	2.4576e+06	0	1	2	5	4
7	19	100	0	1	5	3	4
8	0	7296	0	1	2	1	0
8	0	15800	0	1	2	3	4
8	0	2.72794e+06	0	1	2	5	4
8	0	100	0	1	5	3	4
8	1	7040	0	1	2	1	0
8	1	16400	0	1	2	3	4
8	1	2.70746e+06	0	1	2	5	4
8	1	100	0	1	5	3	4
8	2	6656	0	1	2	1	0
8	2	15900	0	1	2	3	4
8	2	2.59277e+06	0	1	2	5	4
8	3	6784	0	1	2	1	0
8	3	19300	0	1	2	3	4
8	3	2.60506e+06	0	1	2	5	4
8	3	50	0	1	5	3	4
8	4	7040	0	1	2	1	0
8	4	17400	0	1	2	3	4
8	4	2.60506e+06	0	1	2	5	4
8	4	50	0	1	5	3	4
8	5	6720	0	1	2	1	0
8	5	18800	0	1	2	3	4
8	5	2.40435e+06	0	1	2	5	4
8	6	5632	0	1	2	1	0
8	6	17000	0	1	2	3	4
8	6	2.60506e+06	0	1	2	5	4
8	6	50	0	1	5	3	4
8	7	6336	0	1	2	1	0
8	7	17000	0	1	2	3	4
8	7	2.55181e+06	0	1	2	5	4
8	7	150	0	1	5	3	4
8	9	7168	0	1	2	1	0
8	9	15400	0	1	2	3	4
8	9	2.59277e+06	0	1	2	5	4
8	9	50	0	1	5	3	4
8	10	6464	0	1	2	1	0
8	10	15300	0	1	2	3	4
8	10	2.62144e+06	0	1	2	5	4
8	10	50	0	1	5	3	4
8	11	7488	0	1	2	1	0
8	11	16100	0	1	2	3	4
8	11	2.54771e+06	0	1	2	5	4
8	11	150	0	1	5	3	4
8	12	6656	0	1	2	1	0
8	12	15700	0	1	2	3	4
8	12	2.57638e+06	0	1	2	5	4
8	12	50	0	1	5	3	4
8	13	6976	0	1	2	1	0
8	13	16500	0	1	2	3	4
8	13	2.7648e+06	0	1	2	5	4
8	13	50	0	1	5	3	4
8	14	6784	0	1	2	1	0
8	14	14800	0	1	2	3	4
8	14	2.56e+06	0	1	2	5	4
8	15	7616	0	1	2	1	0
8	15	16500	0	1	2	3	4
8	15	2.47808e+06	0	1	2	5	4
8	15	50	0	1	5	3	4
8	16	7744	0	1	2	1	0
8	16	16500	0	1	2	3	4
8	16	2.59686e+06	0	1	2	5	4
8	16	100	0	1	5	3	4
8	17	7808	0	1	2	1	0
8	17	16100	0	1	2	3	4
8	17	2.6583e+06	0	1	2	5	4
8	17	50	0	1	5	3	4
8	18	6912	0	1	2	1	0
8	18	15600	0	1	2	3	4
8	18	2.74842e+06	0	1	2	5	4
8	19	6784	0	1	2	1	0
8	19	15500	0	1	2	3	4
8	19	2.54771e+06	0	1	2	5	4
9	0	6976	0	1	2	1	0
9	0	14000	0	1	2	3	4
9	0	2.50675e+06	0	1	2	5	4
9	0	150	0	1	5	3	4
9	1	6912	0	1	2	1	0
9	1	16900	0	1	2	3	4
9	1	2.54362e+06	0	1	2	5	4
9	1	50	0	1	5	3	4
9	2	8384	0	1	2	1	0
9	2	17000	0	1	2	3	4
9	2	2.53542e+06	0	1	2	5	4
9	2	50	0	1	5	3	4
9	3	6272	0	1	2	1	0
9	3	18800	0	1	2	3	4
9	3	2.5559e+06	0	1	2	5	4
9	3	50	0	1	5	3	4
9	4	6912	0	1	2	1	0
9	4	15700	0	1	2	3	4
9	4	2.73613e+06	0	1	2	5	4
9	4	100	0	1	5	3	4
9	5	7552	0	1	2	1	0
9	5	16400	0	1	2	3	4
9	5	2.53133e+06	0	1	2	5	4
9	5	150	0	1	5	3	4
9	6	7616	0	1	2	1	0
9	6	16500	0	1	2	3	4
9	6	2.53952e+06	0	1	2	5	4
9	6	50	0	1	5	3	4
9	7	7040	0	1	2	1	0
9	7	15200	0	1	2	3	4
9	7	2.58867e+06	0	1	2	5	4
9	8	6272	0	1	2	1	0
9	8	16500	0	1	2	3	4
9	8	2.56e+06	0	1	2	5	4
9	10	6784	0	1	2	1	0
9	10	17800	0	1	2	3	4
9	10	2.37978e+06	0	1	2	5	4
9	10	50	0	1	5	3	4
9	11	7424	0	1	2	1	0
9	11	17000	0	1	2	3	4
9	11	2.80986e+06	0	1	2	5	4
9	12	7040	0	1	2	1	0
9	12	16400	0	1	2	3	4
9	12	2.70336e+06	0	1	2	5	4
9	12	100	0	1	5	3	4
9	13	6144	0	1	2	1	0
9	13	15300	0	1	2	3	4
9	13	2.67469e+06	0	1	2	5	4
9	13	100	0	1	5	3	4
9	14	7040	0	1	2	1	0
9	14	18300	0	1	2	3	4
9	14	2.5559e+06	0	1	2	5	4
9	14	150	0	1	5	3	4
9	15	7104	0	1	2	1	0
9	15	19600	0	1	2	3	4
9	15	2.56e+06	0	1	2	5	4
9	15	100	0	1	5	3	4
9	16	6912	0	1	2	1	0
9	16	15300	0	1	2	3	4
9	16	2.71565e+06	0	1	2	5	4
9	16	50	0	1	5	3	4
9	17	6144	0	1	2	1	0
9	17	17200	0	1	2	3	4
9	17	2.65011e+06	0	1	2	5	4
9	17	50	0	1	5	3	4
9	18	7424	0	1	2	1	0
9	18	14000	0	1	2	3	4
9	18	2.72384e+06	0	1	2	5	4
9	18	100	0	1	5	3	4
9	19	6336	0	1	2	1	0
9	19	15300	0	1	2	3	4
9	19	2.60506e+06	0	1	2	5	4
9	19	150	0	1	5	3	4
10	0	7360	0	1	2	1	0
10	0	15700	0	1	2	3	4
10	0	2.74022e+06	0	1	2	5	4
10	1	7424	0	1	2	1	0
10	1	16600	0	1	2	3	4
10	1	2.48627e+06	0	1	2	5	4
10	1	50	0	1	5	3	4
10	2	6464	0	1	2	1	0
10	2	16500	0	1	2	3	4
10	2	2.46989e+06	0	1	2	5	4
10	2	50	0	1	5	3	4
10	3	6144	0	1	2	1	0
10	3	18300	0	1	2	3	4
10	3	2.64602e+06	0	1	2	5	4
10	4	6400	0	1	2	1	0
10	4	16000	0	1	2	3	4
10	4	2.57638e+06	0	1	2	5	4
10	5	5952	0	1	2	1	0
10	5	19700	0	1	2	3	4
10	5	2.68698e+06	0	1	2	5	4
10	5	50	0	1	5	3	4
10	6	6592	0	1	2	1	0
10	6	16800	0	1	2	3	4
10	6	2.79347e+06	0	1	2	5	4
10	6	100	0	1	5	3	4
10	7	6656	0	1	2	1	0
10	7	17500	0	1	2	3	4
10	7	2.52314e+06	0	1	2	5	4
10	7	100	0	1	5	3	4
10	8	6976	0	1	2	1	0
10	8	17600	0	1	2	3	4
10	8	2.60096e+06	0	1	2	5	4
10	9	6784	0	1	2	1	0
10	9	15400	0	1	2	3	4
10	9	2.67878e+06	0	1	2	5	4
10	9	100	0	1	5	3	4
10	11	7552	0	1	2	1	0
10	11	15500	0	1	2	3	4
10	11	2.49037e+06	0	1	2	5	4
10	11	100	0	1	5	3	4
10	12	7616	0	1	2	1	0
10	12	15800	0	1	2	3	4
10	12	2.73613e+06	0	1	2	5	4
10	12	150	0	1	5	3	4
10	13	6336	0	1	2	1	0
10	13	16900	0	1	2	3	4
10	13	2.47808e+06	0	1	2	5	4
10	13	250	0	1	5	3	4
10	14	7616	0	1	2	1	0
10	14	16200	0	1	2	3	4
10	14	2.52723e+06	0	1	2	5	4
10	14	150	0	1	5	3	4
10	15	6464	0	1	2	1	0
10	15	15900	0	1	2	3	4
10	15	2.67059e+06	0	1	2	5	4
10	15	100	0	1	5	3	4
10	16	7424	0	1	2	1	0
10	16	17300	0	1	2	3	4
10	16	2.50675e+06	0	1	2	5	4
10	16	100	0	1	5	3	4
10	17	6528	0	1	2	1	0
10	17	18100	0	1	2	3	4
10	17	2.54771e+06	0	1	2	5	4
10	17	150	0	1	5	3	4
10	18	5696	0	1	2	1	0
10	18	17900	0	1	2	3	4
10	18	2.63373e+06	0	1	2	5	4
10	18	50	0	1	5	3	4
10	19	6208	0	1	2	1	0
10	19	16800	0	1	2	3	4
10	19	2.75661e+06	0	1	2	5	4
10	19	50	0	1	5	3	4
11	0	6016	0	1	2	1	0
11	0	16300	0	1	2	3	4
11	0	2.48218e+06	0	1	2	5	4
11	1	7104	0	1	2	1	0
11	1	17200	0	1	2	3	4
11	1	2.43712e+06	0	1	2	5	4
11	1	50	0	1	5	3	4
11	2	6080	0	1	2	1	0
11	2	14600	0	1	2	3	4
11	2	2.55181e+06	0	1	2	5	4
11	3	7168	0	1	2	1	0
11	3	16800	0	1	2	3	4
11	3	2.78118e+06	0	1	2	5	4
11	3	50	0	1	5	3	4
11	4	7296	0	1	2	1	0
11	4	16700	0	1	2	3	4
11	4	2.57229e+06	0	1	2	5	4
11	4	50	0	1	5	3	4
11	5	6272	0	1	2	1	0
11	5	17200	0	1	2	3	4
11	5	2.61734e+06	0	1	2	5	4
11	5	200	0	1	5	3	4
11	6	7488	0	1	2	1	0
11	6	16200	0	1	2	3	4
11	6	2.72794e+06	0	1	2	5	4
11	6	50	0	1	5	3	4
11	7	6528	0	1	2	1	0
11	7	16700	0	1	2	3	4
11	7	2.61325e+06	0	1	2	5	4
11	7	150	0	1	5	3	4
11	8	5824	0	1	2	1	0
11	8	17000	0	1	2	3	4
11	8	2.58867e+06	0	1	2	5	4
11	8	50	0	1	5	3	4
11	9	7232	0	1	2	1	0
11	9	16300	0	1	2	3	4
11	9	2.5559e+06	0	1	2	5	4
11	9	150	0	1	5	3	4
11	10	5888	0	1	2	1	0
11	10	16700	0	1	2	3	4
11	10	2.6624e+06	0	1	2	5	4
11	10	50	0	1	5	3	4
11	12	5760	0	1	2	1	0
11	12	18900	0	1	2	3	4
11	12	2.69926e+06	0	1	2	5	4
11	13	7296	0	1	2	1	0
11	13	16700	0	1	2	3	4
11	13	2.69107e+06	0	1	2	5	4
11	13	50	0	1	5	3	4
11	14	7488	0	1	2	1	0
11	14	15300	0	1	2	3	4
11	14	2.77709e+06	0	1	2	5	4
11	15	8448	0	1	2	1	0
11	15	17300	0	1	2	3	4
11	15	2.67469e+06	0	1	2	5	4
11	15	100	0	1	5	3	4
11	16	7296	0	1	2	1	0
11	16	17200	0	1	2	3	4
11	16	2.82624e+06	0	1	2	5	4
11	16	150	0	1	5	3	4
11	17	7232	0	1	2	1	0
11	17	17800	0	1	2	3	4
11	17	2.55181e+06	0	1	2	5	4
11	17	100	0	1	5	3	4
11	18	6656	0	1	2	1	0
11	18	16900	0	1	2	3	4
11	18	2.49446e+06	0	1	2	5	4
11	19	6208	0	1	2	1	0
11	19	16200	0	1	2	3	4
11	19	2.73203e+06	0	1	2	5	4
11	19	50	0	1	5	3	4
12	0	7936	0	1	2	1	0
12	0	16200	0	1	2	3	4
12	0	2.5641e+06	0	1	2	5	4
12	0	50	0	1	5	3	4
12	1	5888	0	1	2	1	0
12	1	17100	0	1	2	3	4
12	1	2.68698e+06	0	1	2	5	4
12	1	100	0	1	5	3	4
12	2	8832	0	1	2	1	0
12	2	16800	0	1	2	3	4
12	2	2.71974e+06	0	1	2	5	4
12	2	50	0	1	5	3	4
12	3	5888	0	1	2	1	0
12	3	15600	0	1	2	3	4
12	3	2.71974e+06	0	1	2	5	4
12	3	50	0	1	5	3	4
12	4	6720	0	1	2	1	0
12	4	15900	0	1	2	3	4
12	4	2.68698e+06	0	1	2	5	4
12	4	100	0	1	5	3	4
12	5	7552	0	1	2	1	0
12	5	17800	0	1	2	3	4
12	5	2.81395e+06	0	1	2	5	4
12	6	6784	0	1	2	1	0
12	6	15200	0	1	2	3	4
12	6	2.74022e+06	0	1	2	5	4
12	7	6976	0	1	2	1	0
12	7	15500	0	1	2	3	4
12	7	2.62963e+06	0	1	2	5	4
12	7	50	0	1	5	3	4
12	8	6912	0	1	2	1	0
12	8	16100	0	1	2	3	4
12	8	2.65421e+06	0	1	2	5	4
12	8	50	0	1	5	3	4
12	9	5760	0	1	2	1	0
12	9	17400	0	1	2	3	4
12	9	2.50675e+06	0	1	2	5	4
12	10	8000	0	1	2	1	0
12	10	17700	0	1	2	3	4
12	10	2.60915e+06	0	1	2	5	4
12	11	6720	0	1	2	1	0
12	11	18100	0	1	2	3	4
12	11	2.54362e+06	0	1	2	5	4
12	11	50	0	1	5	3	4
12	13	6528	0	1	2	1	0
12	13	15900	0	1	2	3	4
12	13	2.54362e+06	0	1	2	5	4
12	13	150	0	1	5	3	4
12	14	6848	0	1	2	1	0
12	14	16800	0	1	2	3	4
12	14	2.56e+06	0	1	2	5	4
12	14	50	0	1	5	3	4
12	15	5760	0	1	2	1	0
12	15	16400	0	1	2	3	4
12	15	2.55181e+06	0	1	2	5	4
12	15	100	0	1	5	3	4
12	16	7168	0	1	2	1	0
12	16	17200	0	1	2	3	4
12	16	2.53542e+06	0	1	2	5	4
12	16	100	0	1	5	3	4
12	17	7360	0	1	2	1	0
12	17	14800	0	1	2	3	4
12	17	2.60915e+06	0	1	2	5	4
12	18	7744	0	1	2	1	0
12	18	15900	0	1	2	3	4
12	18	2.54771e+06	0	1	2	5	4
12	18	50	0	1	5	3	4
12	19	6464	0	1	2	1	0
12	19	13800	0	1	2	3	4
12	19	2.53952e+06	0	1	2	5	4
12	19	150	0	1	5	3	4
13	0	6400	0	1	2	1	0
13	0	15600	0	1	2	3	4
13	0	2.48627e+06	0	1	2	5	4
13	1	6656	0	1	2	1	0
13	1	14700	0	1	2	3	4
13	1	2.53542e+06	0	1	2	5	4
13	1	50	0	1	5	3	4
13	2	6720	0	1	2	1	0
13	2	16100	0	1	2	3	4
13	2	2.73203e+06	0	1	2	5	4
13	2	150	0	1	5	3	4
13	3	7168	0	1	2	1	0
13	3	15300	0	1	2	3	4
13	3	2.5641e+06	0	1	2	5	4
13	3	100	0	1	5	3	4
13	4	7296	0	1	2	1	0
13	4	14900	0	1	2	3	4
13	4	2.64602e+06	0	1	2	5	4
13	5	5760	0	1	2	1	0
13	5	15000	0	1	2	3	4
13	5	2.56e+06	0	1	2	5	4
13	5	50	0	1	5	3	4
13	6	6272	0	1	2	1	0
13	6	16700	0	1	2	3	4
13	6	2.67059e+06	0	1	2	5	4
13	6	100	0	1	5	3	4
13	7	7168	0	1	2	1	0
13	7	17000	0	1	2	3	4
13	7	2.64602e+06	0	1	2	5	4
13	7	50	0	1	5	3	4
13	8	6976	0	1	2	1	0
13	8	18600	0	1	2	3	4
13	8	2.65011e+06	0	1	2	5	4
13	8	150	0	1	5	3	4
13	9	6784	0	1	2	1	0
13	9	17500	0	1	2	3	4
13	9	2.63373e+06	0	1	2	5	4
13	9	200	0	1	5	3	4
13	10	7296	0	1	2	1	0
13	10	16200	0	1	2	3	4
13	10	2.58458e+06	0	1	2	5	4
13	11	7872	0	1	2	1	0
13	11	17600	0	1	2	3	4
13	11	2.62554e+06	0	1	2	5	4
13	11	150	0	1	5	3	4
13	12	7104	0	1	2	1	0
13	12	15900	0	1	2	3	4
13	12	2.69926e+06	0	1	2	5	4
13	12	50	0	1	5	3	4
13	14	7936	0	1	2	1	0
13	14	16400	0	1	2	3	4
13	14	2.51085e+06	0	1	2	5	4
13	14	150	0	1	5	3	4
13	15	7168	0	1	2	1	0
13	15	16700	0	1	2	3	4
13	15	2.69517e+06	0	1	2	5	4
13	16	7552	0	1	2	1	0
13	16	14300	0	1	2	3	4
13	16	2.50266e+06	0	1	2	5	4
13	16	150	0	1	5	3	4
13	17	7168	0	1	2	1	0
13	17	14800	0	1	2	3	4
13	17	2.40026e+06	0	1	2	5	4
13	17	100	0	1	5	3	4
13	18	6848	0	1	2	1	0
13	18	14400	0	1	2	3	4
13	18	2.58867e+06	0	1	2	5	4
13	18	50	0	1	5	3	4
13	19	7616	0	1	2	1	0
13	19	17500	0	1	2	3	4
13	19	2.6624e+06	0	1	2	5	4
13	19	100	0	1	5	3	4
14	0	7168	0	1	2	1	0
14	0	18500	0	1	2	3	4
14	0	2.44531e+06	0	1	2	5	4
14	0	100	0	1	5	3	4
14	1	5632	0	1	2	1	0
14	1	18500	0	1	2	3	4
14	1	2.51085e+06	0	1	2	5	4
14	2	5632	0	1	2	1	0
14	2	16900	0	1	2	3	4
14	2	2.63373e+06	0	1	2	5	4
14	2	100	0	1	5	3	4
14	3	8192	0	1	2	1	0
14	3	16100	0	1	2	3	4
14	3	2.56819e+06	0	1	2	5	4
14	3	200	0	1	5	3	4
14	4	7488	0	1	2	1	0
14	4	13600	0	1	2	3	4
14	4	2.75661e+06	0	1	2	5	4
14	4	200	0	1	5	3	4
14	5	7808	0	1	2	1	0
14	5	16900	0	1	2	3	4
14	5	2.4535e+06	0	1	2	5	4
14	5	100	0	1	5	3	4
14	6	6848	0	1	2	1	0
14	6	16000	0	1	2	3	4
14	6	2.62554e+06	0	1	2	5	4
14	6	50	0	1	5	3	4
14	7	7360	0	1	2	1	0
14	7	16700	0	1	2	3	4
14	7	2.50266e+06	0	1	2	5	4
14	8	5760	0	1	2	1	0
14	8	14000	0	1	2	3	4
14	8	2.6665e+06	0	1	2	5	4
14	9	6912	0	1	2	1	0
14	9	15300	0	1	2	3	4
14	9	2.58458e+06	0	1	2	5	4
14	9	50	0	1	5	3	4
14	10	6272	0	1	2	1	0
14	10	14300	0	1	2	3	4
14	10	2.78118e+06	0	1	2	5	4
14	10	50	0	1	5	3	4
14	11	6592	0	1	2	1	0
14	11	15300	0	1	2	3	4
14	11	2.6624e+06	0	1	2	5	4
14	12	5760	0	1	2	1	0
14	12	17500	0	1	2	3	4
14	12	2.73203e+06	0	1	2	5	4
14	12	50	0	1	5	3	4
14	13	7168	0	1	2	1	0
14	13	16500	0	1	2	3	4
14	13	2.58458e+06	0	1	2	5	4
14	13	100	0	1	5	3	4
14	15	7104	0	1	2	1	0
14	15	16000	0	1	2	3	4
14	15	2.48627e+06	0	1	2	5	4
14	15	200	0	1	5	3	4
14	16	7744	0	1	2	1	0
14	16	17400	0	1	2	3	4
14	16	2.58867e+06	0	1	2	5	4
14	16	100	0	1	5	3	4
14	17	6144	0	1	2	1	0
14	17	15300	0	1	2	3	4
14	17	2.73203e+06	0	1	2	5	4
14	17	50	0	1	5	3	4
14	18	7872	0	1	2	1	0
14	18	17700	0	1	2	3	4
14	18	2.54771e+06	0	1	2	5	4
14	18	50	0	1	5	3	4
14	19	6784	0	1	2	1	0
14	19	17100	0	1	2	3	4
14	19	2.61734e+06	0	1	2	5	4
14	19	100	0	1	5	3	4
15	0	6080	0	1	2	1	0
15	0	17600	0	1	2	3	4
15	0	2.73613e+06	0	1	2	5	4
15	0	100	0	1	5	3	4
15	1	7424	0	1	2	1	0
15	1	17100	0	1	2	3	4
15	1	2.63373e+06	0	1	2	5	4
15	1	100	0	1	5	3	4
15	2	7040	0	1	2	1	0
15	2	16800	0	1	2	3	4
15	2	2.74432e+06	0	1	2	5	4
15	3	7104	0	1	2	1	0
15	3	15200	0	1	2	3	4
15	3	2.60915e+06	0	1	2	5	4
15	3	150	0	1	5	3	4
15	4	5824	0	1	2	1	0
15	4	18500	0	1	2	3	4
15	4	2.4576e+06	0	1	2	5	4
15	5	6400	0	1	2	1	0
15	5	15300	0	1	2	3	4
15	5	2.52314e+06	0	1	2	5	4
15	5	100	0	1	5	3	4
15	6	7168	0	1	2	1	0
15	6	14100	0	1	2	3	4
15	6	2.58048e+06	0	1	2	5	4
15	6	100	0	1	5	3	4
15	7	6656	0	1	2	1	0
15	7	16700	0	1	2	3	4
15	7	2.5641e+06	0	1	2	5	4
15	7	100	0	1	5	3	4
15	8	6784	0	1	2	1	0
15	8	14400	0	1	2	3	4
15	8	2.54771e+06	0	1	2	5	4
15	8	150	0	1	5	3	4
15	9	7744	0	1	2	1	0
15	9	15800	0	1	2	3	4
15	9	2.62144e+06	0	1	2	5	4
15	10	7232	0	1	2	1	0
15	10	15600	0	1	2	3	4
15	10	2.39616e+06	0	1	2	5	4
15	10	100	0	1	5	3	4
15	11	6656	0	1	2	1	0
15	11	18700	0	1	2	3	4
15	11	2.67878e+06	0	1	2	5	4
15	11	50	0	1	5	3	4
15	12	7040	0	1	2	1	0
15	12	16100	0	1	2	3	4
15	12	2.55181e+06	0	1	2	5	4
15	12	100	0	1	5	3	4
15	13	6464	0	1	2	1	0
15	13	16500	0	1	2	3	4
15	13	2.71565e+06	0	1	2	5	4
15	14	7744	0	1	2	1	0
15	14	16900	0	1	2	3	4
15	14	2.59277e+06	0	1	2	5	4
15	14	100	0	1	5	3	4
15	16	6848	0	1	2	1	0
15	16	15700	0	1	2	3	4
15	16	2.4535e+06	0	1	2	5	4
15	17	6400	0	1	2	1	0
15	17	15600	0	1	2	3	4
15	17	2.56e+06	0	1	2	5	4
15	17	50	0	1	5	3	4
15	18	6720	0	1	2	1	0
15	18	15600	0	1	2	3	4
15	18	2.57638e+06	0	1	2	5	4
15	18	100	0	1	5	3	4
15	19	6336	0	1	2	1	0
15	19	15300	0	1	2	3	4
15	19	2.59277e+06	0	1	2	5	4
15	19	50	0	1	5	3	4
16	0	6208	0	1	2	1	0
16	0	16300	0	1	2	3	4
16	0	2.75661e+06	0	1	2	5	4
16	0	50	0	1	5	3	4
16	1	6592	0	1	2	1	0
16	1	15500	0	1	2	3	4
16	1	2.70746e+06	0	1	2	5	4
16	1	150	0	1	5	3	4
16	2	6912	0	1	2	1	0
16	2	15300	0	1	2	3	4
16	2	2.47808e+06	0	1	2	5	4
16	2	150	0	1	5	3	4
16	3	7488	0	1	2	1	0
16	3	17000	0	1	2	3	4
16	3	2.62963e+06	0	1	2	5	4
16	3	150	0	1	5	3	4
16	4	6400	0	1	2	1	0
16	4	16800	0	1	2	3	4
16	4	2.47398e+06	0	1	2	5	4
16	4	50	0	1	5	3	4
16	5	6848	0	1	2	1	0
16	5	17100	0	1	2	3	4
16	5	2.70746e+06	0	1	2	5	4
16	6	6336	0	1	2	1	0
16	6	13900	0	1	2	3	4
16	6	2.57638e+06	0	1	2	5	4
16	6	50	0	1	5	3	4
16	7	6336	0	1	2	1	0
16	7	16300	0	1	2	3	4
16	7	2.74842e+06	0	1	2	5	4
16	7	100	0	1	5	3	4
16	8	6016	0	1	2	1	0
16	8	18600	0	1	2	3	4
16	8	2.58458e+06	0	1	2	5	4
16	8	100	0	1	5	3	4
16	9	6208	0	1	2	1	0
16	9	15200	0	1	2	3	4
16	9	2.62144e+06	0	1	2	5	4
16	9	100	0	1	5	3	4
16	10	7552	0	1	2	1	0
16	10	18100	0	1	2	3	4
16	10	2.44122e+06	0	1	2	5	4
16	10	100	0	1	5	3	4
16	11	8256	0	1	2	1	0
16	11	16500	0	1	2	3	4
16	11	2.49856e+06	0	1	2	5	4
16	11	100	0	1	5	3	4
16	12	7552	0	1	2	1	0
16	12	16200	0	1	2	3	4
16	12	2.39616e+06	0	1	2	5	4
16	12	100	0	1	5	3	4
16	13	7808	0	1	2	1	0
16	13	16200	0	1	2	3	4
16	13	2.7689e+06	0	1	2	5	4
16	13	100	0	1	5	3	4
16	14	6976	0	1	2	1	0
16	14	17100	0	1	2	3	4
16	14	2.50675e+06	0	1	2	5	4
16	14	50	0	1	5	3	4
16	15	7936	0	1	2	1	0
16	15	15300	0	1	2	3	4
16	15	2.44122e+06	0	1	2	5	4
16	15	50	0	1	5	3	4
16	17	7552	0	1	2	1	0
16	17	16700	0	1	2	3	4
16	17	2.54362e+06	0	1	2	5	4
16	17	50	0	1	5	3	4
16	18	7424	0	1	2	1	0
16	18	16700	0	1	2	3	4
16	18	2.67469e+06	0	1	2	5	4
16	18	100	0	1	5	3	4
16	19	6848	0	1	2	1	0
16	19	15900	0	1	2	3	4
16	19	2.55181e+06	0	1	2	5	4
16	19	100	0	1	5	3	4
17	0	6784	0	1	2	1	0
17	0	17000	0	1	2	3	4
17	0	2.60096e+06	0	1	2	5	4
17	1	7488	0	1	2	1	0
17	1	15700	0	1	2	3	4
17	1	2.67878e+06	0	1	2	5	4
17	1	50	0	1	5	3	4
17	2	8000	0	1	2	1	0
17	2	16600	0	1	2	3	4
17	2	2.64602e+06	0	1	2	5	4
17	3	7360	0	1	2	1	0
17	3	15700	0	1	2	3	4
17	3	2.61734e+06	0	1	2	5	4
17	3	100	0	1	5	3	4
17	4	7104	0	1	2	1	0
17	4	16500	0	1	2	3	4
17	4	2.69926e+06	0	1	2	5	4
17	4	150	0	1	5	3	4
17	5	6464	0	1	2	1	0
17	5	19700	0	1	2	3	4
17	5	2.72384e+06	0	1	2	5	4
17	5	100	0	1	5	3	4
17	6	7488	0	1	2	1	0
17	6	17500	0	1	2	3	4
17	6	2.67878e+06	0	1	2	5	4
17	6	100	0	1	5	3	4
17	7	6208	0	1	2	1	0
17	7	15400	0	1	2	3	4
17	7	2.71974e+06	0	1	2	5	4
17	7	50	0	1	5	3	4
17	8	7360	0	1	2	1	0
17	8	17500	0	1	2	3	4
17	8	2.51494e+06	0	1	2	5	4
17	8	100	0	1	5	3	4
17	9	7424	0	1	2	1	0
17	9	14500	0	1	2	3	4
17	9	2.60506e+06	0	1	2	5	4
17	10	7552	0	1	2	1	0
17	10	15500	0	1	2	3	4
17	10	2.6583e+06	0	1	2	5	4
17	10	150	0	1	5	3	4
17	11	7232	0	1	2	1	0
17	11	17300	0	1	2	3	4
17	11	2.74842e+06	0	1	2	5	4
17	11	250	0	1	5	3	4
17	12	6656	0	1	2	1	0
17	12	15200	0	1	2	3	4
17	12	2.71155e+06	0	1	2	5	4
17	12	100	0	1	5	3	4
17	13	6144	0	1	2	1	0
17	13	17100	0	1	2	3	4
17	13	2.42893e+06	0	1	2	5	4
17	14	6720	0	1	2	1	0
17	14	17200	0	1	2	3	4
17	14	2.60915e+06	0	1	2	5	4
17	14	200	0	1	5	3	4
17	15	7552	0	1	2	1	0
17	15	16400	0	1	2	3	4
17	15	2.60506e+06	0	1	2	5	4
17	15	50	0	1	5	3	4
17	16	8000	0	1	2	1	0
17	16	17500	0	1	2	3	4
17	16	2.85901e+06	0	1	2	5	4
17	16	50	0	1	5	3	4
17	18	7168	0	1	2	1	0
17	18	16100	0	1	2	3	4
17	18	2.59277e+06	0	1	2	5	4
17	18	100	0	1	5	3	4
17	19	8064	0	1	2	1	0
17	19	15400	0	1	2	3	4
17	19	2.61325e+06	0	1	2	5	4
17	19	50	0	1	5	3	4
18	0	6848	0	1	2	1	0
18	0	16800	0	1	2	3	4
18	0	2.56819e+06	0	1	2	5	4
18	0	100	0	1	5	3	4
18	1	7424	0	1	2	1	0
18	1	16500	0	1	2	3	4
18	1	2.60096e+06	0	1	2	5	4
18	1	100	0	1	5	3	4
18	2	6528	0	1	2	1	0
18	2	17700	0	1	2	3	4
18	2	2.61734e+06	0	1	2	5	4
18	2	50	0	1	5	3	4
18	3	6912	0	1	2	1	0
18	3	15700	0	1	2	3	4
18	3	2.56e+06	0	1	2	5	4
18	3	100	0	1	5	3	4
18	4	7552	0	1	2	1	0
18	4	20400	0	1	2	3	4
18	4	2.63373e+06	0	1	2	5	4
18	4	100	0	1	5	3	4
18	5	6720	0	1	2	1	0
18	5	16700	0	1	2	3	4
18	5	2.6665e+06	0	1	2	5	4
18	5	50	0	1	5	3	4
18	6	6912	0	1	2	1	0
18	6	15000	0	1	2	3	4
18	6	2.46989e+06	0	1	2	5	4
18	7	6720	0	1	2	1	0
18	7	15900	0	1	2	3	4
18	7	2.71565e+06	0	1	2	5	4
18	7	150	0	1	5	3	4
18	8	6912	0	1	2	1	0
18	8	16800	0	1	2	3	4
18	8	2.55181e+06	0	1	2	5	4
18	8	100	0	1	5	3	4
18	9	7040	0	1	2	1	0
18	9	15900	0	1	2	3	4
18	9	2.6583e+06	0	1	2	5	4
18	9	50	0	1	5	3	4
18	10	6528	0	1	2	1	0
18	10	14900	0	1	2	3	4
18	10	2.43302e+06	0	1	2	5	4
18	10	50	0	1	5	3	4
18	11	6656	0	1	2	1	0
18	11	17400	0	1	2	3	4
18	11	2.67059e+06	0	1	2	5	4
18	11	50	0	1	5	3	4
18	12	7232	0	1	2	1	0
18	12	15400	0	1	2	3	4
18	12	2.67878e+06	0	1	2	5	4
18	12	50	0	1	5	3	4
18	13	7104	0	1	2	1	0
18	13	18300	0	1	2	3	4
18	13	2.52314e+06	0	1	2	5	4
18	13	100	0	1	5	3	4
18	14	5952	0	1	2	1	0
18	14	16000	0	1	2	3	4
18	14	2.59277e+06	0	1	2	5	4
18	14	50	0	1	5	3	4
18	15	7488	0	1	2	1	0
18	15	18200	0	1	2	3	4
18	15	2.49856e+06	0	1	2	5	4
18	15	150	0	1	5	3	4
18	16	6464	0	1	2	1	0
18	16	14200	0	1	2	3	4
18	16	2.79757e+06	0	1	2	5	4
18	16	100	0	1	5	3	4
18	17	6528	0	1	2	1	0
18	17	17900	0	1	2	3	4
18	17	2.73613e+06	0	1	2	5	4
18	17	50	0	1	5	3	4
18	19	7040	0	1	2	1	0
18	19	15500	0	1	2	3	4
18	19	2.58458e+06	0	1	2	5	4
19	0	6592	0	1	2	1	0
19	0	15900	0	1	2	3	4
19	0	2.62963e+06	0	1	2	5	4
19	0	50	0	1	5	3	4
19	1	5696	0	1	2	1	0
19	1	17500	0	1	2	3	4
19	1	2.51085e+06	0	1	2	5	4
19	1	100	0	1	5	3	4
19	2	8128	0	1	2	1	0
19	2	16500	0	1	2	3	4
19	2	2.57638e+06	0	1	2	5	4
19	3	6336	0	1	2	1	0
19	3	16400	0	1	2	3	4
19	3	2.78528e+06	0	1	2	5	4
19	3	50	0	1	5	3	4
19	4	6784	0	1	2	1	0
19	4	17900	0	1	2	3	4
19	4	2.5641e+06	0	1	2	5	4
19	4	50	0	1	5	3	4
19	5	6144	0	1	2	1	0
19	5	19900	0	1	2	3	4
19	5	2.46989e+06	0	1	2	5	4
19	5	50	0	1	5	3	4
19	6	6912	0	1	2	1	0
19	6	18200	0	1	2	3	4
19	6	2.7689e+06	0	1	2	5	4
19	6	150	0	1	5	3	4
19	7	6976	0	1	2	1	0
19	7	14700	0	1	2	3	4
19	7	2.52723e+06	0	1	2	5	4
19	7	150	0	1	5	3	4
19	8	6976	0	1	2	1	0
19	8	18100	0	1	2	3	4
19	8	2.58867e+06	0	1	2	5	4
19	8	50	0	1	5	3	4
19	9	7552	0	1	2	1	0
19	9	16200	0	1	2	3	4
19	9	2.52723e+06	0	1	2	5	4
19	9	100	0	1	5	3	4
19	10	6848	0	1	2	1	0
19	10	15900	0	1	2	3	4
19	10	2.7689e+06	0	1	2	5	4
19	10	100	0	1	5	3	4
19	11	7808	0	1	2	1	0
19	11	18200	0	1	2	3	4
19	11	2.63373e+06	0	1	2	5	4
19	11	150	0	1	5	3	4
19	12	7104	0	1	2	1	0
19	12	16100	0	1	2	3	4
19	12	2.44941e+06	0	1	2	5	4
19	12	50	0	1	5	3	4
19	13	6208	0	1	2	1	0
19	13	18100	0	1	2	3	4
19	13	2.58048e+06	0	1	2	5	4
19	13	150	0	1	5	3	4
19	14	5952	0	1	2	1	0
19	14	16800	0	1	2	3	4
19	14	2.40845e+06	0	1	2	5	4
19	15	7104	0	1	2	1	0
19	15	16700	0	1	2	3	4
19	15	2.56819e+06	0	1	2	5	4
19	15	50	0	1	5	3	4
19	16	7168	0	1	2	1	0
19	16	17700	0	1	2	3	4
19	16	2.6665e+06	0	1	2	5	4
19	16	150	0	1	5	3	4
19	17	7808	0	1	2	1	0
19	17	17000	0	1	2	3	4
19	17	2.5559e+06	0	1	2	5	4
19	17	50	0	1	5	3	4
19	18	7936	0	1	2	1	0
19	18	16500	0	1	2	3	4
19	18	2.64602e+06	0	1	2	5	4
19	18	100	0	1	5	3	4
