16
0	1	1e+12
0	4	1e+12
1	0	1e+12
1	6	1e+12
1	7	1e+12
1	12	1e+12
1	14	1e+12
2	5	1e+12
2	14	1e+12
3	13	1e+12
3	14	1e+12
4	0	1e+12
4	7	1e+12
4	11	1e+12
4	13	1e+12
5	2	1e+12
5	6	1e+12
5	14	1e+12
5	15	1e+12
6	1	1e+12
6	5	1e+12
6	7	1e+12
6	8	1e+12
6	9	1e+12
6	10	1e+12
6	12	1e+12
7	1	1e+12
7	4	1e+12
7	6	1e+12
7	8	1e+12
7	11	1e+12
8	6	1e+12
8	7	1e+12
8	14	1e+12
9	6	1e+12
9	13	1e+12
10	6	1e+12
10	14	1e+12
10	15	1e+12
11	4	1e+12
11	7	1e+12
11	13	1e+12
12	1	1e+12
12	6	1e+12
13	3	1e+12
13	4	1e+12
13	9	1e+12
13	11	1e+12
14	1	1e+12
14	2	1e+12
14	3	1e+12
14	5	1e+12
14	8	1e+12
14	10	1e+12
15	5	1e+12
15	10	1e+12
