100000	100000	100000	10000	1000	1000
0	1	3456	0	1	2	1	0
0	1	8100	0	1	2	3	4
0	1	1.10592e+06	0	1	2	5	4
0	1	50	0	1	5	3	4
0	2	2176	0	1	2	1	0
0	2	5800	0	1	2	3	4
0	2	1.1223e+06	0	1	2	5	4
0	2	50	0	1	5	3	4
0	3	2816	0	1	2	1	0
0	3	6500	0	1	2	3	4
0	3	1.24518e+06	0	1	2	5	4
0	4	3200	0	1	2	1	0
0	4	7000	0	1	2	3	4
0	4	1.20832e+06	0	1	2	5	4
0	4	50	0	1	5	3	4
0	5	3136	0	1	2	1	0
0	5	6800	0	1	2	3	4
0	5	999424	0	1	2	5	4
0	6	3136	0	1	2	1	0
0	6	6800	0	1	2	3	4
0	6	1.1305e+06	0	1	2	5	4
0	7	2368	0	1	2	1	0
0	7	6400	0	1	2	3	4
0	7	1.01171e+06	0	1	2	5	4
0	7	50	0	1	5	3	4
0	8	2816	0	1	2	1	0
0	8	6500	0	1	2	3	4
0	8	1.13869e+06	0	1	2	5	4
0	9	2560	0	1	2	1	0
0	9	6800	0	1	2	3	4
0	9	1.10182e+06	0	1	2	5	4
1	0	2944	0	1	2	1	0
1	0	7000	0	1	2	3	4
1	0	1.07725e+06	0	1	2	5	4
1	0	50	0	1	5	3	4
1	2	2880	0	1	2	1	0
1	2	6400	0	1	2	3	4
1	2	1.11002e+06	0	1	2	5	4
1	3	3200	0	1	2	1	0
1	3	5600	0	1	2	3	4
1	3	1.09363e+06	0	1	2	5	4
1	4	3584	0	1	2	1	0
1	4	6900	0	1	2	3	4
1	4	1.06086e+06	0	1	2	5	4
1	4	100	0	1	5	3	4
1	5	3584	0	1	2	1	0
1	5	6900	0	1	2	3	4
1	5	1.04858e+06	0	1	2	5	4
1	5	50	0	1	5	3	4
1	6	2432	0	1	2	1	0
1	6	6100	0	1	2	3	4
1	6	1.16326e+06	0	1	2	5	4
1	7	2688	0	1	2	1	0
1	7	6400	0	1	2	3	4
1	7	1.16326e+06	0	1	2	5	4
1	8	3008	0	1	2	1	0
1	8	7500	0	1	2	3	4
1	8	1.06906e+06	0	1	2	5	4
1	9	2752	0	1	2	1	0
1	9	6500	0	1	2	3	4
1	9	1.04448e+06	0	1	2	5	4
2	0	2176	0	1	2	1	0
2	0	8300	0	1	2	3	4
2	0	1.17555e+06	0	1	2	5	4
2	0	50	0	1	5	3	4
2	1	3008	0	1	2	1	0
2	1	7300	0	1	2	3	4
2	1	1.024e+06	0	1	2	5	4
2	3	3072	0	1	2	1	0
2	3	6900	0	1	2	3	4
2	3	1.06086e+06	0	1	2	5	4
2	4	3136	0	1	2	1	0
2	4	5500	0	1	2	3	4
2	4	1.11002e+06	0	1	2	5	4
2	5	2880	0	1	2	1	0
2	5	8600	0	1	2	3	4
2	5	1.13459e+06	0	1	2	5	4
2	5	100	0	1	5	3	4
2	6	2368	0	1	2	1	0
2	6	8300	0	1	2	3	4
2	6	1.08134e+06	0	1	2	5	4
2	7	3392	0	1	2	1	0
2	7	6400	0	1	2	3	4
2	7	1.17146e+06	0	1	2	5	4
2	7	100	0	1	5	3	4
2	8	2688	0	1	2	1	0
2	8	6500	0	1	2	3	4
2	8	1.17555e+06	0	1	2	5	4
2	8	50	0	1	5	3	4
2	9	3072	0	1	2	1	0
2	9	8300	0	1	2	3	4
2	9	1.17146e+06	0	1	2	5	4
2	9	50	0	1	5	3	4
3	0	2048	0	1	2	1	0
3	0	6100	0	1	2	3	4
3	0	1.21651e+06	0	1	2	5	4
3	0	50	0	1	5	3	4
3	1	2560	0	1	2	1	0
3	1	7100	0	1	2	3	4
3	1	1.20013e+06	0	1	2	5	4
3	2	3008	0	1	2	1	0
3	2	6700	0	1	2	3	4
3	2	1.18784e+06	0	1	2	5	4
3	2	50	0	1	5	3	4
3	4	2624	0	1	2	1	0
3	4	6900	0	1	2	3	4
3	4	1.06086e+06	0	1	2	5	4
3	5	3008	0	1	2	1	0
3	5	6100	0	1	2	3	4
3	5	1.13459e+06	0	1	2	5	4
3	5	100	0	1	5	3	4
3	6	2816	0	1	2	1	0
3	6	9000	0	1	2	3	4
3	6	1.09363e+06	0	1	2	5	4
3	6	50	0	1	5	3	4
3	7	3648	0	1	2	1	0
3	7	7400	0	1	2	3	4
3	7	1.08544e+06	0	1	2	5	4
3	8	2816	0	1	2	1	0
3	8	7400	0	1	2	3	4
3	8	1.10592e+06	0	1	2	5	4
3	9	3584	0	1	2	1	0
3	9	6800	0	1	2	3	4
3	9	1.11411e+06	0	1	2	5	4
4	0	2880	0	1	2	1	0
4	0	8000	0	1	2	3	4
4	0	1.15917e+06	0	1	2	5	4
4	0	50	0	1	5	3	4
4	1	2816	0	1	2	1	0
4	1	7800	0	1	2	3	4
4	1	1.10592e+06	0	1	2	5	4
4	2	3200	0	1	2	1	0
4	2	6600	0	1	2	3	4
4	2	1.17555e+06	0	1	2	5	4
4	3	2944	0	1	2	1	0
4	3	6200	0	1	2	3	4
4	3	1.01581e+06	0	1	2	5	4
4	5	3328	0	1	2	1	0
4	5	8700	0	1	2	3	4
4	5	1.06496e+06	0	1	2	5	4
4	6	2880	0	1	2	1	0
4	6	6500	0	1	2	3	4
4	6	1.06086e+06	0	1	2	5	4
4	6	100	0	1	5	3	4
4	7	3200	0	1	2	1	0
4	7	7400	0	1	2	3	4
4	7	1.07315e+06	0	1	2	5	4
4	8	3328	0	1	2	1	0
4	8	6900	0	1	2	3	4
4	8	1.08954e+06	0	1	2	5	4
4	8	50	0	1	5	3	4
4	9	3264	0	1	2	1	0
4	9	6100	0	1	2	3	4
4	9	1.06496e+06	0	1	2	5	4
5	0	2752	0	1	2	1	0
5	0	7700	0	1	2	3	4
5	0	1.06906e+06	0	1	2	5	4
5	1	3712	0	1	2	1	0
5	1	6300	0	1	2	3	4
5	1	1.03219e+06	0	1	2	5	4
5	2	3456	0	1	2	1	0
5	2	6900	0	1	2	3	4
5	2	1.10592e+06	0	1	2	5	4
5	3	3008	0	1	2	1	0
5	3	6100	0	1	2	3	4
5	3	1.1305e+06	0	1	2	5	4
5	3	50	0	1	5	3	4
5	4	2112	0	1	2	1	0
5	4	7600	0	1	2	3	4
5	4	1.15917e+06	0	1	2	5	4
5	4	50	0	1	5	3	4
5	6	3200	0	1	2	1	0
5	6	6100	0	1	2	3	4
5	6	1.05677e+06	0	1	2	5	4
5	6	50	0	1	5	3	4
5	7	3776	0	1	2	1	0
5	7	6500	0	1	2	3	4
5	7	962560	0	1	2	5	4
5	7	50	0	1	5	3	4
5	8	3392	0	1	2	1	0
5	8	5900	0	1	2	3	4
5	8	1.15917e+06	0	1	2	5	4
5	9	3072	0	1	2	1	0
5	9	6600	0	1	2	3	4
5	9	1.15507e+06	0	1	2	5	4
5	9	50	0	1	5	3	4
6	0	2688	0	1	2	1	0
6	0	6000	0	1	2	3	4
6	0	1.04038e+06	0	1	2	5	4
6	1	2752	0	1	2	1	0
6	1	6400	0	1	2	3	4
6	1	995328	0	1	2	5	4
6	1	100	0	1	5	3	4
6	2	3456	0	1	2	1	0
6	2	6800	0	1	2	3	4
6	2	1.08544e+06	0	1	2	5	4
6	3	3392	0	1	2	1	0
6	3	6200	0	1	2	3	4
6	3	1.03629e+06	0	1	2	5	4
6	4	2944	0	1	2	1	0
6	4	6600	0	1	2	3	4
6	4	1.06496e+06	0	1	2	5	4
6	5	3008	0	1	2	1	0
6	5	7100	0	1	2	3	4
6	5	1.13869e+06	0	1	2	5	4
6	5	50	0	1	5	3	4
6	7	2688	0	1	2	1	0
6	7	6900	0	1	2	3	4
6	7	1.15507e+06	0	1	2	5	4
6	8	2304	0	1	2	1	0
6	8	6900	0	1	2	3	4
6	8	1.03629e+06	0	1	2	5	4
6	9	2432	0	1	2	1	0
6	9	7900	0	1	2	3	4
6	9	1.11411e+06	0	1	2	5	4
6	9	50	0	1	5	3	4
7	0	3456	0	1	2	1	0
7	0	6700	0	1	2	3	4
7	0	1.17965e+06	0	1	2	5	4
7	1	3072	0	1	2	1	0
7	1	7200	0	1	2	3	4
7	1	1.20013e+06	0	1	2	5	4
7	2	2752	0	1	2	1	0
7	2	8000	0	1	2	3	4
7	2	1.06496e+06	0	1	2	5	4
7	2	50	0	1	5	3	4
7	3	2688	0	1	2	1	0
7	3	6500	0	1	2	3	4
7	3	1.04858e+06	0	1	2	5	4
7	3	50	0	1	5	3	4
7	4	3200	0	1	2	1	0
7	4	5900	0	1	2	3	4
7	4	1.01581e+06	0	1	2	5	4
7	4	50	0	1	5	3	4
7	5	2496	0	1	2	1	0
7	5	6600	0	1	2	3	4
7	5	1.17555e+06	0	1	2	5	4
7	5	50	0	1	5	3	4
7	6	2752	0	1	2	1	0
7	6	6100	0	1	2	3	4
7	6	1.06086e+06	0	1	2	5	4
7	6	100	0	1	5	3	4
7	8	2560	0	1	2	1	0
7	8	7100	0	1	2	3	4
7	8	1.03219e+06	0	1	2	5	4
7	9	3968	0	1	2	1	0
7	9	7200	0	1	2	3	4
7	9	1.06086e+06	0	1	2	5	4
8	0	3264	0	1	2	1	0
8	0	7400	0	1	2	3	4
8	0	999424	0	1	2	5	4
8	1	2752	0	1	2	1	0
8	1	7100	0	1	2	3	4
8	1	1.04448e+06	0	1	2	5	4
8	1	150	0	1	5	3	4
8	2	2368	0	1	2	1	0
8	2	6300	0	1	2	3	4
8	2	905216	0	1	2	5	4
8	3	2752	0	1	2	1	0
8	3	7100	0	1	2	3	4
8	3	1.15098e+06	0	1	2	5	4
8	4	2752	0	1	2	1	0
8	4	7200	0	1	2	3	4
8	4	983040	0	1	2	5	4
8	5	2304	0	1	2	1	0
8	5	7600	0	1	2	3	4
8	5	1.1264e+06	0	1	2	5	4
8	5	50	0	1	5	3	4
8	6	2176	0	1	2	1	0
8	6	7400	0	1	2	3	4
8	6	1.16326e+06	0	1	2	5	4
8	6	50	0	1	5	3	4
8	7	3072	0	1	2	1	0
8	7	8500	0	1	2	3	4
8	7	1.10182e+06	0	1	2	5	4
8	7	150	0	1	5	3	4
8	9	2816	0	1	2	1	0
8	9	8000	0	1	2	3	4
8	9	1.13459e+06	0	1	2	5	4
9	0	3584	0	1	2	1	0
9	0	4600	0	1	2	3	4
9	0	1.13869e+06	0	1	2	5	4
9	1	3136	0	1	2	1	0
9	1	6800	0	1	2	3	4
9	1	1.07725e+06	0	1	2	5	4
9	1	100	0	1	5	3	4
9	2	3328	0	1	2	1	0
9	2	7000	0	1	2	3	4
9	2	1.15507e+06	0	1	2	5	4
9	3	3136	0	1	2	1	0
9	3	5100	0	1	2	3	4
9	3	1.06086e+06	0	1	2	5	4
9	4	2944	0	1	2	1	0
9	4	6500	0	1	2	3	4
9	4	1.19194e+06	0	1	2	5	4
9	5	3264	0	1	2	1	0
9	5	6700	0	1	2	3	4
9	5	1.18374e+06	0	1	2	5	4
9	6	2304	0	1	2	1	0
9	6	8300	0	1	2	3	4
9	6	1.10182e+06	0	1	2	5	4
9	6	50	0	1	5	3	4
9	7	3136	0	1	2	1	0
9	7	6900	0	1	2	3	4
9	7	1.07725e+06	0	1	2	5	4
9	8	3008	0	1	2	1	0
9	8	6400	0	1	2	3	4
9	8	1.17555e+06	0	1	2	5	4
