14
0	2	1e+12
0	7	1e+12
0	8	1e+12
0	13	1e+12
1	5	1e+12
1	6	1e+12
1	13	1e+12
2	0	1e+12
2	4	1e+12
2	9	1e+12
3	7	1e+12
3	13	1e+12
4	2	1e+12
4	12	1e+12
5	1	1e+12
5	9	1e+12
6	1	1e+12
7	0	1e+12
7	3	1e+12
7	11	1e+12
8	0	1e+12
9	2	1e+12
9	5	1e+12
9	10	1e+12
10	9	1e+12
10	12	1e+12
10	13	1e+12
11	7	1e+12
12	4	1e+12
12	10	1e+12
13	0	1e+12
13	1	1e+12
13	3	1e+12
13	10	1e+12
