10
0	6	1e+12
0	8	1e+12
1	9	1e+12
2	5	1e+12
2	6	1e+12
3	4	1e+12
4	3	1e+12
4	8	1e+12
4	9	1e+12
5	2	1e+12
5	6	1e+12
5	8	1e+12
5	9	1e+12
6	0	1e+12
6	2	1e+12
6	5	1e+12
6	7	1e+12
7	6	1e+12
7	9	1e+12
8	0	1e+12
8	4	1e+12
8	5	1e+12
8	9	1e+12
9	1	1e+12
9	4	1e+12
9	5	1e+12
9	7	1e+12
9	8	1e+12
