100000	100000	100000	10000	1000	1000
0	1	20288	0	1	2	1	0
0	1	46600	0	1	2	3	4
0	1	7.70048e+06	0	1	2	5	4
0	1	150	0	1	5	3	4
0	2	20480	0	1	2	1	0
0	2	43500	0	1	2	3	4
0	2	7.55712e+06	0	1	2	5	4
0	2	250	0	1	5	3	4
0	3	22400	0	1	2	1	0
0	3	47100	0	1	2	3	4
0	3	7.5776e+06	0	1	2	5	4
0	3	350	0	1	5	3	4
0	4	19776	0	1	2	1	0
0	4	44200	0	1	2	3	4
0	4	7.52845e+06	0	1	2	5	4
0	4	300	0	1	5	3	4
0	5	18304	0	1	2	1	0
0	5	49400	0	1	2	3	4
0	5	7.67181e+06	0	1	2	5	4
0	5	150	0	1	5	3	4
0	6	18688	0	1	2	1	0
0	6	49500	0	1	2	3	4
0	6	7.46701e+06	0	1	2	5	4
0	6	300	0	1	5	3	4
0	7	16896	0	1	2	1	0
0	7	51000	0	1	2	3	4
0	7	7.38918e+06	0	1	2	5	4
0	7	400	0	1	5	3	4
0	8	19392	0	1	2	1	0
0	8	47600	0	1	2	3	4
0	8	7.45472e+06	0	1	2	5	4
0	8	100	0	1	5	3	4
0	9	21312	0	1	2	1	0
0	9	47400	0	1	2	3	4
0	9	7.69638e+06	0	1	2	5	4
0	9	150	0	1	5	3	4
0	10	19776	0	1	2	1	0
0	10	45100	0	1	2	3	4
0	10	7.59808e+06	0	1	2	5	4
0	10	50	0	1	5	3	4
0	11	19456	0	1	2	1	0
0	11	47700	0	1	2	3	4
0	11	7.73734e+06	0	1	2	5	4
0	11	100	0	1	5	3	4
1	0	19648	0	1	2	1	0
1	0	47500	0	1	2	3	4
1	0	7.29498e+06	0	1	2	5	4
1	0	250	0	1	5	3	4
1	2	20352	0	1	2	1	0
1	2	44500	0	1	2	3	4
1	2	7.64723e+06	0	1	2	5	4
1	2	200	0	1	5	3	4
1	3	20672	0	1	2	1	0
1	3	45100	0	1	2	3	4
1	3	7.61037e+06	0	1	2	5	4
1	3	150	0	1	5	3	4
1	4	19008	0	1	2	1	0
1	4	51900	0	1	2	3	4
1	4	7.40147e+06	0	1	2	5	4
1	4	100	0	1	5	3	4
1	5	18624	0	1	2	1	0
1	5	47700	0	1	2	3	4
1	5	7.51206e+06	0	1	2	5	4
1	5	100	0	1	5	3	4
1	6	21888	0	1	2	1	0
1	6	44900	0	1	2	3	4
1	6	7.38509e+06	0	1	2	5	4
1	6	150	0	1	5	3	4
1	7	17792	0	1	2	1	0
1	7	47900	0	1	2	3	4
1	7	7.65133e+06	0	1	2	5	4
1	7	250	0	1	5	3	4
1	8	18176	0	1	2	1	0
1	8	49300	0	1	2	3	4
1	8	7.17619e+06	0	1	2	5	4
1	8	100	0	1	5	3	4
1	9	19328	0	1	2	1	0
1	9	48200	0	1	2	3	4
1	9	7.43014e+06	0	1	2	5	4
1	9	150	0	1	5	3	4
1	10	20480	0	1	2	1	0
1	10	50000	0	1	2	3	4
1	10	7.63085e+06	0	1	2	5	4
1	10	350	0	1	5	3	4
1	11	19200	0	1	2	1	0
1	11	47700	0	1	2	3	4
1	11	7.82746e+06	0	1	2	5	4
1	11	150	0	1	5	3	4
2	0	20480	0	1	2	1	0
2	0	47700	0	1	2	3	4
2	0	7.32365e+06	0	1	2	5	4
2	0	50	0	1	5	3	4
2	1	21120	0	1	2	1	0
2	1	47800	0	1	2	3	4
2	1	7.52026e+06	0	1	2	5	4
2	1	350	0	1	5	3	4
2	3	18432	0	1	2	1	0
2	3	45600	0	1	2	3	4
2	3	7.64723e+06	0	1	2	5	4
2	3	300	0	1	5	3	4
2	4	20928	0	1	2	1	0
2	4	47200	0	1	2	3	4
2	4	7.36051e+06	0	1	2	5	4
2	4	200	0	1	5	3	4
2	5	19968	0	1	2	1	0
2	5	49800	0	1	2	3	4
2	5	7.54483e+06	0	1	2	5	4
2	5	100	0	1	5	3	4
2	6	21760	0	1	2	1	0
2	6	49700	0	1	2	3	4
2	6	7.7824e+06	0	1	2	5	4
2	6	300	0	1	5	3	4
2	7	20800	0	1	2	1	0
2	7	46600	0	1	2	3	4
2	7	7.5735e+06	0	1	2	5	4
2	7	250	0	1	5	3	4
2	8	17536	0	1	2	1	0
2	8	49900	0	1	2	3	4
2	8	7.60627e+06	0	1	2	5	4
2	8	250	0	1	5	3	4
2	9	21632	0	1	2	1	0
2	9	52600	0	1	2	3	4
2	9	7.3769e+06	0	1	2	5	4
2	9	100	0	1	5	3	4
2	10	20416	0	1	2	1	0
2	10	43200	0	1	2	3	4
2	10	7.49978e+06	0	1	2	5	4
2	10	250	0	1	5	3	4
2	11	19008	0	1	2	1	0
2	11	49500	0	1	2	3	4
2	11	7.56531e+06	0	1	2	5	4
2	11	200	0	1	5	3	4
3	0	20032	0	1	2	1	0
3	0	47800	0	1	2	3	4
3	0	7.77011e+06	0	1	2	5	4
3	0	250	0	1	5	3	4
3	1	18624	0	1	2	1	0
3	1	48400	0	1	2	3	4
3	1	7.1721e+06	0	1	2	5	4
3	1	250	0	1	5	3	4
3	2	18944	0	1	2	1	0
3	2	48100	0	1	2	3	4
3	2	7.55712e+06	0	1	2	5	4
3	2	150	0	1	5	3	4
3	4	19200	0	1	2	1	0
3	4	47700	0	1	2	3	4
3	4	7.86842e+06	0	1	2	5	4
3	4	250	0	1	5	3	4
3	5	19904	0	1	2	1	0
3	5	48300	0	1	2	3	4
3	5	7.38099e+06	0	1	2	5	4
3	5	300	0	1	5	3	4
3	6	20224	0	1	2	1	0
3	6	49700	0	1	2	3	4
3	6	7.24173e+06	0	1	2	5	4
3	6	50	0	1	5	3	4
3	7	20160	0	1	2	1	0
3	7	45500	0	1	2	3	4
3	7	7.28678e+06	0	1	2	5	4
3	7	250	0	1	5	3	4
3	8	20224	0	1	2	1	0
3	8	44100	0	1	2	3	4
3	8	7.45882e+06	0	1	2	5	4
3	8	200	0	1	5	3	4
3	9	18688	0	1	2	1	0
3	9	48600	0	1	2	3	4
3	9	7.27859e+06	0	1	2	5	4
3	9	550	0	1	5	3	4
3	10	19136	0	1	2	1	0
3	10	45900	0	1	2	3	4
3	10	7.40147e+06	0	1	2	5	4
3	10	250	0	1	5	3	4
3	11	19264	0	1	2	1	0
3	11	45700	0	1	2	3	4
3	11	7.71686e+06	0	1	2	5	4
3	11	250	0	1	5	3	4
4	0	20608	0	1	2	1	0
4	0	44000	0	1	2	3	4
4	0	7.45062e+06	0	1	2	5	4
4	0	150	0	1	5	3	4
4	1	19200	0	1	2	1	0
4	1	50300	0	1	2	3	4
4	1	7.25402e+06	0	1	2	5	4
4	1	350	0	1	5	3	4
4	2	19200	0	1	2	1	0
4	2	44400	0	1	2	3	4
4	2	7.32774e+06	0	1	2	5	4
4	2	200	0	1	5	3	4
4	3	20160	0	1	2	1	0
4	3	47900	0	1	2	3	4
4	3	7.66362e+06	0	1	2	5	4
4	3	150	0	1	5	3	4
4	5	20992	0	1	2	1	0
4	5	48900	0	1	2	3	4
4	5	7.32774e+06	0	1	2	5	4
4	5	100	0	1	5	3	4
4	6	21760	0	1	2	1	0
4	6	48900	0	1	2	3	4
4	6	7.54074e+06	0	1	2	5	4
4	6	150	0	1	5	3	4
4	7	21952	0	1	2	1	0
4	7	48800	0	1	2	3	4
4	7	7.52435e+06	0	1	2	5	4
4	7	50	0	1	5	3	4
4	8	19776	0	1	2	1	0
4	8	44600	0	1	2	3	4
4	8	7.60627e+06	0	1	2	5	4
4	8	100	0	1	5	3	4
4	9	20416	0	1	2	1	0
4	9	45100	0	1	2	3	4
4	9	7.22125e+06	0	1	2	5	4
4	9	300	0	1	5	3	4
4	10	20096	0	1	2	1	0
4	10	50900	0	1	2	3	4
4	10	7.33594e+06	0	1	2	5	4
4	10	250	0	1	5	3	4
4	11	19008	0	1	2	1	0
4	11	48000	0	1	2	3	4
4	11	7.79469e+06	0	1	2	5	4
4	11	100	0	1	5	3	4
5	0	19264	0	1	2	1	0
5	0	44800	0	1	2	3	4
5	0	7.70458e+06	0	1	2	5	4
5	0	150	0	1	5	3	4
5	1	20288	0	1	2	1	0
5	1	48900	0	1	2	3	4
5	1	7.59808e+06	0	1	2	5	4
5	1	300	0	1	5	3	4
5	2	20288	0	1	2	1	0
5	2	48200	0	1	2	3	4
5	2	7.43834e+06	0	1	2	5	4
5	2	250	0	1	5	3	4
5	3	19840	0	1	2	1	0
5	3	45600	0	1	2	3	4
5	3	7.67181e+06	0	1	2	5	4
5	3	100	0	1	5	3	4
5	4	19008	0	1	2	1	0
5	4	47600	0	1	2	3	4
5	4	7.70048e+06	0	1	2	5	4
5	4	350	0	1	5	3	4
5	6	19008	0	1	2	1	0
5	6	42600	0	1	2	3	4
5	6	7.5817e+06	0	1	2	5	4
5	6	150	0	1	5	3	4
5	7	19136	0	1	2	1	0
5	7	48500	0	1	2	3	4
5	7	7.3728e+06	0	1	2	5	4
5	7	250	0	1	5	3	4
5	8	20544	0	1	2	1	0
5	8	49400	0	1	2	3	4
5	8	7.4711e+06	0	1	2	5	4
5	8	200	0	1	5	3	4
5	9	19456	0	1	2	1	0
5	9	45400	0	1	2	3	4
5	9	7.51616e+06	0	1	2	5	4
5	9	200	0	1	5	3	4
5	10	19520	0	1	2	1	0
5	10	49700	0	1	2	3	4
5	10	7.25402e+06	0	1	2	5	4
5	10	100	0	1	5	3	4
5	11	18752	0	1	2	1	0
5	11	51500	0	1	2	3	4
5	11	7.29907e+06	0	1	2	5	4
5	11	200	0	1	5	3	4
6	0	19328	0	1	2	1	0
6	0	45500	0	1	2	3	4
6	0	7.72915e+06	0	1	2	5	4
6	0	50	0	1	5	3	4
6	1	18688	0	1	2	1	0
6	1	46500	0	1	2	3	4
6	1	7.64723e+06	0	1	2	5	4
6	1	350	0	1	5	3	4
6	2	20608	0	1	2	1	0
6	2	49100	0	1	2	3	4
6	2	7.4752e+06	0	1	2	5	4
6	2	350	0	1	5	3	4
6	3	20096	0	1	2	1	0
6	3	51900	0	1	2	3	4
6	3	7.74554e+06	0	1	2	5	4
6	3	250	0	1	5	3	4
6	4	20544	0	1	2	1	0
6	4	52500	0	1	2	3	4
6	4	7.59808e+06	0	1	2	5	4
6	4	150	0	1	5	3	4
6	5	20480	0	1	2	1	0
6	5	47200	0	1	2	3	4
6	5	7.71686e+06	0	1	2	5	4
6	5	150	0	1	5	3	4
6	7	20480	0	1	2	1	0
6	7	48900	0	1	2	3	4
6	7	7.56531e+06	0	1	2	5	4
6	7	250	0	1	5	3	4
6	8	19072	0	1	2	1	0
6	8	46400	0	1	2	3	4
6	8	7.30726e+06	0	1	2	5	4
6	8	250	0	1	5	3	4
6	9	20160	0	1	2	1	0
6	9	47100	0	1	2	3	4
6	9	7.18848e+06	0	1	2	5	4
6	9	50	0	1	5	3	4
6	10	17280	0	1	2	1	0
6	10	46800	0	1	2	3	4
6	10	7.24173e+06	0	1	2	5	4
6	10	100	0	1	5	3	4
6	11	20416	0	1	2	1	0
6	11	45100	0	1	2	3	4
6	11	7.96262e+06	0	1	2	5	4
6	11	200	0	1	5	3	4
7	0	21632	0	1	2	1	0
7	0	48900	0	1	2	3	4
7	0	7.45882e+06	0	1	2	5	4
7	0	250	0	1	5	3	4
7	1	21056	0	1	2	1	0
7	1	47400	0	1	2	3	4
7	1	7.60218e+06	0	1	2	5	4
7	1	100	0	1	5	3	4
7	2	21248	0	1	2	1	0
7	2	51100	0	1	2	3	4
7	2	7.24173e+06	0	1	2	5	4
7	2	150	0	1	5	3	4
7	3	19456	0	1	2	1	0
7	3	48000	0	1	2	3	4
7	3	7.25811e+06	0	1	2	5	4
7	3	250	0	1	5	3	4
7	4	19328	0	1	2	1	0
7	4	46500	0	1	2	3	4
7	4	7.28678e+06	0	1	2	5	4
7	4	250	0	1	5	3	4
7	5	21568	0	1	2	1	0
7	5	49400	0	1	2	3	4
7	5	7.26221e+06	0	1	2	5	4
7	5	150	0	1	5	3	4
7	6	18688	0	1	2	1	0
7	6	45000	0	1	2	3	4
7	6	7.35232e+06	0	1	2	5	4
7	6	400	0	1	5	3	4
7	8	17408	0	1	2	1	0
7	8	44600	0	1	2	3	4
7	8	7.31546e+06	0	1	2	5	4
7	8	150	0	1	5	3	4
7	9	19776	0	1	2	1	0
7	9	46000	0	1	2	3	4
7	9	7.53254e+06	0	1	2	5	4
7	9	100	0	1	5	3	4
7	10	21440	0	1	2	1	0
7	10	47800	0	1	2	3	4
7	10	7.44653e+06	0	1	2	5	4
7	10	150	0	1	5	3	4
7	11	21120	0	1	2	1	0
7	11	47600	0	1	2	3	4
7	11	7.76602e+06	0	1	2	5	4
7	11	100	0	1	5	3	4
8	0	18304	0	1	2	1	0
8	0	47400	0	1	2	3	4
8	0	7.13114e+06	0	1	2	5	4
8	0	350	0	1	5	3	4
8	1	19648	0	1	2	1	0
8	1	47400	0	1	2	3	4
8	1	7.11066e+06	0	1	2	5	4
8	1	300	0	1	5	3	4
8	2	18880	0	1	2	1	0
8	2	45300	0	1	2	3	4
8	2	7.6759e+06	0	1	2	5	4
8	2	100	0	1	5	3	4
8	3	19776	0	1	2	1	0
8	3	45800	0	1	2	3	4
8	3	7.59808e+06	0	1	2	5	4
8	3	450	0	1	5	3	4
8	4	19008	0	1	2	1	0
8	4	47800	0	1	2	3	4
8	4	7.53664e+06	0	1	2	5	4
8	4	150	0	1	5	3	4
8	5	17536	0	1	2	1	0
8	5	49700	0	1	2	3	4
8	5	7.45882e+06	0	1	2	5	4
8	5	250	0	1	5	3	4
8	6	18112	0	1	2	1	0
8	6	51900	0	1	2	3	4
8	6	7.41786e+06	0	1	2	5	4
8	6	150	0	1	5	3	4
8	7	21952	0	1	2	1	0
8	7	45400	0	1	2	3	4
8	7	7.3769e+06	0	1	2	5	4
8	7	350	0	1	5	3	4
8	9	22528	0	1	2	1	0
8	9	44900	0	1	2	3	4
8	9	7.68e+06	0	1	2	5	4
8	9	300	0	1	5	3	4
8	10	20352	0	1	2	1	0
8	10	46700	0	1	2	3	4
8	10	7.36461e+06	0	1	2	5	4
8	10	250	0	1	5	3	4
8	11	23616	0	1	2	1	0
8	11	45600	0	1	2	3	4
8	11	7.75782e+06	0	1	2	5	4
8	11	300	0	1	5	3	4
9	0	21504	0	1	2	1	0
9	0	45600	0	1	2	3	4
9	0	7.3728e+06	0	1	2	5	4
9	0	100	0	1	5	3	4
9	1	19392	0	1	2	1	0
9	1	45800	0	1	2	3	4
9	1	7.5817e+06	0	1	2	5	4
9	1	250	0	1	5	3	4
9	2	19136	0	1	2	1	0
9	2	46800	0	1	2	3	4
9	2	7.49978e+06	0	1	2	5	4
9	2	100	0	1	5	3	4
9	3	19200	0	1	2	1	0
9	3	47100	0	1	2	3	4
9	3	7.40147e+06	0	1	2	5	4
9	3	400	0	1	5	3	4
9	4	19904	0	1	2	1	0
9	4	43900	0	1	2	3	4
9	4	7.44243e+06	0	1	2	5	4
9	4	150	0	1	5	3	4
9	5	19328	0	1	2	1	0
9	5	52600	0	1	2	3	4
9	5	7.62675e+06	0	1	2	5	4
9	5	250	0	1	5	3	4
9	6	21696	0	1	2	1	0
9	6	47600	0	1	2	3	4
9	6	7.54483e+06	0	1	2	5	4
9	6	150	0	1	5	3	4
9	7	21248	0	1	2	1	0
9	7	46000	0	1	2	3	4
9	7	7.51616e+06	0	1	2	5	4
9	7	50	0	1	5	3	4
9	8	18176	0	1	2	1	0
9	8	51300	0	1	2	3	4
9	8	7.31136e+06	0	1	2	5	4
9	8	100	0	1	5	3	4
9	10	19840	0	1	2	1	0
9	10	50000	0	1	2	3	4
9	10	7.31546e+06	0	1	2	5	4
9	10	350	0	1	5	3	4
9	11	19712	0	1	2	1	0
9	11	50000	0	1	2	3	4
9	11	7.38918e+06	0	1	2	5	4
10	0	20032	0	1	2	1	0
10	0	50100	0	1	2	3	4
10	0	7.59398e+06	0	1	2	5	4
10	0	250	0	1	5	3	4
10	1	21376	0	1	2	1	0
10	1	48400	0	1	2	3	4
10	1	7.52845e+06	0	1	2	5	4
10	1	50	0	1	5	3	4
10	2	18816	0	1	2	1	0
10	2	45400	0	1	2	3	4
10	2	7.52845e+06	0	1	2	5	4
10	2	350	0	1	5	3	4
10	3	19392	0	1	2	1	0
10	3	49600	0	1	2	3	4
10	3	7.31955e+06	0	1	2	5	4
10	3	250	0	1	5	3	4
10	4	19520	0	1	2	1	0
10	4	48000	0	1	2	3	4
10	4	7.83565e+06	0	1	2	5	4
10	5	20608	0	1	2	1	0
10	5	47300	0	1	2	3	4
10	5	7.7783e+06	0	1	2	5	4
10	5	250	0	1	5	3	4
10	6	21120	0	1	2	1	0
10	6	48700	0	1	2	3	4
10	6	7.51616e+06	0	1	2	5	4
10	6	150	0	1	5	3	4
10	7	19584	0	1	2	1	0
10	7	44700	0	1	2	3	4
10	7	7.56531e+06	0	1	2	5	4
10	7	250	0	1	5	3	4
10	8	19584	0	1	2	1	0
10	8	50900	0	1	2	3	4
10	8	7.79469e+06	0	1	2	5	4
10	8	400	0	1	5	3	4
10	9	19584	0	1	2	1	0
10	9	48100	0	1	2	3	4
10	9	7.54074e+06	0	1	2	5	4
10	9	450	0	1	5	3	4
10	11	18560	0	1	2	1	0
10	11	48900	0	1	2	3	4
10	11	7.66771e+06	0	1	2	5	4
10	11	250	0	1	5	3	4
11	0	21440	0	1	2	1	0
11	0	45000	0	1	2	3	4
11	0	7.51616e+06	0	1	2	5	4
11	0	250	0	1	5	3	4
11	1	20288	0	1	2	1	0
11	1	49100	0	1	2	3	4
11	1	7.4711e+06	0	1	2	5	4
11	1	150	0	1	5	3	4
11	2	21056	0	1	2	1	0
11	2	52000	0	1	2	3	4
11	2	7.54893e+06	0	1	2	5	4
11	2	250	0	1	5	3	4
11	3	19328	0	1	2	1	0
11	3	46400	0	1	2	3	4
11	3	7.56531e+06	0	1	2	5	4
11	3	300	0	1	5	3	4
11	4	17088	0	1	2	1	0
11	4	44900	0	1	2	3	4
11	4	7.6841e+06	0	1	2	5	4
11	4	200	0	1	5	3	4
11	5	21568	0	1	2	1	0
11	5	44500	0	1	2	3	4
11	5	7.48339e+06	0	1	2	5	4
11	5	250	0	1	5	3	4
11	6	19136	0	1	2	1	0
11	6	46200	0	1	2	3	4
11	6	7.5817e+06	0	1	2	5	4
11	6	150	0	1	5	3	4
11	7	20160	0	1	2	1	0
11	7	45000	0	1	2	3	4
11	7	7.52026e+06	0	1	2	5	4
11	7	150	0	1	5	3	4
11	8	19456	0	1	2	1	0
11	8	47000	0	1	2	3	4
11	8	7.56941e+06	0	1	2	5	4
11	8	150	0	1	5	3	4
11	9	20480	0	1	2	1	0
11	9	47200	0	1	2	3	4
11	9	7.34822e+06	0	1	2	5	4
11	9	350	0	1	5	3	4
11	10	22208	0	1	2	1	0
11	10	46800	0	1	2	3	4
11	10	7.77011e+06	0	1	2	5	4
11	10	100	0	1	5	3	4
