100000	100000	100000	10000	1000	1000
0	1	9600	0	1	2	1	0
0	1	20900	0	1	2	3	4
0	1	3.26451e+06	0	1	2	5	4
0	2	8704	0	1	2	1	0
0	2	19700	0	1	2	3	4
0	2	3.08429e+06	0	1	2	5	4
0	2	250	0	1	5	3	4
0	3	8256	0	1	2	1	0
0	3	19400	0	1	2	3	4
0	3	3.22355e+06	0	1	2	5	4
0	3	100	0	1	5	3	4
0	4	8192	0	1	2	1	0
0	4	22300	0	1	2	3	4
0	4	3.30957e+06	0	1	2	5	4
0	4	50	0	1	5	3	4
0	5	8896	0	1	2	1	0
0	5	19800	0	1	2	3	4
0	5	3.072e+06	0	1	2	5	4
0	5	100	0	1	5	3	4
0	6	7488	0	1	2	1	0
0	6	18500	0	1	2	3	4
0	6	3.14163e+06	0	1	2	5	4
0	6	100	0	1	5	3	4
0	7	8320	0	1	2	1	0
0	7	20000	0	1	2	3	4
0	7	3.46522e+06	0	1	2	5	4
0	7	50	0	1	5	3	4
0	8	8896	0	1	2	1	0
0	8	23300	0	1	2	3	4
0	8	3.28499e+06	0	1	2	5	4
0	8	150	0	1	5	3	4
0	9	8256	0	1	2	1	0
0	9	20500	0	1	2	3	4
0	9	3.26451e+06	0	1	2	5	4
0	10	8832	0	1	2	1	0
0	10	18700	0	1	2	3	4
0	10	3.09658e+06	0	1	2	5	4
0	11	8832	0	1	2	1	0
0	11	20100	0	1	2	3	4
0	11	3.18669e+06	0	1	2	5	4
0	11	200	0	1	5	3	4
0	12	8384	0	1	2	1	0
0	12	20500	0	1	2	3	4
0	12	3.22765e+06	0	1	2	5	4
0	12	100	0	1	5	3	4
0	13	8768	0	1	2	1	0
0	13	21200	0	1	2	3	4
0	13	3.24813e+06	0	1	2	5	4
0	13	100	0	1	5	3	4
0	14	9344	0	1	2	1	0
0	14	19100	0	1	2	3	4
0	14	3.25222e+06	0	1	2	5	4
0	15	9088	0	1	2	1	0
0	15	21100	0	1	2	3	4
0	15	3.30957e+06	0	1	2	5	4
0	15	50	0	1	5	3	4
0	16	8000	0	1	2	1	0
0	16	19600	0	1	2	3	4
0	16	3.2809e+06	0	1	2	5	4
0	16	50	0	1	5	3	4
0	17	8320	0	1	2	1	0
0	17	19100	0	1	2	3	4
0	17	3.12934e+06	0	1	2	5	4
0	17	100	0	1	5	3	4
1	0	8640	0	1	2	1	0
1	0	18500	0	1	2	3	4
1	0	3.00237e+06	0	1	2	5	4
1	0	50	0	1	5	3	4
1	2	8576	0	1	2	1	0
1	2	22400	0	1	2	3	4
1	2	3.14982e+06	0	1	2	5	4
1	2	100	0	1	5	3	4
1	3	8000	0	1	2	1	0
1	3	21800	0	1	2	3	4
1	3	3.39149e+06	0	1	2	5	4
1	3	50	0	1	5	3	4
1	4	7872	0	1	2	1	0
1	4	22400	0	1	2	3	4
1	4	3.41197e+06	0	1	2	5	4
1	4	150	0	1	5	3	4
1	5	8704	0	1	2	1	0
1	5	20900	0	1	2	3	4
1	5	3.23584e+06	0	1	2	5	4
1	5	50	0	1	5	3	4
1	6	9728	0	1	2	1	0
1	6	19900	0	1	2	3	4
1	6	3.60038e+06	0	1	2	5	4
1	6	100	0	1	5	3	4
1	7	8512	0	1	2	1	0
1	7	23000	0	1	2	3	4
1	7	3.09658e+06	0	1	2	5	4
1	8	7872	0	1	2	1	0
1	8	21600	0	1	2	3	4
1	8	3.25222e+06	0	1	2	5	4
1	8	200	0	1	5	3	4
1	9	8704	0	1	2	1	0
1	9	21400	0	1	2	3	4
1	9	3.03104e+06	0	1	2	5	4
1	9	50	0	1	5	3	4
1	10	8512	0	1	2	1	0
1	10	20200	0	1	2	3	4
1	10	3.1785e+06	0	1	2	5	4
1	10	100	0	1	5	3	4
1	11	9088	0	1	2	1	0
1	11	18100	0	1	2	3	4
1	11	3.24813e+06	0	1	2	5	4
1	11	150	0	1	5	3	4
1	12	8832	0	1	2	1	0
1	12	19800	0	1	2	3	4
1	12	3.10886e+06	0	1	2	5	4
1	12	150	0	1	5	3	4
1	13	8576	0	1	2	1	0
1	13	21100	0	1	2	3	4
1	13	3.31776e+06	0	1	2	5	4
1	13	100	0	1	5	3	4
1	14	7808	0	1	2	1	0
1	14	21100	0	1	2	3	4
1	14	3.23994e+06	0	1	2	5	4
1	14	150	0	1	5	3	4
1	15	9216	0	1	2	1	0
1	15	21300	0	1	2	3	4
1	15	3.38739e+06	0	1	2	5	4
1	15	100	0	1	5	3	4
1	16	8704	0	1	2	1	0
1	16	19100	0	1	2	3	4
1	16	2.92454e+06	0	1	2	5	4
1	16	150	0	1	5	3	4
1	17	9088	0	1	2	1	0
1	17	21500	0	1	2	3	4
1	17	3.41606e+06	0	1	2	5	4
1	17	50	0	1	5	3	4
2	0	8832	0	1	2	1	0
2	0	19600	0	1	2	3	4
2	0	3.26861e+06	0	1	2	5	4
2	0	200	0	1	5	3	4
2	1	9216	0	1	2	1	0
2	1	20300	0	1	2	3	4
2	1	3.43245e+06	0	1	2	5	4
2	1	50	0	1	5	3	4
2	3	9408	0	1	2	1	0
2	3	19200	0	1	2	3	4
2	3	3.13344e+06	0	1	2	5	4
2	3	100	0	1	5	3	4
2	4	8448	0	1	2	1	0
2	4	19300	0	1	2	3	4
2	4	3.23584e+06	0	1	2	5	4
2	4	250	0	1	5	3	4
2	5	9152	0	1	2	1	0
2	5	22300	0	1	2	3	4
2	5	3.24403e+06	0	1	2	5	4
2	5	250	0	1	5	3	4
2	6	7104	0	1	2	1	0
2	6	18500	0	1	2	3	4
2	6	3.20307e+06	0	1	2	5	4
2	6	50	0	1	5	3	4
2	7	6912	0	1	2	1	0
2	7	21100	0	1	2	3	4
2	7	3.21536e+06	0	1	2	5	4
2	7	100	0	1	5	3	4
2	8	9472	0	1	2	1	0
2	8	21900	0	1	2	3	4
2	8	3.03514e+06	0	1	2	5	4
2	9	7744	0	1	2	1	0
2	9	20400	0	1	2	3	4
2	9	3.20717e+06	0	1	2	5	4
2	9	200	0	1	5	3	4
2	10	9408	0	1	2	1	0
2	10	21500	0	1	2	3	4
2	10	3.42016e+06	0	1	2	5	4
2	10	100	0	1	5	3	4
2	11	8896	0	1	2	1	0
2	11	18800	0	1	2	3	4
2	11	3.14982e+06	0	1	2	5	4
2	11	150	0	1	5	3	4
2	12	7808	0	1	2	1	0
2	12	22000	0	1	2	3	4
2	12	3.10886e+06	0	1	2	5	4
2	12	100	0	1	5	3	4
2	13	8768	0	1	2	1	0
2	13	17400	0	1	2	3	4
2	13	3.48979e+06	0	1	2	5	4
2	14	9216	0	1	2	1	0
2	14	22700	0	1	2	3	4
2	14	3.28909e+06	0	1	2	5	4
2	14	50	0	1	5	3	4
2	15	9216	0	1	2	1	0
2	15	19100	0	1	2	3	4
2	15	3.14163e+06	0	1	2	5	4
2	15	50	0	1	5	3	4
2	16	8576	0	1	2	1	0
2	16	22000	0	1	2	3	4
2	16	3.22765e+06	0	1	2	5	4
2	16	50	0	1	5	3	4
2	17	8640	0	1	2	1	0
2	17	25300	0	1	2	3	4
2	17	3.40787e+06	0	1	2	5	4
2	17	100	0	1	5	3	4
3	0	8576	0	1	2	1	0
3	0	21800	0	1	2	3	4
3	0	3.31776e+06	0	1	2	5	4
3	0	50	0	1	5	3	4
3	1	7552	0	1	2	1	0
3	1	19900	0	1	2	3	4
3	1	3.29318e+06	0	1	2	5	4
3	1	100	0	1	5	3	4
3	2	8640	0	1	2	1	0
3	2	22700	0	1	2	3	4
3	2	3.21946e+06	0	1	2	5	4
3	2	50	0	1	5	3	4
3	4	8896	0	1	2	1	0
3	4	19200	0	1	2	3	4
3	4	2.92864e+06	0	1	2	5	4
3	4	50	0	1	5	3	4
3	5	7104	0	1	2	1	0
3	5	21900	0	1	2	3	4
3	5	2.98189e+06	0	1	2	5	4
3	6	9408	0	1	2	1	0
3	6	22300	0	1	2	3	4
3	6	3.28909e+06	0	1	2	5	4
3	6	100	0	1	5	3	4
3	7	7232	0	1	2	1	0
3	7	19800	0	1	2	3	4
3	7	3.072e+06	0	1	2	5	4
3	7	50	0	1	5	3	4
3	8	8640	0	1	2	1	0
3	8	19500	0	1	2	3	4
3	8	3.23584e+06	0	1	2	5	4
3	8	50	0	1	5	3	4
3	9	8704	0	1	2	1	0
3	9	19500	0	1	2	3	4
3	9	3.51027e+06	0	1	2	5	4
3	9	100	0	1	5	3	4
3	10	9088	0	1	2	1	0
3	10	20200	0	1	2	3	4
3	10	3.33414e+06	0	1	2	5	4
3	10	50	0	1	5	3	4
3	11	9024	0	1	2	1	0
3	11	18900	0	1	2	3	4
3	11	3.19078e+06	0	1	2	5	4
3	11	50	0	1	5	3	4
3	12	7808	0	1	2	1	0
3	12	21900	0	1	2	3	4
3	12	3.26042e+06	0	1	2	5	4
3	13	8192	0	1	2	1	0
3	13	21100	0	1	2	3	4
3	13	3.47341e+06	0	1	2	5	4
3	13	50	0	1	5	3	4
3	14	8192	0	1	2	1	0
3	14	20200	0	1	2	3	4
3	14	3.12934e+06	0	1	2	5	4
3	14	50	0	1	5	3	4
3	15	6976	0	1	2	1	0
3	15	20400	0	1	2	3	4
3	15	3.20307e+06	0	1	2	5	4
3	15	100	0	1	5	3	4
3	16	10752	0	1	2	1	0
3	16	21200	0	1	2	3	4
3	16	3.0679e+06	0	1	2	5	4
3	16	100	0	1	5	3	4
3	17	7936	0	1	2	1	0
3	17	19700	0	1	2	3	4
3	17	3.18259e+06	0	1	2	5	4
4	0	8448	0	1	2	1	0
4	0	19900	0	1	2	3	4
4	0	3.23994e+06	0	1	2	5	4
4	1	9152	0	1	2	1	0
4	1	21900	0	1	2	3	4
4	1	3.21126e+06	0	1	2	5	4
4	1	150	0	1	5	3	4
4	2	7872	0	1	2	1	0
4	2	21600	0	1	2	3	4
4	2	3.45702e+06	0	1	2	5	4
4	2	100	0	1	5	3	4
4	3	8640	0	1	2	1	0
4	3	21300	0	1	2	3	4
4	3	3.19488e+06	0	1	2	5	4
4	5	8832	0	1	2	1	0
4	5	20300	0	1	2	3	4
4	5	3.34643e+06	0	1	2	5	4
4	6	9856	0	1	2	1	0
4	6	22800	0	1	2	3	4
4	6	3.18669e+06	0	1	2	5	4
4	6	100	0	1	5	3	4
4	7	8896	0	1	2	1	0
4	7	20100	0	1	2	3	4
4	7	3.1744e+06	0	1	2	5	4
4	7	250	0	1	5	3	4
4	8	9216	0	1	2	1	0
4	8	16700	0	1	2	3	4
4	8	3.24813e+06	0	1	2	5	4
4	8	100	0	1	5	3	4
4	9	8256	0	1	2	1	0
4	9	17200	0	1	2	3	4
4	9	3.16621e+06	0	1	2	5	4
4	10	8512	0	1	2	1	0
4	10	21400	0	1	2	3	4
4	10	3.28909e+06	0	1	2	5	4
4	10	100	0	1	5	3	4
4	11	7808	0	1	2	1	0
4	11	20300	0	1	2	3	4
4	11	3.23174e+06	0	1	2	5	4
4	11	50	0	1	5	3	4
4	12	8896	0	1	2	1	0
4	12	20400	0	1	2	3	4
4	12	3.40378e+06	0	1	2	5	4
4	13	9152	0	1	2	1	0
4	13	18600	0	1	2	3	4
4	13	3.31366e+06	0	1	2	5	4
4	13	50	0	1	5	3	4
4	14	7168	0	1	2	1	0
4	14	20400	0	1	2	3	4
4	14	3.30138e+06	0	1	2	5	4
4	14	100	0	1	5	3	4
4	15	8192	0	1	2	1	0
4	15	20100	0	1	2	3	4
4	15	3.3833e+06	0	1	2	5	4
4	15	50	0	1	5	3	4
4	16	8256	0	1	2	1	0
4	16	17700	0	1	2	3	4
4	16	3.19078e+06	0	1	2	5	4
4	16	50	0	1	5	3	4
4	17	9920	0	1	2	1	0
4	17	21000	0	1	2	3	4
4	17	3.19078e+06	0	1	2	5	4
4	17	50	0	1	5	3	4
5	0	9664	0	1	2	1	0
5	0	22200	0	1	2	3	4
5	0	3.25632e+06	0	1	2	5	4
5	0	50	0	1	5	3	4
5	1	9472	0	1	2	1	0
5	1	22700	0	1	2	3	4
5	1	3.42835e+06	0	1	2	5	4
5	1	100	0	1	5	3	4
5	2	7680	0	1	2	1	0
5	2	20500	0	1	2	3	4
5	2	3.1703e+06	0	1	2	5	4
5	3	8576	0	1	2	1	0
5	3	20300	0	1	2	3	4
5	3	3.38739e+06	0	1	2	5	4
5	3	150	0	1	5	3	4
5	4	9856	0	1	2	1	0
5	4	21500	0	1	2	3	4
5	4	3.34643e+06	0	1	2	5	4
5	6	8960	0	1	2	1	0
5	6	18500	0	1	2	3	4
5	6	3.12115e+06	0	1	2	5	4
5	6	50	0	1	5	3	4
5	7	7744	0	1	2	1	0
5	7	20400	0	1	2	3	4
5	7	3.23174e+06	0	1	2	5	4
5	7	250	0	1	5	3	4
5	8	9088	0	1	2	1	0
5	8	22300	0	1	2	3	4
5	8	3.16211e+06	0	1	2	5	4
5	8	50	0	1	5	3	4
5	9	8960	0	1	2	1	0
5	9	18900	0	1	2	3	4
5	9	3.20307e+06	0	1	2	5	4
5	9	50	0	1	5	3	4
5	10	7616	0	1	2	1	0
5	10	22300	0	1	2	3	4
5	10	3.47341e+06	0	1	2	5	4
5	10	50	0	1	5	3	4
5	11	7936	0	1	2	1	0
5	11	20700	0	1	2	3	4
5	11	3.14982e+06	0	1	2	5	4
5	11	100	0	1	5	3	4
5	12	8384	0	1	2	1	0
5	12	21500	0	1	2	3	4
5	12	3.18669e+06	0	1	2	5	4
5	12	150	0	1	5	3	4
5	13	8640	0	1	2	1	0
5	13	18700	0	1	2	3	4
5	13	3.02285e+06	0	1	2	5	4
5	13	50	0	1	5	3	4
5	14	8256	0	1	2	1	0
5	14	22000	0	1	2	3	4
5	14	3.28499e+06	0	1	2	5	4
5	14	100	0	1	5	3	4
5	15	7744	0	1	2	1	0
5	15	18700	0	1	2	3	4
5	15	3.22355e+06	0	1	2	5	4
5	15	100	0	1	5	3	4
5	16	8192	0	1	2	1	0
5	16	20200	0	1	2	3	4
5	16	3.14573e+06	0	1	2	5	4
5	16	200	0	1	5	3	4
5	17	8448	0	1	2	1	0
5	17	17800	0	1	2	3	4
5	17	3.22765e+06	0	1	2	5	4
5	17	150	0	1	5	3	4
6	0	8832	0	1	2	1	0
6	0	21700	0	1	2	3	4
6	0	3.15392e+06	0	1	2	5	4
6	0	50	0	1	5	3	4
6	1	10368	0	1	2	1	0
6	1	21100	0	1	2	3	4
6	1	3.05152e+06	0	1	2	5	4
6	1	50	0	1	5	3	4
6	2	8512	0	1	2	1	0
6	2	21300	0	1	2	3	4
6	2	3.40378e+06	0	1	2	5	4
6	2	50	0	1	5	3	4
6	3	8128	0	1	2	1	0
6	3	19900	0	1	2	3	4
6	3	3.2809e+06	0	1	2	5	4
6	3	100	0	1	5	3	4
6	4	8576	0	1	2	1	0
6	4	22600	0	1	2	3	4
6	4	3.29728e+06	0	1	2	5	4
6	5	9280	0	1	2	1	0
6	5	21700	0	1	2	3	4
6	5	3.18669e+06	0	1	2	5	4
6	5	50	0	1	5	3	4
6	7	7936	0	1	2	1	0
6	7	19200	0	1	2	3	4
6	7	3.04333e+06	0	1	2	5	4
6	7	50	0	1	5	3	4
6	8	7872	0	1	2	1	0
6	8	21400	0	1	2	3	4
6	8	3.35462e+06	0	1	2	5	4
6	8	150	0	1	5	3	4
6	9	6848	0	1	2	1	0
6	9	22300	0	1	2	3	4
6	9	3.26451e+06	0	1	2	5	4
6	9	200	0	1	5	3	4
6	10	7360	0	1	2	1	0
6	10	18300	0	1	2	3	4
6	10	3.26042e+06	0	1	2	5	4
6	10	150	0	1	5	3	4
6	11	8576	0	1	2	1	0
6	11	23100	0	1	2	3	4
6	11	3.28499e+06	0	1	2	5	4
6	11	100	0	1	5	3	4
6	12	9024	0	1	2	1	0
6	12	22000	0	1	2	3	4
6	12	3.29318e+06	0	1	2	5	4
6	12	50	0	1	5	3	4
6	13	8896	0	1	2	1	0
6	13	19800	0	1	2	3	4
6	13	3.21126e+06	0	1	2	5	4
6	13	50	0	1	5	3	4
6	14	9920	0	1	2	1	0
6	14	20500	0	1	2	3	4
6	14	3.1744e+06	0	1	2	5	4
6	14	100	0	1	5	3	4
6	15	8640	0	1	2	1	0
6	15	22200	0	1	2	3	4
6	15	3.22765e+06	0	1	2	5	4
6	15	150	0	1	5	3	4
6	16	7040	0	1	2	1	0
6	16	18900	0	1	2	3	4
6	16	3.16621e+06	0	1	2	5	4
6	17	8192	0	1	2	1	0
6	17	20600	0	1	2	3	4
6	17	3.19488e+06	0	1	2	5	4
6	17	250	0	1	5	3	4
7	0	6656	0	1	2	1	0
7	0	19900	0	1	2	3	4
7	0	3.29318e+06	0	1	2	5	4
7	0	50	0	1	5	3	4
7	1	7680	0	1	2	1	0
7	1	18200	0	1	2	3	4
7	1	3.2768e+06	0	1	2	5	4
7	1	100	0	1	5	3	4
7	2	10176	0	1	2	1	0
7	2	17800	0	1	2	3	4
7	2	3.38739e+06	0	1	2	5	4
7	2	50	0	1	5	3	4
7	3	8576	0	1	2	1	0
7	3	20200	0	1	2	3	4
7	3	3.19488e+06	0	1	2	5	4
7	3	150	0	1	5	3	4
7	4	8256	0	1	2	1	0
7	4	19500	0	1	2	3	4
7	4	3.30957e+06	0	1	2	5	4
7	4	50	0	1	5	3	4
7	5	8000	0	1	2	1	0
7	5	20900	0	1	2	3	4
7	5	3.18259e+06	0	1	2	5	4
7	6	8192	0	1	2	1	0
7	6	18900	0	1	2	3	4
7	6	3.28909e+06	0	1	2	5	4
7	6	100	0	1	5	3	4
7	8	9088	0	1	2	1	0
7	8	19300	0	1	2	3	4
7	8	3.34643e+06	0	1	2	5	4
7	8	100	0	1	5	3	4
7	9	8064	0	1	2	1	0
7	9	19100	0	1	2	3	4
7	9	3.10886e+06	0	1	2	5	4
7	10	9280	0	1	2	1	0
7	10	21300	0	1	2	3	4
7	10	3.18259e+06	0	1	2	5	4
7	10	50	0	1	5	3	4
7	11	7552	0	1	2	1	0
7	11	21000	0	1	2	3	4
7	11	3.21946e+06	0	1	2	5	4
7	11	100	0	1	5	3	4
7	12	8576	0	1	2	1	0
7	12	19500	0	1	2	3	4
7	12	3.28499e+06	0	1	2	5	4
7	12	100	0	1	5	3	4
7	13	7616	0	1	2	1	0
7	13	19500	0	1	2	3	4
7	13	3.09248e+06	0	1	2	5	4
7	13	50	0	1	5	3	4
7	14	8768	0	1	2	1	0
7	14	19300	0	1	2	3	4
7	14	3.46112e+06	0	1	2	5	4
7	14	100	0	1	5	3	4
7	15	8832	0	1	2	1	0
7	15	21300	0	1	2	3	4
7	15	3.44474e+06	0	1	2	5	4
7	15	100	0	1	5	3	4
7	16	8512	0	1	2	1	0
7	16	19000	0	1	2	3	4
7	16	3.3751e+06	0	1	2	5	4
7	16	100	0	1	5	3	4
7	17	7936	0	1	2	1	0
7	17	22600	0	1	2	3	4
7	17	3.38739e+06	0	1	2	5	4
7	17	100	0	1	5	3	4
8	0	6784	0	1	2	1	0
8	0	22200	0	1	2	3	4
8	0	3.08838e+06	0	1	2	5	4
8	0	50	0	1	5	3	4
8	1	8192	0	1	2	1	0
8	1	21600	0	1	2	3	4
8	1	3.19078e+06	0	1	2	5	4
8	1	100	0	1	5	3	4
8	2	8896	0	1	2	1	0
8	2	23400	0	1	2	3	4
8	2	3.21946e+06	0	1	2	5	4
8	2	100	0	1	5	3	4
8	3	8256	0	1	2	1	0
8	3	19100	0	1	2	3	4
8	3	3.29318e+06	0	1	2	5	4
8	3	100	0	1	5	3	4
8	4	8448	0	1	2	1	0
8	4	22500	0	1	2	3	4
8	4	3.34234e+06	0	1	2	5	4
8	4	150	0	1	5	3	4
8	5	8768	0	1	2	1	0
8	5	18800	0	1	2	3	4
8	5	3.03104e+06	0	1	2	5	4
8	5	50	0	1	5	3	4
8	6	7744	0	1	2	1	0
8	6	21200	0	1	2	3	4
8	6	3.23994e+06	0	1	2	5	4
8	6	150	0	1	5	3	4
8	7	8064	0	1	2	1	0
8	7	21300	0	1	2	3	4
8	7	3.15392e+06	0	1	2	5	4
8	7	200	0	1	5	3	4
8	9	8704	0	1	2	1	0
8	9	23500	0	1	2	3	4
8	9	3.26451e+06	0	1	2	5	4
8	9	200	0	1	5	3	4
8	10	9088	0	1	2	1	0
8	10	17300	0	1	2	3	4
8	10	3.26861e+06	0	1	2	5	4
8	10	50	0	1	5	3	4
8	11	9408	0	1	2	1	0
8	11	20400	0	1	2	3	4
8	11	3.11296e+06	0	1	2	5	4
8	11	50	0	1	5	3	4
8	12	6976	0	1	2	1	0
8	12	22100	0	1	2	3	4
8	12	3.23584e+06	0	1	2	5	4
8	12	50	0	1	5	3	4
8	13	8128	0	1	2	1	0
8	13	20800	0	1	2	3	4
8	13	3.18669e+06	0	1	2	5	4
8	13	200	0	1	5	3	4
8	14	7680	0	1	2	1	0
8	14	19900	0	1	2	3	4
8	14	3.43654e+06	0	1	2	5	4
8	14	200	0	1	5	3	4
8	15	9600	0	1	2	1	0
8	15	19300	0	1	2	3	4
8	15	3.28909e+06	0	1	2	5	4
8	15	50	0	1	5	3	4
8	16	9088	0	1	2	1	0
8	16	18000	0	1	2	3	4
8	16	3.3792e+06	0	1	2	5	4
8	16	150	0	1	5	3	4
8	17	9280	0	1	2	1	0
8	17	20900	0	1	2	3	4
8	17	3.16211e+06	0	1	2	5	4
8	17	50	0	1	5	3	4
9	0	8512	0	1	2	1	0
9	0	20100	0	1	2	3	4
9	0	3.34234e+06	0	1	2	5	4
9	0	200	0	1	5	3	4
9	1	8256	0	1	2	1	0
9	1	20000	0	1	2	3	4
9	1	3.26861e+06	0	1	2	5	4
9	1	100	0	1	5	3	4
9	2	8640	0	1	2	1	0
9	2	22200	0	1	2	3	4
9	2	3.10477e+06	0	1	2	5	4
9	2	200	0	1	5	3	4
9	3	10432	0	1	2	1	0
9	3	19700	0	1	2	3	4
9	3	3.12525e+06	0	1	2	5	4
9	3	100	0	1	5	3	4
9	4	9216	0	1	2	1	0
9	4	20000	0	1	2	3	4
9	4	3.1785e+06	0	1	2	5	4
9	4	100	0	1	5	3	4
9	5	8448	0	1	2	1	0
9	5	19500	0	1	2	3	4
9	5	3.42426e+06	0	1	2	5	4
9	5	150	0	1	5	3	4
9	6	9600	0	1	2	1	0
9	6	21800	0	1	2	3	4
9	6	3.29318e+06	0	1	2	5	4
9	6	100	0	1	5	3	4
9	7	7808	0	1	2	1	0
9	7	23200	0	1	2	3	4
9	7	3.39968e+06	0	1	2	5	4
9	7	150	0	1	5	3	4
9	8	9088	0	1	2	1	0
9	8	20400	0	1	2	3	4
9	8	3.35872e+06	0	1	2	5	4
9	8	50	0	1	5	3	4
9	10	7808	0	1	2	1	0
9	10	19200	0	1	2	3	4
9	10	3.39968e+06	0	1	2	5	4
9	10	100	0	1	5	3	4
9	11	8128	0	1	2	1	0
9	11	18800	0	1	2	3	4
9	11	3.15802e+06	0	1	2	5	4
9	11	50	0	1	5	3	4
9	12	8512	0	1	2	1	0
9	12	20100	0	1	2	3	4
9	12	3.1785e+06	0	1	2	5	4
9	12	100	0	1	5	3	4
9	13	8320	0	1	2	1	0
9	13	20400	0	1	2	3	4
9	13	3.1703e+06	0	1	2	5	4
9	13	50	0	1	5	3	4
9	14	9216	0	1	2	1	0
9	14	20400	0	1	2	3	4
9	14	3.21946e+06	0	1	2	5	4
9	14	100	0	1	5	3	4
9	15	8384	0	1	2	1	0
9	15	19800	0	1	2	3	4
9	15	3.12934e+06	0	1	2	5	4
9	15	100	0	1	5	3	4
9	16	8128	0	1	2	1	0
9	16	20700	0	1	2	3	4
9	16	3.10477e+06	0	1	2	5	4
9	16	150	0	1	5	3	4
9	17	9536	0	1	2	1	0
9	17	21900	0	1	2	3	4
9	17	3.18259e+06	0	1	2	5	4
9	17	150	0	1	5	3	4
10	0	7872	0	1	2	1	0
10	0	18900	0	1	2	3	4
10	0	3.38739e+06	0	1	2	5	4
10	0	200	0	1	5	3	4
10	1	8960	0	1	2	1	0
10	1	19000	0	1	2	3	4
10	1	2.99827e+06	0	1	2	5	4
10	2	9088	0	1	2	1	0
10	2	18300	0	1	2	3	4
10	2	3.18669e+06	0	1	2	5	4
10	3	8960	0	1	2	1	0
10	3	23200	0	1	2	3	4
10	3	3.22355e+06	0	1	2	5	4
10	3	100	0	1	5	3	4
10	4	9088	0	1	2	1	0
10	4	21300	0	1	2	3	4
10	4	3.2809e+06	0	1	2	5	4
10	5	8768	0	1	2	1	0
10	5	20800	0	1	2	3	4
10	5	3.40787e+06	0	1	2	5	4
10	5	50	0	1	5	3	4
10	6	8512	0	1	2	1	0
10	6	23900	0	1	2	3	4
10	6	3.30138e+06	0	1	2	5	4
10	6	100	0	1	5	3	4
10	7	7424	0	1	2	1	0
10	7	21200	0	1	2	3	4
10	7	3.19488e+06	0	1	2	5	4
10	7	100	0	1	5	3	4
10	8	7872	0	1	2	1	0
10	8	21400	0	1	2	3	4
10	8	3.22765e+06	0	1	2	5	4
10	8	100	0	1	5	3	4
10	9	9344	0	1	2	1	0
10	9	19100	0	1	2	3	4
10	9	3.20717e+06	0	1	2	5	4
10	9	100	0	1	5	3	4
10	11	8512	0	1	2	1	0
10	11	22300	0	1	2	3	4
10	11	3.36691e+06	0	1	2	5	4
10	11	150	0	1	5	3	4
10	12	9536	0	1	2	1	0
10	12	21900	0	1	2	3	4
10	12	3.04333e+06	0	1	2	5	4
10	13	9280	0	1	2	1	0
10	13	18900	0	1	2	3	4
10	13	3.1703e+06	0	1	2	5	4
10	13	100	0	1	5	3	4
10	14	9728	0	1	2	1	0
10	14	21300	0	1	2	3	4
10	14	3.19078e+06	0	1	2	5	4
10	14	100	0	1	5	3	4
10	15	8576	0	1	2	1	0
10	15	16100	0	1	2	3	4
10	15	3.44883e+06	0	1	2	5	4
10	15	50	0	1	5	3	4
10	16	8704	0	1	2	1	0
10	16	22100	0	1	2	3	4
10	16	3.00646e+06	0	1	2	5	4
10	16	200	0	1	5	3	4
10	17	8960	0	1	2	1	0
10	17	18100	0	1	2	3	4
10	17	3.19488e+06	0	1	2	5	4
10	17	100	0	1	5	3	4
11	0	8448	0	1	2	1	0
11	0	19100	0	1	2	3	4
11	0	3.24813e+06	0	1	2	5	4
11	0	50	0	1	5	3	4
11	1	9984	0	1	2	1	0
11	1	18700	0	1	2	3	4
11	1	3.3751e+06	0	1	2	5	4
11	2	8896	0	1	2	1	0
11	2	21100	0	1	2	3	4
11	2	3.30957e+06	0	1	2	5	4
11	2	100	0	1	5	3	4
11	3	7360	0	1	2	1	0
11	3	21900	0	1	2	3	4
11	3	3.1785e+06	0	1	2	5	4
11	3	200	0	1	5	3	4
11	4	8192	0	1	2	1	0
11	4	20800	0	1	2	3	4
11	4	3.09248e+06	0	1	2	5	4
11	4	100	0	1	5	3	4
11	5	8512	0	1	2	1	0
11	5	18800	0	1	2	3	4
11	5	3.35872e+06	0	1	2	5	4
11	6	8064	0	1	2	1	0
11	6	21800	0	1	2	3	4
11	6	3.14982e+06	0	1	2	5	4
11	6	100	0	1	5	3	4
11	7	8128	0	1	2	1	0
11	7	23300	0	1	2	3	4
11	7	2.9655e+06	0	1	2	5	4
11	7	100	0	1	5	3	4
11	8	9024	0	1	2	1	0
11	8	20100	0	1	2	3	4
11	8	3.23994e+06	0	1	2	5	4
11	8	50	0	1	5	3	4
11	9	8640	0	1	2	1	0
11	9	19700	0	1	2	3	4
11	9	3.26451e+06	0	1	2	5	4
11	9	150	0	1	5	3	4
11	10	8320	0	1	2	1	0
11	10	19700	0	1	2	3	4
11	10	3.16211e+06	0	1	2	5	4
11	10	150	0	1	5	3	4
11	12	9152	0	1	2	1	0
11	12	17500	0	1	2	3	4
11	12	3.22765e+06	0	1	2	5	4
11	12	50	0	1	5	3	4
11	13	7808	0	1	2	1	0
11	13	19600	0	1	2	3	4
11	13	3.32595e+06	0	1	2	5	4
11	13	200	0	1	5	3	4
11	14	8832	0	1	2	1	0
11	14	21000	0	1	2	3	4
11	14	3.16211e+06	0	1	2	5	4
11	14	150	0	1	5	3	4
11	15	7488	0	1	2	1	0
11	15	18100	0	1	2	3	4
11	15	3.39968e+06	0	1	2	5	4
11	15	100	0	1	5	3	4
11	16	7424	0	1	2	1	0
11	16	22700	0	1	2	3	4
11	16	3.24403e+06	0	1	2	5	4
11	16	150	0	1	5	3	4
11	17	10112	0	1	2	1	0
11	17	21800	0	1	2	3	4
11	17	3.32595e+06	0	1	2	5	4
11	17	50	0	1	5	3	4
12	0	8832	0	1	2	1	0
12	0	21600	0	1	2	3	4
12	0	3.37101e+06	0	1	2	5	4
12	0	150	0	1	5	3	4
12	1	9088	0	1	2	1	0
12	1	17600	0	1	2	3	4
12	1	3.04333e+06	0	1	2	5	4
12	1	50	0	1	5	3	4
12	2	8896	0	1	2	1	0
12	2	19500	0	1	2	3	4
12	2	3.39149e+06	0	1	2	5	4
12	2	50	0	1	5	3	4
12	3	9408	0	1	2	1	0
12	3	19600	0	1	2	3	4
12	3	3.28909e+06	0	1	2	5	4
12	4	9408	0	1	2	1	0
12	4	19300	0	1	2	3	4
12	4	3.33824e+06	0	1	2	5	4
12	4	100	0	1	5	3	4
12	5	8832	0	1	2	1	0
12	5	21100	0	1	2	3	4
12	5	3.28499e+06	0	1	2	5	4
12	5	250	0	1	5	3	4
12	6	8704	0	1	2	1	0
12	6	21600	0	1	2	3	4
12	6	3.19078e+06	0	1	2	5	4
12	6	50	0	1	5	3	4
12	7	9280	0	1	2	1	0
12	7	21600	0	1	2	3	4
12	7	3.31366e+06	0	1	2	5	4
12	7	150	0	1	5	3	4
12	8	8512	0	1	2	1	0
12	8	22300	0	1	2	3	4
12	8	3.12525e+06	0	1	2	5	4
12	8	350	0	1	5	3	4
12	9	7680	0	1	2	1	0
12	9	21900	0	1	2	3	4
12	9	3.39149e+06	0	1	2	5	4
12	9	150	0	1	5	3	4
12	10	6912	0	1	2	1	0
12	10	21100	0	1	2	3	4
12	10	3.2727e+06	0	1	2	5	4
12	10	100	0	1	5	3	4
12	11	8960	0	1	2	1	0
12	11	21000	0	1	2	3	4
12	11	3.28909e+06	0	1	2	5	4
12	11	50	0	1	5	3	4
12	13	9280	0	1	2	1	0
12	13	19000	0	1	2	3	4
12	13	2.99827e+06	0	1	2	5	4
12	13	50	0	1	5	3	4
12	14	7616	0	1	2	1	0
12	14	22200	0	1	2	3	4
12	14	3.18669e+06	0	1	2	5	4
12	14	50	0	1	5	3	4
12	15	9600	0	1	2	1	0
12	15	20900	0	1	2	3	4
12	15	3.36282e+06	0	1	2	5	4
12	16	9600	0	1	2	1	0
12	16	20400	0	1	2	3	4
12	16	3.19898e+06	0	1	2	5	4
12	17	7808	0	1	2	1	0
12	17	22200	0	1	2	3	4
12	17	3.33414e+06	0	1	2	5	4
12	17	50	0	1	5	3	4
13	0	7424	0	1	2	1	0
13	0	20900	0	1	2	3	4
13	0	3.34643e+06	0	1	2	5	4
13	0	100	0	1	5	3	4
13	1	9408	0	1	2	1	0
13	1	21300	0	1	2	3	4
13	1	3.23994e+06	0	1	2	5	4
13	1	50	0	1	5	3	4
13	2	8896	0	1	2	1	0
13	2	21800	0	1	2	3	4
13	2	3.14163e+06	0	1	2	5	4
13	2	200	0	1	5	3	4
13	3	7744	0	1	2	1	0
13	3	20000	0	1	2	3	4
13	3	3.19078e+06	0	1	2	5	4
13	3	150	0	1	5	3	4
13	4	7296	0	1	2	1	0
13	4	20200	0	1	2	3	4
13	4	3.2727e+06	0	1	2	5	4
13	4	150	0	1	5	3	4
13	5	8896	0	1	2	1	0
13	5	19700	0	1	2	3	4
13	5	3.29728e+06	0	1	2	5	4
13	6	9600	0	1	2	1	0
13	6	21800	0	1	2	3	4
13	6	3.23994e+06	0	1	2	5	4
13	6	100	0	1	5	3	4
13	7	8000	0	1	2	1	0
13	7	18200	0	1	2	3	4
13	7	3.23174e+06	0	1	2	5	4
13	7	150	0	1	5	3	4
13	8	9024	0	1	2	1	0
13	8	16600	0	1	2	3	4
13	8	3.26861e+06	0	1	2	5	4
13	9	8448	0	1	2	1	0
13	9	18700	0	1	2	3	4
13	9	3.26042e+06	0	1	2	5	4
13	9	100	0	1	5	3	4
13	10	8704	0	1	2	1	0
13	10	21500	0	1	2	3	4
13	10	3.33824e+06	0	1	2	5	4
13	10	150	0	1	5	3	4
13	11	9600	0	1	2	1	0
13	11	19200	0	1	2	3	4
13	11	3.29728e+06	0	1	2	5	4
13	11	50	0	1	5	3	4
13	12	9088	0	1	2	1	0
13	12	21100	0	1	2	3	4
13	12	3.2809e+06	0	1	2	5	4
13	12	50	0	1	5	3	4
13	14	8704	0	1	2	1	0
13	14	19800	0	1	2	3	4
13	14	3.04742e+06	0	1	2	5	4
13	15	8384	0	1	2	1	0
13	15	22600	0	1	2	3	4
13	15	3.33414e+06	0	1	2	5	4
13	15	50	0	1	5	3	4
13	16	8832	0	1	2	1	0
13	16	22300	0	1	2	3	4
13	16	3.19898e+06	0	1	2	5	4
13	16	50	0	1	5	3	4
13	17	10048	0	1	2	1	0
13	17	23300	0	1	2	3	4
13	17	3.39149e+06	0	1	2	5	4
13	17	100	0	1	5	3	4
14	0	8384	0	1	2	1	0
14	0	20100	0	1	2	3	4
14	0	3.2768e+06	0	1	2	5	4
14	0	100	0	1	5	3	4
14	1	9088	0	1	2	1	0
14	1	21200	0	1	2	3	4
14	1	3.35053e+06	0	1	2	5	4
14	1	50	0	1	5	3	4
14	2	8128	0	1	2	1	0
14	2	20900	0	1	2	3	4
14	2	3.30547e+06	0	1	2	5	4
14	2	150	0	1	5	3	4
14	3	9024	0	1	2	1	0
14	3	19200	0	1	2	3	4
14	3	3.23584e+06	0	1	2	5	4
14	4	8000	0	1	2	1	0
14	4	18800	0	1	2	3	4
14	4	3.1744e+06	0	1	2	5	4
14	4	50	0	1	5	3	4
14	5	9024	0	1	2	1	0
14	5	19800	0	1	2	3	4
14	5	3.09658e+06	0	1	2	5	4
14	6	6848	0	1	2	1	0
14	6	20100	0	1	2	3	4
14	6	3.19488e+06	0	1	2	5	4
14	6	100	0	1	5	3	4
14	7	7936	0	1	2	1	0
14	7	21700	0	1	2	3	4
14	7	3.39149e+06	0	1	2	5	4
14	8	8704	0	1	2	1	0
14	8	21800	0	1	2	3	4
14	8	3.29318e+06	0	1	2	5	4
14	8	50	0	1	5	3	4
14	9	8320	0	1	2	1	0
14	9	18900	0	1	2	3	4
14	9	3.2768e+06	0	1	2	5	4
14	9	50	0	1	5	3	4
14	10	7424	0	1	2	1	0
14	10	20500	0	1	2	3	4
14	10	3.32186e+06	0	1	2	5	4
14	10	50	0	1	5	3	4
14	11	8704	0	1	2	1	0
14	11	16100	0	1	2	3	4
14	11	3.13344e+06	0	1	2	5	4
14	11	100	0	1	5	3	4
14	12	9600	0	1	2	1	0
14	12	21600	0	1	2	3	4
14	12	3.42426e+06	0	1	2	5	4
14	12	100	0	1	5	3	4
14	13	7232	0	1	2	1	0
14	13	23200	0	1	2	3	4
14	13	3.43245e+06	0	1	2	5	4
14	13	100	0	1	5	3	4
14	15	8000	0	1	2	1	0
14	15	19600	0	1	2	3	4
14	15	3.1703e+06	0	1	2	5	4
14	15	150	0	1	5	3	4
14	16	9216	0	1	2	1	0
14	16	20400	0	1	2	3	4
14	16	3.41606e+06	0	1	2	5	4
14	16	100	0	1	5	3	4
14	17	9152	0	1	2	1	0
14	17	19600	0	1	2	3	4
14	17	3.14163e+06	0	1	2	5	4
14	17	100	0	1	5	3	4
15	0	9024	0	1	2	1	0
15	0	20600	0	1	2	3	4
15	0	3.21536e+06	0	1	2	5	4
15	0	200	0	1	5	3	4
15	1	9216	0	1	2	1	0
15	1	20700	0	1	2	3	4
15	1	3.11296e+06	0	1	2	5	4
15	1	50	0	1	5	3	4
15	2	8064	0	1	2	1	0
15	2	21100	0	1	2	3	4
15	2	3.20307e+06	0	1	2	5	4
15	2	100	0	1	5	3	4
15	3	9472	0	1	2	1	0
15	3	20500	0	1	2	3	4
15	3	3.33414e+06	0	1	2	5	4
15	4	9984	0	1	2	1	0
15	4	20600	0	1	2	3	4
15	4	3.31366e+06	0	1	2	5	4
15	4	50	0	1	5	3	4
15	5	8320	0	1	2	1	0
15	5	19600	0	1	2	3	4
15	5	3.26451e+06	0	1	2	5	4
15	5	100	0	1	5	3	4
15	6	8512	0	1	2	1	0
15	6	19000	0	1	2	3	4
15	6	3.04333e+06	0	1	2	5	4
15	6	50	0	1	5	3	4
15	7	9344	0	1	2	1	0
15	7	18800	0	1	2	3	4
15	7	3.22355e+06	0	1	2	5	4
15	7	100	0	1	5	3	4
15	8	7488	0	1	2	1	0
15	8	21200	0	1	2	3	4
15	8	3.14573e+06	0	1	2	5	4
15	9	8256	0	1	2	1	0
15	9	19700	0	1	2	3	4
15	9	3.12115e+06	0	1	2	5	4
15	9	100	0	1	5	3	4
15	10	7744	0	1	2	1	0
15	10	16900	0	1	2	3	4
15	10	3.19898e+06	0	1	2	5	4
15	10	50	0	1	5	3	4
15	11	7808	0	1	2	1	0
15	11	18200	0	1	2	3	4
15	11	3.24813e+06	0	1	2	5	4
15	11	50	0	1	5	3	4
15	12	7936	0	1	2	1	0
15	12	20100	0	1	2	3	4
15	12	3.30547e+06	0	1	2	5	4
15	13	8384	0	1	2	1	0
15	13	22700	0	1	2	3	4
15	13	3.18669e+06	0	1	2	5	4
15	13	100	0	1	5	3	4
15	14	8576	0	1	2	1	0
15	14	19900	0	1	2	3	4
15	14	3.10067e+06	0	1	2	5	4
15	14	200	0	1	5	3	4
15	16	8064	0	1	2	1	0
15	16	18400	0	1	2	3	4
15	16	3.36282e+06	0	1	2	5	4
15	16	50	0	1	5	3	4
15	17	9600	0	1	2	1	0
15	17	21400	0	1	2	3	4
15	17	3.43245e+06	0	1	2	5	4
15	17	50	0	1	5	3	4
16	0	8384	0	1	2	1	0
16	0	19900	0	1	2	3	4
16	0	3.28499e+06	0	1	2	5	4
16	1	9088	0	1	2	1	0
16	1	22300	0	1	2	3	4
16	1	3.06381e+06	0	1	2	5	4
16	1	100	0	1	5	3	4
16	2	8384	0	1	2	1	0
16	2	20000	0	1	2	3	4
16	2	3.10886e+06	0	1	2	5	4
16	2	50	0	1	5	3	4
16	3	9408	0	1	2	1	0
16	3	20500	0	1	2	3	4
16	3	3.34234e+06	0	1	2	5	4
16	3	100	0	1	5	3	4
16	4	9152	0	1	2	1	0
16	4	19700	0	1	2	3	4
16	4	3.28499e+06	0	1	2	5	4
16	4	50	0	1	5	3	4
16	5	7744	0	1	2	1	0
16	5	24700	0	1	2	3	4
16	5	3.26042e+06	0	1	2	5	4
16	6	9152	0	1	2	1	0
16	6	20600	0	1	2	3	4
16	6	3.10477e+06	0	1	2	5	4
16	6	200	0	1	5	3	4
16	7	8448	0	1	2	1	0
16	7	18600	0	1	2	3	4
16	7	3.15392e+06	0	1	2	5	4
16	7	100	0	1	5	3	4
16	8	8512	0	1	2	1	0
16	8	19900	0	1	2	3	4
16	8	3.13344e+06	0	1	2	5	4
16	9	8576	0	1	2	1	0
16	9	22100	0	1	2	3	4
16	9	3.4775e+06	0	1	2	5	4
16	9	50	0	1	5	3	4
16	10	8640	0	1	2	1	0
16	10	20900	0	1	2	3	4
16	10	3.2727e+06	0	1	2	5	4
16	11	8128	0	1	2	1	0
16	11	19600	0	1	2	3	4
16	11	3.29728e+06	0	1	2	5	4
16	11	150	0	1	5	3	4
16	12	9728	0	1	2	1	0
16	12	23800	0	1	2	3	4
16	12	3.26451e+06	0	1	2	5	4
16	12	100	0	1	5	3	4
16	13	7104	0	1	2	1	0
16	13	18500	0	1	2	3	4
16	13	3.08019e+06	0	1	2	5	4
16	14	9408	0	1	2	1	0
16	14	19200	0	1	2	3	4
16	14	3.16621e+06	0	1	2	5	4
16	14	100	0	1	5	3	4
16	15	7872	0	1	2	1	0
16	15	20600	0	1	2	3	4
16	15	3.35462e+06	0	1	2	5	4
16	17	8064	0	1	2	1	0
16	17	20300	0	1	2	3	4
16	17	3.22765e+06	0	1	2	5	4
16	17	50	0	1	5	3	4
17	0	9088	0	1	2	1	0
17	0	21800	0	1	2	3	4
17	0	3.3792e+06	0	1	2	5	4
17	0	150	0	1	5	3	4
17	1	9344	0	1	2	1	0
17	1	20200	0	1	2	3	4
17	1	3.08429e+06	0	1	2	5	4
17	1	100	0	1	5	3	4
17	2	9408	0	1	2	1	0
17	2	21300	0	1	2	3	4
17	2	3.14982e+06	0	1	2	5	4
17	3	9216	0	1	2	1	0
17	3	22600	0	1	2	3	4
17	3	3.26861e+06	0	1	2	5	4
17	3	150	0	1	5	3	4
17	4	8128	0	1	2	1	0
17	4	19700	0	1	2	3	4
17	4	3.21126e+06	0	1	2	5	4
17	4	150	0	1	5	3	4
17	5	7872	0	1	2	1	0
17	5	22300	0	1	2	3	4
17	5	3.12525e+06	0	1	2	5	4
17	5	50	0	1	5	3	4
17	6	8576	0	1	2	1	0
17	6	22900	0	1	2	3	4
17	6	3.05971e+06	0	1	2	5	4
17	6	100	0	1	5	3	4
17	7	7936	0	1	2	1	0
17	7	21100	0	1	2	3	4
17	7	3.19078e+06	0	1	2	5	4
17	8	8320	0	1	2	1	0
17	8	20000	0	1	2	3	4
17	8	3.08838e+06	0	1	2	5	4
17	8	200	0	1	5	3	4
17	9	8512	0	1	2	1	0
17	9	18800	0	1	2	3	4
17	9	3.30957e+06	0	1	2	5	4
17	9	100	0	1	5	3	4
17	10	8128	0	1	2	1	0
17	10	19200	0	1	2	3	4
17	10	3.10477e+06	0	1	2	5	4
17	10	50	0	1	5	3	4
17	11	7616	0	1	2	1	0
17	11	20800	0	1	2	3	4
17	11	3.26042e+06	0	1	2	5	4
17	11	100	0	1	5	3	4
17	12	8576	0	1	2	1	0
17	12	21500	0	1	2	3	4
17	12	3.2727e+06	0	1	2	5	4
17	13	8448	0	1	2	1	0
17	13	19200	0	1	2	3	4
17	13	3.14982e+06	0	1	2	5	4
17	13	50	0	1	5	3	4
17	14	8640	0	1	2	1	0
17	14	23000	0	1	2	3	4
17	14	3.08838e+06	0	1	2	5	4
17	14	50	0	1	5	3	4
17	15	8832	0	1	2	1	0
17	15	22700	0	1	2	3	4
17	15	3.12934e+06	0	1	2	5	4
17	15	150	0	1	5	3	4
17	16	8384	0	1	2	1	0
17	16	20700	0	1	2	3	4
17	16	3.35462e+06	0	1	2	5	4
