100000	100000	100000	10000	1000	1000
0	1	100	0	1	2	3	4
0	1	20480	0	1	2	5	4
0	2	8192	0	1	2	5	4
0	3	100	0	1	2	3	4
0	3	12288	0	1	2	5	4
0	4	100	0	1	2	3	4
0	5	12288	0	1	2	5	4
0	6	4096	0	1	2	5	4
0	7	100	0	1	2	3	4
0	7	28672	0	1	2	5	4
0	8	128	0	1	2	1	0
0	8	100	0	1	2	3	4
0	8	16384	0	1	2	5	4
0	9	64	0	1	2	1	0
0	9	12288	0	1	2	5	4
1	0	16384	0	1	2	5	4
1	2	12288	0	1	2	5	4
1	3	100	0	1	2	3	4
1	3	8192	0	1	2	5	4
1	4	64	0	1	2	1	0
1	4	200	0	1	2	3	4
1	4	8192	0	1	2	5	4
1	6	64	0	1	2	1	0
1	6	200	0	1	2	3	4
1	6	16384	0	1	2	5	4
1	7	64	0	1	2	1	0
1	7	100	0	1	2	3	4
1	7	4096	0	1	2	5	4
1	8	8192	0	1	2	5	4
1	9	64	0	1	2	1	0
1	9	16384	0	1	2	5	4
2	0	64	0	1	2	1	0
2	0	300	0	1	2	3	4
2	0	8192	0	1	2	5	4
2	1	64	0	1	2	1	0
2	1	100	0	1	2	3	4
2	1	8192	0	1	2	5	4
2	3	128	0	1	2	1	0
2	3	12288	0	1	2	5	4
2	4	4096	0	1	2	5	4
2	5	300	0	1	2	3	4
2	5	24576	0	1	2	5	4
2	6	100	0	1	2	3	4
2	6	16384	0	1	2	5	4
2	7	128	0	1	2	1	0
2	7	100	0	1	2	3	4
2	7	20480	0	1	2	5	4
2	8	64	0	1	2	1	0
2	9	100	0	1	2	3	4
2	9	16384	0	1	2	5	4
3	0	64	0	1	2	1	0
3	0	24576	0	1	2	5	4
3	1	20480	0	1	2	5	4
3	2	16384	0	1	2	5	4
3	4	64	0	1	2	1	0
3	4	4096	0	1	2	5	4
3	5	64	0	1	2	1	0
3	5	12288	0	1	2	5	4
3	6	64	0	1	2	1	0
3	6	12288	0	1	2	5	4
3	7	12288	0	1	2	5	4
3	8	64	0	1	2	1	0
3	8	12288	0	1	2	5	4
3	9	100	0	1	2	3	4
3	9	8192	0	1	2	5	4
4	0	64	0	1	2	1	0
4	0	200	0	1	2	3	4
4	0	4096	0	1	2	5	4
4	1	8192	0	1	2	5	4
4	2	12288	0	1	2	5	4
4	3	8192	0	1	2	5	4
4	5	200	0	1	2	3	4
4	5	8192	0	1	2	5	4
4	6	100	0	1	2	3	4
4	6	4096	0	1	2	5	4
4	7	64	0	1	2	1	0
4	7	100	0	1	2	3	4
4	8	16384	0	1	2	5	4
4	9	100	0	1	2	3	4
4	9	8192	0	1	2	5	4
5	0	64	0	1	2	1	0
5	0	12288	0	1	2	5	4
5	1	4096	0	1	2	5	4
5	2	8192	0	1	2	5	4
5	3	100	0	1	2	3	4
5	3	8192	0	1	2	5	4
5	4	100	0	1	2	3	4
5	4	12288	0	1	2	5	4
5	6	64	0	1	2	1	0
5	6	100	0	1	2	3	4
5	6	12288	0	1	2	5	4
5	7	100	0	1	2	3	4
5	9	64	0	1	2	1	0
5	9	12288	0	1	2	5	4
6	0	24576	0	1	2	5	4
6	1	4096	0	1	2	5	4
6	2	64	0	1	2	1	0
6	2	100	0	1	2	3	4
6	2	8192	0	1	2	5	4
6	3	12288	0	1	2	5	4
6	4	16384	0	1	2	5	4
6	5	64	0	1	2	1	0
6	5	100	0	1	2	3	4
6	5	16384	0	1	2	5	4
6	7	4096	0	1	2	5	4
6	8	12288	0	1	2	5	4
6	9	64	0	1	2	1	0
6	9	100	0	1	2	3	4
6	9	4096	0	1	2	5	4
7	0	4096	0	1	2	5	4
7	1	128	0	1	2	1	0
7	1	200	0	1	2	3	4
7	1	16384	0	1	2	5	4
7	2	128	0	1	2	1	0
7	2	100	0	1	2	3	4
7	2	8192	0	1	2	5	4
7	3	4096	0	1	2	5	4
7	4	100	0	1	2	3	4
7	4	12288	0	1	2	5	4
7	5	64	0	1	2	1	0
7	5	100	0	1	2	3	4
7	6	4096	0	1	2	5	4
7	8	300	0	1	2	3	4
7	8	8192	0	1	2	5	4
7	9	8192	0	1	2	5	4
8	0	8192	0	1	2	5	4
8	1	100	0	1	2	3	4
8	1	16384	0	1	2	5	4
8	2	100	0	1	2	3	4
8	2	20480	0	1	2	5	4
8	3	100	0	1	2	3	4
8	3	16384	0	1	2	5	4
8	4	100	0	1	2	3	4
8	4	16384	0	1	2	5	4
8	5	100	0	1	2	3	4
8	5	12288	0	1	2	5	4
8	6	100	0	1	2	3	4
8	6	4096	0	1	2	5	4
8	7	64	0	1	2	1	0
8	7	8192	0	1	2	5	4
8	9	20480	0	1	2	5	4
9	0	200	0	1	2	3	4
9	0	16384	0	1	2	5	4
9	1	12288	0	1	2	5	4
9	2	200	0	1	2	3	4
9	2	16384	0	1	2	5	4
9	3	12288	0	1	2	5	4
9	4	12288	0	1	2	5	4
9	5	12288	0	1	2	5	4
9	6	64	0	1	2	1	0
9	6	16384	0	1	2	5	4
9	7	64	0	1	2	1	0
9	7	200	0	1	2	3	4
9	7	8192	0	1	2	5	4
9	8	200	0	1	2	3	4
9	8	20480	0	1	2	5	4
