1000	10000	1000	100000	10000	10000	1000	1000	100000	100000	1000	10000	100000	100000	100000	10000	1000	10000	10000	1000	10000
0	1	1.13718e+07	3	9	16	20	15
0	2	1.0953e+07	3	9	16	20	15
0	3	1.12513e+07	3	9	16	20	15
0	4	1.093e+07	3	9	16	20	15
0	5	1.10477e+07	3	9	16	20	15
0	6	1.10649e+07	3	9	16	20	15
0	7	1.10763e+07	3	9	16	20	15
0	8	1.091e+07	3	9	16	20	15
0	9	1.11796e+07	3	9	16	20	15
1	0	1.10477e+07	3	9	16	20	15
1	2	1.10907e+07	3	9	16	20	15
1	3	1.10936e+07	3	9	16	20	15
1	4	1.12083e+07	3	9	16	20	15
1	5	1.1019e+07	3	9	16	20	15
1	6	1.09845e+07	3	9	16	20	15
1	7	1.08382e+07	3	9	16	20	15
1	8	1.11825e+07	3	9	16	20	15
1	9	1.13632e+07	3	9	16	20	15
2	0	1.11308e+07	3	9	16	20	15
2	1	1.14034e+07	3	9	16	20	15
2	3	1.11509e+07	3	9	16	20	15
2	4	1.08411e+07	3	9	16	20	15
2	5	1.12944e+07	3	9	16	20	15
2	6	1.08153e+07	3	9	16	20	15
2	7	1.09214e+07	3	9	16	20	15
2	8	1.13173e+07	3	9	16	20	15
2	9	1.13087e+07	3	9	16	20	15
3	0	1.11681e+07	3	9	16	20	15
3	1	1.11567e+07	3	9	16	20	15
3	2	1.14034e+07	3	9	16	20	15
3	4	1.06374e+07	3	9	16	20	15
3	5	1.09272e+07	3	9	16	20	15
3	6	1.09817e+07	3	9	16	20	15
3	7	1.12341e+07	3	9	16	20	15
3	8	1.09272e+07	3	9	16	20	15
3	9	1.10878e+07	3	9	16	20	15
4	0	1.0887e+07	3	9	16	20	15
4	1	1.14837e+07	3	9	16	20	15
4	2	1.1303e+07	3	9	16	20	15
4	3	1.09013e+07	3	9	16	20	15
4	5	1.1214e+07	3	9	16	20	15
4	6	1.08124e+07	3	9	16	20	15
4	7	1.1544e+07	3	9	16	20	15
4	8	1.09472e+07	3	9	16	20	15
4	9	1.12026e+07	3	9	16	20	15
5	0	1.09931e+07	3	9	16	20	15
5	1	1.0953e+07	3	9	16	20	15
5	2	1.12743e+07	3	9	16	20	15
5	3	1.10878e+07	3	9	16	20	15
5	4	1.10907e+07	3	9	16	20	15
5	6	1.11911e+07	3	9	16	20	15
5	7	1.09874e+07	3	9	16	20	15
5	8	1.13747e+07	3	9	16	20	15
5	9	1.1171e+07	3	9	16	20	15
6	0	1.09702e+07	3	9	16	20	15
6	1	1.10276e+07	3	9	16	20	15
6	2	1.12571e+07	3	9	16	20	15
6	3	1.11739e+07	3	9	16	20	15
6	4	1.10849e+07	3	9	16	20	15
6	5	1.10046e+07	3	9	16	20	15
6	7	1.10304e+07	3	9	16	20	15
6	8	1.12714e+07	3	9	16	20	15
6	9	1.12542e+07	3	9	16	20	15
7	0	1.12657e+07	3	9	16	20	15
7	1	1.13202e+07	3	9	16	20	15
7	2	1.11366e+07	3	9	16	20	15
7	3	1.13116e+07	3	9	16	20	15
7	4	1.07751e+07	3	9	16	20	15
7	5	1.1039e+07	3	9	16	20	15
7	6	1.09788e+07	3	9	16	20	15
7	8	1.10018e+07	3	9	16	20	15
7	9	1.1194e+07	3	9	16	20	15
8	0	1.09587e+07	3	9	16	20	15
8	1	1.13976e+07	3	9	16	20	15
8	2	1.11854e+07	3	9	16	20	15
8	3	1.10735e+07	3	9	16	20	15
8	4	1.11452e+07	3	9	16	20	15
8	5	1.10735e+07	3	9	16	20	15
8	6	1.09013e+07	3	9	16	20	15
8	7	1.11395e+07	3	9	16	20	15
8	9	1.11911e+07	3	9	16	20	15
9	0	1.10936e+07	3	9	16	20	15
9	1	1.12284e+07	3	9	16	20	15
9	2	1.10448e+07	3	9	16	20	15
9	3	1.11337e+07	3	9	16	20	15
9	4	1.09788e+07	3	9	16	20	15
9	5	1.08698e+07	3	9	16	20	15
9	6	1.12944e+07	3	9	16	20	15
9	7	1.11624e+07	3	9	16	20	15
9	8	1.12944e+07	3	9	16	20	15
