100000	1000	100000
0	1	1.11513e+07	2	0	2	0	0
0	2	1.1031e+07	2	0	2	0	0
0	3	1.11512e+07	2	0	2	0	0
0	4	1.11116e+07	2	0	2	0	0
0	5	1.11651e+07	2	0	2	0	0
0	6	1.11205e+07	2	0	2	0	0
0	7	1.10656e+07	2	0	2	0	0
0	8	1.11717e+07	2	0	2	0	0
0	9	1.11284e+07	2	0	2	0	0
1	0	1.10646e+07	2	0	2	0	0
1	2	1.11276e+07	2	0	2	0	0
1	3	1.11054e+07	2	0	2	0	0
1	4	1.11216e+07	2	0	2	0	0
1	5	1.10846e+07	2	0	2	0	0
1	6	1.11531e+07	2	0	2	0	0
1	7	1.11566e+07	2	0	2	0	0
1	8	1.11317e+07	2	0	2	0	0
1	9	1.1132e+07	2	0	2	0	0
2	0	1.11613e+07	2	0	2	0	0
2	1	1.10562e+07	2	0	2	0	0
2	3	1.11387e+07	2	0	2	0	0
2	4	1.10834e+07	2	0	2	0	0
2	5	1.10757e+07	2	0	2	0	0
2	6	1.10638e+07	2	0	2	0	0
2	7	1.10854e+07	2	0	2	0	0
2	8	1.11061e+07	2	0	2	0	0
2	9	1.10782e+07	2	0	2	0	0
3	0	1.11e+07	2	0	2	0	0
3	1	1.11198e+07	2	0	2	0	0
3	2	1.10511e+07	2	0	2	0	0
3	4	1.11407e+07	2	0	2	0	0
3	5	1.10993e+07	2	0	2	0	0
3	6	1.10854e+07	2	0	2	0	0
3	7	1.10802e+07	2	0	2	0	0
3	8	1.10662e+07	2	0	2	0	0
3	9	1.10754e+07	2	0	2	0	0
4	0	1.1082e+07	2	0	2	0	0
4	1	1.11822e+07	2	0	2	0	0
4	2	1.10843e+07	2	0	2	0	0
4	3	1.11328e+07	2	0	2	0	0
4	5	1.11082e+07	2	0	2	0	0
4	6	1.10918e+07	2	0	2	0	0
4	7	1.11362e+07	2	0	2	0	0
4	8	1.11256e+07	2	0	2	0	0
4	9	1.11343e+07	2	0	2	0	0
5	0	1.11369e+07	2	0	2	0	0
5	1	1.10336e+07	2	0	2	0	0
5	2	1.1161e+07	2	0	2	0	0
5	3	1.10911e+07	2	0	2	0	0
5	4	1.11754e+07	2	0	2	0	0
5	6	1.11954e+07	2	0	2	0	0
5	7	1.10551e+07	2	0	2	0	0
5	8	1.11171e+07	2	0	2	0	0
5	9	1.10449e+07	2	0	2	0	0
6	0	1.11285e+07	2	0	2	0	0
6	1	1.11761e+07	2	0	2	0	0
6	2	1.10774e+07	2	0	2	0	0
6	3	1.1099e+07	2	0	2	0	0
6	4	1.112e+07	2	0	2	0	0
6	5	1.11003e+07	2	0	2	0	0
6	7	1.11484e+07	2	0	2	0	0
6	8	1.11661e+07	2	0	2	0	0
6	9	1.10838e+07	2	0	2	0	0
7	0	1.10734e+07	2	0	2	0	0
7	1	1.10952e+07	2	0	2	0	0
7	2	1.10744e+07	2	0	2	0	0
7	3	1.1161e+07	2	0	2	0	0
7	4	1.11554e+07	2	0	2	0	0
7	5	1.11261e+07	2	0	2	0	0
7	6	1.119e+07	2	0	2	0	0
7	8	1.11e+07	2	0	2	0	0
7	9	1.10605e+07	2	0	2	0	0
8	0	1.1128e+07	2	0	2	0	0
8	1	1.11056e+07	2	0	2	0	0
8	2	1.10977e+07	2	0	2	0	0
8	3	1.11169e+07	2	0	2	0	0
8	4	1.10418e+07	2	0	2	0	0
8	5	1.10859e+07	2	0	2	0	0
8	6	1.10592e+07	2	0	2	0	0
8	7	1.11576e+07	2	0	2	0	0
8	9	1.11171e+07	2	0	2	0	0
9	0	1.10428e+07	2	0	2	0	0
9	1	1.11497e+07	2	0	2	0	0
9	2	1.10795e+07	2	0	2	0	0
9	3	1.11828e+07	2	0	2	0	0
9	4	1.11072e+07	2	0	2	0	0
9	5	1.10939e+07	2	0	2	0	0
9	6	1.10854e+07	2	0	2	0	0
9	7	1.11881e+07	2	0	2	0	0
9	8	1.10969e+07	2	0	2	0	0
