10000	100000	10000	10000	100000	1000	100000	1000	100000	10000	1000	10000	1000	1000	10000	100000	100000	10000	10000	100000	1000
0	1	1.12027e+07	6	3	9	8	9
0	2	1.118e+07	6	3	9	8	9
0	3	1.10537e+07	6	3	9	8	9
0	4	1.1382e+07	6	3	9	8	9
0	5	1.0988e+07	6	3	9	8	9
0	6	1.10714e+07	6	3	9	8	9
0	7	1.12355e+07	6	3	9	8	9
0	8	1.10284e+07	6	3	9	8	9
0	9	1.1281e+07	6	3	9	8	9
1	0	1.10411e+07	6	3	9	8	9
1	2	1.13012e+07	6	3	9	8	9
1	3	1.11446e+07	6	3	9	8	9
1	4	1.13542e+07	6	3	9	8	9
1	5	1.10385e+07	6	3	9	8	9
1	6	1.14375e+07	6	3	9	8	9
1	7	1.07203e+07	6	3	9	8	9
1	8	1.14805e+07	6	3	9	8	9
1	9	1.10789e+07	6	3	9	8	9
2	0	1.11547e+07	6	3	9	8	9
2	1	1.13214e+07	6	3	9	8	9
2	3	1.12305e+07	6	3	9	8	9
2	4	1.10209e+07	6	3	9	8	9
2	5	1.11496e+07	6	3	9	8	9
2	6	1.11926e+07	6	3	9	8	9
2	7	1.10865e+07	6	3	9	8	9
2	8	1.08466e+07	6	3	9	8	9
2	9	1.12002e+07	6	3	9	8	9
3	0	1.11623e+07	6	3	9	8	9
3	1	1.12481e+07	6	3	9	8	9
3	2	1.12633e+07	6	3	9	8	9
3	4	1.10284e+07	6	3	9	8	9
3	5	1.07936e+07	6	3	9	8	9
3	6	1.13138e+07	6	3	9	8	9
3	7	1.12052e+07	6	3	9	8	9
3	8	1.09426e+07	6	3	9	8	9
3	9	1.10133e+07	6	3	9	8	9
4	0	1.1036e+07	6	3	9	8	9
4	1	1.0983e+07	6	3	9	8	9
4	2	1.1334e+07	6	3	9	8	9
4	3	1.08895e+07	6	3	9	8	9
4	5	1.11673e+07	6	3	9	8	9
4	6	1.07986e+07	6	3	9	8	9
4	7	1.12431e+07	6	3	9	8	9
4	8	1.1132e+07	6	3	9	8	9
4	9	1.0887e+07	6	3	9	8	9
5	0	1.10789e+07	6	3	9	8	9
5	1	1.09173e+07	6	3	9	8	9
5	2	1.13896e+07	6	3	9	8	9
5	3	1.11547e+07	6	3	9	8	9
5	4	1.11875e+07	6	3	9	8	9
5	6	1.10183e+07	6	3	9	8	9
5	7	1.14249e+07	6	3	9	8	9
5	8	1.11724e+07	6	3	9	8	9
5	9	1.09451e+07	6	3	9	8	9
6	0	1.11042e+07	6	3	9	8	9
6	1	1.10537e+07	6	3	9	8	9
6	2	1.10739e+07	6	3	9	8	9
6	3	1.12279e+07	6	3	9	8	9
6	4	1.12204e+07	6	3	9	8	9
6	5	1.12002e+07	6	3	9	8	9
6	7	1.09527e+07	6	3	9	8	9
6	8	1.09729e+07	6	3	9	8	9
6	9	1.10108e+07	6	3	9	8	9
7	0	1.12481e+07	6	3	9	8	9
7	1	1.118e+07	6	3	9	8	9
7	2	1.10613e+07	6	3	9	8	9
7	3	1.12683e+07	6	3	9	8	9
7	4	1.07557e+07	6	3	9	8	9
7	5	1.07784e+07	6	3	9	8	9
7	6	1.12052e+07	6	3	9	8	9
7	8	1.09703e+07	6	3	9	8	9
7	9	1.08618e+07	6	3	9	8	9
8	0	1.118e+07	6	3	9	8	9
8	1	1.09779e+07	6	3	9	8	9
8	2	1.10082e+07	6	3	9	8	9
8	3	1.12885e+07	6	3	9	8	9
8	4	1.12002e+07	6	3	9	8	9
8	5	1.1334e+07	6	3	9	8	9
8	6	1.11345e+07	6	3	9	8	9
8	7	1.10714e+07	6	3	9	8	9
8	9	1.094e+07	6	3	9	8	9
9	0	1.09905e+07	6	3	9	8	9
9	1	1.10916e+07	6	3	9	8	9
9	2	1.12633e+07	6	3	9	8	9
9	3	1.10259e+07	6	3	9	8	9
9	4	1.11421e+07	6	3	9	8	9
9	5	1.11724e+07	6	3	9	8	9
9	6	1.09981e+07	6	3	9	8	9
9	7	1.11092e+07	6	3	9	8	9
9	8	1.09754e+07	6	3	9	8	9
