16
0	1	1e+12
0	7	1e+12
0	9	1e+12
1	0	1e+12
1	8	1e+12
1	13	1e+12
1	14	1e+12
2	3	1e+12
2	8	1e+12
2	9	1e+12
2	10	1e+12
2	12	1e+12
3	2	1e+12
3	5	1e+12
3	9	1e+12
3	10	1e+12
4	6	1e+12
4	7	1e+12
4	9	1e+12
5	3	1e+12
5	15	1e+12
6	4	1e+12
6	9	1e+12
6	12	1e+12
7	0	1e+12
7	4	1e+12
7	9	1e+12
7	10	1e+12
8	1	1e+12
8	2	1e+12
8	10	1e+12
9	0	1e+12
9	2	1e+12
9	3	1e+12
9	4	1e+12
9	6	1e+12
9	7	1e+12
9	14	1e+12
10	2	1e+12
10	3	1e+12
10	7	1e+12
10	8	1e+12
11	12	1e+12
12	2	1e+12
12	6	1e+12
12	11	1e+12
13	1	1e+12
13	15	1e+12
14	1	1e+12
14	9	1e+12
14	15	1e+12
15	5	1e+12
15	13	1e+12
15	14	1e+12
