100000	100000	100000	10000	1000	1000
0	1	83392	0	1	2	1	0
0	1	197800	0	1	2	3	4
0	1	3.09903e+07	0	1	2	5	4
0	1	1000	0	1	5	3	4
0	2	74624	0	1	2	1	0
0	2	179500	0	1	2	3	4
0	2	2.84918e+07	0	1	2	5	4
0	2	550	0	1	5	3	4
0	3	22464	0	1	2	1	0
0	3	53100	0	1	2	3	4
0	3	8.79821e+06	0	1	2	5	4
0	3	250	0	1	5	3	4
0	4	33536	0	1	2	1	0
0	4	79900	0	1	2	3	4
0	4	1.25747e+07	0	1	2	5	4
0	4	250	0	1	5	3	4
0	5	33536	0	1	2	1	0
0	5	77300	0	1	2	3	4
0	5	1.203e+07	0	1	2	5	4
0	5	300	0	1	5	3	4
0	6	20544	0	1	2	1	0
0	6	50700	0	1	2	3	4
0	6	7.8848e+06	0	1	2	5	4
0	6	200	0	1	5	3	4
0	7	20800	0	1	2	1	0
0	7	42600	0	1	2	3	4
0	7	7.15981e+06	0	1	2	5	4
0	7	250	0	1	5	3	4
0	8	60736	0	1	2	1	0
0	8	142500	0	1	2	3	4
0	8	2.11558e+07	0	1	2	5	4
0	8	950	0	1	5	3	4
0	9	26688	0	1	2	1	0
0	9	69200	0	1	2	3	4
0	9	1.05226e+07	0	1	2	5	4
0	9	350	0	1	5	3	4
1	0	85568	0	1	2	1	0
1	0	203800	0	1	2	3	4
1	0	3.12934e+07	0	1	2	5	4
1	0	850	0	1	5	3	4
1	2	31296	0	1	2	1	0
1	2	73700	0	1	2	3	4
1	2	1.19644e+07	0	1	2	5	4
1	2	150	0	1	5	3	4
1	3	27776	0	1	2	1	0
1	3	74000	0	1	2	3	4
1	3	1.09036e+07	0	1	2	5	4
1	3	300	0	1	5	3	4
1	4	55488	0	1	2	1	0
1	4	134300	0	1	2	3	4
1	4	2.11108e+07	0	1	2	5	4
1	4	350	0	1	5	3	4
1	5	52608	0	1	2	1	0
1	5	126400	0	1	2	3	4
1	5	2.02547e+07	0	1	2	5	4
1	5	500	0	1	5	3	4
1	6	11648	0	1	2	1	0
1	6	30200	0	1	2	3	4
1	6	4.56294e+06	0	1	2	5	4
1	6	50	0	1	5	3	4
1	7	24704	0	1	2	1	0
1	7	58700	0	1	2	3	4
1	7	9.25286e+06	0	1	2	5	4
1	7	200	0	1	5	3	4
1	8	26112	0	1	2	1	0
1	8	58400	0	1	2	3	4
1	8	8.86784e+06	0	1	2	5	4
1	8	300	0	1	5	3	4
1	9	15616	0	1	2	1	0
1	9	40100	0	1	2	3	4
1	9	5.88595e+06	0	1	2	5	4
1	9	50	0	1	5	3	4
2	0	76928	0	1	2	1	0
2	0	174900	0	1	2	3	4
2	0	2.8201e+07	0	1	2	5	4
2	0	500	0	1	5	3	4
2	1	33472	0	1	2	1	0
2	1	77500	0	1	2	3	4
2	1	1.17637e+07	0	1	2	5	4
2	1	250	0	1	5	3	4
2	3	26688	0	1	2	1	0
2	3	60000	0	1	2	3	4
2	3	1.01581e+07	0	1	2	5	4
2	3	200	0	1	5	3	4
2	4	51968	0	1	2	1	0
2	4	122400	0	1	2	3	4
2	4	1.87433e+07	0	1	2	5	4
2	4	600	0	1	5	3	4
2	5	16128	0	1	2	1	0
2	5	40700	0	1	2	3	4
2	5	6.02931e+06	0	1	2	5	4
2	5	200	0	1	5	3	4
2	6	23232	0	1	2	1	0
2	6	54100	0	1	2	3	4
2	6	9.03578e+06	0	1	2	5	4
2	6	50	0	1	5	3	4
2	7	23616	0	1	2	1	0
2	7	50600	0	1	2	3	4
2	7	8.21658e+06	0	1	2	5	4
2	7	200	0	1	5	3	4
2	8	43712	0	1	2	1	0
2	8	99500	0	1	2	3	4
2	8	1.63267e+07	0	1	2	5	4
2	8	500	0	1	5	3	4
2	9	41920	0	1	2	1	0
2	9	103400	0	1	2	3	4
2	9	1.56508e+07	0	1	2	5	4
2	9	800	0	1	5	3	4
3	0	23552	0	1	2	1	0
3	0	56500	0	1	2	3	4
3	0	9.12998e+06	0	1	2	5	4
3	0	250	0	1	5	3	4
3	1	28736	0	1	2	1	0
3	1	71300	0	1	2	3	4
3	1	1.12763e+07	0	1	2	5	4
3	1	250	0	1	5	3	4
3	2	26880	0	1	2	1	0
3	2	62800	0	1	2	3	4
3	2	1.0326e+07	0	1	2	5	4
3	2	450	0	1	5	3	4
3	4	47616	0	1	2	1	0
3	4	107500	0	1	2	3	4
3	4	1.81084e+07	0	1	2	5	4
3	4	400	0	1	5	3	4
3	5	16512	0	1	2	1	0
3	5	36000	0	1	2	3	4
3	5	5.75078e+06	0	1	2	5	4
3	5	50	0	1	5	3	4
3	6	22272	0	1	2	1	0
3	6	45600	0	1	2	3	4
3	6	7.72915e+06	0	1	2	5	4
3	6	200	0	1	5	3	4
3	7	21184	0	1	2	1	0
3	7	45900	0	1	2	3	4
3	7	7.96672e+06	0	1	2	5	4
3	7	400	0	1	5	3	4
3	8	22016	0	1	2	1	0
3	8	48700	0	1	2	3	4
3	8	7.42195e+06	0	1	2	5	4
3	8	200	0	1	5	3	4
3	9	42112	0	1	2	1	0
3	9	94500	0	1	2	3	4
3	9	1.44712e+07	0	1	2	5	4
3	9	350	0	1	5	3	4
4	0	32704	0	1	2	1	0
4	0	79100	0	1	2	3	4
4	0	1.28901e+07	0	1	2	5	4
4	0	400	0	1	5	3	4
4	1	52224	0	1	2	1	0
4	1	129800	0	1	2	3	4
4	1	2.08896e+07	0	1	2	5	4
4	1	950	0	1	5	3	4
4	2	49920	0	1	2	1	0
4	2	119500	0	1	2	3	4
4	2	1.91119e+07	0	1	2	5	4
4	2	350	0	1	5	3	4
4	3	43968	0	1	2	1	0
4	3	116200	0	1	2	3	4
4	3	1.7535e+07	0	1	2	5	4
4	3	400	0	1	5	3	4
4	5	21184	0	1	2	1	0
4	5	50500	0	1	2	3	4
4	5	7.93805e+06	0	1	2	5	4
4	5	250	0	1	5	3	4
4	6	12544	0	1	2	1	0
4	6	32300	0	1	2	3	4
4	6	5.14458e+06	0	1	2	5	4
4	6	50	0	1	5	3	4
4	7	12224	0	1	2	1	0
4	7	33400	0	1	2	3	4
4	7	4.93158e+06	0	1	2	5	4
4	7	200	0	1	5	3	4
4	8	36288	0	1	2	1	0
4	8	91000	0	1	2	3	4
4	8	1.45203e+07	0	1	2	5	4
4	8	250	0	1	5	3	4
4	9	16128	0	1	2	1	0
4	9	43400	0	1	2	3	4
4	9	6.8608e+06	0	1	2	5	4
4	9	250	0	1	5	3	4
5	0	33280	0	1	2	1	0
5	0	76600	0	1	2	3	4
5	0	1.22798e+07	0	1	2	5	4
5	0	300	0	1	5	3	4
5	1	54208	0	1	2	1	0
5	1	120700	0	1	2	3	4
5	1	1.98001e+07	0	1	2	5	4
5	1	600	0	1	5	3	4
5	2	15296	0	1	2	1	0
5	2	39100	0	1	2	3	4
5	2	5.8327e+06	0	1	2	5	4
5	2	250	0	1	5	3	4
5	3	15552	0	1	2	1	0
5	3	32400	0	1	2	3	4
5	3	5.51322e+06	0	1	2	5	4
5	3	100	0	1	5	3	4
5	4	20864	0	1	2	1	0
5	4	49600	0	1	2	3	4
5	4	8.02816e+06	0	1	2	5	4
5	4	200	0	1	5	3	4
5	6	11520	0	1	2	1	0
5	6	28700	0	1	2	3	4
5	6	4.65715e+06	0	1	2	5	4
5	6	250	0	1	5	3	4
5	7	38400	0	1	2	1	0
5	7	87800	0	1	2	3	4
5	7	1.38977e+07	0	1	2	5	4
5	7	500	0	1	5	3	4
5	8	11584	0	1	2	1	0
5	8	27900	0	1	2	3	4
5	8	4.74317e+06	0	1	2	5	4
5	8	100	0	1	5	3	4
5	9	17664	0	1	2	1	0
5	9	42500	0	1	2	3	4
5	9	6.70106e+06	0	1	2	5	4
5	9	100	0	1	5	3	4
6	0	20864	0	1	2	1	0
6	0	47100	0	1	2	3	4
6	0	7.80698e+06	0	1	2	5	4
6	0	200	0	1	5	3	4
6	1	12480	0	1	2	1	0
6	1	29700	0	1	2	3	4
6	1	4.7063e+06	0	1	2	5	4
6	1	200	0	1	5	3	4
6	2	22976	0	1	2	1	0
6	2	58900	0	1	2	3	4
6	2	8.4992e+06	0	1	2	5	4
6	2	350	0	1	5	3	4
6	3	21952	0	1	2	1	0
6	3	47300	0	1	2	3	4
6	3	7.86022e+06	0	1	2	5	4
6	3	150	0	1	5	3	4
6	4	14592	0	1	2	1	0
6	4	32200	0	1	2	3	4
6	4	4.75546e+06	0	1	2	5	4
6	4	200	0	1	5	3	4
6	5	14656	0	1	2	1	0
6	5	29600	0	1	2	3	4
6	5	4.68173e+06	0	1	2	5	4
6	5	50	0	1	5	3	4
6	7	19328	0	1	2	1	0
6	7	40600	0	1	2	3	4
6	7	6.81984e+06	0	1	2	5	4
6	7	100	0	1	5	3	4
6	8	10816	0	1	2	1	0
6	8	27700	0	1	2	3	4
6	8	4.32947e+06	0	1	2	5	4
6	8	100	0	1	5	3	4
6	9	34944	0	1	2	1	0
6	9	82800	0	1	2	3	4
6	9	1.32874e+07	0	1	2	5	4
6	9	200	0	1	5	3	4
7	0	20224	0	1	2	1	0
7	0	51100	0	1	2	3	4
7	0	7.51206e+06	0	1	2	5	4
7	0	200	0	1	5	3	4
7	1	25216	0	1	2	1	0
7	1	61800	0	1	2	3	4
7	1	9.69523e+06	0	1	2	5	4
7	1	50	0	1	5	3	4
7	2	22848	0	1	2	1	0
7	2	54600	0	1	2	3	4
7	2	8.07322e+06	0	1	2	5	4
7	2	250	0	1	5	3	4
7	3	19520	0	1	2	1	0
7	3	51700	0	1	2	3	4
7	3	8.0937e+06	0	1	2	5	4
7	3	250	0	1	5	3	4
7	4	11904	0	1	2	1	0
7	4	31000	0	1	2	3	4
7	4	4.85376e+06	0	1	2	5	4
7	4	100	0	1	5	3	4
7	5	35392	0	1	2	1	0
7	5	92400	0	1	2	3	4
7	5	1.40206e+07	0	1	2	5	4
7	5	400	0	1	5	3	4
7	6	18560	0	1	2	1	0
7	6	45300	0	1	2	3	4
7	6	6.89357e+06	0	1	2	5	4
7	6	250	0	1	5	3	4
7	8	12032	0	1	2	1	0
7	8	28000	0	1	2	3	4
7	8	4.42368e+06	0	1	2	5	4
7	9	31296	0	1	2	1	0
7	9	76700	0	1	2	3	4
7	9	1.22593e+07	0	1	2	5	4
7	9	350	0	1	5	3	4
8	0	55424	0	1	2	1	0
8	0	136000	0	1	2	3	4
8	0	2.18071e+07	0	1	2	5	4
8	0	600	0	1	5	3	4
8	1	23552	0	1	2	1	0
8	1	56900	0	1	2	3	4
8	1	8.97434e+06	0	1	2	5	4
8	1	150	0	1	5	3	4
8	2	43840	0	1	2	1	0
8	2	102700	0	1	2	3	4
8	2	1.63021e+07	0	1	2	5	4
8	2	150	0	1	5	3	4
8	3	21120	0	1	2	1	0
8	3	50500	0	1	2	3	4
8	3	7.70048e+06	0	1	2	5	4
8	3	450	0	1	5	3	4
8	4	37056	0	1	2	1	0
8	4	88800	0	1	2	3	4
8	4	1.43974e+07	0	1	2	5	4
8	4	250	0	1	5	3	4
8	5	12288	0	1	2	1	0
8	5	28300	0	1	2	3	4
8	5	4.84966e+06	0	1	2	5	4
8	5	100	0	1	5	3	4
8	6	10880	0	1	2	1	0
8	6	29400	0	1	2	3	4
8	6	4.36634e+06	0	1	2	5	4
8	6	200	0	1	5	3	4
8	7	11456	0	1	2	1	0
8	7	27000	0	1	2	3	4
8	7	4.31718e+06	0	1	2	5	4
8	7	150	0	1	5	3	4
8	9	16960	0	1	2	1	0
8	9	37400	0	1	2	3	4
8	9	5.67296e+06	0	1	2	5	4
8	9	150	0	1	5	3	4
9	0	28288	0	1	2	1	0
9	0	66500	0	1	2	3	4
9	0	1.06168e+07	0	1	2	5	4
9	0	200	0	1	5	3	4
9	1	14528	0	1	2	1	0
9	1	38400	0	1	2	3	4
9	1	6.09894e+06	0	1	2	5	4
9	1	150	0	1	5	3	4
9	2	41600	0	1	2	1	0
9	2	103300	0	1	2	3	4
9	2	1.61137e+07	0	1	2	5	4
9	2	450	0	1	5	3	4
9	3	38784	0	1	2	1	0
9	3	94700	0	1	2	3	4
9	3	1.4848e+07	0	1	2	5	4
9	3	450	0	1	5	3	4
9	4	17856	0	1	2	1	0
9	4	42900	0	1	2	3	4
9	4	7.14752e+06	0	1	2	5	4
9	4	100	0	1	5	3	4
9	5	16448	0	1	2	1	0
9	5	40400	0	1	2	3	4
9	5	6.83622e+06	0	1	2	5	4
9	5	100	0	1	5	3	4
9	6	31360	0	1	2	1	0
9	6	82000	0	1	2	3	4
9	6	1.28164e+07	0	1	2	5	4
9	6	350	0	1	5	3	4
9	7	33856	0	1	2	1	0
9	7	81300	0	1	2	3	4
9	7	1.21856e+07	0	1	2	5	4
9	7	250	0	1	5	3	4
9	8	15360	0	1	2	1	0
9	8	39700	0	1	2	3	4
9	8	6.15629e+06	0	1	2	5	4
9	8	250	0	1	5	3	4
