100000	100000	100000	10000	1000	1000
0	1	29760	0	1	2	1	0
0	1	71900	0	1	2	3	4
0	1	1.12394e+07	0	1	2	5	4
0	1	400	0	1	5	3	4
0	2	30592	0	1	2	1	0
0	2	72800	0	1	2	3	4
0	2	1.06742e+07	0	1	2	5	4
0	2	350	0	1	5	3	4
0	3	28480	0	1	2	1	0
0	3	66600	0	1	2	3	4
0	3	1.12026e+07	0	1	2	5	4
0	3	300	0	1	5	3	4
0	4	30848	0	1	2	1	0
0	4	72300	0	1	2	3	4
0	4	1.09978e+07	0	1	2	5	4
0	4	300	0	1	5	3	4
0	5	28224	0	1	2	1	0
0	5	67500	0	1	2	3	4
0	5	1.06496e+07	0	1	2	5	4
0	5	350	0	1	5	3	4
0	6	29568	0	1	2	1	0
0	6	74300	0	1	2	3	4
0	6	1.15098e+07	0	1	2	5	4
0	6	150	0	1	5	3	4
0	7	29824	0	1	2	1	0
0	7	69000	0	1	2	3	4
0	7	1.07643e+07	0	1	2	5	4
0	7	250	0	1	5	3	4
0	8	30016	0	1	2	1	0
0	8	65400	0	1	2	3	4
0	8	1.11739e+07	0	1	2	5	4
0	8	50	0	1	5	3	4
0	9	27840	0	1	2	1	0
0	9	66900	0	1	2	3	4
0	9	1.14442e+07	0	1	2	5	4
0	9	150	0	1	5	3	4
1	0	29888	0	1	2	1	0
1	0	69300	0	1	2	3	4
1	0	1.10141e+07	0	1	2	5	4
1	0	400	0	1	5	3	4
1	2	28352	0	1	2	1	0
1	2	67800	0	1	2	3	4
1	2	1.1436e+07	0	1	2	5	4
1	2	300	0	1	5	3	4
1	3	29504	0	1	2	1	0
1	3	68800	0	1	2	3	4
1	3	1.10961e+07	0	1	2	5	4
1	3	200	0	1	5	3	4
1	4	31296	0	1	2	1	0
1	4	64000	0	1	2	3	4
1	4	1.09199e+07	0	1	2	5	4
1	4	350	0	1	5	3	4
1	5	28736	0	1	2	1	0
1	5	69200	0	1	2	3	4
1	5	1.08421e+07	0	1	2	5	4
1	5	400	0	1	5	3	4
1	6	27392	0	1	2	1	0
1	6	68800	0	1	2	3	4
1	6	1.07807e+07	0	1	2	5	4
1	6	250	0	1	5	3	4
1	7	30272	0	1	2	1	0
1	7	67900	0	1	2	3	4
1	7	1.0879e+07	0	1	2	5	4
1	7	550	0	1	5	3	4
1	8	28224	0	1	2	1	0
1	8	74500	0	1	2	3	4
1	8	1.08544e+07	0	1	2	5	4
1	8	250	0	1	5	3	4
1	9	29696	0	1	2	1	0
1	9	70400	0	1	2	3	4
1	9	1.101e+07	0	1	2	5	4
1	9	300	0	1	5	3	4
2	0	25280	0	1	2	1	0
2	0	74100	0	1	2	3	4
2	0	1.06004e+07	0	1	2	5	4
2	0	550	0	1	5	3	4
2	1	28224	0	1	2	1	0
2	1	72400	0	1	2	3	4
2	1	1.0838e+07	0	1	2	5	4
2	1	250	0	1	5	3	4
2	3	29376	0	1	2	1	0
2	3	72500	0	1	2	3	4
2	3	1.0752e+07	0	1	2	5	4
2	3	600	0	1	5	3	4
2	4	29248	0	1	2	1	0
2	4	69400	0	1	2	3	4
2	4	1.09773e+07	0	1	2	5	4
2	4	200	0	1	5	3	4
2	5	30016	0	1	2	1	0
2	5	75500	0	1	2	3	4
2	5	1.09158e+07	0	1	2	5	4
2	5	400	0	1	5	3	4
2	6	28928	0	1	2	1	0
2	6	73600	0	1	2	3	4
2	6	1.11043e+07	0	1	2	5	4
2	6	100	0	1	5	3	4
2	7	29056	0	1	2	1	0
2	7	68900	0	1	2	3	4
2	7	1.11903e+07	0	1	2	5	4
2	7	200	0	1	5	3	4
2	8	29184	0	1	2	1	0
2	8	68200	0	1	2	3	4
2	8	1.08421e+07	0	1	2	5	4
2	8	200	0	1	5	3	4
2	9	31424	0	1	2	1	0
2	9	71900	0	1	2	3	4
2	9	1.1264e+07	0	1	2	5	4
2	9	500	0	1	5	3	4
3	0	28736	0	1	2	1	0
3	0	67100	0	1	2	3	4
3	0	1.13828e+07	0	1	2	5	4
3	0	300	0	1	5	3	4
3	1	30272	0	1	2	1	0
3	1	73400	0	1	2	3	4
3	1	1.1264e+07	0	1	2	5	4
3	1	100	0	1	5	3	4
3	2	26816	0	1	2	1	0
3	2	72100	0	1	2	3	4
3	2	1.07397e+07	0	1	2	5	4
3	2	250	0	1	5	3	4
3	4	29056	0	1	2	1	0
3	4	68100	0	1	2	3	4
3	4	1.05103e+07	0	1	2	5	4
3	4	250	0	1	5	3	4
3	5	31168	0	1	2	1	0
3	5	67700	0	1	2	3	4
3	5	1.11493e+07	0	1	2	5	4
3	5	550	0	1	5	3	4
3	6	30336	0	1	2	1	0
3	6	74400	0	1	2	3	4
3	6	1.0752e+07	0	1	2	5	4
3	6	250	0	1	5	3	4
3	7	30272	0	1	2	1	0
3	7	73500	0	1	2	3	4
3	7	1.11493e+07	0	1	2	5	4
3	7	400	0	1	5	3	4
3	8	27648	0	1	2	1	0
3	8	70200	0	1	2	3	4
3	8	1.101e+07	0	1	2	5	4
3	8	400	0	1	5	3	4
3	9	28928	0	1	2	1	0
3	9	70000	0	1	2	3	4
3	9	1.14688e+07	0	1	2	5	4
3	9	400	0	1	5	3	4
4	0	29504	0	1	2	1	0
4	0	73500	0	1	2	3	4
4	0	1.10674e+07	0	1	2	5	4
4	0	200	0	1	5	3	4
4	1	28608	0	1	2	1	0
4	1	69300	0	1	2	3	4
4	1	1.10141e+07	0	1	2	5	4
4	1	350	0	1	5	3	4
4	2	27840	0	1	2	1	0
4	2	70500	0	1	2	3	4
4	2	1.12845e+07	0	1	2	5	4
4	2	50	0	1	5	3	4
4	3	28224	0	1	2	1	0
4	3	71500	0	1	2	3	4
4	3	1.14196e+07	0	1	2	5	4
4	3	300	0	1	5	3	4
4	5	27136	0	1	2	1	0
4	5	71300	0	1	2	3	4
4	5	1.10182e+07	0	1	2	5	4
4	5	200	0	1	5	3	4
4	6	27584	0	1	2	1	0
4	6	68500	0	1	2	3	4
4	6	1.11288e+07	0	1	2	5	4
4	6	350	0	1	5	3	4
4	7	30144	0	1	2	1	0
4	7	70600	0	1	2	3	4
4	7	1.1178e+07	0	1	2	5	4
4	7	400	0	1	5	3	4
4	8	30208	0	1	2	1	0
4	8	66800	0	1	2	3	4
4	8	1.07479e+07	0	1	2	5	4
4	8	200	0	1	5	3	4
4	9	29760	0	1	2	1	0
4	9	67500	0	1	2	3	4
4	9	1.08667e+07	0	1	2	5	4
4	9	250	0	1	5	3	4
5	0	27584	0	1	2	1	0
5	0	71900	0	1	2	3	4
5	0	1.1137e+07	0	1	2	5	4
5	0	250	0	1	5	3	4
5	1	27264	0	1	2	1	0
5	1	69600	0	1	2	3	4
5	1	1.14033e+07	0	1	2	5	4
5	1	200	0	1	5	3	4
5	2	29952	0	1	2	1	0
5	2	73900	0	1	2	3	4
5	2	1.10141e+07	0	1	2	5	4
5	2	250	0	1	5	3	4
5	3	27712	0	1	2	1	0
5	3	70500	0	1	2	3	4
5	3	1.11493e+07	0	1	2	5	4
5	3	350	0	1	5	3	4
5	4	29696	0	1	2	1	0
5	4	67700	0	1	2	3	4
5	4	1.10592e+07	0	1	2	5	4
5	4	250	0	1	5	3	4
5	6	30592	0	1	2	1	0
5	6	70000	0	1	2	3	4
5	6	1.07602e+07	0	1	2	5	4
5	6	300	0	1	5	3	4
5	7	31104	0	1	2	1	0
5	7	73400	0	1	2	3	4
5	7	1.1178e+07	0	1	2	5	4
5	7	350	0	1	5	3	4
5	8	30208	0	1	2	1	0
5	8	69600	0	1	2	3	4
5	8	1.12517e+07	0	1	2	5	4
5	8	300	0	1	5	3	4
5	9	27008	0	1	2	1	0
5	9	71600	0	1	2	3	4
5	9	1.10428e+07	0	1	2	5	4
5	9	350	0	1	5	3	4
6	0	28480	0	1	2	1	0
6	0	71500	0	1	2	3	4
6	0	1.13869e+07	0	1	2	5	4
6	0	100	0	1	5	3	4
6	1	29312	0	1	2	1	0
6	1	68600	0	1	2	3	4
6	1	1.05144e+07	0	1	2	5	4
6	1	450	0	1	5	3	4
6	2	29824	0	1	2	1	0
6	2	71300	0	1	2	3	4
6	2	1.08585e+07	0	1	2	5	4
6	2	200	0	1	5	3	4
6	3	30016	0	1	2	1	0
6	3	64300	0	1	2	3	4
6	3	1.0924e+07	0	1	2	5	4
6	3	350	0	1	5	3	4
6	4	27776	0	1	2	1	0
6	4	68400	0	1	2	3	4
6	4	1.10387e+07	0	1	2	5	4
6	4	300	0	1	5	3	4
6	5	28352	0	1	2	1	0
6	5	66700	0	1	2	3	4
6	5	1.05964e+07	0	1	2	5	4
6	5	300	0	1	5	3	4
6	7	27136	0	1	2	1	0
6	7	68900	0	1	2	3	4
6	7	1.12517e+07	0	1	2	5	4
6	7	500	0	1	5	3	4
6	8	28160	0	1	2	1	0
6	8	70300	0	1	2	3	4
6	8	1.07561e+07	0	1	2	5	4
6	8	300	0	1	5	3	4
6	9	28864	0	1	2	1	0
6	9	70200	0	1	2	3	4
6	9	1.09978e+07	0	1	2	5	4
6	9	500	0	1	5	3	4
7	0	30080	0	1	2	1	0
7	0	73300	0	1	2	3	4
7	0	1.07725e+07	0	1	2	5	4
7	0	250	0	1	5	3	4
7	1	29888	0	1	2	1	0
7	1	71800	0	1	2	3	4
7	1	1.10019e+07	0	1	2	5	4
7	1	300	0	1	5	3	4
7	2	27648	0	1	2	1	0
7	2	71300	0	1	2	3	4
7	2	1.08093e+07	0	1	2	5	4
7	2	300	0	1	5	3	4
7	3	28800	0	1	2	1	0
7	3	71600	0	1	2	3	4
7	3	1.1006e+07	0	1	2	5	4
7	3	300	0	1	5	3	4
7	4	28736	0	1	2	1	0
7	4	70100	0	1	2	3	4
7	4	1.08134e+07	0	1	2	5	4
7	4	200	0	1	5	3	4
7	5	29376	0	1	2	1	0
7	5	69100	0	1	2	3	4
7	5	1.135e+07	0	1	2	5	4
7	5	450	0	1	5	3	4
7	6	29760	0	1	2	1	0
7	6	68900	0	1	2	3	4
7	6	1.07643e+07	0	1	2	5	4
7	6	300	0	1	5	3	4
7	8	27968	0	1	2	1	0
7	8	69600	0	1	2	3	4
7	8	1.09691e+07	0	1	2	5	4
7	8	300	0	1	5	3	4
7	9	30144	0	1	2	1	0
7	9	67200	0	1	2	3	4
7	9	1.09404e+07	0	1	2	5	4
7	9	250	0	1	5	3	4
8	0	28800	0	1	2	1	0
8	0	72700	0	1	2	3	4
8	0	1.11493e+07	0	1	2	5	4
8	0	250	0	1	5	3	4
8	1	30208	0	1	2	1	0
8	1	68300	0	1	2	3	4
8	1	1.0965e+07	0	1	2	5	4
8	1	500	0	1	5	3	4
8	2	29120	0	1	2	1	0
8	2	69100	0	1	2	3	4
8	2	1.07684e+07	0	1	2	5	4
8	2	200	0	1	5	3	4
8	3	26560	0	1	2	1	0
8	3	71700	0	1	2	3	4
8	3	1.08667e+07	0	1	2	5	4
8	3	100	0	1	5	3	4
8	4	31424	0	1	2	1	0
8	4	71000	0	1	2	3	4
8	4	1.08872e+07	0	1	2	5	4
8	4	300	0	1	5	3	4
8	5	28736	0	1	2	1	0
8	5	71900	0	1	2	3	4
8	5	1.11002e+07	0	1	2	5	4
8	5	300	0	1	5	3	4
8	6	29568	0	1	2	1	0
8	6	69600	0	1	2	3	4
8	6	1.13951e+07	0	1	2	5	4
8	6	300	0	1	5	3	4
8	7	27584	0	1	2	1	0
8	7	72800	0	1	2	3	4
8	7	1.07356e+07	0	1	2	5	4
8	7	500	0	1	5	3	4
8	9	29120	0	1	2	1	0
8	9	72900	0	1	2	3	4
8	9	1.06209e+07	0	1	2	5	4
8	9	350	0	1	5	3	4
9	0	29248	0	1	2	1	0
9	0	66400	0	1	2	3	4
9	0	1.10756e+07	0	1	2	5	4
9	0	350	0	1	5	3	4
9	1	30528	0	1	2	1	0
9	1	69000	0	1	2	3	4
9	1	1.08052e+07	0	1	2	5	4
9	1	400	0	1	5	3	4
9	2	30720	0	1	2	1	0
9	2	71600	0	1	2	3	4
9	2	1.08012e+07	0	1	2	5	4
9	2	250	0	1	5	3	4
9	3	28800	0	1	2	1	0
9	3	69200	0	1	2	3	4
9	3	1.09281e+07	0	1	2	5	4
9	3	200	0	1	5	3	4
9	4	26624	0	1	2	1	0
9	4	69300	0	1	2	3	4
9	4	1.13746e+07	0	1	2	5	4
9	4	300	0	1	5	3	4
9	5	30400	0	1	2	1	0
9	5	70100	0	1	2	3	4
9	5	1.10141e+07	0	1	2	5	4
9	5	250	0	1	5	3	4
9	6	26496	0	1	2	1	0
9	6	72700	0	1	2	3	4
9	6	1.14893e+07	0	1	2	5	4
9	6	250	0	1	5	3	4
9	7	28224	0	1	2	1	0
9	7	69400	0	1	2	3	4
9	7	1.10141e+07	0	1	2	5	4
9	7	150	0	1	5	3	4
9	8	29696	0	1	2	1	0
9	8	71600	0	1	2	3	4
9	8	1.1178e+07	0	1	2	5	4
9	8	550	0	1	5	3	4
