10
0	2	1e+12
0	3	1e+12
0	5	1e+12
1	4	1e+12
1	5	1e+12
1	7	1e+12
2	0	1e+12
2	5	1e+12
2	6	1e+12
2	9	1e+12
3	0	1e+12
3	9	1e+12
4	1	1e+12
4	7	1e+12
5	0	1e+12
5	1	1e+12
5	2	1e+12
5	7	1e+12
5	8	1e+12
6	2	1e+12
7	1	1e+12
7	4	1e+12
7	5	1e+12
8	5	1e+12
9	2	1e+12
9	3	1e+12
