20
0	1	1e+12
0	7	1e+12
0	18	1e+12
1	0	1e+12
1	4	1e+12
1	7	1e+12
1	8	1e+12
1	11	1e+12
1	17	1e+12
2	3	1e+12
2	9	1e+12
2	11	1e+12
2	12	1e+12
2	13	1e+12
3	2	1e+12
3	11	1e+12
4	1	1e+12
4	8	1e+12
4	9	1e+12
4	13	1e+12
5	8	1e+12
5	11	1e+12
5	19	1e+12
6	12	1e+12
6	13	1e+12
7	0	1e+12
7	1	1e+12
7	10	1e+12
7	17	1e+12
7	19	1e+12
8	1	1e+12
8	4	1e+12
8	5	1e+12
8	11	1e+12
9	2	1e+12
9	4	1e+12
9	14	1e+12
9	15	1e+12
9	16	1e+12
10	7	1e+12
10	18	1e+12
11	1	1e+12
11	2	1e+12
11	3	1e+12
11	5	1e+12
11	8	1e+12
11	17	1e+12
12	2	1e+12
12	6	1e+12
12	16	1e+12
13	2	1e+12
13	4	1e+12
13	6	1e+12
13	15	1e+12
14	9	1e+12
14	16	1e+12
14	19	1e+12
15	9	1e+12
15	13	1e+12
16	9	1e+12
16	12	1e+12
16	14	1e+12
16	19	1e+12
17	1	1e+12
17	7	1e+12
17	11	1e+12
17	19	1e+12
18	0	1e+12
18	10	1e+12
19	5	1e+12
19	7	1e+12
19	14	1e+12
19	16	1e+12
19	17	1e+12
