100000	100000	100000	10000	1000	1000
0	1	1.22758e+06	0	1	2	1	0
0	1	2.9721e+06	0	1	2	3	4
0	1	4.67202e+08	0	1	2	5	4
0	1	11250	0	1	5	3	4
0	2	70912	0	1	2	1	0
0	2	172000	0	1	2	3	4
0	2	2.71565e+07	0	1	2	5	4
0	2	1000	0	1	5	3	4
0	3	5120	0	1	2	1	0
0	3	13500	0	1	2	3	4
0	3	1.78176e+06	0	1	2	5	4
0	3	50	0	1	5	3	4
0	4	1344	0	1	2	1	0
0	4	3100	0	1	2	3	4
0	4	401408	0	1	2	5	4
0	5	64	0	1	2	1	0
0	5	500	0	1	2	3	4
0	5	110592	0	1	2	5	4
0	6	192	0	1	2	1	0
0	6	300	0	1	2	3	4
0	6	86016	0	1	2	5	4
0	7	20480	0	1	2	5	4
0	8	8192	0	1	2	5	4
1	0	1.25171e+06	0	1	2	1	0
1	0	2.9674e+06	0	1	2	3	4
1	0	4.64593e+08	0	1	2	5	4
1	0	12700	0	1	5	3	4
1	2	128	0	1	2	1	0
1	2	400	0	1	2	3	4
1	2	65536	0	1	2	5	4
1	3	100	0	1	2	3	4
1	3	8192	0	1	2	5	4
1	4	4096	0	1	2	5	4
2	0	71488	0	1	2	1	0
2	0	186600	0	1	2	3	4
2	0	2.68616e+07	0	1	2	5	4
2	0	650	0	1	5	3	4
2	1	128	0	1	2	1	0
2	1	400	0	1	2	3	4
2	1	81920	0	1	2	5	4
3	0	4096	0	1	2	1	0
3	0	12400	0	1	2	3	4
3	0	1.9415e+06	0	1	2	5	4
3	0	50	0	1	5	3	4
3	1	64	0	1	2	1	0
3	1	4096	0	1	2	5	4
4	0	1344	0	1	2	1	0
4	0	2100	0	1	2	3	4
4	0	487424	0	1	2	5	4
4	1	64	0	1	2	1	0
4	1	4096	0	1	2	5	4
5	0	320	0	1	2	1	0
5	0	400	0	1	2	3	4
5	0	90112	0	1	2	5	4
6	0	400	0	1	2	3	4
6	0	61440	0	1	2	5	4
7	0	200	0	1	2	3	4
7	0	28672	0	1	2	5	4
8	0	12288	0	1	2	5	4
