14
0	2	1e+12
0	10	1e+12
0	13	1e+12
1	5	1e+12
1	6	1e+12
1	11	1e+12
2	0	1e+12
2	5	1e+12
2	11	1e+12
2	12	1e+12
3	7	1e+12
3	9	1e+12
4	13	1e+12
5	1	1e+12
5	2	1e+12
5	6	1e+12
5	9	1e+12
6	1	1e+12
6	5	1e+12
6	13	1e+12
7	3	1e+12
8	9	1e+12
8	11	1e+12
8	13	1e+12
9	3	1e+12
9	5	1e+12
9	8	1e+12
9	12	1e+12
10	0	1e+12
11	1	1e+12
11	2	1e+12
11	8	1e+12
12	2	1e+12
12	9	1e+12
13	0	1e+12
13	4	1e+12
13	6	1e+12
13	8	1e+12
