14
0	7	1e+12
0	12	1e+12
1	5	1e+12
2	3	1e+12
2	4	1e+12
3	2	1e+12
3	6	1e+12
3	8	1e+12
3	11	1e+12
3	13	1e+12
4	2	1e+12
4	7	1e+12
4	10	1e+12
4	12	1e+12
4	13	1e+12
5	1	1e+12
5	10	1e+12
6	3	1e+12
6	7	1e+12
7	0	1e+12
7	4	1e+12
7	6	1e+12
7	10	1e+12
7	13	1e+12
8	3	1e+12
8	11	1e+12
8	13	1e+12
9	10	1e+12
10	4	1e+12
10	5	1e+12
10	7	1e+12
10	9	1e+12
11	3	1e+12
11	8	1e+12
12	0	1e+12
12	4	1e+12
13	3	1e+12
13	4	1e+12
13	7	1e+12
13	8	1e+12
