14
0	8	1e+12
0	9	1e+12
0	11	1e+12
1	6	1e+12
1	8	1e+12
1	9	1e+12
1	12	1e+12
2	10	1e+12
2	13	1e+12
3	6	1e+12
3	8	1e+12
4	5	1e+12
4	12	1e+12
5	4	1e+12
5	7	1e+12
5	11	1e+12
5	13	1e+12
6	1	1e+12
6	3	1e+12
6	7	1e+12
6	8	1e+12
6	9	1e+12
7	5	1e+12
7	6	1e+12
7	8	1e+12
7	9	1e+12
8	0	1e+12
8	1	1e+12
8	3	1e+12
8	6	1e+12
8	7	1e+12
8	11	1e+12
9	0	1e+12
9	1	1e+12
9	6	1e+12
9	7	1e+12
9	10	1e+12
10	2	1e+12
10	9	1e+12
10	12	1e+12
11	0	1e+12
11	5	1e+12
11	8	1e+12
12	1	1e+12
12	4	1e+12
12	10	1e+12
13	2	1e+12
13	5	1e+12
