100000	100000	100000	10000	1000	1000
0	1	856384	0	1	2	1	0
0	1	2.0263e+06	0	1	2	3	4
0	1	3.20987e+08	0	1	2	5	4
0	1	8650	0	1	5	3	4
0	2	339648	0	1	2	1	0
0	2	802900	0	1	2	3	4
0	2	1.26575e+08	0	1	2	5	4
0	2	3950	0	1	5	3	4
0	3	53248	0	1	2	1	0
0	3	123800	0	1	2	3	4
0	3	2.01974e+07	0	1	2	5	4
0	3	350	0	1	5	3	4
0	4	22144	0	1	2	1	0
0	4	53100	0	1	2	3	4
0	4	8.40499e+06	0	1	2	5	4
0	4	200	0	1	5	3	4
0	5	19712	0	1	2	1	0
0	5	50100	0	1	2	3	4
0	5	8.24115e+06	0	1	2	5	4
0	5	100	0	1	5	3	4
0	6	3392	0	1	2	1	0
0	6	7900	0	1	2	3	4
0	6	1.5401e+06	0	1	2	5	4
0	7	3584	0	1	2	1	0
0	7	9000	0	1	2	3	4
0	7	1.38035e+06	0	1	2	5	4
0	8	4352	0	1	2	1	0
0	8	9700	0	1	2	3	4
0	8	1.60563e+06	0	1	2	5	4
0	8	100	0	1	5	3	4
0	9	3072	0	1	2	1	0
0	9	6400	0	1	2	3	4
0	9	1.11821e+06	0	1	2	5	4
1	0	842688	0	1	2	1	0
1	0	2.0257e+06	0	1	2	3	4
1	0	3.21892e+08	0	1	2	5	4
1	0	8150	0	1	5	3	4
1	2	5440	0	1	2	1	0
1	2	18100	0	1	2	3	4
1	2	2.59686e+06	0	1	2	5	4
1	2	100	0	1	5	3	4
1	3	1600	0	1	2	1	0
1	3	6100	0	1	2	3	4
1	3	880640	0	1	2	5	4
1	3	50	0	1	5	3	4
1	4	768	0	1	2	1	0
1	4	1700	0	1	2	3	4
1	4	356352	0	1	2	5	4
1	5	1024	0	1	2	1	0
1	5	1000	0	1	2	3	4
1	5	274432	0	1	2	5	4
1	6	128	0	1	2	1	0
1	6	700	0	1	2	3	4
1	6	110592	0	1	2	5	4
1	7	64	0	1	2	1	0
1	7	400	0	1	2	3	4
1	7	94208	0	1	2	5	4
1	8	320	0	1	2	1	0
1	8	700	0	1	2	3	4
1	8	114688	0	1	2	5	4
1	9	40960	0	1	2	5	4
2	0	339584	0	1	2	1	0
2	0	790300	0	1	2	3	4
2	0	1.26431e+08	0	1	2	5	4
2	0	3600	0	1	5	3	4
2	1	6912	0	1	2	1	0
2	1	14000	0	1	2	3	4
2	1	2.78938e+06	0	1	2	5	4
2	1	50	0	1	5	3	4
2	3	640	0	1	2	1	0
2	3	2400	0	1	2	3	4
2	3	172032	0	1	2	5	4
2	4	256	0	1	2	1	0
2	4	1800	0	1	2	3	4
2	4	204800	0	1	2	5	4
2	5	128	0	1	2	1	0
2	5	300	0	1	2	3	4
2	5	65536	0	1	2	5	4
2	6	128	0	1	2	1	0
2	6	12288	0	1	2	5	4
2	7	128	0	1	2	1	0
2	7	100	0	1	2	3	4
2	8	36864	0	1	2	5	4
2	9	64	0	1	2	1	0
2	9	8192	0	1	2	5	4
3	0	54080	0	1	2	1	0
3	0	125900	0	1	2	3	4
3	0	2.05865e+07	0	1	2	5	4
3	0	350	0	1	5	3	4
3	1	2752	0	1	2	1	0
3	1	4700	0	1	2	3	4
3	1	913408	0	1	2	5	4
3	2	768	0	1	2	1	0
3	2	1100	0	1	2	3	4
3	2	249856	0	1	2	5	4
3	4	64	0	1	2	1	0
3	4	300	0	1	2	3	4
3	4	45056	0	1	2	5	4
3	5	64	0	1	2	1	0
3	5	100	0	1	2	3	4
3	5	24576	0	1	2	5	4
3	7	4096	0	1	2	5	4
3	9	4096	0	1	2	5	4
4	0	21824	0	1	2	1	0
4	0	49900	0	1	2	3	4
4	0	8.58112e+06	0	1	2	5	4
4	0	150	0	1	5	3	4
4	1	896	0	1	2	1	0
4	1	2200	0	1	2	3	4
4	1	385024	0	1	2	5	4
4	2	640	0	1	2	1	0
4	2	1400	0	1	2	3	4
4	2	208896	0	1	2	5	4
4	3	192	0	1	2	1	0
4	3	300	0	1	2	3	4
4	3	65536	0	1	2	5	4
4	5	12288	0	1	2	5	4
4	6	100	0	1	2	3	4
4	6	4096	0	1	2	5	4
5	0	21376	0	1	2	1	0
5	0	50200	0	1	2	3	4
5	0	8.00358e+06	0	1	2	5	4
5	0	300	0	1	5	3	4
5	1	320	0	1	2	1	0
5	1	1900	0	1	2	3	4
5	1	225280	0	1	2	5	4
5	2	64	0	1	2	1	0
5	2	100	0	1	2	3	4
5	2	53248	0	1	2	5	4
5	3	100	0	1	2	3	4
5	3	24576	0	1	2	5	4
5	4	12288	0	1	2	5	4
5	7	4096	0	1	2	5	4
5	8	4096	0	1	2	5	4
6	0	3840	0	1	2	1	0
6	0	9100	0	1	2	3	4
6	0	1.29434e+06	0	1	2	5	4
6	0	100	0	1	5	3	4
6	1	400	0	1	2	3	4
6	1	69632	0	1	2	5	4
6	1	50	0	1	5	3	4
6	2	128	0	1	2	1	0
6	2	100	0	1	2	3	4
6	2	4096	0	1	2	5	4
6	3	4096	0	1	2	5	4
6	5	100	0	1	2	3	4
7	0	3392	0	1	2	1	0
7	0	8800	0	1	2	3	4
7	0	1.28614e+06	0	1	2	5	4
7	1	128	0	1	2	1	0
7	1	800	0	1	2	3	4
7	1	69632	0	1	2	5	4
7	2	64	0	1	2	1	0
7	2	100	0	1	2	3	4
7	2	8192	0	1	2	5	4
7	3	4096	0	1	2	5	4
7	8	4096	0	1	2	5	4
8	0	4288	0	1	2	1	0
8	0	9800	0	1	2	3	4
8	0	1.7367e+06	0	1	2	5	4
8	0	150	0	1	5	3	4
8	1	500	0	1	2	3	4
8	1	65536	0	1	2	5	4
8	2	8192	0	1	2	5	4
8	3	8192	0	1	2	5	4
8	5	4096	0	1	2	5	4
9	0	2624	0	1	2	1	0
9	0	6100	0	1	2	3	4
9	0	991232	0	1	2	5	4
9	1	64	0	1	2	1	0
9	1	24576	0	1	2	5	4
9	2	64	0	1	2	1	0
