100000	100000	100000	10000	1000	1000
0	1	31808	0	1	2	1	0
0	1	65100	0	1	2	3	4
0	1	1.11247e+07	0	1	2	5	4
0	1	200	0	1	5	3	4
0	2	27200	0	1	2	1	0
0	2	66900	0	1	2	3	4
0	2	1.11493e+07	0	1	2	5	4
0	2	350	0	1	5	3	4
0	3	29120	0	1	2	1	0
0	3	69300	0	1	2	3	4
0	3	1.11288e+07	0	1	2	5	4
0	3	250	0	1	5	3	4
0	4	28288	0	1	2	1	0
0	4	70000	0	1	2	3	4
0	4	1.13295e+07	0	1	2	5	4
0	4	400	0	1	5	3	4
0	5	28928	0	1	2	1	0
0	5	67200	0	1	2	3	4
0	5	1.0879e+07	0	1	2	5	4
0	5	650	0	1	5	3	4
0	6	28352	0	1	2	1	0
0	6	65000	0	1	2	3	4
0	6	1.0924e+07	0	1	2	5	4
0	6	200	0	1	5	3	4
0	7	28736	0	1	2	1	0
0	7	76200	0	1	2	3	4
0	7	1.08954e+07	0	1	2	5	4
0	7	350	0	1	5	3	4
0	8	30208	0	1	2	1	0
0	8	66300	0	1	2	3	4
0	8	1.08134e+07	0	1	2	5	4
0	8	350	0	1	5	3	4
0	9	27968	0	1	2	1	0
0	9	69400	0	1	2	3	4
0	9	1.101e+07	0	1	2	5	4
0	9	450	0	1	5	3	4
1	0	28352	0	1	2	1	0
1	0	74100	0	1	2	3	4
1	0	1.10223e+07	0	1	2	5	4
1	0	200	0	1	5	3	4
1	2	31488	0	1	2	1	0
1	2	72200	0	1	2	3	4
1	2	1.13091e+07	0	1	2	5	4
1	2	250	0	1	5	3	4
1	3	30592	0	1	2	1	0
1	3	65800	0	1	2	3	4
1	3	1.11206e+07	0	1	2	5	4
1	3	300	0	1	5	3	4
1	4	28672	0	1	2	1	0
1	4	69500	0	1	2	3	4
1	4	1.12435e+07	0	1	2	5	4
1	4	250	0	1	5	3	4
1	5	30272	0	1	2	1	0
1	5	69100	0	1	2	3	4
1	5	1.07971e+07	0	1	2	5	4
1	5	250	0	1	5	3	4
1	6	29056	0	1	2	1	0
1	6	69000	0	1	2	3	4
1	6	1.08093e+07	0	1	2	5	4
1	6	300	0	1	5	3	4
1	7	27968	0	1	2	1	0
1	7	63600	0	1	2	3	4
1	7	1.06373e+07	0	1	2	5	4
1	7	250	0	1	5	3	4
1	8	30016	0	1	2	1	0
1	8	72300	0	1	2	3	4
1	8	1.12394e+07	0	1	2	5	4
1	8	350	0	1	5	3	4
1	9	28992	0	1	2	1	0
1	9	69600	0	1	2	3	4
1	9	1.11821e+07	0	1	2	5	4
1	9	300	0	1	5	3	4
2	0	28224	0	1	2	1	0
2	0	73100	0	1	2	3	4
2	0	1.11657e+07	0	1	2	5	4
2	0	250	0	1	5	3	4
2	1	30592	0	1	2	1	0
2	1	65900	0	1	2	3	4
2	1	1.0879e+07	0	1	2	5	4
2	1	400	0	1	5	3	4
2	3	28800	0	1	2	1	0
2	3	67100	0	1	2	3	4
2	3	1.09978e+07	0	1	2	5	4
2	3	250	0	1	5	3	4
2	4	27200	0	1	2	1	0
2	4	69400	0	1	2	3	4
2	4	1.10633e+07	0	1	2	5	4
2	4	300	0	1	5	3	4
2	5	29760	0	1	2	1	0
2	5	74800	0	1	2	3	4
2	5	1.09036e+07	0	1	2	5	4
2	5	300	0	1	5	3	4
2	6	31936	0	1	2	1	0
2	6	67700	0	1	2	3	4
2	6	1.10428e+07	0	1	2	5	4
2	6	250	0	1	5	3	4
2	7	30528	0	1	2	1	0
2	7	71200	0	1	2	3	4
2	7	1.11657e+07	0	1	2	5	4
2	7	250	0	1	5	3	4
2	8	31360	0	1	2	1	0
2	8	69200	0	1	2	3	4
2	8	1.07725e+07	0	1	2	5	4
2	8	250	0	1	5	3	4
2	9	29824	0	1	2	1	0
2	9	73400	0	1	2	3	4
2	9	1.08093e+07	0	1	2	5	4
2	9	300	0	1	5	3	4
3	0	28544	0	1	2	1	0
3	0	70400	0	1	2	3	4
3	0	1.1051e+07	0	1	2	5	4
3	0	200	0	1	5	3	4
3	1	28224	0	1	2	1	0
3	1	74300	0	1	2	3	4
3	1	1.07028e+07	0	1	2	5	4
3	1	100	0	1	5	3	4
3	2	28992	0	1	2	1	0
3	2	71700	0	1	2	3	4
3	2	1.08585e+07	0	1	2	5	4
3	2	200	0	1	5	3	4
3	4	28224	0	1	2	1	0
3	4	69300	0	1	2	3	4
3	4	1.07561e+07	0	1	2	5	4
3	4	250	0	1	5	3	4
3	5	30208	0	1	2	1	0
3	5	70400	0	1	2	3	4
3	5	1.08298e+07	0	1	2	5	4
3	5	250	0	1	5	3	4
3	6	28288	0	1	2	1	0
3	6	68000	0	1	2	3	4
3	6	1.10797e+07	0	1	2	5	4
3	6	150	0	1	5	3	4
3	7	29056	0	1	2	1	0
3	7	76700	0	1	2	3	4
3	7	1.08257e+07	0	1	2	5	4
3	7	200	0	1	5	3	4
3	8	28992	0	1	2	1	0
3	8	70300	0	1	2	3	4
3	8	1.12435e+07	0	1	2	5	4
3	8	150	0	1	5	3	4
3	9	28544	0	1	2	1	0
3	9	64500	0	1	2	3	4
3	9	1.11944e+07	0	1	2	5	4
3	9	200	0	1	5	3	4
4	0	30528	0	1	2	1	0
4	0	63600	0	1	2	3	4
4	0	1.08831e+07	0	1	2	5	4
4	0	350	0	1	5	3	4
4	1	27456	0	1	2	1	0
4	1	67400	0	1	2	3	4
4	1	1.0965e+07	0	1	2	5	4
4	1	200	0	1	5	3	4
4	2	30080	0	1	2	1	0
4	2	70800	0	1	2	3	4
4	2	1.12108e+07	0	1	2	5	4
4	2	350	0	1	5	3	4
4	3	27584	0	1	2	1	0
4	3	70400	0	1	2	3	4
4	3	1.1305e+07	0	1	2	5	4
4	3	400	0	1	5	3	4
4	5	30592	0	1	2	1	0
4	5	69000	0	1	2	3	4
4	5	1.06373e+07	0	1	2	5	4
4	5	250	0	1	5	3	4
4	6	29120	0	1	2	1	0
4	6	74200	0	1	2	3	4
4	6	1.1051e+07	0	1	2	5	4
4	6	250	0	1	5	3	4
4	7	30784	0	1	2	1	0
4	7	68300	0	1	2	3	4
4	7	1.07274e+07	0	1	2	5	4
4	7	150	0	1	5	3	4
4	8	28992	0	1	2	1	0
4	8	72400	0	1	2	3	4
4	8	1.09199e+07	0	1	2	5	4
4	8	450	0	1	5	3	4
4	9	29568	0	1	2	1	0
4	9	70100	0	1	2	3	4
4	9	1.08175e+07	0	1	2	5	4
4	9	150	0	1	5	3	4
5	0	29632	0	1	2	1	0
5	0	71000	0	1	2	3	4
5	0	1.09076e+07	0	1	2	5	4
5	0	250	0	1	5	3	4
5	1	28416	0	1	2	1	0
5	1	68300	0	1	2	3	4
5	1	1.12026e+07	0	1	2	5	4
5	1	200	0	1	5	3	4
5	2	31552	0	1	2	1	0
5	2	73200	0	1	2	3	4
5	2	1.10428e+07	0	1	2	5	4
5	2	250	0	1	5	3	4
5	3	30912	0	1	2	1	0
5	3	68800	0	1	2	3	4
5	3	1.09404e+07	0	1	2	5	4
5	3	350	0	1	5	3	4
5	4	29824	0	1	2	1	0
5	4	68800	0	1	2	3	4
5	4	1.11862e+07	0	1	2	5	4
5	4	150	0	1	5	3	4
5	6	29568	0	1	2	1	0
5	6	67600	0	1	2	3	4
5	6	1.12681e+07	0	1	2	5	4
5	6	300	0	1	5	3	4
5	7	31296	0	1	2	1	0
5	7	68200	0	1	2	3	4
5	7	1.12312e+07	0	1	2	5	4
5	7	150	0	1	5	3	4
5	8	27072	0	1	2	1	0
5	8	74100	0	1	2	3	4
5	8	1.1137e+07	0	1	2	5	4
5	8	400	0	1	5	3	4
5	9	26560	0	1	2	1	0
5	9	69400	0	1	2	3	4
5	9	1.12312e+07	0	1	2	5	4
5	9	350	0	1	5	3	4
6	0	30592	0	1	2	1	0
6	0	73000	0	1	2	3	4
6	0	1.12681e+07	0	1	2	5	4
6	0	300	0	1	5	3	4
6	1	29248	0	1	2	1	0
6	1	74700	0	1	2	3	4
6	1	1.11944e+07	0	1	2	5	4
6	1	250	0	1	5	3	4
6	2	29696	0	1	2	1	0
6	2	70500	0	1	2	3	4
6	2	1.08093e+07	0	1	2	5	4
6	2	100	0	1	5	3	4
6	3	27200	0	1	2	1	0
6	3	69000	0	1	2	3	4
6	3	1.14074e+07	0	1	2	5	4
6	3	150	0	1	5	3	4
6	4	28928	0	1	2	1	0
6	4	69300	0	1	2	3	4
6	4	1.07643e+07	0	1	2	5	4
6	4	50	0	1	5	3	4
6	5	29568	0	1	2	1	0
6	5	70400	0	1	2	3	4
6	5	1.10797e+07	0	1	2	5	4
6	5	150	0	1	5	3	4
6	7	27712	0	1	2	1	0
6	7	71800	0	1	2	3	4
6	7	1.0879e+07	0	1	2	5	4
6	7	300	0	1	5	3	4
6	8	30528	0	1	2	1	0
6	8	71200	0	1	2	3	4
6	8	1.11944e+07	0	1	2	5	4
6	8	350	0	1	5	3	4
6	9	29184	0	1	2	1	0
6	9	75800	0	1	2	3	4
6	9	1.12599e+07	0	1	2	5	4
6	9	400	0	1	5	3	4
7	0	28160	0	1	2	1	0
7	0	69400	0	1	2	3	4
7	0	1.10428e+07	0	1	2	5	4
7	0	300	0	1	5	3	4
7	1	30336	0	1	2	1	0
7	1	68500	0	1	2	3	4
7	1	1.0625e+07	0	1	2	5	4
7	1	250	0	1	5	3	4
7	2	30272	0	1	2	1	0
7	2	70800	0	1	2	3	4
7	2	1.10592e+07	0	1	2	5	4
7	2	250	0	1	5	3	4
7	3	29184	0	1	2	1	0
7	3	68900	0	1	2	3	4
7	3	1.10674e+07	0	1	2	5	4
7	3	300	0	1	5	3	4
7	4	28160	0	1	2	1	0
7	4	70900	0	1	2	3	4
7	4	1.10797e+07	0	1	2	5	4
7	4	300	0	1	5	3	4
7	5	28480	0	1	2	1	0
7	5	73700	0	1	2	3	4
7	5	1.04489e+07	0	1	2	5	4
7	5	350	0	1	5	3	4
7	6	28096	0	1	2	1	0
7	6	68000	0	1	2	3	4
7	6	1.13992e+07	0	1	2	5	4
7	6	200	0	1	5	3	4
7	8	28864	0	1	2	1	0
7	8	66500	0	1	2	3	4
7	8	1.11288e+07	0	1	2	5	4
7	8	500	0	1	5	3	4
7	9	26816	0	1	2	1	0
7	9	70500	0	1	2	3	4
7	9	1.09527e+07	0	1	2	5	4
7	9	150	0	1	5	3	4
8	0	27584	0	1	2	1	0
8	0	70600	0	1	2	3	4
8	0	1.06988e+07	0	1	2	5	4
8	0	300	0	1	5	3	4
8	1	27072	0	1	2	1	0
8	1	70200	0	1	2	3	4
8	1	1.05882e+07	0	1	2	5	4
8	1	200	0	1	5	3	4
8	2	29504	0	1	2	1	0
8	2	75000	0	1	2	3	4
8	2	1.10428e+07	0	1	2	5	4
8	2	150	0	1	5	3	4
8	3	28800	0	1	2	1	0
8	3	74000	0	1	2	3	4
8	3	1.12189e+07	0	1	2	5	4
8	3	450	0	1	5	3	4
8	4	28800	0	1	2	1	0
8	4	67700	0	1	2	3	4
8	4	1.12148e+07	0	1	2	5	4
8	4	300	0	1	5	3	4
8	5	28800	0	1	2	1	0
8	5	71600	0	1	2	3	4
8	5	1.11862e+07	0	1	2	5	4
8	5	250	0	1	5	3	4
8	6	30720	0	1	2	1	0
8	6	69800	0	1	2	3	4
8	6	1.11329e+07	0	1	2	5	4
8	6	350	0	1	5	3	4
8	7	31616	0	1	2	1	0
8	7	70100	0	1	2	3	4
8	7	1.15958e+07	0	1	2	5	4
8	7	300	0	1	5	3	4
8	9	29120	0	1	2	1	0
8	9	73000	0	1	2	3	4
8	9	1.13091e+07	0	1	2	5	4
8	9	250	0	1	5	3	4
9	0	30912	0	1	2	1	0
9	0	71200	0	1	2	3	4
9	0	1.09855e+07	0	1	2	5	4
9	0	400	0	1	5	3	4
9	1	30528	0	1	2	1	0
9	1	68100	0	1	2	3	4
9	1	1.11616e+07	0	1	2	5	4
9	1	300	0	1	5	3	4
9	2	28416	0	1	2	1	0
9	2	67200	0	1	2	3	4
9	2	1.07971e+07	0	1	2	5	4
9	2	300	0	1	5	3	4
9	3	31040	0	1	2	1	0
9	3	71900	0	1	2	3	4
9	3	1.09978e+07	0	1	2	5	4
9	3	350	0	1	5	3	4
9	4	27264	0	1	2	1	0
9	4	70200	0	1	2	3	4
9	4	1.06988e+07	0	1	2	5	4
9	4	550	0	1	5	3	4
9	5	32512	0	1	2	1	0
9	5	71600	0	1	2	3	4
9	5	1.0539e+07	0	1	2	5	4
9	5	550	0	1	5	3	4
9	6	28992	0	1	2	1	0
9	6	68000	0	1	2	3	4
9	6	1.08012e+07	0	1	2	5	4
9	6	400	0	1	5	3	4
9	7	29248	0	1	2	1	0
9	7	71600	0	1	2	3	4
9	7	1.10838e+07	0	1	2	5	4
9	7	300	0	1	5	3	4
9	8	30656	0	1	2	1	0
9	8	71300	0	1	2	3	4
9	8	1.06988e+07	0	1	2	5	4
9	8	350	0	1	5	3	4
