100000	100000	100000	10000	1000	1000
0	1	2944	0	1	2	1	0
0	1	7600	0	1	2	3	4
0	1	1.11411e+06	0	1	2	5	4
0	2	2496	0	1	2	1	0
0	2	8000	0	1	2	3	4
0	2	1.04038e+06	0	1	2	5	4
0	3	3072	0	1	2	1	0
0	3	7200	0	1	2	3	4
0	3	1.17146e+06	0	1	2	5	4
0	3	50	0	1	5	3	4
0	4	2560	0	1	2	1	0
0	4	8300	0	1	2	3	4
0	4	1.09773e+06	0	1	2	5	4
0	5	3136	0	1	2	1	0
0	5	6900	0	1	2	3	4
0	5	1.06906e+06	0	1	2	5	4
0	6	3008	0	1	2	1	0
0	6	5800	0	1	2	3	4
0	6	1.0281e+06	0	1	2	5	4
0	7	2944	0	1	2	1	0
0	7	7000	0	1	2	3	4
0	7	1.18374e+06	0	1	2	5	4
0	8	2624	0	1	2	1	0
0	8	8900	0	1	2	3	4
0	8	1.19603e+06	0	1	2	5	4
0	8	100	0	1	5	3	4
0	9	2176	0	1	2	1	0
0	9	8100	0	1	2	3	4
0	9	1.06086e+06	0	1	2	5	4
1	0	2688	0	1	2	1	0
1	0	7300	0	1	2	3	4
1	0	1.05267e+06	0	1	2	5	4
1	0	50	0	1	5	3	4
1	2	3008	0	1	2	1	0
1	2	7200	0	1	2	3	4
1	2	1.13459e+06	0	1	2	5	4
1	3	3136	0	1	2	1	0
1	3	7700	0	1	2	3	4
1	3	1.00352e+06	0	1	2	5	4
1	4	2752	0	1	2	1	0
1	4	8400	0	1	2	3	4
1	4	1.06906e+06	0	1	2	5	4
1	5	1984	0	1	2	1	0
1	5	6400	0	1	2	3	4
1	5	1.11821e+06	0	1	2	5	4
1	6	2432	0	1	2	1	0
1	6	8200	0	1	2	3	4
1	6	999424	0	1	2	5	4
1	7	3520	0	1	2	1	0
1	7	7300	0	1	2	3	4
1	7	1.0199e+06	0	1	2	5	4
1	8	3200	0	1	2	1	0
1	8	8400	0	1	2	3	4
1	8	1.05677e+06	0	1	2	5	4
1	9	3456	0	1	2	1	0
1	9	6100	0	1	2	3	4
1	9	1.04038e+06	0	1	2	5	4
2	0	3456	0	1	2	1	0
2	0	6800	0	1	2	3	4
2	0	1.08134e+06	0	1	2	5	4
2	0	50	0	1	5	3	4
2	1	2880	0	1	2	1	0
2	1	7100	0	1	2	3	4
2	1	974848	0	1	2	5	4
2	1	50	0	1	5	3	4
2	3	3072	0	1	2	1	0
2	3	5800	0	1	2	3	4
2	3	1.06906e+06	0	1	2	5	4
2	3	100	0	1	5	3	4
2	4	3008	0	1	2	1	0
2	4	5800	0	1	2	3	4
2	4	1.17965e+06	0	1	2	5	4
2	5	3072	0	1	2	1	0
2	5	6300	0	1	2	3	4
2	5	999424	0	1	2	5	4
2	6	3136	0	1	2	1	0
2	6	6500	0	1	2	3	4
2	6	1.16736e+06	0	1	2	5	4
2	7	3392	0	1	2	1	0
2	7	7300	0	1	2	3	4
2	7	1.07315e+06	0	1	2	5	4
2	7	50	0	1	5	3	4
2	8	3072	0	1	2	1	0
2	8	7000	0	1	2	3	4
2	8	1.06496e+06	0	1	2	5	4
2	9	3264	0	1	2	1	0
2	9	7900	0	1	2	3	4
2	9	1.08544e+06	0	1	2	5	4
2	9	50	0	1	5	3	4
3	0	2752	0	1	2	1	0
3	0	7200	0	1	2	3	4
3	0	1.08544e+06	0	1	2	5	4
3	1	3008	0	1	2	1	0
3	1	8700	0	1	2	3	4
3	1	1.20832e+06	0	1	2	5	4
3	2	2880	0	1	2	1	0
3	2	7800	0	1	2	3	4
3	2	1.07315e+06	0	1	2	5	4
3	4	3008	0	1	2	1	0
3	4	5900	0	1	2	3	4
3	4	1.24109e+06	0	1	2	5	4
3	5	2368	0	1	2	1	0
3	5	6800	0	1	2	3	4
3	5	1.06496e+06	0	1	2	5	4
3	6	2880	0	1	2	1	0
3	6	6300	0	1	2	3	4
3	6	1.13869e+06	0	1	2	5	4
3	7	3200	0	1	2	1	0
3	7	7700	0	1	2	3	4
3	7	1.15507e+06	0	1	2	5	4
3	8	2176	0	1	2	1	0
3	8	6900	0	1	2	3	4
3	8	1.05677e+06	0	1	2	5	4
3	8	100	0	1	5	3	4
3	9	2432	0	1	2	1	0
3	9	6500	0	1	2	3	4
3	9	1.07725e+06	0	1	2	5	4
3	9	50	0	1	5	3	4
4	0	2624	0	1	2	1	0
4	0	9200	0	1	2	3	4
4	0	1.23699e+06	0	1	2	5	4
4	0	50	0	1	5	3	4
4	1	3328	0	1	2	1	0
4	1	6600	0	1	2	3	4
4	1	974848	0	1	2	5	4
4	2	3392	0	1	2	1	0
4	2	7100	0	1	2	3	4
4	2	1.13869e+06	0	1	2	5	4
4	3	2624	0	1	2	1	0
4	3	6000	0	1	2	3	4
4	3	1.1305e+06	0	1	2	5	4
4	3	50	0	1	5	3	4
4	5	3200	0	1	2	1	0
4	5	5900	0	1	2	3	4
4	5	1.04448e+06	0	1	2	5	4
4	5	150	0	1	5	3	4
4	6	2944	0	1	2	1	0
4	6	8000	0	1	2	3	4
4	6	1.18784e+06	0	1	2	5	4
4	6	150	0	1	5	3	4
4	7	3072	0	1	2	1	0
4	7	6600	0	1	2	3	4
4	7	1.09773e+06	0	1	2	5	4
4	8	3200	0	1	2	1	0
4	8	6200	0	1	2	3	4
4	8	1.08544e+06	0	1	2	5	4
4	8	50	0	1	5	3	4
4	9	3520	0	1	2	1	0
4	9	7900	0	1	2	3	4
4	9	1.06086e+06	0	1	2	5	4
4	9	50	0	1	5	3	4
5	0	2432	0	1	2	1	0
5	0	7300	0	1	2	3	4
5	0	1.06906e+06	0	1	2	5	4
5	0	100	0	1	5	3	4
5	1	2624	0	1	2	1	0
5	1	6000	0	1	2	3	4
5	1	1.13869e+06	0	1	2	5	4
5	2	3648	0	1	2	1	0
5	2	6500	0	1	2	3	4
5	2	1.05267e+06	0	1	2	5	4
5	2	150	0	1	5	3	4
5	3	2688	0	1	2	1	0
5	3	7400	0	1	2	3	4
5	3	1.024e+06	0	1	2	5	4
5	4	2368	0	1	2	1	0
5	4	7700	0	1	2	3	4
5	4	1.1223e+06	0	1	2	5	4
5	6	3520	0	1	2	1	0
5	6	7500	0	1	2	3	4
5	6	1.23699e+06	0	1	2	5	4
5	7	2112	0	1	2	1	0
5	7	7900	0	1	2	3	4
5	7	1.01171e+06	0	1	2	5	4
5	8	2688	0	1	2	1	0
5	8	7000	0	1	2	3	4
5	8	1.06496e+06	0	1	2	5	4
5	9	3264	0	1	2	1	0
5	9	6700	0	1	2	3	4
5	9	954368	0	1	2	5	4
6	0	1856	0	1	2	1	0
6	0	6800	0	1	2	3	4
6	0	1.15917e+06	0	1	2	5	4
6	0	50	0	1	5	3	4
6	1	2688	0	1	2	1	0
6	1	6600	0	1	2	3	4
6	1	1.08954e+06	0	1	2	5	4
6	2	2816	0	1	2	1	0
6	2	7300	0	1	2	3	4
6	2	1.06906e+06	0	1	2	5	4
6	2	100	0	1	5	3	4
6	3	2688	0	1	2	1	0
6	3	6300	0	1	2	3	4
6	3	1.13869e+06	0	1	2	5	4
6	3	50	0	1	5	3	4
6	4	2880	0	1	2	1	0
6	4	6500	0	1	2	3	4
6	4	1.08954e+06	0	1	2	5	4
6	5	3200	0	1	2	1	0
6	5	5500	0	1	2	3	4
6	5	1.19603e+06	0	1	2	5	4
6	7	2240	0	1	2	1	0
6	7	5800	0	1	2	3	4
6	7	1.14278e+06	0	1	2	5	4
6	7	100	0	1	5	3	4
6	8	3392	0	1	2	1	0
6	8	8300	0	1	2	3	4
6	8	1.09363e+06	0	1	2	5	4
6	8	50	0	1	5	3	4
6	9	3456	0	1	2	1	0
6	9	7800	0	1	2	3	4
6	9	1.19603e+06	0	1	2	5	4
7	0	2368	0	1	2	1	0
7	0	7000	0	1	2	3	4
7	0	1.17555e+06	0	1	2	5	4
7	1	3392	0	1	2	1	0
7	1	6900	0	1	2	3	4
7	1	1.04858e+06	0	1	2	5	4
7	1	100	0	1	5	3	4
7	2	2880	0	1	2	1	0
7	2	7500	0	1	2	3	4
7	2	1.2247e+06	0	1	2	5	4
7	3	2624	0	1	2	1	0
7	3	6600	0	1	2	3	4
7	3	1.21651e+06	0	1	2	5	4
7	4	3264	0	1	2	1	0
7	4	6600	0	1	2	3	4
7	4	1.07315e+06	0	1	2	5	4
7	5	3648	0	1	2	1	0
7	5	6600	0	1	2	3	4
7	5	1.15507e+06	0	1	2	5	4
7	6	2496	0	1	2	1	0
7	6	7000	0	1	2	3	4
7	6	1.04448e+06	0	1	2	5	4
7	8	2752	0	1	2	1	0
7	8	7800	0	1	2	3	4
7	8	1.15507e+06	0	1	2	5	4
7	9	2944	0	1	2	1	0
7	9	7200	0	1	2	3	4
7	9	1.00762e+06	0	1	2	5	4
8	0	3200	0	1	2	1	0
8	0	8400	0	1	2	3	4
8	0	1.13459e+06	0	1	2	5	4
8	1	3008	0	1	2	1	0
8	1	6300	0	1	2	3	4
8	1	1.07315e+06	0	1	2	5	4
8	2	3072	0	1	2	1	0
8	2	6600	0	1	2	3	4
8	2	1.1223e+06	0	1	2	5	4
8	2	50	0	1	5	3	4
8	3	2944	0	1	2	1	0
8	3	6400	0	1	2	3	4
8	3	1.17965e+06	0	1	2	5	4
8	3	100	0	1	5	3	4
8	4	3008	0	1	2	1	0
8	4	7000	0	1	2	3	4
8	4	1.04448e+06	0	1	2	5	4
8	4	50	0	1	5	3	4
8	5	2560	0	1	2	1	0
8	5	7600	0	1	2	3	4
8	5	1.17555e+06	0	1	2	5	4
8	5	100	0	1	5	3	4
8	6	2816	0	1	2	1	0
8	6	7700	0	1	2	3	4
8	6	1.09363e+06	0	1	2	5	4
8	7	2752	0	1	2	1	0
8	7	6900	0	1	2	3	4
8	7	1.1223e+06	0	1	2	5	4
8	7	100	0	1	5	3	4
8	9	3456	0	1	2	1	0
8	9	6000	0	1	2	3	4
8	9	1.11002e+06	0	1	2	5	4
9	0	2432	0	1	2	1	0
9	0	6100	0	1	2	3	4
9	0	1.0199e+06	0	1	2	5	4
9	1	3712	0	1	2	1	0
9	1	8000	0	1	2	3	4
9	1	1.07315e+06	0	1	2	5	4
9	1	50	0	1	5	3	4
9	2	2112	0	1	2	1	0
9	2	5300	0	1	2	3	4
9	2	1.13869e+06	0	1	2	5	4
9	2	50	0	1	5	3	4
9	3	3456	0	1	2	1	0
9	3	6600	0	1	2	3	4
9	3	1.01581e+06	0	1	2	5	4
9	4	2368	0	1	2	1	0
9	4	6100	0	1	2	3	4
9	4	1.17146e+06	0	1	2	5	4
9	5	2560	0	1	2	1	0
9	5	7100	0	1	2	3	4
9	5	1.04448e+06	0	1	2	5	4
9	5	50	0	1	5	3	4
9	6	2560	0	1	2	1	0
9	6	6700	0	1	2	3	4
9	6	1.15507e+06	0	1	2	5	4
9	6	50	0	1	5	3	4
9	7	3200	0	1	2	1	0
9	7	6300	0	1	2	3	4
9	7	1.10182e+06	0	1	2	5	4
9	7	50	0	1	5	3	4
9	8	4288	0	1	2	1	0
9	8	7600	0	1	2	3	4
9	8	1.16736e+06	0	1	2	5	4
9	8	50	0	1	5	3	4
