100000	100000	100000	10000	1000	1000
0	1	13632	0	1	2	1	0
0	1	33800	0	1	2	3	4
0	1	5.3248e+06	0	1	2	5	4
0	1	200	0	1	5	3	4
0	2	14848	0	1	2	1	0
0	2	34600	0	1	2	3	4
0	2	5.48045e+06	0	1	2	5	4
0	2	100	0	1	5	3	4
0	3	16832	0	1	2	1	0
0	3	35400	0	1	2	3	4
0	3	5.46406e+06	0	1	2	5	4
0	3	200	0	1	5	3	4
0	4	13312	0	1	2	1	0
0	4	35900	0	1	2	3	4
0	4	5.47635e+06	0	1	2	5	4
0	4	150	0	1	5	3	4
0	5	14784	0	1	2	1	0
0	5	34500	0	1	2	3	4
0	5	5.27565e+06	0	1	2	5	4
0	5	150	0	1	5	3	4
0	6	14016	0	1	2	1	0
0	6	35800	0	1	2	3	4
0	6	5.75488e+06	0	1	2	5	4
0	6	150	0	1	5	3	4
0	7	13888	0	1	2	1	0
0	7	31300	0	1	2	3	4
0	7	5.59514e+06	0	1	2	5	4
0	7	50	0	1	5	3	4
0	8	15744	0	1	2	1	0
0	8	33700	0	1	2	3	4
0	8	5.8368e+06	0	1	2	5	4
0	8	150	0	1	5	3	4
0	9	15552	0	1	2	1	0
0	9	36300	0	1	2	3	4
0	9	5.14458e+06	0	1	2	5	4
0	9	250	0	1	5	3	4
0	10	14912	0	1	2	1	0
0	10	34700	0	1	2	3	4
0	10	5.58285e+06	0	1	2	5	4
0	10	50	0	1	5	3	4
0	11	14464	0	1	2	1	0
0	11	33100	0	1	2	3	4
0	11	5.68115e+06	0	1	2	5	4
0	11	100	0	1	5	3	4
0	12	13184	0	1	2	1	0
0	12	36600	0	1	2	3	4
0	12	5.29203e+06	0	1	2	5	4
0	13	14848	0	1	2	1	0
0	13	32800	0	1	2	3	4
0	13	5.47226e+06	0	1	2	5	4
0	13	200	0	1	5	3	4
1	0	13376	0	1	2	1	0
1	0	32500	0	1	2	3	4
1	0	5.49274e+06	0	1	2	5	4
1	0	150	0	1	5	3	4
1	2	14080	0	1	2	1	0
1	2	35900	0	1	2	3	4
1	2	5.25517e+06	0	1	2	5	4
1	2	200	0	1	5	3	4
1	3	15104	0	1	2	1	0
1	3	36200	0	1	2	3	4
1	3	5.49683e+06	0	1	2	5	4
1	3	100	0	1	5	3	4
1	4	14528	0	1	2	1	0
1	4	32000	0	1	2	3	4
1	4	5.39853e+06	0	1	2	5	4
1	4	50	0	1	5	3	4
1	5	16000	0	1	2	1	0
1	5	35100	0	1	2	3	4
1	5	5.64019e+06	0	1	2	5	4
1	5	100	0	1	5	3	4
1	6	14272	0	1	2	1	0
1	6	36300	0	1	2	3	4
1	6	5.61971e+06	0	1	2	5	4
1	6	100	0	1	5	3	4
1	7	13376	0	1	2	1	0
1	7	31900	0	1	2	3	4
1	7	5.61562e+06	0	1	2	5	4
1	7	200	0	1	5	3	4
1	8	14848	0	1	2	1	0
1	8	34300	0	1	2	3	4
1	8	5.51322e+06	0	1	2	5	4
1	8	250	0	1	5	3	4
1	9	13504	0	1	2	1	0
1	9	34000	0	1	2	3	4
1	9	5.29203e+06	0	1	2	5	4
1	9	200	0	1	5	3	4
1	10	12992	0	1	2	1	0
1	10	35500	0	1	2	3	4
1	10	5.55008e+06	0	1	2	5	4
1	10	100	0	1	5	3	4
1	11	13440	0	1	2	1	0
1	11	36600	0	1	2	3	4
1	11	5.30432e+06	0	1	2	5	4
1	11	50	0	1	5	3	4
1	12	16192	0	1	2	1	0
1	12	35000	0	1	2	3	4
1	12	5.79174e+06	0	1	2	5	4
1	13	15232	0	1	2	1	0
1	13	34100	0	1	2	3	4
1	13	5.48454e+06	0	1	2	5	4
1	13	50	0	1	5	3	4
2	0	14400	0	1	2	1	0
2	0	34900	0	1	2	3	4
2	0	5.50912e+06	0	1	2	5	4
2	0	250	0	1	5	3	4
2	1	12928	0	1	2	1	0
2	1	36800	0	1	2	3	4
2	1	5.36986e+06	0	1	2	5	4
2	1	50	0	1	5	3	4
2	3	13888	0	1	2	1	0
2	3	35000	0	1	2	3	4
2	3	5.26336e+06	0	1	2	5	4
2	3	50	0	1	5	3	4
2	4	15040	0	1	2	1	0
2	4	38900	0	1	2	3	4
2	4	5.44358e+06	0	1	2	5	4
2	4	50	0	1	5	3	4
2	5	15808	0	1	2	1	0
2	5	33800	0	1	2	3	4
2	5	5.50502e+06	0	1	2	5	4
2	5	250	0	1	5	3	4
2	6	14976	0	1	2	1	0
2	6	32200	0	1	2	3	4
2	6	5.36986e+06	0	1	2	5	4
2	6	50	0	1	5	3	4
2	7	15616	0	1	2	1	0
2	7	36500	0	1	2	3	4
2	7	5.69344e+06	0	1	2	5	4
2	7	50	0	1	5	3	4
2	8	15488	0	1	2	1	0
2	8	34800	0	1	2	3	4
2	8	5.4231e+06	0	1	2	5	4
2	8	250	0	1	5	3	4
2	9	14592	0	1	2	1	0
2	9	33400	0	1	2	3	4
2	9	5.61971e+06	0	1	2	5	4
2	9	350	0	1	5	3	4
2	10	15872	0	1	2	1	0
2	10	34000	0	1	2	3	4
2	10	5.33299e+06	0	1	2	5	4
2	10	100	0	1	5	3	4
2	11	15680	0	1	2	1	0
2	11	32600	0	1	2	3	4
2	11	5.5337e+06	0	1	2	5	4
2	12	14720	0	1	2	1	0
2	12	32400	0	1	2	3	4
2	12	5.29203e+06	0	1	2	5	4
2	12	150	0	1	5	3	4
2	13	14976	0	1	2	1	0
2	13	33100	0	1	2	3	4
2	13	5.64019e+06	0	1	2	5	4
2	13	150	0	1	5	3	4
3	0	13952	0	1	2	1	0
3	0	37500	0	1	2	3	4
3	0	5.28794e+06	0	1	2	5	4
3	1	14784	0	1	2	1	0
3	1	33200	0	1	2	3	4
3	1	5.34938e+06	0	1	2	5	4
3	1	50	0	1	5	3	4
3	2	15744	0	1	2	1	0
3	2	34500	0	1	2	3	4
3	2	5.3289e+06	0	1	2	5	4
3	2	100	0	1	5	3	4
3	4	13888	0	1	2	1	0
3	4	38300	0	1	2	3	4
3	4	5.3248e+06	0	1	2	5	4
3	4	350	0	1	5	3	4
3	5	14080	0	1	2	1	0
3	5	34300	0	1	2	3	4
3	5	5.30842e+06	0	1	2	5	4
3	5	100	0	1	5	3	4
3	6	15296	0	1	2	1	0
3	6	34600	0	1	2	3	4
3	6	5.43539e+06	0	1	2	5	4
3	6	50	0	1	5	3	4
3	7	14656	0	1	2	1	0
3	7	34800	0	1	2	3	4
3	7	5.66886e+06	0	1	2	5	4
3	7	50	0	1	5	3	4
3	8	16128	0	1	2	1	0
3	8	33900	0	1	2	3	4
3	8	5.24698e+06	0	1	2	5	4
3	8	50	0	1	5	3	4
3	9	13312	0	1	2	1	0
3	9	35300	0	1	2	3	4
3	9	5.49274e+06	0	1	2	5	4
3	9	500	0	1	5	3	4
3	10	14592	0	1	2	1	0
3	10	34800	0	1	2	3	4
3	10	5.53779e+06	0	1	2	5	4
3	10	50	0	1	5	3	4
3	11	15808	0	1	2	1	0
3	11	35500	0	1	2	3	4
3	11	5.39443e+06	0	1	2	5	4
3	11	350	0	1	5	3	4
3	12	12672	0	1	2	1	0
3	12	36900	0	1	2	3	4
3	12	5.38214e+06	0	1	2	5	4
3	12	150	0	1	5	3	4
3	13	11904	0	1	2	1	0
3	13	37800	0	1	2	3	4
3	13	5.51322e+06	0	1	2	5	4
3	13	150	0	1	5	3	4
4	0	15296	0	1	2	1	0
4	0	32800	0	1	2	3	4
4	0	5.1159e+06	0	1	2	5	4
4	0	200	0	1	5	3	4
4	1	14528	0	1	2	1	0
4	1	32200	0	1	2	3	4
4	1	5.44358e+06	0	1	2	5	4
4	1	150	0	1	5	3	4
4	2	12992	0	1	2	1	0
4	2	33600	0	1	2	3	4
4	2	5.37805e+06	0	1	2	5	4
4	2	100	0	1	5	3	4
4	3	14720	0	1	2	1	0
4	3	34100	0	1	2	3	4
4	3	5.38624e+06	0	1	2	5	4
4	3	250	0	1	5	3	4
4	5	14080	0	1	2	1	0
4	5	37500	0	1	2	3	4
4	5	5.4313e+06	0	1	2	5	4
4	6	12288	0	1	2	1	0
4	6	35600	0	1	2	3	4
4	6	5.40262e+06	0	1	2	5	4
4	7	12864	0	1	2	1	0
4	7	32300	0	1	2	3	4
4	7	5.43949e+06	0	1	2	5	4
4	7	150	0	1	5	3	4
4	8	16320	0	1	2	1	0
4	8	33400	0	1	2	3	4
4	8	5.34528e+06	0	1	2	5	4
4	8	100	0	1	5	3	4
4	9	14784	0	1	2	1	0
4	9	34300	0	1	2	3	4
4	9	5.60333e+06	0	1	2	5	4
4	9	200	0	1	5	3	4
4	10	13376	0	1	2	1	0
4	10	34800	0	1	2	3	4
4	10	5.45997e+06	0	1	2	5	4
4	10	50	0	1	5	3	4
4	11	13696	0	1	2	1	0
4	11	33300	0	1	2	3	4
4	11	5.50502e+06	0	1	2	5	4
4	11	50	0	1	5	3	4
4	12	13440	0	1	2	1	0
4	12	35100	0	1	2	3	4
4	12	5.3289e+06	0	1	2	5	4
4	12	200	0	1	5	3	4
4	13	15296	0	1	2	1	0
4	13	33800	0	1	2	3	4
4	13	5.33709e+06	0	1	2	5	4
4	13	100	0	1	5	3	4
5	0	15296	0	1	2	1	0
5	0	32600	0	1	2	3	4
5	0	5.68934e+06	0	1	2	5	4
5	0	100	0	1	5	3	4
5	1	15424	0	1	2	1	0
5	1	35900	0	1	2	3	4
5	1	5.38214e+06	0	1	2	5	4
5	1	150	0	1	5	3	4
5	2	15232	0	1	2	1	0
5	2	35200	0	1	2	3	4
5	2	5.61562e+06	0	1	2	5	4
5	2	150	0	1	5	3	4
5	3	15808	0	1	2	1	0
5	3	32600	0	1	2	3	4
5	3	5.58694e+06	0	1	2	5	4
5	3	200	0	1	5	3	4
5	4	15680	0	1	2	1	0
5	4	33100	0	1	2	3	4
5	4	5.59104e+06	0	1	2	5	4
5	4	100	0	1	5	3	4
5	6	14528	0	1	2	1	0
5	6	32400	0	1	2	3	4
5	6	5.45178e+06	0	1	2	5	4
5	6	50	0	1	5	3	4
5	7	13632	0	1	2	1	0
5	7	34600	0	1	2	3	4
5	7	5.2224e+06	0	1	2	5	4
5	7	100	0	1	5	3	4
5	8	14144	0	1	2	1	0
5	8	36500	0	1	2	3	4
5	8	5.51322e+06	0	1	2	5	4
5	8	150	0	1	5	3	4
5	9	13184	0	1	2	1	0
5	9	33600	0	1	2	3	4
5	9	5.56646e+06	0	1	2	5	4
5	9	200	0	1	5	3	4
5	10	13952	0	1	2	1	0
5	10	34400	0	1	2	3	4
5	10	5.632e+06	0	1	2	5	4
5	10	50	0	1	5	3	4
5	11	15040	0	1	2	1	0
5	11	37400	0	1	2	3	4
5	11	5.31661e+06	0	1	2	5	4
5	11	50	0	1	5	3	4
5	12	14912	0	1	2	1	0
5	12	36900	0	1	2	3	4
5	12	5.15277e+06	0	1	2	5	4
5	12	200	0	1	5	3	4
5	13	13568	0	1	2	1	0
5	13	34000	0	1	2	3	4
5	13	5.18963e+06	0	1	2	5	4
5	13	200	0	1	5	3	4
6	0	14400	0	1	2	1	0
6	0	34200	0	1	2	3	4
6	0	5.65658e+06	0	1	2	5	4
6	0	150	0	1	5	3	4
6	1	12800	0	1	2	1	0
6	1	34600	0	1	2	3	4
6	1	5.3207e+06	0	1	2	5	4
6	1	200	0	1	5	3	4
6	2	14208	0	1	2	1	0
6	2	35200	0	1	2	3	4
6	2	5.24698e+06	0	1	2	5	4
6	3	13824	0	1	2	1	0
6	3	32600	0	1	2	3	4
6	3	5.27974e+06	0	1	2	5	4
6	3	50	0	1	5	3	4
6	4	15424	0	1	2	1	0
6	4	35900	0	1	2	3	4
6	4	5.47226e+06	0	1	2	5	4
6	4	50	0	1	5	3	4
6	5	14976	0	1	2	1	0
6	5	33200	0	1	2	3	4
6	5	5.52141e+06	0	1	2	5	4
6	5	100	0	1	5	3	4
6	7	15104	0	1	2	1	0
6	7	34400	0	1	2	3	4
6	7	5.49683e+06	0	1	2	5	4
6	7	200	0	1	5	3	4
6	8	15232	0	1	2	1	0
6	8	40200	0	1	2	3	4
6	8	5.53779e+06	0	1	2	5	4
6	8	150	0	1	5	3	4
6	9	13568	0	1	2	1	0
6	9	35900	0	1	2	3	4
6	9	5.47226e+06	0	1	2	5	4
6	9	150	0	1	5	3	4
6	10	14592	0	1	2	1	0
6	10	34400	0	1	2	3	4
6	10	5.50502e+06	0	1	2	5	4
6	10	150	0	1	5	3	4
6	11	13696	0	1	2	1	0
6	11	34600	0	1	2	3	4
6	11	5.48045e+06	0	1	2	5	4
6	11	150	0	1	5	3	4
6	12	13376	0	1	2	1	0
6	12	36100	0	1	2	3	4
6	12	5.50093e+06	0	1	2	5	4
6	12	100	0	1	5	3	4
6	13	12608	0	1	2	1	0
6	13	34300	0	1	2	3	4
6	13	5.17734e+06	0	1	2	5	4
6	13	50	0	1	5	3	4
7	0	14848	0	1	2	1	0
7	0	37200	0	1	2	3	4
7	0	5.5255e+06	0	1	2	5	4
7	0	100	0	1	5	3	4
7	1	14720	0	1	2	1	0
7	1	33900	0	1	2	3	4
7	1	5.04627e+06	0	1	2	5	4
7	1	50	0	1	5	3	4
7	2	14976	0	1	2	1	0
7	2	35900	0	1	2	3	4
7	2	5.34118e+06	0	1	2	5	4
7	2	100	0	1	5	3	4
7	3	16640	0	1	2	1	0
7	3	34800	0	1	2	3	4
7	3	5.28384e+06	0	1	2	5	4
7	3	200	0	1	5	3	4
7	4	14976	0	1	2	1	0
7	4	34100	0	1	2	3	4
7	4	5.60742e+06	0	1	2	5	4
7	4	150	0	1	5	3	4
7	5	15936	0	1	2	1	0
7	5	34400	0	1	2	3	4
7	5	5.6361e+06	0	1	2	5	4
7	5	100	0	1	5	3	4
7	6	13824	0	1	2	1	0
7	6	34800	0	1	2	3	4
7	6	5.40672e+06	0	1	2	5	4
7	6	150	0	1	5	3	4
7	8	12800	0	1	2	1	0
7	8	32700	0	1	2	3	4
7	8	5.23059e+06	0	1	2	5	4
7	9	14208	0	1	2	1	0
7	9	34200	0	1	2	3	4
7	9	5.34938e+06	0	1	2	5	4
7	9	150	0	1	5	3	4
7	10	14656	0	1	2	1	0
7	10	33700	0	1	2	3	4
7	10	5.40672e+06	0	1	2	5	4
7	10	100	0	1	5	3	4
7	11	14400	0	1	2	1	0
7	11	34200	0	1	2	3	4
7	11	5.6279e+06	0	1	2	5	4
7	11	100	0	1	5	3	4
7	12	14976	0	1	2	1	0
7	12	34800	0	1	2	3	4
7	12	5.51731e+06	0	1	2	5	4
7	12	150	0	1	5	3	4
7	13	15040	0	1	2	1	0
7	13	35800	0	1	2	3	4
7	13	5.79994e+06	0	1	2	5	4
7	13	200	0	1	5	3	4
8	0	13952	0	1	2	1	0
8	0	35400	0	1	2	3	4
8	0	5.41082e+06	0	1	2	5	4
8	0	100	0	1	5	3	4
8	1	16320	0	1	2	1	0
8	1	33700	0	1	2	3	4
8	1	5.45997e+06	0	1	2	5	4
8	1	200	0	1	5	3	4
8	2	14208	0	1	2	1	0
8	2	34600	0	1	2	3	4
8	2	5.49683e+06	0	1	2	5	4
8	2	100	0	1	5	3	4
8	3	16128	0	1	2	1	0
8	3	32700	0	1	2	3	4
8	3	5.54189e+06	0	1	2	5	4
8	3	150	0	1	5	3	4
8	4	16128	0	1	2	1	0
8	4	35500	0	1	2	3	4
8	4	5.33709e+06	0	1	2	5	4
8	4	150	0	1	5	3	4
8	5	15104	0	1	2	1	0
8	5	35000	0	1	2	3	4
8	5	5.4272e+06	0	1	2	5	4
8	5	100	0	1	5	3	4
8	6	15424	0	1	2	1	0
8	6	35400	0	1	2	3	4
8	6	5.51322e+06	0	1	2	5	4
8	6	150	0	1	5	3	4
8	7	14720	0	1	2	1	0
8	7	34600	0	1	2	3	4
8	7	5.30022e+06	0	1	2	5	4
8	7	200	0	1	5	3	4
8	9	14912	0	1	2	1	0
8	9	36600	0	1	2	3	4
8	9	5.21011e+06	0	1	2	5	4
8	9	150	0	1	5	3	4
8	10	13120	0	1	2	1	0
8	10	35300	0	1	2	3	4
8	10	5.59514e+06	0	1	2	5	4
8	10	50	0	1	5	3	4
8	11	15936	0	1	2	1	0
8	11	35300	0	1	2	3	4
8	11	5.7344e+06	0	1	2	5	4
8	11	250	0	1	5	3	4
8	12	14272	0	1	2	1	0
8	12	34400	0	1	2	3	4
8	12	5.64429e+06	0	1	2	5	4
8	12	100	0	1	5	3	4
8	13	13184	0	1	2	1	0
8	13	37200	0	1	2	3	4
8	13	5.39034e+06	0	1	2	5	4
8	13	150	0	1	5	3	4
9	0	12736	0	1	2	1	0
9	0	33300	0	1	2	3	4
9	0	5.48045e+06	0	1	2	5	4
9	0	100	0	1	5	3	4
9	1	14080	0	1	2	1	0
9	1	33100	0	1	2	3	4
9	1	5.21421e+06	0	1	2	5	4
9	1	50	0	1	5	3	4
9	2	15040	0	1	2	1	0
9	2	32000	0	1	2	3	4
9	2	5.48864e+06	0	1	2	5	4
9	2	250	0	1	5	3	4
9	3	13824	0	1	2	1	0
9	3	32000	0	1	2	3	4
9	3	5.57466e+06	0	1	2	5	4
9	3	100	0	1	5	3	4
9	4	13440	0	1	2	1	0
9	4	33600	0	1	2	3	4
9	4	5.81222e+06	0	1	2	5	4
9	4	150	0	1	5	3	4
9	5	14272	0	1	2	1	0
9	5	34900	0	1	2	3	4
9	5	5.21011e+06	0	1	2	5	4
9	5	150	0	1	5	3	4
9	6	13952	0	1	2	1	0
9	6	35800	0	1	2	3	4
9	6	5.37805e+06	0	1	2	5	4
9	6	250	0	1	5	3	4
9	7	14144	0	1	2	1	0
9	7	37000	0	1	2	3	4
9	7	5.6361e+06	0	1	2	5	4
9	7	250	0	1	5	3	4
9	8	14208	0	1	2	1	0
9	8	35400	0	1	2	3	4
9	8	5.31661e+06	0	1	2	5	4
9	8	50	0	1	5	3	4
9	10	14976	0	1	2	1	0
9	10	35800	0	1	2	3	4
9	10	5.48454e+06	0	1	2	5	4
9	10	100	0	1	5	3	4
9	11	15424	0	1	2	1	0
9	11	37300	0	1	2	3	4
9	11	5.43539e+06	0	1	2	5	4
9	11	150	0	1	5	3	4
9	12	16960	0	1	2	1	0
9	12	33700	0	1	2	3	4
9	12	5.59104e+06	0	1	2	5	4
9	12	150	0	1	5	3	4
9	13	13952	0	1	2	1	0
9	13	33200	0	1	2	3	4
9	13	5.65248e+06	0	1	2	5	4
9	13	200	0	1	5	3	4
10	0	15424	0	1	2	1	0
10	0	36600	0	1	2	3	4
10	0	5.2183e+06	0	1	2	5	4
10	0	350	0	1	5	3	4
10	1	14720	0	1	2	1	0
10	1	33700	0	1	2	3	4
10	1	5.24288e+06	0	1	2	5	4
10	1	100	0	1	5	3	4
10	2	13632	0	1	2	1	0
10	2	34100	0	1	2	3	4
10	2	5.38214e+06	0	1	2	5	4
10	2	150	0	1	5	3	4
10	3	13376	0	1	2	1	0
10	3	33300	0	1	2	3	4
10	3	5.68934e+06	0	1	2	5	4
10	4	15872	0	1	2	1	0
10	4	36100	0	1	2	3	4
10	4	5.28384e+06	0	1	2	5	4
10	4	100	0	1	5	3	4
10	5	13568	0	1	2	1	0
10	5	34300	0	1	2	3	4
10	5	5.18963e+06	0	1	2	5	4
10	5	50	0	1	5	3	4
10	6	13888	0	1	2	1	0
10	6	32200	0	1	2	3	4
10	6	5.3248e+06	0	1	2	5	4
10	6	150	0	1	5	3	4
10	7	14144	0	1	2	1	0
10	7	33200	0	1	2	3	4
10	7	5.3248e+06	0	1	2	5	4
10	8	14528	0	1	2	1	0
10	8	35100	0	1	2	3	4
10	8	5.41901e+06	0	1	2	5	4
10	8	50	0	1	5	3	4
10	9	13120	0	1	2	1	0
10	9	34700	0	1	2	3	4
10	9	5.43949e+06	0	1	2	5	4
10	9	50	0	1	5	3	4
10	11	14656	0	1	2	1	0
10	11	34000	0	1	2	3	4
10	11	5.3207e+06	0	1	2	5	4
10	11	100	0	1	5	3	4
10	12	15296	0	1	2	1	0
10	12	33300	0	1	2	3	4
10	12	5.53779e+06	0	1	2	5	4
10	12	250	0	1	5	3	4
10	13	15552	0	1	2	1	0
10	13	33700	0	1	2	3	4
10	13	5.43949e+06	0	1	2	5	4
10	13	150	0	1	5	3	4
11	0	14656	0	1	2	1	0
11	0	33500	0	1	2	3	4
11	0	5.39853e+06	0	1	2	5	4
11	0	300	0	1	5	3	4
11	1	13248	0	1	2	1	0
11	1	34300	0	1	2	3	4
11	1	5.49274e+06	0	1	2	5	4
11	1	200	0	1	5	3	4
11	2	13888	0	1	2	1	0
11	2	34100	0	1	2	3	4
11	2	5.36986e+06	0	1	2	5	4
11	2	50	0	1	5	3	4
11	3	13120	0	1	2	1	0
11	3	36200	0	1	2	3	4
11	3	5.61152e+06	0	1	2	5	4
11	3	250	0	1	5	3	4
11	4	14272	0	1	2	1	0
11	4	36500	0	1	2	3	4
11	4	5.38624e+06	0	1	2	5	4
11	4	150	0	1	5	3	4
11	5	16256	0	1	2	1	0
11	5	28000	0	1	2	3	4
11	5	5.78765e+06	0	1	2	5	4
11	5	50	0	1	5	3	4
11	6	13504	0	1	2	1	0
11	6	35500	0	1	2	3	4
11	6	5.54189e+06	0	1	2	5	4
11	6	150	0	1	5	3	4
11	7	16128	0	1	2	1	0
11	7	35600	0	1	2	3	4
11	7	5.2183e+06	0	1	2	5	4
11	7	50	0	1	5	3	4
11	8	15680	0	1	2	1	0
11	8	34800	0	1	2	3	4
11	8	5.39853e+06	0	1	2	5	4
11	8	200	0	1	5	3	4
11	9	15104	0	1	2	1	0
11	9	35900	0	1	2	3	4
11	9	5.36986e+06	0	1	2	5	4
11	9	50	0	1	5	3	4
11	10	13568	0	1	2	1	0
11	10	31800	0	1	2	3	4
11	10	5.79994e+06	0	1	2	5	4
11	10	50	0	1	5	3	4
11	12	13824	0	1	2	1	0
11	12	34400	0	1	2	3	4
11	12	5.34528e+06	0	1	2	5	4
11	12	200	0	1	5	3	4
11	13	14592	0	1	2	1	0
11	13	35200	0	1	2	3	4
11	13	5.5337e+06	0	1	2	5	4
11	13	150	0	1	5	3	4
12	0	15168	0	1	2	1	0
12	0	33700	0	1	2	3	4
12	0	5.5255e+06	0	1	2	5	4
12	0	50	0	1	5	3	4
12	1	14336	0	1	2	1	0
12	1	33300	0	1	2	3	4
12	1	5.3289e+06	0	1	2	5	4
12	1	50	0	1	5	3	4
12	2	14912	0	1	2	1	0
12	2	30000	0	1	2	3	4
12	2	5.60333e+06	0	1	2	5	4
12	2	250	0	1	5	3	4
12	3	14528	0	1	2	1	0
12	3	37000	0	1	2	3	4
12	3	5.06266e+06	0	1	2	5	4
12	3	100	0	1	5	3	4
12	4	13888	0	1	2	1	0
12	4	31700	0	1	2	3	4
12	4	5.5337e+06	0	1	2	5	4
12	5	13696	0	1	2	1	0
12	5	32100	0	1	2	3	4
12	5	5.51322e+06	0	1	2	5	4
12	5	50	0	1	5	3	4
12	6	12992	0	1	2	1	0
12	6	31800	0	1	2	3	4
12	6	5.55827e+06	0	1	2	5	4
12	6	50	0	1	5	3	4
12	7	14016	0	1	2	1	0
12	7	33600	0	1	2	3	4
12	7	5.35757e+06	0	1	2	5	4
12	7	250	0	1	5	3	4
12	8	15424	0	1	2	1	0
12	8	32400	0	1	2	3	4
12	8	5.40262e+06	0	1	2	5	4
12	8	150	0	1	5	3	4
12	9	15424	0	1	2	1	0
12	9	34000	0	1	2	3	4
12	9	5.50093e+06	0	1	2	5	4
12	9	200	0	1	5	3	4
12	10	14720	0	1	2	1	0
12	10	35200	0	1	2	3	4
12	10	5.38214e+06	0	1	2	5	4
12	10	200	0	1	5	3	4
12	11	14144	0	1	2	1	0
12	11	33900	0	1	2	3	4
12	11	5.81632e+06	0	1	2	5	4
12	11	300	0	1	5	3	4
12	13	14656	0	1	2	1	0
12	13	35900	0	1	2	3	4
12	13	5.38624e+06	0	1	2	5	4
13	0	14720	0	1	2	1	0
13	0	36300	0	1	2	3	4
13	0	5.45178e+06	0	1	2	5	4
13	0	200	0	1	5	3	4
13	1	13824	0	1	2	1	0
13	1	35700	0	1	2	3	4
13	1	5.57466e+06	0	1	2	5	4
13	1	250	0	1	5	3	4
13	2	11328	0	1	2	1	0
13	2	33500	0	1	2	3	4
13	2	5.3207e+06	0	1	2	5	4
13	2	250	0	1	5	3	4
13	3	16192	0	1	2	1	0
13	3	32800	0	1	2	3	4
13	3	5.5296e+06	0	1	2	5	4
13	3	50	0	1	5	3	4
13	4	14080	0	1	2	1	0
13	4	34900	0	1	2	3	4
13	4	5.24288e+06	0	1	2	5	4
13	4	200	0	1	5	3	4
13	5	15104	0	1	2	1	0
13	5	36000	0	1	2	3	4
13	5	5.23878e+06	0	1	2	5	4
13	5	50	0	1	5	3	4
13	6	14784	0	1	2	1	0
13	6	34000	0	1	2	3	4
13	6	5.39853e+06	0	1	2	5	4
13	6	100	0	1	5	3	4
13	7	15552	0	1	2	1	0
13	7	31400	0	1	2	3	4
13	7	5.60333e+06	0	1	2	5	4
13	7	150	0	1	5	3	4
13	8	15936	0	1	2	1	0
13	8	32600	0	1	2	3	4
13	8	5.38624e+06	0	1	2	5	4
13	8	300	0	1	5	3	4
13	9	14848	0	1	2	1	0
13	9	35000	0	1	2	3	4
13	9	5.38624e+06	0	1	2	5	4
13	9	100	0	1	5	3	4
13	10	13312	0	1	2	1	0
13	10	34300	0	1	2	3	4
13	10	5.36576e+06	0	1	2	5	4
13	10	100	0	1	5	3	4
13	11	14912	0	1	2	1	0
13	11	33300	0	1	2	3	4
13	11	5.18144e+06	0	1	2	5	4
13	11	200	0	1	5	3	4
13	12	15872	0	1	2	1	0
13	12	31600	0	1	2	3	4
13	12	5.36986e+06	0	1	2	5	4
13	12	150	0	1	5	3	4
