100000	100000	100000	10000	1000	1000
0	1	30912	0	1	2	1	0
0	1	73000	0	1	2	3	4
0	1	1.09773e+07	0	1	2	5	4
0	1	250	0	1	5	3	4
0	2	27264	0	1	2	1	0
0	2	72200	0	1	2	3	4
0	2	1.09445e+07	0	1	2	5	4
0	2	300	0	1	5	3	4
0	3	28160	0	1	2	1	0
0	3	72200	0	1	2	3	4
0	3	1.12845e+07	0	1	2	5	4
0	3	350	0	1	5	3	4
0	4	30016	0	1	2	1	0
0	4	71000	0	1	2	3	4
0	4	1.15343e+07	0	1	2	5	4
0	4	250	0	1	5	3	4
0	5	28992	0	1	2	1	0
0	5	68400	0	1	2	3	4
0	5	1.09076e+07	0	1	2	5	4
0	5	50	0	1	5	3	4
0	6	29952	0	1	2	1	0
0	6	69800	0	1	2	3	4
0	6	1.06291e+07	0	1	2	5	4
0	6	100	0	1	5	3	4
0	7	31296	0	1	2	1	0
0	7	68900	0	1	2	3	4
0	7	1.11165e+07	0	1	2	5	4
0	7	100	0	1	5	3	4
0	8	27264	0	1	2	1	0
0	8	75100	0	1	2	3	4
0	8	1.14688e+07	0	1	2	5	4
0	8	350	0	1	5	3	4
0	9	27840	0	1	2	1	0
0	9	66700	0	1	2	3	4
0	9	1.08667e+07	0	1	2	5	4
0	9	250	0	1	5	3	4
1	0	27648	0	1	2	1	0
1	0	67200	0	1	2	3	4
1	0	1.10428e+07	0	1	2	5	4
1	0	400	0	1	5	3	4
1	2	28288	0	1	2	1	0
1	2	69600	0	1	2	3	4
1	2	1.10019e+07	0	1	2	5	4
1	2	300	0	1	5	3	4
1	3	27200	0	1	2	1	0
1	3	72000	0	1	2	3	4
1	3	1.03465e+07	0	1	2	5	4
1	3	550	0	1	5	3	4
1	4	27904	0	1	2	1	0
1	4	71600	0	1	2	3	4
1	4	1.12681e+07	0	1	2	5	4
1	4	400	0	1	5	3	4
1	5	29440	0	1	2	1	0
1	5	71200	0	1	2	3	4
1	5	1.07315e+07	0	1	2	5	4
1	5	250	0	1	5	3	4
1	6	26496	0	1	2	1	0
1	6	68800	0	1	2	3	4
1	6	1.10838e+07	0	1	2	5	4
1	6	200	0	1	5	3	4
1	7	27456	0	1	2	1	0
1	7	73000	0	1	2	3	4
1	7	1.1391e+07	0	1	2	5	4
1	7	350	0	1	5	3	4
1	8	30656	0	1	2	1	0
1	8	71200	0	1	2	3	4
1	8	1.14033e+07	0	1	2	5	4
1	8	350	0	1	5	3	4
1	9	27712	0	1	2	1	0
1	9	72600	0	1	2	3	4
1	9	1.08216e+07	0	1	2	5	4
1	9	300	0	1	5	3	4
2	0	30144	0	1	2	1	0
2	0	67600	0	1	2	3	4
2	0	1.10674e+07	0	1	2	5	4
2	0	350	0	1	5	3	4
2	1	29376	0	1	2	1	0
2	1	66400	0	1	2	3	4
2	1	1.10182e+07	0	1	2	5	4
2	1	150	0	1	5	3	4
2	3	28800	0	1	2	1	0
2	3	71100	0	1	2	3	4
2	3	1.10633e+07	0	1	2	5	4
2	3	400	0	1	5	3	4
2	4	28544	0	1	2	1	0
2	4	70600	0	1	2	3	4
2	4	1.12067e+07	0	1	2	5	4
2	4	200	0	1	5	3	4
2	5	29312	0	1	2	1	0
2	5	63900	0	1	2	3	4
2	5	1.04858e+07	0	1	2	5	4
2	5	450	0	1	5	3	4
2	6	27968	0	1	2	1	0
2	6	71500	0	1	2	3	4
2	6	1.12271e+07	0	1	2	5	4
2	6	150	0	1	5	3	4
2	7	29056	0	1	2	1	0
2	7	66300	0	1	2	3	4
2	7	1.08216e+07	0	1	2	5	4
2	7	200	0	1	5	3	4
2	8	29376	0	1	2	1	0
2	8	73600	0	1	2	3	4
2	8	1.09076e+07	0	1	2	5	4
2	8	300	0	1	5	3	4
2	9	27328	0	1	2	1	0
2	9	69200	0	1	2	3	4
2	9	1.10019e+07	0	1	2	5	4
2	9	150	0	1	5	3	4
3	0	27776	0	1	2	1	0
3	0	73400	0	1	2	3	4
3	0	1.08093e+07	0	1	2	5	4
3	0	400	0	1	5	3	4
3	1	28096	0	1	2	1	0
3	1	71100	0	1	2	3	4
3	1	1.11903e+07	0	1	2	5	4
3	1	200	0	1	5	3	4
3	2	30976	0	1	2	1	0
3	2	66800	0	1	2	3	4
3	2	1.1178e+07	0	1	2	5	4
3	2	200	0	1	5	3	4
3	4	31040	0	1	2	1	0
3	4	69600	0	1	2	3	4
3	4	1.13336e+07	0	1	2	5	4
3	4	150	0	1	5	3	4
3	5	27072	0	1	2	1	0
3	5	68800	0	1	2	3	4
3	5	1.10592e+07	0	1	2	5	4
3	5	200	0	1	5	3	4
3	6	27776	0	1	2	1	0
3	6	71800	0	1	2	3	4
3	6	1.06578e+07	0	1	2	5	4
3	6	150	0	1	5	3	4
3	7	28288	0	1	2	1	0
3	7	74800	0	1	2	3	4
3	7	1.11903e+07	0	1	2	5	4
3	7	250	0	1	5	3	4
3	8	25920	0	1	2	1	0
3	8	70700	0	1	2	3	4
3	8	1.11903e+07	0	1	2	5	4
3	8	250	0	1	5	3	4
3	9	28096	0	1	2	1	0
3	9	70000	0	1	2	3	4
3	9	1.06824e+07	0	1	2	5	4
3	9	200	0	1	5	3	4
4	0	26560	0	1	2	1	0
4	0	75400	0	1	2	3	4
4	0	1.10715e+07	0	1	2	5	4
4	0	300	0	1	5	3	4
4	1	28864	0	1	2	1	0
4	1	66200	0	1	2	3	4
4	1	1.09404e+07	0	1	2	5	4
4	1	350	0	1	5	3	4
4	2	26304	0	1	2	1	0
4	2	67700	0	1	2	3	4
4	2	1.08134e+07	0	1	2	5	4
4	2	200	0	1	5	3	4
4	3	29760	0	1	2	1	0
4	3	65200	0	1	2	3	4
4	3	1.06988e+07	0	1	2	5	4
4	3	600	0	1	5	3	4
4	5	29504	0	1	2	1	0
4	5	67900	0	1	2	3	4
4	5	1.11575e+07	0	1	2	5	4
4	5	800	0	1	5	3	4
4	6	28672	0	1	2	1	0
4	6	69900	0	1	2	3	4
4	6	1.08339e+07	0	1	2	5	4
4	6	450	0	1	5	3	4
4	7	27264	0	1	2	1	0
4	7	71700	0	1	2	3	4
4	7	1.11084e+07	0	1	2	5	4
4	7	250	0	1	5	3	4
4	8	28928	0	1	2	1	0
4	8	76200	0	1	2	3	4
4	8	1.09363e+07	0	1	2	5	4
4	8	300	0	1	5	3	4
4	9	27968	0	1	2	1	0
4	9	71500	0	1	2	3	4
4	9	1.101e+07	0	1	2	5	4
4	9	200	0	1	5	3	4
5	0	27456	0	1	2	1	0
5	0	71000	0	1	2	3	4
5	0	1.08585e+07	0	1	2	5	4
5	0	150	0	1	5	3	4
5	1	29056	0	1	2	1	0
5	1	72500	0	1	2	3	4
5	1	1.09363e+07	0	1	2	5	4
5	1	150	0	1	5	3	4
5	2	28352	0	1	2	1	0
5	2	72000	0	1	2	3	4
5	2	1.09937e+07	0	1	2	5	4
5	2	350	0	1	5	3	4
5	3	30208	0	1	2	1	0
5	3	72800	0	1	2	3	4
5	3	1.12968e+07	0	1	2	5	4
5	3	300	0	1	5	3	4
5	4	28096	0	1	2	1	0
5	4	66200	0	1	2	3	4
5	4	1.09896e+07	0	1	2	5	4
5	4	100	0	1	5	3	4
5	6	29696	0	1	2	1	0
5	6	71900	0	1	2	3	4
5	6	1.11862e+07	0	1	2	5	4
5	6	350	0	1	5	3	4
5	7	29184	0	1	2	1	0
5	7	73900	0	1	2	3	4
5	7	1.0494e+07	0	1	2	5	4
5	7	400	0	1	5	3	4
5	8	28096	0	1	2	1	0
5	8	74600	0	1	2	3	4
5	8	1.09937e+07	0	1	2	5	4
5	8	400	0	1	5	3	4
5	9	28928	0	1	2	1	0
5	9	70600	0	1	2	3	4
5	9	1.14319e+07	0	1	2	5	4
5	9	450	0	1	5	3	4
6	0	30976	0	1	2	1	0
6	0	67300	0	1	2	3	4
6	0	1.1006e+07	0	1	2	5	4
6	0	250	0	1	5	3	4
6	1	29184	0	1	2	1	0
6	1	70300	0	1	2	3	4
6	1	1.06373e+07	0	1	2	5	4
6	1	200	0	1	5	3	4
6	2	27904	0	1	2	1	0
6	2	68300	0	1	2	3	4
6	2	1.07848e+07	0	1	2	5	4
6	2	400	0	1	5	3	4
6	3	28672	0	1	2	1	0
6	3	73500	0	1	2	3	4
6	3	1.13336e+07	0	1	2	5	4
6	3	350	0	1	5	3	4
6	4	30656	0	1	2	1	0
6	4	70600	0	1	2	3	4
6	4	1.13336e+07	0	1	2	5	4
6	4	200	0	1	5	3	4
6	5	30080	0	1	2	1	0
6	5	68600	0	1	2	3	4
6	5	1.12558e+07	0	1	2	5	4
6	5	250	0	1	5	3	4
6	7	30720	0	1	2	1	0
6	7	73300	0	1	2	3	4
6	7	1.0965e+07	0	1	2	5	4
6	7	350	0	1	5	3	4
6	8	31808	0	1	2	1	0
6	8	69200	0	1	2	3	4
6	8	1.09281e+07	0	1	2	5	4
6	8	200	0	1	5	3	4
6	9	30976	0	1	2	1	0
6	9	69300	0	1	2	3	4
6	9	1.07766e+07	0	1	2	5	4
6	9	350	0	1	5	3	4
7	0	27712	0	1	2	1	0
7	0	71000	0	1	2	3	4
7	0	1.10633e+07	0	1	2	5	4
7	0	200	0	1	5	3	4
7	1	30784	0	1	2	1	0
7	1	68500	0	1	2	3	4
7	1	1.10387e+07	0	1	2	5	4
7	1	250	0	1	5	3	4
7	2	29504	0	1	2	1	0
7	2	70000	0	1	2	3	4
7	2	1.08626e+07	0	1	2	5	4
7	2	400	0	1	5	3	4
7	3	28672	0	1	2	1	0
7	3	71900	0	1	2	3	4
7	3	1.07643e+07	0	1	2	5	4
7	3	250	0	1	5	3	4
7	4	26880	0	1	2	1	0
7	4	69700	0	1	2	3	4
7	4	1.12763e+07	0	1	2	5	4
7	4	50	0	1	5	3	4
7	5	27264	0	1	2	1	0
7	5	66500	0	1	2	3	4
7	5	1.06824e+07	0	1	2	5	4
7	5	350	0	1	5	3	4
7	6	27456	0	1	2	1	0
7	6	70600	0	1	2	3	4
7	6	1.12108e+07	0	1	2	5	4
7	6	350	0	1	5	3	4
7	8	28224	0	1	2	1	0
7	8	72800	0	1	2	3	4
7	8	1.0965e+07	0	1	2	5	4
7	8	350	0	1	5	3	4
7	9	30016	0	1	2	1	0
7	9	66700	0	1	2	3	4
7	9	1.14606e+07	0	1	2	5	4
7	9	450	0	1	5	3	4
8	0	30592	0	1	2	1	0
8	0	72300	0	1	2	3	4
8	0	1.09855e+07	0	1	2	5	4
8	0	400	0	1	5	3	4
8	1	30464	0	1	2	1	0
8	1	68900	0	1	2	3	4
8	1	1.1223e+07	0	1	2	5	4
8	1	300	0	1	5	3	4
8	2	27136	0	1	2	1	0
8	2	69800	0	1	2	3	4
8	2	1.09322e+07	0	1	2	5	4
8	2	250	0	1	5	3	4
8	3	28736	0	1	2	1	0
8	3	75100	0	1	2	3	4
8	3	1.06455e+07	0	1	2	5	4
8	3	100	0	1	5	3	4
8	4	28224	0	1	2	1	0
8	4	67200	0	1	2	3	4
8	4	1.12804e+07	0	1	2	5	4
8	4	550	0	1	5	3	4
8	5	30528	0	1	2	1	0
8	5	68200	0	1	2	3	4
8	5	1.09404e+07	0	1	2	5	4
8	5	200	0	1	5	3	4
8	6	30912	0	1	2	1	0
8	6	70100	0	1	2	3	4
8	6	1.0838e+07	0	1	2	5	4
8	6	400	0	1	5	3	4
8	7	28352	0	1	2	1	0
8	7	71400	0	1	2	3	4
8	7	1.08257e+07	0	1	2	5	4
8	7	100	0	1	5	3	4
8	9	28288	0	1	2	1	0
8	9	69400	0	1	2	3	4
8	9	1.07602e+07	0	1	2	5	4
8	9	450	0	1	5	3	4
9	0	30592	0	1	2	1	0
9	0	72100	0	1	2	3	4
9	0	1.10305e+07	0	1	2	5	4
9	0	200	0	1	5	3	4
9	1	26624	0	1	2	1	0
9	1	70400	0	1	2	3	4
9	1	1.13418e+07	0	1	2	5	4
9	1	150	0	1	5	3	4
9	2	28992	0	1	2	1	0
9	2	69700	0	1	2	3	4
9	2	1.101e+07	0	1	2	5	4
9	2	150	0	1	5	3	4
9	3	26624	0	1	2	1	0
9	3	69500	0	1	2	3	4
9	3	1.10879e+07	0	1	2	5	4
9	3	250	0	1	5	3	4
9	4	26624	0	1	2	1	0
9	4	74600	0	1	2	3	4
9	4	1.0838e+07	0	1	2	5	4
9	4	400	0	1	5	3	4
9	5	26816	0	1	2	1	0
9	5	66600	0	1	2	3	4
9	5	1.07684e+07	0	1	2	5	4
9	5	450	0	1	5	3	4
9	6	28800	0	1	2	1	0
9	6	69200	0	1	2	3	4
9	6	1.12681e+07	0	1	2	5	4
9	6	400	0	1	5	3	4
9	7	27008	0	1	2	1	0
9	7	67700	0	1	2	3	4
9	7	1.09363e+07	0	1	2	5	4
9	7	500	0	1	5	3	4
9	8	29120	0	1	2	1	0
9	8	66800	0	1	2	3	4
9	8	1.13459e+07	0	1	2	5	4
9	8	400	0	1	5	3	4
