1000	100000	10000	10000
0	1	1.11603e+07	1	2	3	1	1
0	2	1.11674e+07	1	2	3	1	1
0	3	1.08651e+07	1	2	3	1	1
0	4	1.12236e+07	1	2	3	1	1
0	5	1.11662e+07	1	2	3	1	1
0	6	1.11568e+07	1	2	3	1	1
0	7	1.11111e+07	1	2	3	1	1
0	8	1.08839e+07	1	2	3	1	1
0	9	1.11568e+07	1	2	3	1	1
1	0	1.1117e+07	1	2	3	1	1
1	2	1.11428e+07	1	2	3	1	1
1	3	1.10748e+07	1	2	3	1	1
1	4	1.11533e+07	1	2	3	1	1
1	5	1.10713e+07	1	2	3	1	1
1	6	1.1274e+07	1	2	3	1	1
1	7	1.10209e+07	1	2	3	1	1
1	8	1.109e+07	1	2	3	1	1
1	9	1.11076e+07	1	2	3	1	1
2	0	1.10303e+07	1	2	3	1	1
2	1	1.08487e+07	1	2	3	1	1
2	3	1.12517e+07	1	2	3	1	1
2	4	1.09225e+07	1	2	3	1	1
2	5	1.09905e+07	1	2	3	1	1
2	6	1.12013e+07	1	2	3	1	1
2	7	1.10982e+07	1	2	3	1	1
2	8	1.12447e+07	1	2	3	1	1
2	9	1.11674e+07	1	2	3	1	1
3	0	1.09331e+07	1	2	3	1	1
3	1	1.10701e+07	1	2	3	1	1
3	2	1.10127e+07	1	2	3	1	1
3	4	1.09389e+07	1	2	3	1	1
3	5	1.12576e+07	1	2	3	1	1
3	6	1.12142e+07	1	2	3	1	1
3	7	1.11205e+07	1	2	3	1	1
3	8	1.11732e+07	1	2	3	1	1
3	9	1.08604e+07	1	2	3	1	1
4	0	1.09811e+07	1	2	3	1	1
4	1	1.11884e+07	1	2	3	1	1
4	2	1.09963e+07	1	2	3	1	1
4	3	1.11838e+07	1	2	3	1	1
4	5	1.10596e+07	1	2	3	1	1
4	6	1.12002e+07	1	2	3	1	1
4	7	1.10584e+07	1	2	3	1	1
4	8	1.12939e+07	1	2	3	1	1
4	9	1.11603e+07	1	2	3	1	1
5	0	1.11744e+07	1	2	3	1	1
5	1	1.11146e+07	1	2	3	1	1
5	2	1.11228e+07	1	2	3	1	1
5	3	1.1049e+07	1	2	3	1	1
5	4	1.10654e+07	1	2	3	1	1
5	6	1.10526e+07	1	2	3	1	1
5	7	1.11615e+07	1	2	3	1	1
5	8	1.10924e+07	1	2	3	1	1
5	9	1.10479e+07	1	2	3	1	1
6	0	1.11486e+07	1	2	3	1	1
6	1	1.11486e+07	1	2	3	1	1
6	2	1.12095e+07	1	2	3	1	1
6	3	1.11556e+07	1	2	3	1	1
6	4	1.09003e+07	1	2	3	1	1
6	5	1.08921e+07	1	2	3	1	1
6	7	1.096e+07	1	2	3	1	1
6	8	1.11006e+07	1	2	3	1	1
6	9	1.10139e+07	1	2	3	1	1
7	0	1.12025e+07	1	2	3	1	1
7	1	1.11568e+07	1	2	3	1	1
7	2	1.10619e+07	1	2	3	1	1
7	3	1.14438e+07	1	2	3	1	1
7	4	1.11486e+07	1	2	3	1	1
7	5	1.11123e+07	1	2	3	1	1
7	6	1.10725e+07	1	2	3	1	1
7	8	1.10139e+07	1	2	3	1	1
7	9	1.11041e+07	1	2	3	1	1
8	0	1.13606e+07	1	2	3	1	1
8	1	1.10936e+07	1	2	3	1	1
8	2	1.09975e+07	1	2	3	1	1
8	3	1.09038e+07	1	2	3	1	1
8	4	1.11357e+07	1	2	3	1	1
8	5	1.12669e+07	1	2	3	1	1
8	6	1.109e+07	1	2	3	1	1
8	7	1.10783e+07	1	2	3	1	1
8	9	1.11966e+07	1	2	3	1	1
9	0	1.13442e+07	1	2	3	1	1
9	1	1.11392e+07	1	2	3	1	1
9	2	1.11826e+07	1	2	3	1	1
9	3	1.12505e+07	1	2	3	1	1
9	4	1.1192e+07	1	2	3	1	1
9	5	1.14473e+07	1	2	3	1	1
9	6	1.1158e+07	1	2	3	1	1
9	7	1.09307e+07	1	2	3	1	1
9	8	1.11064e+07	1	2	3	1	1
