100000	100000	100000	10000	1000	1000
0	1	109056	0	1	2	1	0
0	1	278900	0	1	2	3	4
0	1	4.22707e+07	0	1	2	5	4
0	1	1300	0	1	5	3	4
0	2	110976	0	1	2	1	0
0	2	274500	0	1	2	3	4
0	2	4.34422e+07	0	1	2	5	4
0	2	950	0	1	5	3	4
0	3	86208	0	1	2	1	0
0	3	200600	0	1	2	3	4
0	3	3.19406e+07	0	1	2	5	4
0	3	1050	0	1	5	3	4
0	4	33792	0	1	2	1	0
0	4	82600	0	1	2	3	4
0	4	1.29352e+07	0	1	2	5	4
0	4	50	0	1	5	3	4
0	5	117248	0	1	2	1	0
0	5	263700	0	1	2	3	4
0	5	4.2709e+07	0	1	2	5	4
0	5	1250	0	1	5	3	4
0	6	32064	0	1	2	1	0
0	6	78800	0	1	2	3	4
0	6	1.23781e+07	0	1	2	5	4
0	6	600	0	1	5	3	4
0	7	44480	0	1	2	1	0
0	7	104200	0	1	2	3	4
0	7	1.60727e+07	0	1	2	5	4
0	7	300	0	1	5	3	4
0	8	39552	0	1	2	1	0
0	8	90000	0	1	2	3	4
0	8	1.38732e+07	0	1	2	5	4
0	8	250	0	1	5	3	4
0	9	67008	0	1	2	1	0
0	9	160300	0	1	2	3	4
0	9	2.58417e+07	0	1	2	5	4
0	9	650	0	1	5	3	4
1	0	111744	0	1	2	1	0
1	0	263800	0	1	2	3	4
1	0	4.30326e+07	0	1	2	5	4
1	0	1200	0	1	5	3	4
1	2	112512	0	1	2	1	0
1	2	270900	0	1	2	3	4
1	2	4.27745e+07	0	1	2	5	4
1	2	1100	0	1	5	3	4
1	3	41280	0	1	2	1	0
1	3	100200	0	1	2	3	4
1	3	1.66543e+07	0	1	2	5	4
1	3	600	0	1	5	3	4
1	4	22080	0	1	2	1	0
1	4	55500	0	1	2	3	4
1	4	8.72038e+06	0	1	2	5	4
1	4	300	0	1	5	3	4
1	5	28096	0	1	2	1	0
1	5	70300	0	1	2	3	4
1	5	1.05185e+07	0	1	2	5	4
1	5	250	0	1	5	3	4
1	6	22976	0	1	2	1	0
1	6	55700	0	1	2	3	4
1	6	9.0071e+06	0	1	2	5	4
1	6	350	0	1	5	3	4
1	7	19648	0	1	2	1	0
1	7	52600	0	1	2	3	4
1	7	7.9913e+06	0	1	2	5	4
1	7	200	0	1	5	3	4
1	8	35072	0	1	2	1	0
1	8	89400	0	1	2	3	4
1	8	1.44384e+07	0	1	2	5	4
1	8	400	0	1	5	3	4
1	9	12480	0	1	2	1	0
1	9	29100	0	1	2	3	4
1	9	4.31309e+06	0	1	2	5	4
1	9	100	0	1	5	3	4
2	0	112640	0	1	2	1	0
2	0	276000	0	1	2	3	4
2	0	4.30817e+07	0	1	2	5	4
2	0	1600	0	1	5	3	4
2	1	113088	0	1	2	1	0
2	1	269300	0	1	2	3	4
2	1	4.30653e+07	0	1	2	5	4
2	1	950	0	1	5	3	4
2	3	31424	0	1	2	1	0
2	3	64100	0	1	2	3	4
2	3	1.0838e+07	0	1	2	5	4
2	3	500	0	1	5	3	4
2	4	11584	0	1	2	1	0
2	4	27700	0	1	2	3	4
2	4	4.10419e+06	0	1	2	5	4
2	5	40000	0	1	2	1	0
2	5	97400	0	1	2	3	4
2	5	1.4508e+07	0	1	2	5	4
2	5	350	0	1	5	3	4
2	6	10112	0	1	2	1	0
2	6	25400	0	1	2	3	4
2	6	4.23117e+06	0	1	2	5	4
2	6	100	0	1	5	3	4
2	7	27008	0	1	2	1	0
2	7	69800	0	1	2	3	4
2	7	1.08175e+07	0	1	2	5	4
2	7	300	0	1	5	3	4
2	8	11392	0	1	2	1	0
2	8	31900	0	1	2	3	4
2	8	4.89882e+06	0	1	2	5	4
2	8	300	0	1	5	3	4
2	9	7872	0	1	2	1	0
2	9	19000	0	1	2	3	4
2	9	2.79347e+06	0	1	2	5	4
2	9	150	0	1	5	3	4
3	0	84224	0	1	2	1	0
3	0	199200	0	1	2	3	4
3	0	3.17972e+07	0	1	2	5	4
3	0	700	0	1	5	3	4
3	1	42816	0	1	2	1	0
3	1	97500	0	1	2	3	4
3	1	1.59048e+07	0	1	2	5	4
3	1	400	0	1	5	3	4
3	2	28736	0	1	2	1	0
3	2	64900	0	1	2	3	4
3	2	1.06537e+07	0	1	2	5	4
3	2	350	0	1	5	3	4
3	4	16960	0	1	2	1	0
3	4	41300	0	1	2	3	4
3	4	6.71744e+06	0	1	2	5	4
3	4	300	0	1	5	3	4
3	5	13888	0	1	2	1	0
3	5	36300	0	1	2	3	4
3	5	5.37805e+06	0	1	2	5	4
3	5	50	0	1	5	3	4
3	6	23232	0	1	2	1	0
3	6	57400	0	1	2	3	4
3	6	8.89651e+06	0	1	2	5	4
3	6	300	0	1	5	3	4
3	7	21952	0	1	2	1	0
3	7	49000	0	1	2	3	4
3	7	8.00358e+06	0	1	2	5	4
3	7	400	0	1	5	3	4
3	8	20352	0	1	2	1	0
3	8	45200	0	1	2	3	4
3	8	7.29907e+06	0	1	2	5	4
3	8	200	0	1	5	3	4
3	9	17792	0	1	2	1	0
3	9	40600	0	1	2	3	4
3	9	6.41843e+06	0	1	2	5	4
3	9	100	0	1	5	3	4
4	0	34688	0	1	2	1	0
4	0	81700	0	1	2	3	4
4	0	1.26321e+07	0	1	2	5	4
4	0	300	0	1	5	3	4
4	1	23488	0	1	2	1	0
4	1	53300	0	1	2	3	4
4	1	8.6016e+06	0	1	2	5	4
4	1	300	0	1	5	3	4
4	2	9664	0	1	2	1	0
4	2	28800	0	1	2	3	4
4	2	4.33766e+06	0	1	2	5	4
4	2	50	0	1	5	3	4
4	3	16448	0	1	2	1	0
4	3	40700	0	1	2	3	4
4	3	6.36518e+06	0	1	2	5	4
4	3	250	0	1	5	3	4
4	5	8064	0	1	2	1	0
4	5	18100	0	1	2	3	4
4	5	2.68288e+06	0	1	2	5	4
4	5	150	0	1	5	3	4
4	6	19712	0	1	2	1	0
4	6	47800	0	1	2	3	4
4	6	7.48749e+06	0	1	2	5	4
4	6	200	0	1	5	3	4
4	7	5952	0	1	2	1	0
4	7	14200	0	1	2	3	4
4	7	2.02342e+06	0	1	2	5	4
4	7	50	0	1	5	3	4
4	8	6784	0	1	2	1	0
4	8	18800	0	1	2	3	4
4	8	2.73203e+06	0	1	2	5	4
4	8	50	0	1	5	3	4
4	9	4608	0	1	2	1	0
4	9	9200	0	1	2	3	4
4	9	1.80224e+06	0	1	2	5	4
4	9	100	0	1	5	3	4
5	0	108352	0	1	2	1	0
5	0	267500	0	1	2	3	4
5	0	4.27172e+07	0	1	2	5	4
5	0	1300	0	1	5	3	4
5	1	26752	0	1	2	1	0
5	1	65400	0	1	2	3	4
5	1	1.05349e+07	0	1	2	5	4
5	1	200	0	1	5	3	4
5	2	37312	0	1	2	1	0
5	2	90100	0	1	2	3	4
5	2	1.44261e+07	0	1	2	5	4
5	2	650	0	1	5	3	4
5	3	12352	0	1	2	1	0
5	3	34500	0	1	2	3	4
5	3	5.45587e+06	0	1	2	5	4
5	3	100	0	1	5	3	4
5	4	8704	0	1	2	1	0
5	4	18500	0	1	2	3	4
5	4	2.78118e+06	0	1	2	5	4
5	4	150	0	1	5	3	4
5	6	8256	0	1	2	1	0
5	6	18400	0	1	2	3	4
5	6	3.10067e+06	0	1	2	5	4
5	6	150	0	1	5	3	4
5	7	13952	0	1	2	1	0
5	7	37500	0	1	2	3	4
5	7	5.13229e+06	0	1	2	5	4
5	7	150	0	1	5	3	4
5	8	12224	0	1	2	1	0
5	8	27800	0	1	2	3	4
5	8	4.62029e+06	0	1	2	5	4
5	9	4736	0	1	2	1	0
5	9	12600	0	1	2	3	4
5	9	2.02342e+06	0	1	2	5	4
5	9	150	0	1	5	3	4
6	0	31488	0	1	2	1	0
6	0	80200	0	1	2	3	4
6	0	1.21569e+07	0	1	2	5	4
6	0	450	0	1	5	3	4
6	1	23808	0	1	2	1	0
6	1	54400	0	1	2	3	4
6	1	9.40032e+06	0	1	2	5	4
6	1	200	0	1	5	3	4
6	2	11456	0	1	2	1	0
6	2	28900	0	1	2	3	4
6	2	4.23526e+06	0	1	2	5	4
6	2	150	0	1	5	3	4
6	3	26304	0	1	2	1	0
6	3	58300	0	1	2	3	4
6	3	8.79002e+06	0	1	2	5	4
6	3	250	0	1	5	3	4
6	4	18752	0	1	2	1	0
6	4	41400	0	1	2	3	4
6	4	7.13114e+06	0	1	2	5	4
6	4	150	0	1	5	3	4
6	5	8896	0	1	2	1	0
6	5	19600	0	1	2	3	4
6	5	3.01056e+06	0	1	2	5	4
6	5	150	0	1	5	3	4
6	7	5632	0	1	2	1	0
6	7	15100	0	1	2	3	4
6	7	2.36749e+06	0	1	2	5	4
6	7	50	0	1	5	3	4
6	8	10880	0	1	2	1	0
6	8	23900	0	1	2	3	4
6	8	3.94854e+06	0	1	2	5	4
6	8	100	0	1	5	3	4
6	9	5056	0	1	2	1	0
6	9	9900	0	1	2	3	4
6	9	1.8391e+06	0	1	2	5	4
6	9	50	0	1	5	3	4
7	0	42048	0	1	2	1	0
7	0	99800	0	1	2	3	4
7	0	1.61055e+07	0	1	2	5	4
7	0	300	0	1	5	3	4
7	1	20800	0	1	2	1	0
7	1	50500	0	1	2	3	4
7	1	8.22886e+06	0	1	2	5	4
7	1	300	0	1	5	3	4
7	2	28160	0	1	2	1	0
7	2	63300	0	1	2	3	4
7	2	1.07725e+07	0	1	2	5	4
7	2	450	0	1	5	3	4
7	3	21632	0	1	2	1	0
7	3	51000	0	1	2	3	4
7	3	8.10598e+06	0	1	2	5	4
7	3	150	0	1	5	3	4
7	4	6592	0	1	2	1	0
7	4	13700	0	1	2	3	4
7	4	2.26918e+06	0	1	2	5	4
7	4	150	0	1	5	3	4
7	5	14336	0	1	2	1	0
7	5	38400	0	1	2	3	4
7	5	5.36166e+06	0	1	2	5	4
7	5	50	0	1	5	3	4
7	6	6784	0	1	2	1	0
7	6	13000	0	1	2	3	4
7	6	2.27738e+06	0	1	2	5	4
7	6	50	0	1	5	3	4
7	8	4224	0	1	2	1	0
7	8	11100	0	1	2	3	4
7	8	1.68755e+06	0	1	2	5	4
7	9	3648	0	1	2	1	0
7	9	10800	0	1	2	3	4
7	9	1.54419e+06	0	1	2	5	4
7	9	50	0	1	5	3	4
8	0	38592	0	1	2	1	0
8	0	91000	0	1	2	3	4
8	0	1.44015e+07	0	1	2	5	4
8	0	250	0	1	5	3	4
8	1	40192	0	1	2	1	0
8	1	90400	0	1	2	3	4
8	1	1.44548e+07	0	1	2	5	4
8	1	450	0	1	5	3	4
8	2	12416	0	1	2	1	0
8	2	30300	0	1	2	3	4
8	2	4.74726e+06	0	1	2	5	4
8	2	50	0	1	5	3	4
8	3	19968	0	1	2	1	0
8	3	46300	0	1	2	3	4
8	3	7.07789e+06	0	1	2	5	4
8	3	300	0	1	5	3	4
8	4	8384	0	1	2	1	0
8	4	18000	0	1	2	3	4
8	4	2.77709e+06	0	1	2	5	4
8	4	100	0	1	5	3	4
8	5	11456	0	1	2	1	0
8	5	32900	0	1	2	3	4
8	5	4.57114e+06	0	1	2	5	4
8	5	100	0	1	5	3	4
8	6	11840	0	1	2	1	0
8	6	24600	0	1	2	3	4
8	6	4.15334e+06	0	1	2	5	4
8	6	100	0	1	5	3	4
8	7	5568	0	1	2	1	0
8	7	10300	0	1	2	3	4
8	7	1.82682e+06	0	1	2	5	4
8	7	50	0	1	5	3	4
8	9	3456	0	1	2	1	0
8	9	10000	0	1	2	3	4
8	9	1.40493e+06	0	1	2	5	4
8	9	100	0	1	5	3	4
9	0	70528	0	1	2	1	0
9	0	168300	0	1	2	3	4
9	0	2.56164e+07	0	1	2	5	4
9	0	850	0	1	5	3	4
9	1	12672	0	1	2	1	0
9	1	26400	0	1	2	3	4
9	1	4.34586e+06	0	1	2	5	4
9	1	50	0	1	5	3	4
9	2	7296	0	1	2	1	0
9	2	20500	0	1	2	3	4
9	2	2.95322e+06	0	1	2	5	4
9	3	18048	0	1	2	1	0
9	3	41200	0	1	2	3	4
9	3	6.73792e+06	0	1	2	5	4
9	3	250	0	1	5	3	4
9	4	4352	0	1	2	1	0
9	4	11000	0	1	2	3	4
9	4	1.90464e+06	0	1	2	5	4
9	4	50	0	1	5	3	4
9	5	6464	0	1	2	1	0
9	5	12500	0	1	2	3	4
9	5	2.18317e+06	0	1	2	5	4
9	5	50	0	1	5	3	4
9	6	5120	0	1	2	1	0
9	6	10300	0	1	2	3	4
9	6	1.88416e+06	0	1	2	5	4
9	6	50	0	1	5	3	4
9	7	4288	0	1	2	1	0
9	7	9800	0	1	2	3	4
9	7	1.55238e+06	0	1	2	5	4
9	8	4288	0	1	2	1	0
9	8	8600	0	1	2	3	4
9	8	1.49094e+06	0	1	2	5	4
9	8	50	0	1	5	3	4
