16
0	1	1e+12
0	2	1e+12
0	10	1e+12
0	12	1e+12
1	0	1e+12
1	2	1e+12
2	0	1e+12
2	1	1e+12
2	6	1e+12
2	12	1e+12
3	13	1e+12
3	15	1e+12
4	7	1e+12
4	9	1e+12
5	10	1e+12
6	2	1e+12
7	4	1e+12
7	13	1e+12
8	14	1e+12
8	15	1e+12
9	4	1e+12
9	14	1e+12
10	0	1e+12
10	5	1e+12
10	11	1e+12
10	13	1e+12
11	10	1e+12
11	13	1e+12
12	0	1e+12
12	2	1e+12
12	15	1e+12
13	3	1e+12
13	7	1e+12
13	10	1e+12
13	11	1e+12
14	8	1e+12
14	9	1e+12
15	3	1e+12
15	8	1e+12
15	12	1e+12
