10
0	1	1e+12
0	4	1e+12
1	0	1e+12
1	4	1e+12
1	5	1e+12
2	3	1e+12
2	4	1e+12
2	8	1e+12
3	2	1e+12
3	7	1e+12
4	0	1e+12
4	1	1e+12
4	2	1e+12
4	6	1e+12
4	9	1e+12
5	1	1e+12
5	6	1e+12
5	7	1e+12
5	8	1e+12
6	4	1e+12
6	5	1e+12
6	7	1e+12
7	3	1e+12
7	5	1e+12
7	6	1e+12
7	8	1e+12
8	2	1e+12
8	5	1e+12
8	7	1e+12
9	4	1e+12
