20
0	4	1e+12
0	6	1e+12
0	9	1e+12
0	14	1e+12
0	15	1e+12
1	3	1e+12
1	12	1e+12
1	19	1e+12
2	6	1e+12
2	12	1e+12
2	13	1e+12
3	1	1e+12
3	5	1e+12
3	13	1e+12
3	15	1e+12
3	16	1e+12
3	18	1e+12
3	19	1e+12
4	0	1e+12
4	9	1e+12
4	12	1e+12
5	3	1e+12
5	7	1e+12
5	8	1e+12
6	0	1e+12
6	2	1e+12
6	8	1e+12
6	16	1e+12
6	18	1e+12
7	5	1e+12
7	12	1e+12
7	14	1e+12
7	16	1e+12
8	5	1e+12
8	6	1e+12
8	10	1e+12
8	19	1e+12
9	0	1e+12
9	4	1e+12
9	14	1e+12
9	17	1e+12
10	8	1e+12
11	14	1e+12
11	15	1e+12
12	1	1e+12
12	2	1e+12
12	4	1e+12
12	7	1e+12
12	15	1e+12
12	17	1e+12
13	2	1e+12
13	3	1e+12
14	0	1e+12
14	7	1e+12
14	9	1e+12
14	11	1e+12
14	16	1e+12
15	0	1e+12
15	3	1e+12
15	11	1e+12
15	12	1e+12
16	3	1e+12
16	6	1e+12
16	7	1e+12
16	14	1e+12
16	17	1e+12
17	9	1e+12
17	12	1e+12
17	16	1e+12
18	3	1e+12
18	6	1e+12
19	1	1e+12
19	3	1e+12
19	8	1e+12
