100000	100000	100000	10000	1000	1000
0	1	12096	0	1	2	1	0
0	1	32100	0	1	2	3	4
0	1	4.73907e+06	0	1	2	5	4
0	1	100	0	1	5	3	4
0	2	12480	0	1	2	1	0
0	2	31400	0	1	2	3	4
0	2	4.85376e+06	0	1	2	5	4
0	2	200	0	1	5	3	4
0	3	12288	0	1	2	1	0
0	3	29600	0	1	2	3	4
0	3	4.99302e+06	0	1	2	5	4
0	3	100	0	1	5	3	4
0	4	12992	0	1	2	1	0
0	4	30000	0	1	2	3	4
0	4	4.56704e+06	0	1	2	5	4
0	4	50	0	1	5	3	4
0	5	12928	0	1	2	1	0
0	5	30700	0	1	2	3	4
0	5	4.63258e+06	0	1	2	5	4
0	5	100	0	1	5	3	4
0	6	12032	0	1	2	1	0
0	6	30800	0	1	2	3	4
0	6	4.84147e+06	0	1	2	5	4
0	6	100	0	1	5	3	4
0	7	11968	0	1	2	1	0
0	7	30700	0	1	2	3	4
0	7	4.7145e+06	0	1	2	5	4
0	8	11904	0	1	2	1	0
0	8	32800	0	1	2	3	4
0	8	4.54246e+06	0	1	2	5	4
0	8	200	0	1	5	3	4
0	9	10624	0	1	2	1	0
0	9	30500	0	1	2	3	4
0	9	4.77184e+06	0	1	2	5	4
0	9	150	0	1	5	3	4
0	10	12672	0	1	2	1	0
0	10	30200	0	1	2	3	4
0	10	4.8128e+06	0	1	2	5	4
0	10	150	0	1	5	3	4
0	11	11968	0	1	2	1	0
0	11	29200	0	1	2	3	4
0	11	4.77594e+06	0	1	2	5	4
0	11	50	0	1	5	3	4
0	12	12544	0	1	2	1	0
0	12	29300	0	1	2	3	4
0	12	5.02989e+06	0	1	2	5	4
0	12	200	0	1	5	3	4
0	13	12800	0	1	2	1	0
0	13	29000	0	1	2	3	4
0	13	4.65306e+06	0	1	2	5	4
0	13	50	0	1	5	3	4
0	14	14080	0	1	2	1	0
0	14	29700	0	1	2	3	4
0	14	4.65306e+06	0	1	2	5	4
0	14	50	0	1	5	3	4
1	0	11136	0	1	2	1	0
1	0	29100	0	1	2	3	4
1	0	4.8169e+06	0	1	2	5	4
1	0	50	0	1	5	3	4
1	2	12288	0	1	2	1	0
1	2	30000	0	1	2	3	4
1	2	4.75955e+06	0	1	2	5	4
1	2	50	0	1	5	3	4
1	3	11712	0	1	2	1	0
1	3	29700	0	1	2	3	4
1	3	4.82099e+06	0	1	2	5	4
1	3	150	0	1	5	3	4
1	4	11904	0	1	2	1	0
1	4	33900	0	1	2	3	4
1	4	4.43187e+06	0	1	2	5	4
1	4	300	0	1	5	3	4
1	5	10752	0	1	2	1	0
1	5	29400	0	1	2	3	4
1	5	4.54246e+06	0	1	2	5	4
1	5	200	0	1	5	3	4
1	6	12352	0	1	2	1	0
1	6	29600	0	1	2	3	4
1	6	4.53427e+06	0	1	2	5	4
1	6	150	0	1	5	3	4
1	7	13056	0	1	2	1	0
1	7	28700	0	1	2	3	4
1	7	4.95616e+06	0	1	2	5	4
1	7	300	0	1	5	3	4
1	8	12480	0	1	2	1	0
1	8	28700	0	1	2	3	4
1	8	4.96026e+06	0	1	2	5	4
1	8	100	0	1	5	3	4
1	9	12160	0	1	2	1	0
1	9	30000	0	1	2	3	4
1	9	4.64077e+06	0	1	2	5	4
1	9	200	0	1	5	3	4
1	10	11328	0	1	2	1	0
1	10	30300	0	1	2	3	4
1	10	4.78822e+06	0	1	2	5	4
1	10	100	0	1	5	3	4
1	11	11904	0	1	2	1	0
1	11	32400	0	1	2	3	4
1	11	4.9111e+06	0	1	2	5	4
1	11	200	0	1	5	3	4
1	12	13312	0	1	2	1	0
1	12	28400	0	1	2	3	4
1	12	4.94387e+06	0	1	2	5	4
1	12	50	0	1	5	3	4
1	13	12736	0	1	2	1	0
1	13	32300	0	1	2	3	4
1	13	4.63667e+06	0	1	2	5	4
1	13	100	0	1	5	3	4
1	14	13184	0	1	2	1	0
1	14	28200	0	1	2	3	4
1	14	4.84147e+06	0	1	2	5	4
1	14	100	0	1	5	3	4
2	0	13568	0	1	2	1	0
2	0	35400	0	1	2	3	4
2	0	4.74726e+06	0	1	2	5	4
2	0	150	0	1	5	3	4
2	1	13056	0	1	2	1	0
2	1	31200	0	1	2	3	4
2	1	4.73088e+06	0	1	2	5	4
2	1	50	0	1	5	3	4
2	3	12032	0	1	2	1	0
2	3	29500	0	1	2	3	4
2	3	4.64486e+06	0	1	2	5	4
2	3	200	0	1	5	3	4
2	4	13248	0	1	2	1	0
2	4	30300	0	1	2	3	4
2	4	5.0176e+06	0	1	2	5	4
2	4	50	0	1	5	3	4
2	5	12736	0	1	2	1	0
2	5	29300	0	1	2	3	4
2	5	4.86605e+06	0	1	2	5	4
2	5	100	0	1	5	3	4
2	6	12928	0	1	2	1	0
2	6	28000	0	1	2	3	4
2	6	4.65715e+06	0	1	2	5	4
2	6	200	0	1	5	3	4
2	7	12032	0	1	2	1	0
2	7	30200	0	1	2	3	4
2	7	4.73088e+06	0	1	2	5	4
2	7	100	0	1	5	3	4
2	8	12864	0	1	2	1	0
2	8	30600	0	1	2	3	4
2	8	4.5097e+06	0	1	2	5	4
2	8	100	0	1	5	3	4
2	9	12608	0	1	2	1	0
2	9	28200	0	1	2	3	4
2	9	4.62438e+06	0	1	2	5	4
2	9	100	0	1	5	3	4
2	10	12544	0	1	2	1	0
2	10	31200	0	1	2	3	4
2	10	4.53837e+06	0	1	2	5	4
2	10	200	0	1	5	3	4
2	11	12864	0	1	2	1	0
2	11	31900	0	1	2	3	4
2	11	4.78822e+06	0	1	2	5	4
2	11	100	0	1	5	3	4
2	12	12224	0	1	2	1	0
2	12	30600	0	1	2	3	4
2	12	4.8128e+06	0	1	2	5	4
2	12	50	0	1	5	3	4
2	13	12096	0	1	2	1	0
2	13	33800	0	1	2	3	4
2	13	4.75546e+06	0	1	2	5	4
2	14	11584	0	1	2	1	0
2	14	29200	0	1	2	3	4
2	14	4.58752e+06	0	1	2	5	4
2	14	150	0	1	5	3	4
3	0	13184	0	1	2	1	0
3	0	30100	0	1	2	3	4
3	0	4.67763e+06	0	1	2	5	4
3	0	150	0	1	5	3	4
3	1	12800	0	1	2	1	0
3	1	30800	0	1	2	3	4
3	1	4.53837e+06	0	1	2	5	4
3	1	250	0	1	5	3	4
3	2	12096	0	1	2	1	0
3	2	31800	0	1	2	3	4
3	2	4.85786e+06	0	1	2	5	4
3	2	100	0	1	5	3	4
3	4	13376	0	1	2	1	0
3	4	32700	0	1	2	3	4
3	4	4.59162e+06	0	1	2	5	4
3	4	100	0	1	5	3	4
3	5	12288	0	1	2	1	0
3	5	30900	0	1	2	3	4
3	5	4.65715e+06	0	1	2	5	4
3	5	350	0	1	5	3	4
3	6	12800	0	1	2	1	0
3	6	32200	0	1	2	3	4
3	6	4.84557e+06	0	1	2	5	4
3	6	200	0	1	5	3	4
3	7	12352	0	1	2	1	0
3	7	32100	0	1	2	3	4
3	7	4.66534e+06	0	1	2	5	4
3	7	100	0	1	5	3	4
3	8	11712	0	1	2	1	0
3	8	30500	0	1	2	3	4
3	8	4.84966e+06	0	1	2	5	4
3	8	100	0	1	5	3	4
3	9	12032	0	1	2	1	0
3	9	30300	0	1	2	3	4
3	9	4.54656e+06	0	1	2	5	4
3	9	50	0	1	5	3	4
3	10	11968	0	1	2	1	0
3	10	29000	0	1	2	3	4
3	10	4.90291e+06	0	1	2	5	4
3	10	150	0	1	5	3	4
3	11	12416	0	1	2	1	0
3	11	30100	0	1	2	3	4
3	11	4.71859e+06	0	1	2	5	4
3	11	50	0	1	5	3	4
3	12	12032	0	1	2	1	0
3	12	28200	0	1	2	3	4
3	12	4.63667e+06	0	1	2	5	4
3	12	100	0	1	5	3	4
3	13	11968	0	1	2	1	0
3	13	29100	0	1	2	3	4
3	13	4.58752e+06	0	1	2	5	4
3	13	200	0	1	5	3	4
3	14	12800	0	1	2	1	0
3	14	32100	0	1	2	3	4
3	14	4.78822e+06	0	1	2	5	4
3	14	100	0	1	5	3	4
4	0	11904	0	1	2	1	0
4	0	33400	0	1	2	3	4
4	0	4.73088e+06	0	1	2	5	4
4	0	150	0	1	5	3	4
4	1	11712	0	1	2	1	0
4	1	29700	0	1	2	3	4
4	1	4.75955e+06	0	1	2	5	4
4	1	150	0	1	5	3	4
4	2	11072	0	1	2	1	0
4	2	31700	0	1	2	3	4
4	2	4.57933e+06	0	1	2	5	4
4	2	100	0	1	5	3	4
4	3	12672	0	1	2	1	0
4	3	30400	0	1	2	3	4
4	3	4.69811e+06	0	1	2	5	4
4	3	50	0	1	5	3	4
4	5	12672	0	1	2	1	0
4	5	31400	0	1	2	3	4
4	5	4.67354e+06	0	1	2	5	4
4	5	100	0	1	5	3	4
4	6	12416	0	1	2	1	0
4	6	31000	0	1	2	3	4
4	6	4.58752e+06	0	1	2	5	4
4	6	50	0	1	5	3	4
4	7	10752	0	1	2	1	0
4	7	28900	0	1	2	3	4
4	7	4.89062e+06	0	1	2	5	4
4	7	300	0	1	5	3	4
4	8	13184	0	1	2	1	0
4	8	29200	0	1	2	3	4
4	8	4.65715e+06	0	1	2	5	4
4	8	150	0	1	5	3	4
4	9	14656	0	1	2	1	0
4	9	30500	0	1	2	3	4
4	9	4.68173e+06	0	1	2	5	4
4	9	100	0	1	5	3	4
4	10	12544	0	1	2	1	0
4	10	33100	0	1	2	3	4
4	10	4.7104e+06	0	1	2	5	4
4	10	150	0	1	5	3	4
4	11	13184	0	1	2	1	0
4	11	34200	0	1	2	3	4
4	11	4.58752e+06	0	1	2	5	4
4	11	50	0	1	5	3	4
4	12	13184	0	1	2	1	0
4	12	31500	0	1	2	3	4
4	12	4.87014e+06	0	1	2	5	4
4	12	200	0	1	5	3	4
4	13	12544	0	1	2	1	0
4	13	28900	0	1	2	3	4
4	13	4.88653e+06	0	1	2	5	4
4	14	12672	0	1	2	1	0
4	14	31400	0	1	2	3	4
4	14	4.89882e+06	0	1	2	5	4
4	14	50	0	1	5	3	4
5	0	11904	0	1	2	1	0
5	0	30600	0	1	2	3	4
5	0	4.73498e+06	0	1	2	5	4
5	0	150	0	1	5	3	4
5	1	10880	0	1	2	1	0
5	1	28600	0	1	2	3	4
5	1	4.93158e+06	0	1	2	5	4
5	1	50	0	1	5	3	4
5	2	12672	0	1	2	1	0
5	2	25800	0	1	2	3	4
5	2	4.51789e+06	0	1	2	5	4
5	2	100	0	1	5	3	4
5	3	12992	0	1	2	1	0
5	3	30400	0	1	2	3	4
5	3	4.63258e+06	0	1	2	5	4
5	3	200	0	1	5	3	4
5	4	12224	0	1	2	1	0
5	4	32600	0	1	2	3	4
5	4	4.55475e+06	0	1	2	5	4
5	4	50	0	1	5	3	4
5	6	12736	0	1	2	1	0
5	6	28400	0	1	2	3	4
5	6	4.62029e+06	0	1	2	5	4
5	6	200	0	1	5	3	4
5	7	12160	0	1	2	1	0
5	7	31200	0	1	2	3	4
5	7	4.75955e+06	0	1	2	5	4
5	7	100	0	1	5	3	4
5	8	12928	0	1	2	1	0
5	8	30800	0	1	2	3	4
5	8	4.66125e+06	0	1	2	5	4
5	8	100	0	1	5	3	4
5	9	12352	0	1	2	1	0
5	9	31400	0	1	2	3	4
5	9	4.77594e+06	0	1	2	5	4
5	9	250	0	1	5	3	4
5	10	12032	0	1	2	1	0
5	10	28900	0	1	2	3	4
5	10	4.82918e+06	0	1	2	5	4
5	10	250	0	1	5	3	4
5	11	12416	0	1	2	1	0
5	11	30600	0	1	2	3	4
5	11	4.71859e+06	0	1	2	5	4
5	11	200	0	1	5	3	4
5	12	13888	0	1	2	1	0
5	12	32100	0	1	2	3	4
5	12	4.56704e+06	0	1	2	5	4
5	12	200	0	1	5	3	4
5	13	12416	0	1	2	1	0
5	13	32000	0	1	2	3	4
5	13	4.66125e+06	0	1	2	5	4
5	13	150	0	1	5	3	4
5	14	13376	0	1	2	1	0
5	14	31000	0	1	2	3	4
5	14	4.75955e+06	0	1	2	5	4
5	14	150	0	1	5	3	4
6	0	13504	0	1	2	1	0
6	0	29000	0	1	2	3	4
6	0	4.76774e+06	0	1	2	5	4
6	0	200	0	1	5	3	4
6	1	11264	0	1	2	1	0
6	1	32100	0	1	2	3	4
6	1	4.78413e+06	0	1	2	5	4
6	1	100	0	1	5	3	4
6	2	12096	0	1	2	1	0
6	2	31900	0	1	2	3	4
6	2	4.70221e+06	0	1	2	5	4
6	2	100	0	1	5	3	4
6	3	12224	0	1	2	1	0
6	3	32100	0	1	2	3	4
6	3	4.79642e+06	0	1	2	5	4
6	3	100	0	1	5	3	4
6	4	12864	0	1	2	1	0
6	4	29900	0	1	2	3	4
6	4	4.57523e+06	0	1	2	5	4
6	4	150	0	1	5	3	4
6	5	9344	0	1	2	1	0
6	5	31900	0	1	2	3	4
6	5	4.64486e+06	0	1	2	5	4
6	5	100	0	1	5	3	4
6	7	12032	0	1	2	1	0
6	7	32300	0	1	2	3	4
6	7	4.68582e+06	0	1	2	5	4
6	7	50	0	1	5	3	4
6	8	13056	0	1	2	1	0
6	8	28500	0	1	2	3	4
6	8	4.53837e+06	0	1	2	5	4
6	9	12096	0	1	2	1	0
6	9	31000	0	1	2	3	4
6	9	4.74726e+06	0	1	2	5	4
6	9	200	0	1	5	3	4
6	10	12672	0	1	2	1	0
6	10	31900	0	1	2	3	4
6	10	4.95616e+06	0	1	2	5	4
6	10	100	0	1	5	3	4
6	11	11584	0	1	2	1	0
6	11	28000	0	1	2	3	4
6	11	4.71859e+06	0	1	2	5	4
6	11	200	0	1	5	3	4
6	12	12800	0	1	2	1	0
6	12	30000	0	1	2	3	4
6	12	4.48922e+06	0	1	2	5	4
6	12	200	0	1	5	3	4
6	13	12224	0	1	2	1	0
6	13	29600	0	1	2	3	4
6	13	4.58342e+06	0	1	2	5	4
6	13	100	0	1	5	3	4
6	14	12480	0	1	2	1	0
6	14	30700	0	1	2	3	4
6	14	4.608e+06	0	1	2	5	4
6	14	50	0	1	5	3	4
7	0	13056	0	1	2	1	0
7	0	30400	0	1	2	3	4
7	0	4.74317e+06	0	1	2	5	4
7	0	150	0	1	5	3	4
7	1	13504	0	1	2	1	0
7	1	31200	0	1	2	3	4
7	1	4.61619e+06	0	1	2	5	4
7	1	50	0	1	5	3	4
7	2	13312	0	1	2	1	0
7	2	28400	0	1	2	3	4
7	2	4.9193e+06	0	1	2	5	4
7	2	150	0	1	5	3	4
7	3	12928	0	1	2	1	0
7	3	30700	0	1	2	3	4
7	3	4.62438e+06	0	1	2	5	4
7	3	100	0	1	5	3	4
7	4	12480	0	1	2	1	0
7	4	30100	0	1	2	3	4
7	4	4.72269e+06	0	1	2	5	4
7	4	200	0	1	5	3	4
7	5	12736	0	1	2	1	0
7	5	29900	0	1	2	3	4
7	5	4.87014e+06	0	1	2	5	4
7	5	150	0	1	5	3	4
7	6	11968	0	1	2	1	0
7	6	27800	0	1	2	3	4
7	6	4.54246e+06	0	1	2	5	4
7	6	150	0	1	5	3	4
7	8	14144	0	1	2	1	0
7	8	29300	0	1	2	3	4
7	8	4.76774e+06	0	1	2	5	4
7	8	200	0	1	5	3	4
7	9	11264	0	1	2	1	0
7	9	29800	0	1	2	3	4
7	9	4.45235e+06	0	1	2	5	4
7	9	100	0	1	5	3	4
7	10	13376	0	1	2	1	0
7	10	30300	0	1	2	3	4
7	10	4.55475e+06	0	1	2	5	4
7	10	150	0	1	5	3	4
7	11	11392	0	1	2	1	0
7	11	28800	0	1	2	3	4
7	11	4.67763e+06	0	1	2	5	4
7	11	50	0	1	5	3	4
7	12	13376	0	1	2	1	0
7	12	30400	0	1	2	3	4
7	12	4.89062e+06	0	1	2	5	4
7	12	150	0	1	5	3	4
7	13	13760	0	1	2	1	0
7	13	32100	0	1	2	3	4
7	13	4.69402e+06	0	1	2	5	4
7	13	50	0	1	5	3	4
7	14	12288	0	1	2	1	0
7	14	28900	0	1	2	3	4
7	14	4.51379e+06	0	1	2	5	4
7	14	100	0	1	5	3	4
8	0	13312	0	1	2	1	0
8	0	27200	0	1	2	3	4
8	0	4.74317e+06	0	1	2	5	4
8	0	200	0	1	5	3	4
8	1	11904	0	1	2	1	0
8	1	30100	0	1	2	3	4
8	1	4.73088e+06	0	1	2	5	4
8	1	250	0	1	5	3	4
8	2	13504	0	1	2	1	0
8	2	29700	0	1	2	3	4
8	2	4.7145e+06	0	1	2	5	4
8	2	200	0	1	5	3	4
8	3	11968	0	1	2	1	0
8	3	32300	0	1	2	3	4
8	3	4.56704e+06	0	1	2	5	4
8	3	100	0	1	5	3	4
8	4	14208	0	1	2	1	0
8	4	28100	0	1	2	3	4
8	4	4.68173e+06	0	1	2	5	4
8	4	50	0	1	5	3	4
8	5	12992	0	1	2	1	0
8	5	28500	0	1	2	3	4
8	5	4.90291e+06	0	1	2	5	4
8	5	50	0	1	5	3	4
8	6	12352	0	1	2	1	0
8	6	28200	0	1	2	3	4
8	6	4.88653e+06	0	1	2	5	4
8	6	100	0	1	5	3	4
8	7	12672	0	1	2	1	0
8	7	28000	0	1	2	3	4
8	7	4.82509e+06	0	1	2	5	4
8	7	200	0	1	5	3	4
8	9	12416	0	1	2	1	0
8	9	31000	0	1	2	3	4
8	9	4.85376e+06	0	1	2	5	4
8	9	200	0	1	5	3	4
8	10	13248	0	1	2	1	0
8	10	31100	0	1	2	3	4
8	10	4.9152e+06	0	1	2	5	4
8	10	300	0	1	5	3	4
8	11	12864	0	1	2	1	0
8	11	29600	0	1	2	3	4
8	11	4.9193e+06	0	1	2	5	4
8	11	50	0	1	5	3	4
8	12	12800	0	1	2	1	0
8	12	28700	0	1	2	3	4
8	12	4.85376e+06	0	1	2	5	4
8	12	200	0	1	5	3	4
8	13	12608	0	1	2	1	0
8	13	28900	0	1	2	3	4
8	13	4.51379e+06	0	1	2	5	4
8	14	11712	0	1	2	1	0
8	14	31100	0	1	2	3	4
8	14	4.8169e+06	0	1	2	5	4
8	14	100	0	1	5	3	4
9	0	11456	0	1	2	1	0
9	0	28400	0	1	2	3	4
9	0	4.66944e+06	0	1	2	5	4
9	0	100	0	1	5	3	4
9	1	12992	0	1	2	1	0
9	1	30000	0	1	2	3	4
9	1	4.80461e+06	0	1	2	5	4
9	1	150	0	1	5	3	4
9	2	13504	0	1	2	1	0
9	2	29000	0	1	2	3	4
9	2	4.94387e+06	0	1	2	5	4
9	2	50	0	1	5	3	4
9	3	11712	0	1	2	1	0
9	3	28100	0	1	2	3	4
9	3	4.57114e+06	0	1	2	5	4
9	3	100	0	1	5	3	4
9	4	12032	0	1	2	1	0
9	4	27000	0	1	2	3	4
9	4	4.46464e+06	0	1	2	5	4
9	4	50	0	1	5	3	4
9	5	12416	0	1	2	1	0
9	5	29500	0	1	2	3	4
9	5	4.90291e+06	0	1	2	5	4
9	5	100	0	1	5	3	4
9	6	13632	0	1	2	1	0
9	6	27400	0	1	2	3	4
9	6	4.62029e+06	0	1	2	5	4
9	6	150	0	1	5	3	4
9	7	12480	0	1	2	1	0
9	7	31800	0	1	2	3	4
9	7	4.71859e+06	0	1	2	5	4
9	7	200	0	1	5	3	4
9	8	11392	0	1	2	1	0
9	8	27500	0	1	2	3	4
9	8	4.8128e+06	0	1	2	5	4
9	8	100	0	1	5	3	4
9	10	11712	0	1	2	1	0
9	10	28900	0	1	2	3	4
9	10	4.48922e+06	0	1	2	5	4
9	10	100	0	1	5	3	4
9	11	13376	0	1	2	1	0
9	11	29700	0	1	2	3	4
9	11	4.43187e+06	0	1	2	5	4
9	11	150	0	1	5	3	4
9	12	12416	0	1	2	1	0
9	12	30300	0	1	2	3	4
9	12	4.7063e+06	0	1	2	5	4
9	12	200	0	1	5	3	4
9	13	12800	0	1	2	1	0
9	13	29600	0	1	2	3	4
9	13	4.76365e+06	0	1	2	5	4
9	13	100	0	1	5	3	4
9	14	12992	0	1	2	1	0
9	14	29400	0	1	2	3	4
9	14	4.71859e+06	0	1	2	5	4
9	14	50	0	1	5	3	4
10	0	12160	0	1	2	1	0
10	0	30200	0	1	2	3	4
10	0	4.69402e+06	0	1	2	5	4
10	0	100	0	1	5	3	4
10	1	12480	0	1	2	1	0
10	1	32100	0	1	2	3	4
10	1	4.84557e+06	0	1	2	5	4
10	1	150	0	1	5	3	4
10	2	11072	0	1	2	1	0
10	2	33000	0	1	2	3	4
10	2	4.55885e+06	0	1	2	5	4
10	2	150	0	1	5	3	4
10	3	11648	0	1	2	1	0
10	3	32500	0	1	2	3	4
10	3	4.56294e+06	0	1	2	5	4
10	3	150	0	1	5	3	4
10	4	12544	0	1	2	1	0
10	4	30700	0	1	2	3	4
10	4	4.46464e+06	0	1	2	5	4
10	5	11392	0	1	2	1	0
10	5	30500	0	1	2	3	4
10	5	4.69402e+06	0	1	2	5	4
10	5	100	0	1	5	3	4
10	6	12160	0	1	2	1	0
10	6	29100	0	1	2	3	4
10	6	4.93158e+06	0	1	2	5	4
10	6	200	0	1	5	3	4
10	7	11776	0	1	2	1	0
10	7	26200	0	1	2	3	4
10	7	4.62029e+06	0	1	2	5	4
10	7	50	0	1	5	3	4
10	8	10752	0	1	2	1	0
10	8	30400	0	1	2	3	4
10	8	4.75546e+06	0	1	2	5	4
10	8	250	0	1	5	3	4
10	9	13568	0	1	2	1	0
10	9	31900	0	1	2	3	4
10	9	4.75136e+06	0	1	2	5	4
10	9	100	0	1	5	3	4
10	11	12480	0	1	2	1	0
10	11	26700	0	1	2	3	4
10	11	4.5097e+06	0	1	2	5	4
10	11	50	0	1	5	3	4
10	12	14144	0	1	2	1	0
10	12	26800	0	1	2	3	4
10	12	4.67763e+06	0	1	2	5	4
10	12	200	0	1	5	3	4
10	13	11328	0	1	2	1	0
10	13	27600	0	1	2	3	4
10	13	4.66125e+06	0	1	2	5	4
10	13	100	0	1	5	3	4
10	14	11776	0	1	2	1	0
10	14	29500	0	1	2	3	4
10	14	4.80051e+06	0	1	2	5	4
10	14	200	0	1	5	3	4
11	0	10624	0	1	2	1	0
11	0	29000	0	1	2	3	4
11	0	4.73498e+06	0	1	2	5	4
11	0	150	0	1	5	3	4
11	1	13056	0	1	2	1	0
11	1	32300	0	1	2	3	4
11	1	4.59571e+06	0	1	2	5	4
11	1	50	0	1	5	3	4
11	2	11968	0	1	2	1	0
11	2	31500	0	1	2	3	4
11	2	4.77594e+06	0	1	2	5	4
11	2	100	0	1	5	3	4
11	3	12800	0	1	2	1	0
11	3	33900	0	1	2	3	4
11	3	4.78413e+06	0	1	2	5	4
11	4	13120	0	1	2	1	0
11	4	29000	0	1	2	3	4
11	4	4.90701e+06	0	1	2	5	4
11	4	200	0	1	5	3	4
11	5	12608	0	1	2	1	0
11	5	31100	0	1	2	3	4
11	5	4.93158e+06	0	1	2	5	4
11	5	200	0	1	5	3	4
11	6	12288	0	1	2	1	0
11	6	32100	0	1	2	3	4
11	6	4.88243e+06	0	1	2	5	4
11	6	100	0	1	5	3	4
11	7	11712	0	1	2	1	0
11	7	25900	0	1	2	3	4
11	7	4.8087e+06	0	1	2	5	4
11	7	150	0	1	5	3	4
11	8	12800	0	1	2	1	0
11	8	29100	0	1	2	3	4
11	8	4.61619e+06	0	1	2	5	4
11	8	50	0	1	5	3	4
11	9	12672	0	1	2	1	0
11	9	25300	0	1	2	3	4
11	9	4.75546e+06	0	1	2	5	4
11	9	100	0	1	5	3	4
11	10	12480	0	1	2	1	0
11	10	30500	0	1	2	3	4
11	10	4.61619e+06	0	1	2	5	4
11	10	100	0	1	5	3	4
11	12	12608	0	1	2	1	0
11	12	31000	0	1	2	3	4
11	12	4.73498e+06	0	1	2	5	4
11	12	50	0	1	5	3	4
11	13	13824	0	1	2	1	0
11	13	28500	0	1	2	3	4
11	13	4.76774e+06	0	1	2	5	4
11	13	150	0	1	5	3	4
11	14	12032	0	1	2	1	0
11	14	27400	0	1	2	3	4
11	14	4.95616e+06	0	1	2	5	4
11	14	150	0	1	5	3	4
12	0	12416	0	1	2	1	0
12	0	29400	0	1	2	3	4
12	0	4.89882e+06	0	1	2	5	4
12	0	50	0	1	5	3	4
12	1	12160	0	1	2	1	0
12	1	30100	0	1	2	3	4
12	1	4.68173e+06	0	1	2	5	4
12	1	250	0	1	5	3	4
12	2	12032	0	1	2	1	0
12	2	30100	0	1	2	3	4
12	2	4.58752e+06	0	1	2	5	4
12	2	100	0	1	5	3	4
12	3	11328	0	1	2	1	0
12	3	30600	0	1	2	3	4
12	3	4.82099e+06	0	1	2	5	4
12	3	250	0	1	5	3	4
12	4	13184	0	1	2	1	0
12	4	29200	0	1	2	3	4
12	4	4.9152e+06	0	1	2	5	4
12	4	100	0	1	5	3	4
12	5	14528	0	1	2	1	0
12	5	29300	0	1	2	3	4
12	5	4.8087e+06	0	1	2	5	4
12	5	100	0	1	5	3	4
12	6	12224	0	1	2	1	0
12	6	26700	0	1	2	3	4
12	6	4.87014e+06	0	1	2	5	4
12	6	100	0	1	5	3	4
12	7	12736	0	1	2	1	0
12	7	30700	0	1	2	3	4
12	7	4.55066e+06	0	1	2	5	4
12	7	200	0	1	5	3	4
12	8	12352	0	1	2	1	0
12	8	29000	0	1	2	3	4
12	8	4.75955e+06	0	1	2	5	4
12	8	50	0	1	5	3	4
12	9	12544	0	1	2	1	0
12	9	29600	0	1	2	3	4
12	9	4.61619e+06	0	1	2	5	4
12	9	100	0	1	5	3	4
12	10	12416	0	1	2	1	0
12	10	32000	0	1	2	3	4
12	10	4.74317e+06	0	1	2	5	4
12	10	100	0	1	5	3	4
12	11	12608	0	1	2	1	0
12	11	29000	0	1	2	3	4
12	11	4.66534e+06	0	1	2	5	4
12	11	150	0	1	5	3	4
12	13	12736	0	1	2	1	0
12	13	31600	0	1	2	3	4
12	13	4.63667e+06	0	1	2	5	4
12	13	50	0	1	5	3	4
12	14	12352	0	1	2	1	0
12	14	30900	0	1	2	3	4
12	14	4.7063e+06	0	1	2	5	4
12	14	100	0	1	5	3	4
13	0	11648	0	1	2	1	0
13	0	30000	0	1	2	3	4
13	0	4.7104e+06	0	1	2	5	4
13	1	11712	0	1	2	1	0
13	1	31300	0	1	2	3	4
13	1	4.59162e+06	0	1	2	5	4
13	1	150	0	1	5	3	4
13	2	11904	0	1	2	1	0
13	2	30900	0	1	2	3	4
13	2	4.75546e+06	0	1	2	5	4
13	2	100	0	1	5	3	4
13	3	10816	0	1	2	1	0
13	3	30100	0	1	2	3	4
13	3	4.7145e+06	0	1	2	5	4
13	3	250	0	1	5	3	4
13	4	12288	0	1	2	1	0
13	4	31600	0	1	2	3	4
13	4	4.46464e+06	0	1	2	5	4
13	4	200	0	1	5	3	4
13	5	12864	0	1	2	1	0
13	5	28800	0	1	2	3	4
13	5	4.69402e+06	0	1	2	5	4
13	5	100	0	1	5	3	4
13	6	11712	0	1	2	1	0
13	6	30700	0	1	2	3	4
13	6	4.80461e+06	0	1	2	5	4
13	7	11904	0	1	2	1	0
13	7	28300	0	1	2	3	4
13	7	4.82099e+06	0	1	2	5	4
13	7	150	0	1	5	3	4
13	8	12800	0	1	2	1	0
13	8	28500	0	1	2	3	4
13	8	4.69402e+06	0	1	2	5	4
13	8	200	0	1	5	3	4
13	9	12928	0	1	2	1	0
13	9	31000	0	1	2	3	4
13	9	4.76774e+06	0	1	2	5	4
13	9	150	0	1	5	3	4
13	10	11264	0	1	2	1	0
13	10	27300	0	1	2	3	4
13	10	4.83328e+06	0	1	2	5	4
13	10	150	0	1	5	3	4
13	11	13120	0	1	2	1	0
13	11	31700	0	1	2	3	4
13	11	4.77184e+06	0	1	2	5	4
13	11	100	0	1	5	3	4
13	12	12800	0	1	2	1	0
13	12	30300	0	1	2	3	4
13	12	4.76774e+06	0	1	2	5	4
13	12	100	0	1	5	3	4
13	14	12928	0	1	2	1	0
13	14	32900	0	1	2	3	4
13	14	4.78822e+06	0	1	2	5	4
13	14	200	0	1	5	3	4
14	0	12544	0	1	2	1	0
14	0	30100	0	1	2	3	4
14	0	4.83738e+06	0	1	2	5	4
14	0	250	0	1	5	3	4
14	1	12992	0	1	2	1	0
14	1	29400	0	1	2	3	4
14	1	4.77594e+06	0	1	2	5	4
14	1	150	0	1	5	3	4
14	2	12352	0	1	2	1	0
14	2	28300	0	1	2	3	4
14	2	4.64896e+06	0	1	2	5	4
14	2	150	0	1	5	3	4
14	3	12160	0	1	2	1	0
14	3	30200	0	1	2	3	4
14	3	4.55885e+06	0	1	2	5	4
14	3	50	0	1	5	3	4
14	4	13440	0	1	2	1	0
14	4	30300	0	1	2	3	4
14	4	4.608e+06	0	1	2	5	4
14	5	12416	0	1	2	1	0
14	5	30100	0	1	2	3	4
14	5	4.74317e+06	0	1	2	5	4
14	5	100	0	1	5	3	4
14	6	10304	0	1	2	1	0
14	6	33300	0	1	2	3	4
14	6	4.608e+06	0	1	2	5	4
14	6	150	0	1	5	3	4
14	7	12352	0	1	2	1	0
14	7	31600	0	1	2	3	4
14	7	4.62438e+06	0	1	2	5	4
14	7	250	0	1	5	3	4
14	8	11392	0	1	2	1	0
14	8	31000	0	1	2	3	4
14	8	4.65306e+06	0	1	2	5	4
14	8	150	0	1	5	3	4
14	9	13376	0	1	2	1	0
14	9	28400	0	1	2	3	4
14	9	4.8087e+06	0	1	2	5	4
14	9	150	0	1	5	3	4
14	10	11392	0	1	2	1	0
14	10	29200	0	1	2	3	4
14	10	4.71859e+06	0	1	2	5	4
14	10	100	0	1	5	3	4
14	11	12608	0	1	2	1	0
14	11	29000	0	1	2	3	4
14	11	4.47283e+06	0	1	2	5	4
14	11	150	0	1	5	3	4
14	12	12416	0	1	2	1	0
14	12	29100	0	1	2	3	4
14	12	4.68992e+06	0	1	2	5	4
14	12	300	0	1	5	3	4
14	13	12160	0	1	2	1	0
14	13	31800	0	1	2	3	4
14	13	4.74726e+06	0	1	2	5	4
14	13	200	0	1	5	3	4
