100000	10000	100000
0	1	1.11653e+07	1	1	1	1	0
0	2	1.10904e+07	1	1	1	1	0
0	3	1.11381e+07	1	1	1	1	0
0	4	1.11313e+07	1	1	1	1	0
0	5	1.11369e+07	1	1	1	1	0
0	6	1.10949e+07	1	1	1	1	0
0	7	1.10887e+07	1	1	1	1	0
0	8	1.10313e+07	1	1	1	1	0
0	9	1.10926e+07	1	1	1	1	0
1	0	1.1171e+07	1	1	1	1	0
1	2	1.12278e+07	1	1	1	1	0
1	3	1.11068e+07	1	1	1	1	0
1	4	1.10836e+07	1	1	1	1	0
1	5	1.11216e+07	1	1	1	1	0
1	6	1.11455e+07	1	1	1	1	0
1	7	1.09961e+07	1	1	1	1	0
1	8	1.09484e+07	1	1	1	1	0
1	9	1.1125e+07	1	1	1	1	0
2	0	1.10495e+07	1	1	1	1	0
2	1	1.10853e+07	1	1	1	1	0
2	3	1.11358e+07	1	1	1	1	0
2	4	1.0962e+07	1	1	1	1	0
2	5	1.11642e+07	1	1	1	1	0
2	6	1.10523e+07	1	1	1	1	0
2	7	1.09864e+07	1	1	1	1	0
2	8	1.10444e+07	1	1	1	1	0
2	9	1.10262e+07	1	1	1	1	0
3	0	1.10608e+07	1	1	1	1	0
3	1	1.10273e+07	1	1	1	1	0
3	2	1.10745e+07	1	1	1	1	0
3	4	1.11051e+07	1	1	1	1	0
3	5	1.10711e+07	1	1	1	1	0
3	6	1.12028e+07	1	1	1	1	0
3	7	1.11619e+07	1	1	1	1	0
3	8	1.11114e+07	1	1	1	1	0
3	9	1.12568e+07	1	1	1	1	0
4	0	1.10875e+07	1	1	1	1	0
4	1	1.11398e+07	1	1	1	1	0
4	2	1.13244e+07	1	1	1	1	0
4	3	1.12829e+07	1	1	1	1	0
4	5	1.11722e+07	1	1	1	1	0
4	6	1.10552e+07	1	1	1	1	0
4	7	1.11375e+07	1	1	1	1	0
4	8	1.11165e+07	1	1	1	1	0
4	9	1.10489e+07	1	1	1	1	0
5	0	1.12437e+07	1	1	1	1	0
5	1	1.12233e+07	1	1	1	1	0
5	2	1.1225e+07	1	1	1	1	0
5	3	1.12244e+07	1	1	1	1	0
5	4	1.10824e+07	1	1	1	1	0
5	6	1.1167e+07	1	1	1	1	0
5	7	1.11557e+07	1	1	1	1	0
5	8	1.10875e+07	1	1	1	1	0
5	9	1.12273e+07	1	1	1	1	0
6	0	1.11159e+07	1	1	1	1	0
6	1	1.10966e+07	1	1	1	1	0
6	2	1.10495e+07	1	1	1	1	0
6	3	1.11034e+07	1	1	1	1	0
6	4	1.11279e+07	1	1	1	1	0
6	5	1.11449e+07	1	1	1	1	0
6	7	1.11688e+07	1	1	1	1	0
6	8	1.10983e+07	1	1	1	1	0
6	9	1.11648e+07	1	1	1	1	0
7	0	1.10529e+07	1	1	1	1	0
7	1	1.11972e+07	1	1	1	1	0
7	2	1.10625e+07	1	1	1	1	0
7	3	1.11256e+07	1	1	1	1	0
7	4	1.11358e+07	1	1	1	1	0
7	5	1.09501e+07	1	1	1	1	0
7	6	1.10699e+07	1	1	1	1	0
7	8	1.1079e+07	1	1	1	1	0
7	9	1.10995e+07	1	1	1	1	0
8	0	1.11051e+07	1	1	1	1	0
8	1	1.10001e+07	1	1	1	1	0
8	2	1.11085e+07	1	1	1	1	0
8	3	1.11245e+07	1	1	1	1	0
8	4	1.11358e+07	1	1	1	1	0
8	5	1.10875e+07	1	1	1	1	0
8	6	1.10506e+07	1	1	1	1	0
8	7	1.11915e+07	1	1	1	1	0
8	9	1.10092e+07	1	1	1	1	0
9	0	1.10228e+07	1	1	1	1	0
9	1	1.12148e+07	1	1	1	1	0
9	2	1.11591e+07	1	1	1	1	0
9	3	1.10608e+07	1	1	1	1	0
9	4	1.11625e+07	1	1	1	1	0
9	5	1.10347e+07	1	1	1	1	0
9	6	1.10847e+07	1	1	1	1	0
9	7	1.10745e+07	1	1	1	1	0
9	8	1.10563e+07	1	1	1	1	0
