100000	100000	100000	10000	1000	1000
0	1	19712	0	1	2	1	0
0	1	50300	0	1	2	3	4
0	1	7.40966e+06	0	1	2	5	4
0	1	150	0	1	5	3	4
0	2	18496	0	1	2	1	0
0	2	44900	0	1	2	3	4
0	2	7.70048e+06	0	1	2	5	4
0	2	150	0	1	5	3	4
0	3	20672	0	1	2	1	0
0	3	47000	0	1	2	3	4
0	3	7.82746e+06	0	1	2	5	4
0	3	250	0	1	5	3	4
0	4	18752	0	1	2	1	0
0	4	43600	0	1	2	3	4
0	4	7.8807e+06	0	1	2	5	4
0	4	100	0	1	5	3	4
0	5	20096	0	1	2	1	0
0	5	49100	0	1	2	3	4
0	5	7.56941e+06	0	1	2	5	4
0	5	150	0	1	5	3	4
0	6	18176	0	1	2	1	0
0	6	49200	0	1	2	3	4
0	6	7.65542e+06	0	1	2	5	4
0	6	200	0	1	5	3	4
0	7	19584	0	1	2	1	0
0	7	44700	0	1	2	3	4
0	7	7.4711e+06	0	1	2	5	4
0	7	100	0	1	5	3	4
0	8	18240	0	1	2	1	0
0	8	49300	0	1	2	3	4
0	8	7.44243e+06	0	1	2	5	4
0	8	250	0	1	5	3	4
0	9	19456	0	1	2	1	0
0	9	49200	0	1	2	3	4
0	9	7.63904e+06	0	1	2	5	4
0	9	200	0	1	5	3	4
0	10	18240	0	1	2	1	0
0	10	45000	0	1	2	3	4
0	10	7.5735e+06	0	1	2	5	4
0	10	200	0	1	5	3	4
0	11	19712	0	1	2	1	0
0	11	46900	0	1	2	3	4
0	11	7.5735e+06	0	1	2	5	4
0	11	300	0	1	5	3	4
1	0	18304	0	1	2	1	0
1	0	49700	0	1	2	3	4
1	0	7.54074e+06	0	1	2	5	4
1	0	200	0	1	5	3	4
1	2	17984	0	1	2	1	0
1	2	47500	0	1	2	3	4
1	2	7.65542e+06	0	1	2	5	4
1	2	100	0	1	5	3	4
1	3	20992	0	1	2	1	0
1	3	44000	0	1	2	3	4
1	3	7.63904e+06	0	1	2	5	4
1	3	250	0	1	5	3	4
1	4	20160	0	1	2	1	0
1	4	49200	0	1	2	3	4
1	4	7.69638e+06	0	1	2	5	4
1	4	100	0	1	5	3	4
1	5	18368	0	1	2	1	0
1	5	47000	0	1	2	3	4
1	5	7.45882e+06	0	1	2	5	4
1	5	200	0	1	5	3	4
1	6	19072	0	1	2	1	0
1	6	50100	0	1	2	3	4
1	6	7.51616e+06	0	1	2	5	4
1	6	300	0	1	5	3	4
1	7	19456	0	1	2	1	0
1	7	49400	0	1	2	3	4
1	7	7.91347e+06	0	1	2	5	4
1	7	150	0	1	5	3	4
1	8	19456	0	1	2	1	0
1	8	49800	0	1	2	3	4
1	8	7.63494e+06	0	1	2	5	4
1	8	200	0	1	5	3	4
1	9	19328	0	1	2	1	0
1	9	45600	0	1	2	3	4
1	9	7.6841e+06	0	1	2	5	4
1	9	150	0	1	5	3	4
1	10	19904	0	1	2	1	0
1	10	43800	0	1	2	3	4
1	10	7.40557e+06	0	1	2	5	4
1	10	150	0	1	5	3	4
1	11	19136	0	1	2	1	0
1	11	47100	0	1	2	3	4
1	11	7.33594e+06	0	1	2	5	4
1	11	250	0	1	5	3	4
2	0	19904	0	1	2	1	0
2	0	47700	0	1	2	3	4
2	0	7.4793e+06	0	1	2	5	4
2	0	300	0	1	5	3	4
2	1	20352	0	1	2	1	0
2	1	47600	0	1	2	3	4
2	1	7.09018e+06	0	1	2	5	4
2	1	500	0	1	5	3	4
2	3	20736	0	1	2	1	0
2	3	44700	0	1	2	3	4
2	3	7.45882e+06	0	1	2	5	4
2	3	100	0	1	5	3	4
2	4	20352	0	1	2	1	0
2	4	47700	0	1	2	3	4
2	4	7.43014e+06	0	1	2	5	4
2	4	150	0	1	5	3	4
2	5	20864	0	1	2	1	0
2	5	48000	0	1	2	3	4
2	5	7.45472e+06	0	1	2	5	4
2	5	300	0	1	5	3	4
2	6	20096	0	1	2	1	0
2	6	45500	0	1	2	3	4
2	6	7.46701e+06	0	1	2	5	4
2	6	100	0	1	5	3	4
2	7	19392	0	1	2	1	0
2	7	46800	0	1	2	3	4
2	7	7.64314e+06	0	1	2	5	4
2	7	200	0	1	5	3	4
2	8	19200	0	1	2	1	0
2	8	45100	0	1	2	3	4
2	8	7.42195e+06	0	1	2	5	4
2	8	50	0	1	5	3	4
2	9	20096	0	1	2	1	0
2	9	48300	0	1	2	3	4
2	9	7.43834e+06	0	1	2	5	4
2	9	50	0	1	5	3	4
2	10	21184	0	1	2	1	0
2	10	45400	0	1	2	3	4
2	10	7.75782e+06	0	1	2	5	4
2	10	100	0	1	5	3	4
2	11	19584	0	1	2	1	0
2	11	49200	0	1	2	3	4
2	11	7.53664e+06	0	1	2	5	4
2	11	300	0	1	5	3	4
3	0	19264	0	1	2	1	0
3	0	47300	0	1	2	3	4
3	0	7.28678e+06	0	1	2	5	4
3	0	150	0	1	5	3	4
3	1	18432	0	1	2	1	0
3	1	49700	0	1	2	3	4
3	1	7.45882e+06	0	1	2	5	4
3	1	250	0	1	5	3	4
3	2	19584	0	1	2	1	0
3	2	52000	0	1	2	3	4
3	2	7.5817e+06	0	1	2	5	4
3	2	200	0	1	5	3	4
3	4	20288	0	1	2	1	0
3	4	48200	0	1	2	3	4
3	4	7.1721e+06	0	1	2	5	4
3	4	250	0	1	5	3	4
3	5	20288	0	1	2	1	0
3	5	45400	0	1	2	3	4
3	5	7.31136e+06	0	1	2	5	4
3	5	150	0	1	5	3	4
3	6	20224	0	1	2	1	0
3	6	49000	0	1	2	3	4
3	6	7.7824e+06	0	1	2	5	4
3	6	150	0	1	5	3	4
3	7	20416	0	1	2	1	0
3	7	47300	0	1	2	3	4
3	7	7.30317e+06	0	1	2	5	4
3	7	200	0	1	5	3	4
3	8	18496	0	1	2	1	0
3	8	45900	0	1	2	3	4
3	8	7.45062e+06	0	1	2	5	4
3	8	100	0	1	5	3	4
3	9	17088	0	1	2	1	0
3	9	51000	0	1	2	3	4
3	9	7.50387e+06	0	1	2	5	4
3	9	200	0	1	5	3	4
3	10	19264	0	1	2	1	0
3	10	43900	0	1	2	3	4
3	10	7.24992e+06	0	1	2	5	4
3	10	350	0	1	5	3	4
3	11	18432	0	1	2	1	0
3	11	46800	0	1	2	3	4
3	11	7.79878e+06	0	1	2	5	4
3	11	300	0	1	5	3	4
4	0	18624	0	1	2	1	0
4	0	48100	0	1	2	3	4
4	0	7.56941e+06	0	1	2	5	4
4	0	50	0	1	5	3	4
4	1	17920	0	1	2	1	0
4	1	46900	0	1	2	3	4
4	1	7.4793e+06	0	1	2	5	4
4	1	200	0	1	5	3	4
4	2	19904	0	1	2	1	0
4	2	47800	0	1	2	3	4
4	2	7.56531e+06	0	1	2	5	4
4	2	150	0	1	5	3	4
4	3	21568	0	1	2	1	0
4	3	51900	0	1	2	3	4
4	3	7.53254e+06	0	1	2	5	4
4	3	100	0	1	5	3	4
4	5	19456	0	1	2	1	0
4	5	49300	0	1	2	3	4
4	5	7.13933e+06	0	1	2	5	4
4	5	50	0	1	5	3	4
4	6	20032	0	1	2	1	0
4	6	48700	0	1	2	3	4
4	6	7.55712e+06	0	1	2	5	4
4	6	150	0	1	5	3	4
4	7	19520	0	1	2	1	0
4	7	47700	0	1	2	3	4
4	7	7.72506e+06	0	1	2	5	4
4	7	250	0	1	5	3	4
4	8	18624	0	1	2	1	0
4	8	50000	0	1	2	3	4
4	8	7.14752e+06	0	1	2	5	4
4	8	250	0	1	5	3	4
4	9	18752	0	1	2	1	0
4	9	45400	0	1	2	3	4
4	9	7.35232e+06	0	1	2	5	4
4	9	200	0	1	5	3	4
4	10	19712	0	1	2	1	0
4	10	48400	0	1	2	3	4
4	10	7.24582e+06	0	1	2	5	4
4	10	100	0	1	5	3	4
4	11	17664	0	1	2	1	0
4	11	47400	0	1	2	3	4
4	11	7.15571e+06	0	1	2	5	4
4	11	250	0	1	5	3	4
5	0	18816	0	1	2	1	0
5	0	50800	0	1	2	3	4
5	0	7.35232e+06	0	1	2	5	4
5	0	200	0	1	5	3	4
5	1	20928	0	1	2	1	0
5	1	45800	0	1	2	3	4
5	1	7.72915e+06	0	1	2	5	4
5	1	100	0	1	5	3	4
5	2	19904	0	1	2	1	0
5	2	43900	0	1	2	3	4
5	2	7.45882e+06	0	1	2	5	4
5	2	350	0	1	5	3	4
5	3	19264	0	1	2	1	0
5	3	52900	0	1	2	3	4
5	3	7.52435e+06	0	1	2	5	4
5	3	50	0	1	5	3	4
5	4	20544	0	1	2	1	0
5	4	51300	0	1	2	3	4
5	4	7.70048e+06	0	1	2	5	4
5	4	300	0	1	5	3	4
5	6	20096	0	1	2	1	0
5	6	45800	0	1	2	3	4
5	6	7.52026e+06	0	1	2	5	4
5	6	350	0	1	5	3	4
5	7	18816	0	1	2	1	0
5	7	48100	0	1	2	3	4
5	7	7.56531e+06	0	1	2	5	4
5	7	250	0	1	5	3	4
5	8	19520	0	1	2	1	0
5	8	47200	0	1	2	3	4
5	8	7.53664e+06	0	1	2	5	4
5	8	100	0	1	5	3	4
5	9	19008	0	1	2	1	0
5	9	47800	0	1	2	3	4
5	9	7.22125e+06	0	1	2	5	4
5	9	150	0	1	5	3	4
5	10	19584	0	1	2	1	0
5	10	47000	0	1	2	3	4
5	10	7.60218e+06	0	1	2	5	4
5	10	200	0	1	5	3	4
5	11	20160	0	1	2	1	0
5	11	48700	0	1	2	3	4
5	11	7.58989e+06	0	1	2	5	4
5	11	100	0	1	5	3	4
6	0	21312	0	1	2	1	0
6	0	49200	0	1	2	3	4
6	0	7.41376e+06	0	1	2	5	4
6	0	300	0	1	5	3	4
6	1	20672	0	1	2	1	0
6	1	46300	0	1	2	3	4
6	1	7.32365e+06	0	1	2	5	4
6	1	100	0	1	5	3	4
6	2	19968	0	1	2	1	0
6	2	48400	0	1	2	3	4
6	2	7.51206e+06	0	1	2	5	4
6	2	100	0	1	5	3	4
6	3	18368	0	1	2	1	0
6	3	46100	0	1	2	3	4
6	3	7.50797e+06	0	1	2	5	4
6	3	150	0	1	5	3	4
6	4	19840	0	1	2	1	0
6	4	50200	0	1	2	3	4
6	4	7.29907e+06	0	1	2	5	4
6	4	200	0	1	5	3	4
6	5	19712	0	1	2	1	0
6	5	45400	0	1	2	3	4
6	5	7.71277e+06	0	1	2	5	4
6	5	150	0	1	5	3	4
6	7	20736	0	1	2	1	0
6	7	46300	0	1	2	3	4
6	7	7.6841e+06	0	1	2	5	4
6	7	300	0	1	5	3	4
6	8	18368	0	1	2	1	0
6	8	44000	0	1	2	3	4
6	8	7.43424e+06	0	1	2	5	4
6	8	100	0	1	5	3	4
6	9	20544	0	1	2	1	0
6	9	44800	0	1	2	3	4
6	9	7.50387e+06	0	1	2	5	4
6	9	100	0	1	5	3	4
6	10	19008	0	1	2	1	0
6	10	51100	0	1	2	3	4
6	10	6.94682e+06	0	1	2	5	4
6	10	100	0	1	5	3	4
6	11	19840	0	1	2	1	0
6	11	49500	0	1	2	3	4
6	11	7.4752e+06	0	1	2	5	4
6	11	200	0	1	5	3	4
7	0	18880	0	1	2	1	0
7	0	46700	0	1	2	3	4
7	0	7.35642e+06	0	1	2	5	4
7	0	200	0	1	5	3	4
7	1	20352	0	1	2	1	0
7	1	46400	0	1	2	3	4
7	1	7.43014e+06	0	1	2	5	4
7	1	400	0	1	5	3	4
7	2	18624	0	1	2	1	0
7	2	49800	0	1	2	3	4
7	2	7.28678e+06	0	1	2	5	4
7	2	50	0	1	5	3	4
7	3	18112	0	1	2	1	0
7	3	49800	0	1	2	3	4
7	3	7.4752e+06	0	1	2	5	4
7	3	100	0	1	5	3	4
7	4	20160	0	1	2	1	0
7	4	47600	0	1	2	3	4
7	4	7.61037e+06	0	1	2	5	4
7	4	250	0	1	5	3	4
7	5	21440	0	1	2	1	0
7	5	46700	0	1	2	3	4
7	5	7.71686e+06	0	1	2	5	4
7	5	200	0	1	5	3	4
7	6	20608	0	1	2	1	0
7	6	45000	0	1	2	3	4
7	6	7.41786e+06	0	1	2	5	4
7	6	150	0	1	5	3	4
7	8	20608	0	1	2	1	0
7	8	49200	0	1	2	3	4
7	8	7.4793e+06	0	1	2	5	4
7	8	250	0	1	5	3	4
7	9	18816	0	1	2	1	0
7	9	47900	0	1	2	3	4
7	9	7.55712e+06	0	1	2	5	4
7	9	250	0	1	5	3	4
7	10	17024	0	1	2	1	0
7	10	46100	0	1	2	3	4
7	10	7.40966e+06	0	1	2	5	4
7	10	150	0	1	5	3	4
7	11	20800	0	1	2	1	0
7	11	48700	0	1	2	3	4
7	11	7.48749e+06	0	1	2	5	4
7	11	200	0	1	5	3	4
8	0	18752	0	1	2	1	0
8	0	51400	0	1	2	3	4
8	0	7.8807e+06	0	1	2	5	4
8	0	200	0	1	5	3	4
8	1	17664	0	1	2	1	0
8	1	43000	0	1	2	3	4
8	1	7.30726e+06	0	1	2	5	4
8	1	100	0	1	5	3	4
8	2	18624	0	1	2	1	0
8	2	48400	0	1	2	3	4
8	2	7.71277e+06	0	1	2	5	4
8	2	300	0	1	5	3	4
8	3	18688	0	1	2	1	0
8	3	47700	0	1	2	3	4
8	3	7.3687e+06	0	1	2	5	4
8	3	100	0	1	5	3	4
8	4	20672	0	1	2	1	0
8	4	45000	0	1	2	3	4
8	4	7.52845e+06	0	1	2	5	4
8	4	250	0	1	5	3	4
8	5	18624	0	1	2	1	0
8	5	47600	0	1	2	3	4
8	5	7.38509e+06	0	1	2	5	4
8	5	300	0	1	5	3	4
8	6	20032	0	1	2	1	0
8	6	45900	0	1	2	3	4
8	6	7.69638e+06	0	1	2	5	4
8	6	150	0	1	5	3	4
8	7	18944	0	1	2	1	0
8	7	48000	0	1	2	3	4
8	7	7.48749e+06	0	1	2	5	4
8	7	300	0	1	5	3	4
8	9	17216	0	1	2	1	0
8	9	49900	0	1	2	3	4
8	9	7.63494e+06	0	1	2	5	4
8	9	50	0	1	5	3	4
8	10	20352	0	1	2	1	0
8	10	48600	0	1	2	3	4
8	10	7.21715e+06	0	1	2	5	4
8	10	150	0	1	5	3	4
8	11	19328	0	1	2	1	0
8	11	47500	0	1	2	3	4
8	11	7.4793e+06	0	1	2	5	4
8	11	250	0	1	5	3	4
9	0	20416	0	1	2	1	0
9	0	48100	0	1	2	3	4
9	0	7.66771e+06	0	1	2	5	4
9	0	150	0	1	5	3	4
9	1	18752	0	1	2	1	0
9	1	46500	0	1	2	3	4
9	1	7.40557e+06	0	1	2	5	4
9	1	150	0	1	5	3	4
9	2	20480	0	1	2	1	0
9	2	49500	0	1	2	3	4
9	2	7.45062e+06	0	1	2	5	4
9	2	200	0	1	5	3	4
9	3	19584	0	1	2	1	0
9	3	48800	0	1	2	3	4
9	3	7.35642e+06	0	1	2	5	4
9	3	100	0	1	5	3	4
9	4	22144	0	1	2	1	0
9	4	50000	0	1	2	3	4
9	4	7.48749e+06	0	1	2	5	4
9	4	150	0	1	5	3	4
9	5	19200	0	1	2	1	0
9	5	50200	0	1	2	3	4
9	5	7.49978e+06	0	1	2	5	4
9	5	250	0	1	5	3	4
9	6	19456	0	1	2	1	0
9	6	44800	0	1	2	3	4
9	6	7.43834e+06	0	1	2	5	4
9	6	100	0	1	5	3	4
9	7	20224	0	1	2	1	0
9	7	48100	0	1	2	3	4
9	7	7.48749e+06	0	1	2	5	4
9	7	200	0	1	5	3	4
9	8	20160	0	1	2	1	0
9	8	46700	0	1	2	3	4
9	8	7.49978e+06	0	1	2	5	4
9	8	250	0	1	5	3	4
9	10	18880	0	1	2	1	0
9	10	51200	0	1	2	3	4
9	10	7.58989e+06	0	1	2	5	4
9	10	150	0	1	5	3	4
9	11	20672	0	1	2	1	0
9	11	43100	0	1	2	3	4
9	11	8.06912e+06	0	1	2	5	4
9	11	200	0	1	5	3	4
10	0	20672	0	1	2	1	0
10	0	48800	0	1	2	3	4
10	0	7.87661e+06	0	1	2	5	4
10	0	150	0	1	5	3	4
10	1	18624	0	1	2	1	0
10	1	48500	0	1	2	3	4
10	1	7.36051e+06	0	1	2	5	4
10	1	150	0	1	5	3	4
10	2	20864	0	1	2	1	0
10	2	48200	0	1	2	3	4
10	2	7.41376e+06	0	1	2	5	4
10	2	250	0	1	5	3	4
10	3	20032	0	1	2	1	0
10	3	49100	0	1	2	3	4
10	3	7.3728e+06	0	1	2	5	4
10	3	150	0	1	5	3	4
10	4	20800	0	1	2	1	0
10	4	46800	0	1	2	3	4
10	4	7.80698e+06	0	1	2	5	4
10	4	250	0	1	5	3	4
10	5	18944	0	1	2	1	0
10	5	51200	0	1	2	3	4
10	5	7.56122e+06	0	1	2	5	4
10	5	250	0	1	5	3	4
10	6	20480	0	1	2	1	0
10	6	46000	0	1	2	3	4
10	6	7.53254e+06	0	1	2	5	4
10	6	300	0	1	5	3	4
10	7	20608	0	1	2	1	0
10	7	47300	0	1	2	3	4
10	7	7.51206e+06	0	1	2	5	4
10	7	100	0	1	5	3	4
10	8	20416	0	1	2	1	0
10	8	45600	0	1	2	3	4
10	8	7.54893e+06	0	1	2	5	4
10	8	300	0	1	5	3	4
10	9	21184	0	1	2	1	0
10	9	48000	0	1	2	3	4
10	9	7.42195e+06	0	1	2	5	4
10	9	200	0	1	5	3	4
10	11	20416	0	1	2	1	0
10	11	47700	0	1	2	3	4
10	11	7.63904e+06	0	1	2	5	4
10	11	350	0	1	5	3	4
11	0	20096	0	1	2	1	0
11	0	51300	0	1	2	3	4
11	0	7.43834e+06	0	1	2	5	4
11	0	200	0	1	5	3	4
11	1	20096	0	1	2	1	0
11	1	47400	0	1	2	3	4
11	1	7.43014e+06	0	1	2	5	4
11	1	150	0	1	5	3	4
11	2	16640	0	1	2	1	0
11	2	55000	0	1	2	3	4
11	2	7.39738e+06	0	1	2	5	4
11	2	300	0	1	5	3	4
11	3	19968	0	1	2	1	0
11	3	46000	0	1	2	3	4
11	3	7.54074e+06	0	1	2	5	4
11	3	300	0	1	5	3	4
11	4	19392	0	1	2	1	0
11	4	44300	0	1	2	3	4
11	4	7.38509e+06	0	1	2	5	4
11	4	150	0	1	5	3	4
11	5	20608	0	1	2	1	0
11	5	48800	0	1	2	3	4
11	5	7.56122e+06	0	1	2	5	4
11	5	150	0	1	5	3	4
11	6	18048	0	1	2	1	0
11	6	53300	0	1	2	3	4
11	6	7.49158e+06	0	1	2	5	4
11	6	250	0	1	5	3	4
11	7	18496	0	1	2	1	0
11	7	45300	0	1	2	3	4
11	7	7.90938e+06	0	1	2	5	4
11	7	300	0	1	5	3	4
11	8	18560	0	1	2	1	0
11	8	45100	0	1	2	3	4
11	8	7.58989e+06	0	1	2	5	4
11	8	150	0	1	5	3	4
11	9	18816	0	1	2	1	0
11	9	47700	0	1	2	3	4
11	9	7.58579e+06	0	1	2	5	4
11	9	200	0	1	5	3	4
11	10	20928	0	1	2	1	0
11	10	47400	0	1	2	3	4
11	10	7.45472e+06	0	1	2	5	4
11	10	200	0	1	5	3	4
