10
0	1	1e+12
0	2	1e+12
0	3	1e+12
0	4	1e+12
0	5	1e+12
0	6	1e+12
0	7	1e+12
0	8	1e+12
0	9	1e+12
1	0	1e+12
1	2	1e+12
1	3	1e+12
1	4	1e+12
1	5	1e+12
1	6	1e+12
1	7	1e+12
1	8	1e+12
1	9	1e+12
2	0	1e+12
2	1	1e+12
2	3	1e+12
2	4	1e+12
2	5	1e+12
2	6	1e+12
2	7	1e+12
2	8	1e+12
2	9	1e+12
3	0	1e+12
3	1	1e+12
3	2	1e+12
3	4	1e+12
3	5	1e+12
3	6	1e+12
3	7	1e+12
3	8	1e+12
3	9	1e+12
4	0	1e+12
4	1	1e+12
4	2	1e+12
4	3	1e+12
4	5	1e+12
4	6	1e+12
4	7	1e+12
4	8	1e+12
4	9	1e+12
5	0	1e+12
5	1	1e+12
5	2	1e+12
5	3	1e+12
5	4	1e+12
5	6	1e+12
5	7	1e+12
5	8	1e+12
5	9	1e+12
6	0	1e+12
6	1	1e+12
6	2	1e+12
6	3	1e+12
6	4	1e+12
6	5	1e+12
6	7	1e+12
6	8	1e+12
6	9	1e+12
7	0	1e+12
7	1	1e+12
7	2	1e+12
7	3	1e+12
7	4	1e+12
7	5	1e+12
7	6	1e+12
7	8	1e+12
7	9	1e+12
8	0	1e+12
8	1	1e+12
8	2	1e+12
8	3	1e+12
8	4	1e+12
8	5	1e+12
8	6	1e+12
8	7	1e+12
8	9	1e+12
9	0	1e+12
9	1	1e+12
9	2	1e+12
9	3	1e+12
9	4	1e+12
9	5	1e+12
9	6	1e+12
9	7	1e+12
9	8	1e+12
