12
0	2	1e+12
0	6	1e+12
0	8	1e+12
0	11	1e+12
1	5	1e+12
1	8	1e+12
1	10	1e+12
1	11	1e+12
2	0	1e+12
2	9	1e+12
2	11	1e+12
3	4	1e+12
3	7	1e+12
3	9	1e+12
4	3	1e+12
4	9	1e+12
4	11	1e+12
5	1	1e+12
5	7	1e+12
5	11	1e+12
6	0	1e+12
6	9	1e+12
7	3	1e+12
7	5	1e+12
8	0	1e+12
8	1	1e+12
9	2	1e+12
9	3	1e+12
9	4	1e+12
9	6	1e+12
10	1	1e+12
11	0	1e+12
11	1	1e+12
11	2	1e+12
11	4	1e+12
11	5	1e+12
