100000	100000	100000	10000	1000	1000
0	1	28544	0	1	2	1	0
0	1	66100	0	1	2	3	4
0	1	1.10182e+07	0	1	2	5	4
0	1	350	0	1	5	3	4
0	2	29248	0	1	2	1	0
0	2	70800	0	1	2	3	4
0	2	1.11165e+07	0	1	2	5	4
0	2	200	0	1	5	3	4
0	3	30208	0	1	2	1	0
0	3	68300	0	1	2	3	4
0	3	1.13254e+07	0	1	2	5	4
0	3	500	0	1	5	3	4
0	4	28096	0	1	2	1	0
0	4	73300	0	1	2	3	4
0	4	1.08585e+07	0	1	2	5	4
0	4	550	0	1	5	3	4
0	5	30336	0	1	2	1	0
0	5	66900	0	1	2	3	4
0	5	1.12681e+07	0	1	2	5	4
0	5	350	0	1	5	3	4
0	6	30144	0	1	2	1	0
0	6	68000	0	1	2	3	4
0	6	1.10879e+07	0	1	2	5	4
0	6	300	0	1	5	3	4
0	7	30336	0	1	2	1	0
0	7	67600	0	1	2	3	4
0	7	1.12476e+07	0	1	2	5	4
0	7	200	0	1	5	3	4
0	8	28416	0	1	2	1	0
0	8	67900	0	1	2	3	4
0	8	1.06906e+07	0	1	2	5	4
0	8	350	0	1	5	3	4
0	9	27648	0	1	2	1	0
0	9	72900	0	1	2	3	4
0	9	1.11657e+07	0	1	2	5	4
0	9	150	0	1	5	3	4
1	0	29056	0	1	2	1	0
1	0	66500	0	1	2	3	4
1	0	1.09322e+07	0	1	2	5	4
1	0	250	0	1	5	3	4
1	2	28416	0	1	2	1	0
1	2	66700	0	1	2	3	4
1	2	1.11985e+07	0	1	2	5	4
1	2	100	0	1	5	3	4
1	3	30656	0	1	2	1	0
1	3	66600	0	1	2	3	4
1	3	1.101e+07	0	1	2	5	4
1	3	150	0	1	5	3	4
1	4	28480	0	1	2	1	0
1	4	68800	0	1	2	3	4
1	4	1.1305e+07	0	1	2	5	4
1	4	250	0	1	5	3	4
1	5	31424	0	1	2	1	0
1	5	72000	0	1	2	3	4
1	5	1.08708e+07	0	1	2	5	4
1	5	400	0	1	5	3	4
1	6	30656	0	1	2	1	0
1	6	70800	0	1	2	3	4
1	6	1.1092e+07	0	1	2	5	4
1	6	450	0	1	5	3	4
1	7	28288	0	1	2	1	0
1	7	67700	0	1	2	3	4
1	7	1.12312e+07	0	1	2	5	4
1	7	350	0	1	5	3	4
1	8	32000	0	1	2	1	0
1	8	72700	0	1	2	3	4
1	8	1.12108e+07	0	1	2	5	4
1	8	200	0	1	5	3	4
1	9	30400	0	1	2	1	0
1	9	72600	0	1	2	3	4
1	9	1.07233e+07	0	1	2	5	4
1	9	250	0	1	5	3	4
2	0	28736	0	1	2	1	0
2	0	74000	0	1	2	3	4
2	0	1.09814e+07	0	1	2	5	4
2	0	300	0	1	5	3	4
2	1	28352	0	1	2	1	0
2	1	68600	0	1	2	3	4
2	1	1.13705e+07	0	1	2	5	4
2	1	200	0	1	5	3	4
2	3	29568	0	1	2	1	0
2	3	70300	0	1	2	3	4
2	3	1.08708e+07	0	1	2	5	4
2	3	300	0	1	5	3	4
2	4	30208	0	1	2	1	0
2	4	63500	0	1	2	3	4
2	4	1.07766e+07	0	1	2	5	4
2	4	450	0	1	5	3	4
2	5	26688	0	1	2	1	0
2	5	65300	0	1	2	3	4
2	5	1.08339e+07	0	1	2	5	4
2	5	400	0	1	5	3	4
2	6	30336	0	1	2	1	0
2	6	65300	0	1	2	3	4
2	6	1.1092e+07	0	1	2	5	4
2	6	200	0	1	5	3	4
2	7	28480	0	1	2	1	0
2	7	64900	0	1	2	3	4
2	7	1.06783e+07	0	1	2	5	4
2	7	400	0	1	5	3	4
2	8	29632	0	1	2	1	0
2	8	72400	0	1	2	3	4
2	8	1.09036e+07	0	1	2	5	4
2	8	450	0	1	5	3	4
2	9	28224	0	1	2	1	0
2	9	67000	0	1	2	3	4
2	9	1.12968e+07	0	1	2	5	4
2	9	350	0	1	5	3	4
3	0	28864	0	1	2	1	0
3	0	70400	0	1	2	3	4
3	0	1.0879e+07	0	1	2	5	4
3	0	200	0	1	5	3	4
3	1	27968	0	1	2	1	0
3	1	66100	0	1	2	3	4
3	1	1.09978e+07	0	1	2	5	4
3	1	50	0	1	5	3	4
3	2	27840	0	1	2	1	0
3	2	62400	0	1	2	3	4
3	2	1.10961e+07	0	1	2	5	4
3	2	200	0	1	5	3	4
3	4	28992	0	1	2	1	0
3	4	67900	0	1	2	3	4
3	4	1.12271e+07	0	1	2	5	4
3	4	300	0	1	5	3	4
3	5	28416	0	1	2	1	0
3	5	67900	0	1	2	3	4
3	5	1.12804e+07	0	1	2	5	4
3	5	300	0	1	5	3	4
3	6	27584	0	1	2	1	0
3	6	70400	0	1	2	3	4
3	6	1.11862e+07	0	1	2	5	4
3	6	450	0	1	5	3	4
3	7	27584	0	1	2	1	0
3	7	74300	0	1	2	3	4
3	7	1.13869e+07	0	1	2	5	4
3	7	250	0	1	5	3	4
3	8	28480	0	1	2	1	0
3	8	64200	0	1	2	3	4
3	8	1.11411e+07	0	1	2	5	4
3	8	250	0	1	5	3	4
3	9	29056	0	1	2	1	0
3	9	68500	0	1	2	3	4
3	9	1.13377e+07	0	1	2	5	4
3	9	400	0	1	5	3	4
4	0	28352	0	1	2	1	0
4	0	69400	0	1	2	3	4
4	0	1.07479e+07	0	1	2	5	4
4	0	100	0	1	5	3	4
4	1	29632	0	1	2	1	0
4	1	67900	0	1	2	3	4
4	1	1.12108e+07	0	1	2	5	4
4	1	300	0	1	5	3	4
4	2	28736	0	1	2	1	0
4	2	73100	0	1	2	3	4
4	2	1.07151e+07	0	1	2	5	4
4	2	550	0	1	5	3	4
4	3	29440	0	1	2	1	0
4	3	70900	0	1	2	3	4
4	3	1.13869e+07	0	1	2	5	4
4	3	400	0	1	5	3	4
4	5	29504	0	1	2	1	0
4	5	68500	0	1	2	3	4
4	5	1.12394e+07	0	1	2	5	4
4	5	450	0	1	5	3	4
4	6	29248	0	1	2	1	0
4	6	70000	0	1	2	3	4
4	6	1.09117e+07	0	1	2	5	4
4	6	600	0	1	5	3	4
4	7	26624	0	1	2	1	0
4	7	71400	0	1	2	3	4
4	7	1.10346e+07	0	1	2	5	4
4	7	250	0	1	5	3	4
4	8	29120	0	1	2	1	0
4	8	75600	0	1	2	3	4
4	8	1.08872e+07	0	1	2	5	4
4	8	350	0	1	5	3	4
4	9	29440	0	1	2	1	0
4	9	71500	0	1	2	3	4
4	9	1.09691e+07	0	1	2	5	4
4	9	300	0	1	5	3	4
5	0	30592	0	1	2	1	0
5	0	71400	0	1	2	3	4
5	0	1.13009e+07	0	1	2	5	4
5	0	350	0	1	5	3	4
5	1	27264	0	1	2	1	0
5	1	68100	0	1	2	3	4
5	1	1.0752e+07	0	1	2	5	4
5	1	350	0	1	5	3	4
5	2	27648	0	1	2	1	0
5	2	68100	0	1	2	3	4
5	2	1.08667e+07	0	1	2	5	4
5	2	300	0	1	5	3	4
5	3	31872	0	1	2	1	0
5	3	70600	0	1	2	3	4
5	3	1.14074e+07	0	1	2	5	4
5	3	300	0	1	5	3	4
5	4	27584	0	1	2	1	0
5	4	69600	0	1	2	3	4
5	4	1.13295e+07	0	1	2	5	4
5	4	500	0	1	5	3	4
5	6	27712	0	1	2	1	0
5	6	70600	0	1	2	3	4
5	6	1.06291e+07	0	1	2	5	4
5	6	200	0	1	5	3	4
5	7	31488	0	1	2	1	0
5	7	63300	0	1	2	3	4
5	7	1.07151e+07	0	1	2	5	4
5	7	100	0	1	5	3	4
5	8	30656	0	1	2	1	0
5	8	68300	0	1	2	3	4
5	8	1.06209e+07	0	1	2	5	4
5	8	200	0	1	5	3	4
5	9	30144	0	1	2	1	0
5	9	67000	0	1	2	3	4
5	9	1.08012e+07	0	1	2	5	4
5	9	300	0	1	5	3	4
6	0	29376	0	1	2	1	0
6	0	66900	0	1	2	3	4
6	0	1.13787e+07	0	1	2	5	4
6	0	450	0	1	5	3	4
6	1	30720	0	1	2	1	0
6	1	66000	0	1	2	3	4
6	1	1.09404e+07	0	1	2	5	4
6	1	200	0	1	5	3	4
6	2	28480	0	1	2	1	0
6	2	66500	0	1	2	3	4
6	2	1.12067e+07	0	1	2	5	4
6	2	450	0	1	5	3	4
6	3	27712	0	1	2	1	0
6	3	71700	0	1	2	3	4
6	3	1.08708e+07	0	1	2	5	4
6	3	450	0	1	5	3	4
6	4	28416	0	1	2	1	0
6	4	70800	0	1	2	3	4
6	4	1.11985e+07	0	1	2	5	4
6	4	400	0	1	5	3	4
6	5	30464	0	1	2	1	0
6	5	71100	0	1	2	3	4
6	5	1.06865e+07	0	1	2	5	4
6	5	150	0	1	5	3	4
6	7	28288	0	1	2	1	0
6	7	72800	0	1	2	3	4
6	7	1.08298e+07	0	1	2	5	4
6	7	200	0	1	5	3	4
6	8	28160	0	1	2	1	0
6	8	68200	0	1	2	3	4
6	8	1.05759e+07	0	1	2	5	4
6	8	250	0	1	5	3	4
6	9	30656	0	1	2	1	0
6	9	68300	0	1	2	3	4
6	9	1.13172e+07	0	1	2	5	4
6	9	300	0	1	5	3	4
7	0	28864	0	1	2	1	0
7	0	70000	0	1	2	3	4
7	0	1.15139e+07	0	1	2	5	4
7	0	200	0	1	5	3	4
7	1	29504	0	1	2	1	0
7	1	71600	0	1	2	3	4
7	1	1.07766e+07	0	1	2	5	4
7	1	150	0	1	5	3	4
7	2	29696	0	1	2	1	0
7	2	68800	0	1	2	3	4
7	2	1.03383e+07	0	1	2	5	4
7	2	500	0	1	5	3	4
7	3	29056	0	1	2	1	0
7	3	71800	0	1	2	3	4
7	3	1.08052e+07	0	1	2	5	4
7	3	350	0	1	5	3	4
7	4	28096	0	1	2	1	0
7	4	71200	0	1	2	3	4
7	4	1.07397e+07	0	1	2	5	4
7	4	300	0	1	5	3	4
7	5	28608	0	1	2	1	0
7	5	70200	0	1	2	3	4
7	5	1.11288e+07	0	1	2	5	4
7	5	250	0	1	5	3	4
7	6	28352	0	1	2	1	0
7	6	72800	0	1	2	3	4
7	6	1.06086e+07	0	1	2	5	4
7	6	450	0	1	5	3	4
7	8	29056	0	1	2	1	0
7	8	68300	0	1	2	3	4
7	8	1.04366e+07	0	1	2	5	4
7	8	400	0	1	5	3	4
7	9	28800	0	1	2	1	0
7	9	67900	0	1	2	3	4
7	9	1.13746e+07	0	1	2	5	4
7	9	150	0	1	5	3	4
8	0	28224	0	1	2	1	0
8	0	73000	0	1	2	3	4
8	0	1.13213e+07	0	1	2	5	4
8	0	100	0	1	5	3	4
8	1	28992	0	1	2	1	0
8	1	70400	0	1	2	3	4
8	1	1.10551e+07	0	1	2	5	4
8	1	350	0	1	5	3	4
8	2	29696	0	1	2	1	0
8	2	69700	0	1	2	3	4
8	2	1.07602e+07	0	1	2	5	4
8	2	150	0	1	5	3	4
8	3	29440	0	1	2	1	0
8	3	67000	0	1	2	3	4
8	3	1.06824e+07	0	1	2	5	4
8	3	100	0	1	5	3	4
8	4	29888	0	1	2	1	0
8	4	68100	0	1	2	3	4
8	4	1.08872e+07	0	1	2	5	4
8	4	200	0	1	5	3	4
8	5	28736	0	1	2	1	0
8	5	72100	0	1	2	3	4
8	5	1.09732e+07	0	1	2	5	4
8	5	300	0	1	5	3	4
8	6	27072	0	1	2	1	0
8	6	71900	0	1	2	3	4
8	6	1.13992e+07	0	1	2	5	4
8	6	200	0	1	5	3	4
8	7	29952	0	1	2	1	0
8	7	72200	0	1	2	3	4
8	7	1.12312e+07	0	1	2	5	4
8	7	350	0	1	5	3	4
8	9	28160	0	1	2	1	0
8	9	72900	0	1	2	3	4
8	9	1.08995e+07	0	1	2	5	4
8	9	350	0	1	5	3	4
9	0	29440	0	1	2	1	0
9	0	73000	0	1	2	3	4
9	0	1.12968e+07	0	1	2	5	4
9	0	300	0	1	5	3	4
9	1	27840	0	1	2	1	0
9	1	65500	0	1	2	3	4
9	1	1.07807e+07	0	1	2	5	4
9	1	450	0	1	5	3	4
9	2	29504	0	1	2	1	0
9	2	72000	0	1	2	3	4
9	2	1.12435e+07	0	1	2	5	4
9	2	350	0	1	5	3	4
9	3	29888	0	1	2	1	0
9	3	71300	0	1	2	3	4
9	3	1.05964e+07	0	1	2	5	4
9	3	300	0	1	5	3	4
9	4	29248	0	1	2	1	0
9	4	66900	0	1	2	3	4
9	4	1.08749e+07	0	1	2	5	4
9	4	200	0	1	5	3	4
9	5	29248	0	1	2	1	0
9	5	73700	0	1	2	3	4
9	5	1.09199e+07	0	1	2	5	4
9	5	350	0	1	5	3	4
9	6	28672	0	1	2	1	0
9	6	72800	0	1	2	3	4
9	6	1.08749e+07	0	1	2	5	4
9	6	150	0	1	5	3	4
9	7	32064	0	1	2	1	0
9	7	69200	0	1	2	3	4
9	7	1.12886e+07	0	1	2	5	4
9	7	100	0	1	5	3	4
9	8	27520	0	1	2	1	0
9	8	69300	0	1	2	3	4
9	8	1.10797e+07	0	1	2	5	4
9	8	350	0	1	5	3	4
