100000	100000	100000	10000	1000	1000
0	1	58880	0	1	2	1	0
0	1	136200	0	1	2	3	4
0	1	2.18767e+07	0	1	2	5	4
0	1	550	0	1	5	3	4
0	2	34752	0	1	2	1	0
0	2	85100	0	1	2	3	4
0	2	1.34922e+07	0	1	2	5	4
0	2	350	0	1	5	3	4
0	3	24640	0	1	2	1	0
0	3	58000	0	1	2	3	4
0	3	8.97024e+06	0	1	2	5	4
0	3	550	0	1	5	3	4
0	4	34432	0	1	2	1	0
0	4	86400	0	1	2	3	4
0	4	1.38158e+07	0	1	2	5	4
0	4	400	0	1	5	3	4
0	5	99776	0	1	2	1	0
0	5	242100	0	1	2	3	4
0	5	3.75112e+07	0	1	2	5	4
0	5	800	0	1	5	3	4
0	6	20352	0	1	2	1	0
0	6	46100	0	1	2	3	4
0	6	6.90176e+06	0	1	2	5	4
0	6	150	0	1	5	3	4
0	7	46336	0	1	2	1	0
0	7	105000	0	1	2	3	4
0	7	1.61956e+07	0	1	2	5	4
0	7	450	0	1	5	3	4
0	8	20672	0	1	2	1	0
0	8	47700	0	1	2	3	4
0	8	7.54074e+06	0	1	2	5	4
0	8	350	0	1	5	3	4
0	9	15488	0	1	2	1	0
0	9	37400	0	1	2	3	4
0	9	5.90643e+06	0	1	2	5	4
0	9	250	0	1	5	3	4
1	0	57600	0	1	2	1	0
1	0	137300	0	1	2	3	4
1	0	2.17702e+07	0	1	2	5	4
1	0	500	0	1	5	3	4
1	2	32832	0	1	2	1	0
1	2	76700	0	1	2	3	4
1	2	1.27386e+07	0	1	2	5	4
1	2	300	0	1	5	3	4
1	3	22400	0	1	2	1	0
1	3	52500	0	1	2	3	4
1	3	8.22477e+06	0	1	2	5	4
1	3	300	0	1	5	3	4
1	4	38016	0	1	2	1	0
1	4	93400	0	1	2	3	4
1	4	1.45572e+07	0	1	2	5	4
1	4	700	0	1	5	3	4
1	5	36224	0	1	2	1	0
1	5	84700	0	1	2	3	4
1	5	1.37175e+07	0	1	2	5	4
1	5	600	0	1	5	3	4
1	6	15296	0	1	2	1	0
1	6	41000	0	1	2	3	4
1	6	5.99654e+06	0	1	2	5	4
1	6	250	0	1	5	3	4
1	7	62592	0	1	2	1	0
1	7	143800	0	1	2	3	4
1	7	2.29663e+07	0	1	2	5	4
1	7	250	0	1	5	3	4
1	8	19648	0	1	2	1	0
1	8	49200	0	1	2	3	4
1	8	7.10246e+06	0	1	2	5	4
1	8	50	0	1	5	3	4
1	9	14336	0	1	2	1	0
1	9	31900	0	1	2	3	4
1	9	5.17325e+06	0	1	2	5	4
1	9	150	0	1	5	3	4
2	0	33408	0	1	2	1	0
2	0	84500	0	1	2	3	4
2	0	1.31973e+07	0	1	2	5	4
2	0	550	0	1	5	3	4
2	1	34112	0	1	2	1	0
2	1	78100	0	1	2	3	4
2	1	1.31113e+07	0	1	2	5	4
2	1	100	0	1	5	3	4
2	3	72768	0	1	2	1	0
2	3	167100	0	1	2	3	4
2	3	2.63045e+07	0	1	2	5	4
2	3	950	0	1	5	3	4
2	4	60608	0	1	2	1	0
2	4	147900	0	1	2	3	4
2	4	2.42033e+07	0	1	2	5	4
2	4	550	0	1	5	3	4
2	5	19520	0	1	2	1	0
2	5	46000	0	1	2	3	4
2	5	7.56531e+06	0	1	2	5	4
2	5	250	0	1	5	3	4
2	6	25920	0	1	2	1	0
2	6	65400	0	1	2	3	4
2	6	1.01745e+07	0	1	2	5	4
2	6	200	0	1	5	3	4
2	7	24128	0	1	2	1	0
2	7	61400	0	1	2	3	4
2	7	9.3143e+06	0	1	2	5	4
2	7	200	0	1	5	3	4
2	8	24000	0	1	2	1	0
2	8	58300	0	1	2	3	4
2	8	8.84736e+06	0	1	2	5	4
2	8	300	0	1	5	3	4
2	9	43840	0	1	2	1	0
2	9	104200	0	1	2	3	4
2	9	1.66748e+07	0	1	2	5	4
2	9	600	0	1	5	3	4
3	0	22144	0	1	2	1	0
3	0	58700	0	1	2	3	4
3	0	9.56826e+06	0	1	2	5	4
3	0	450	0	1	5	3	4
3	1	22208	0	1	2	1	0
3	1	54000	0	1	2	3	4
3	1	8.01587e+06	0	1	2	5	4
3	1	200	0	1	5	3	4
3	2	68288	0	1	2	1	0
3	2	170800	0	1	2	3	4
3	2	2.6665e+07	0	1	2	5	4
3	2	450	0	1	5	3	4
3	4	27840	0	1	2	1	0
3	4	66100	0	1	2	3	4
3	4	1.04489e+07	0	1	2	5	4
3	4	200	0	1	5	3	4
3	5	14080	0	1	2	1	0
3	5	28200	0	1	2	3	4
3	5	4.57114e+06	0	1	2	5	4
3	5	100	0	1	5	3	4
3	6	50432	0	1	2	1	0
3	6	110500	0	1	2	3	4
3	6	1.69574e+07	0	1	2	5	4
3	6	550	0	1	5	3	4
3	7	13056	0	1	2	1	0
3	7	35000	0	1	2	3	4
3	7	5.26336e+06	0	1	2	5	4
3	7	200	0	1	5	3	4
3	8	39488	0	1	2	1	0
3	8	99400	0	1	2	3	4
3	8	1.51839e+07	0	1	2	5	4
3	8	450	0	1	5	3	4
3	9	20992	0	1	2	1	0
3	9	45800	0	1	2	3	4
3	9	7.58989e+06	0	1	2	5	4
3	9	150	0	1	5	3	4
4	0	38592	0	1	2	1	0
4	0	87400	0	1	2	3	4
4	0	1.38772e+07	0	1	2	5	4
4	0	550	0	1	5	3	4
4	1	38400	0	1	2	1	0
4	1	93800	0	1	2	3	4
4	1	1.51347e+07	0	1	2	5	4
4	1	300	0	1	5	3	4
4	2	63232	0	1	2	1	0
4	2	150000	0	1	2	3	4
4	2	2.35971e+07	0	1	2	5	4
4	2	800	0	1	5	3	4
4	3	26624	0	1	2	1	0
4	3	69100	0	1	2	3	4
4	3	1.05267e+07	0	1	2	5	4
4	3	450	0	1	5	3	4
4	5	23040	0	1	2	1	0
4	5	52000	0	1	2	3	4
4	5	8.24525e+06	0	1	2	5	4
4	5	150	0	1	5	3	4
4	6	22080	0	1	2	1	0
4	6	51800	0	1	2	3	4
4	6	7.74144e+06	0	1	2	5	4
4	6	150	0	1	5	3	4
4	7	37184	0	1	2	1	0
4	7	91600	0	1	2	3	4
4	7	1.45449e+07	0	1	2	5	4
4	7	250	0	1	5	3	4
4	8	33792	0	1	2	1	0
4	8	90500	0	1	2	3	4
4	8	1.39633e+07	0	1	2	5	4
4	8	450	0	1	5	3	4
4	9	17600	0	1	2	1	0
4	9	43800	0	1	2	3	4
4	9	6.47578e+06	0	1	2	5	4
4	9	150	0	1	5	3	4
5	0	101120	0	1	2	1	0
5	0	238400	0	1	2	3	4
5	0	3.87645e+07	0	1	2	5	4
5	0	800	0	1	5	3	4
5	1	34752	0	1	2	1	0
5	1	87300	0	1	2	3	4
5	1	1.34676e+07	0	1	2	5	4
5	1	350	0	1	5	3	4
5	2	20032	0	1	2	1	0
5	2	47000	0	1	2	3	4
5	2	7.32365e+06	0	1	2	5	4
5	2	100	0	1	5	3	4
5	3	13184	0	1	2	1	0
5	3	30800	0	1	2	3	4
5	3	4.55885e+06	0	1	2	5	4
5	3	100	0	1	5	3	4
5	4	21696	0	1	2	1	0
5	4	51500	0	1	2	3	4
5	4	8.34355e+06	0	1	2	5	4
5	4	250	0	1	5	3	4
5	6	9536	0	1	2	1	0
5	6	23200	0	1	2	3	4
5	6	3.44064e+06	0	1	2	5	4
5	6	100	0	1	5	3	4
5	7	34240	0	1	2	1	0
5	7	86100	0	1	2	3	4
5	7	1.3652e+07	0	1	2	5	4
5	7	150	0	1	5	3	4
5	8	9216	0	1	2	1	0
5	8	27400	0	1	2	3	4
5	8	4.24346e+06	0	1	2	5	4
5	8	50	0	1	5	3	4
5	9	7424	0	1	2	1	0
5	9	20500	0	1	2	3	4
5	9	3.08019e+06	0	1	2	5	4
5	9	150	0	1	5	3	4
6	0	19584	0	1	2	1	0
6	0	45300	0	1	2	3	4
6	0	7.12704e+06	0	1	2	5	4
6	0	50	0	1	5	3	4
6	1	14464	0	1	2	1	0
6	1	37800	0	1	2	3	4
6	1	6.32013e+06	0	1	2	5	4
6	1	50	0	1	5	3	4
6	2	24896	0	1	2	1	0
6	2	64900	0	1	2	3	4
6	2	1.02113e+07	0	1	2	5	4
6	2	250	0	1	5	3	4
6	3	45504	0	1	2	1	0
6	3	111000	0	1	2	3	4
6	3	1.74039e+07	0	1	2	5	4
6	3	500	0	1	5	3	4
6	4	20416	0	1	2	1	0
6	4	47500	0	1	2	3	4
6	4	7.87251e+06	0	1	2	5	4
6	4	200	0	1	5	3	4
6	5	8384	0	1	2	1	0
6	5	21400	0	1	2	3	4
6	5	3.64544e+06	0	1	2	5	4
6	5	50	0	1	5	3	4
6	7	11008	0	1	2	1	0
6	7	27100	0	1	2	3	4
6	7	4.13286e+06	0	1	2	5	4
6	7	200	0	1	5	3	4
6	8	31168	0	1	2	1	0
6	8	74400	0	1	2	3	4
6	8	1.16982e+07	0	1	2	5	4
6	8	500	0	1	5	3	4
6	9	11008	0	1	2	1	0
6	9	24400	0	1	2	3	4
6	9	3.7847e+06	0	1	2	5	4
6	9	250	0	1	5	3	4
7	0	46464	0	1	2	1	0
7	0	107300	0	1	2	3	4
7	0	1.64454e+07	0	1	2	5	4
7	0	200	0	1	5	3	4
7	1	63744	0	1	2	1	0
7	1	149400	0	1	2	3	4
7	1	2.34619e+07	0	1	2	5	4
7	1	800	0	1	5	3	4
7	2	25920	0	1	2	1	0
7	2	58700	0	1	2	3	4
7	2	9.68294e+06	0	1	2	5	4
7	2	200	0	1	5	3	4
7	3	14080	0	1	2	1	0
7	3	33800	0	1	2	3	4
7	3	5.66067e+06	0	1	2	5	4
7	3	150	0	1	5	3	4
7	4	38464	0	1	2	1	0
7	4	93000	0	1	2	3	4
7	4	1.46063e+07	0	1	2	5	4
7	4	300	0	1	5	3	4
7	5	34752	0	1	2	1	0
7	5	85200	0	1	2	3	4
7	5	1.36724e+07	0	1	2	5	4
7	5	150	0	1	5	3	4
7	6	9088	0	1	2	1	0
7	6	25300	0	1	2	3	4
7	6	4.18611e+06	0	1	2	5	4
7	6	100	0	1	5	3	4
7	8	12992	0	1	2	1	0
7	8	38100	0	1	2	3	4
7	8	5.44768e+06	0	1	2	5	4
7	8	100	0	1	5	3	4
7	9	9088	0	1	2	1	0
7	9	20600	0	1	2	3	4
7	9	3.46112e+06	0	1	2	5	4
7	9	250	0	1	5	3	4
8	0	20416	0	1	2	1	0
8	0	47500	0	1	2	3	4
8	0	7.51206e+06	0	1	2	5	4
8	0	100	0	1	5	3	4
8	1	18176	0	1	2	1	0
8	1	47800	0	1	2	3	4
8	1	7.22534e+06	0	1	2	5	4
8	1	450	0	1	5	3	4
8	2	24704	0	1	2	1	0
8	2	56700	0	1	2	3	4
8	2	9.14637e+06	0	1	2	5	4
8	2	550	0	1	5	3	4
8	3	40192	0	1	2	1	0
8	3	96900	0	1	2	3	4
8	3	1.50979e+07	0	1	2	5	4
8	3	350	0	1	5	3	4
8	4	39168	0	1	2	1	0
8	4	91000	0	1	2	3	4
8	4	1.38117e+07	0	1	2	5	4
8	4	200	0	1	5	3	4
8	5	10048	0	1	2	1	0
8	5	27900	0	1	2	3	4
8	5	4.01408e+06	0	1	2	5	4
8	6	30784	0	1	2	1	0
8	6	78300	0	1	2	3	4
8	6	1.20545e+07	0	1	2	5	4
8	6	100	0	1	5	3	4
8	7	15488	0	1	2	1	0
8	7	36900	0	1	2	3	4
8	7	5.25926e+06	0	1	2	5	4
8	7	50	0	1	5	3	4
8	9	9152	0	1	2	1	0
8	9	20000	0	1	2	3	4
8	9	3.40787e+06	0	1	2	5	4
8	9	50	0	1	5	3	4
9	0	14464	0	1	2	1	0
9	0	34900	0	1	2	3	4
9	0	5.9392e+06	0	1	2	5	4
9	0	200	0	1	5	3	4
9	1	13184	0	1	2	1	0
9	1	28600	0	1	2	3	4
9	1	5.18963e+06	0	1	2	5	4
9	1	100	0	1	5	3	4
9	2	43904	0	1	2	1	0
9	2	108700	0	1	2	3	4
9	2	1.70435e+07	0	1	2	5	4
9	2	250	0	1	5	3	4
9	3	17792	0	1	2	1	0
9	3	43300	0	1	2	3	4
9	3	7.36051e+06	0	1	2	5	4
9	3	50	0	1	5	3	4
9	4	16960	0	1	2	1	0
9	4	41400	0	1	2	3	4
9	4	6.63552e+06	0	1	2	5	4
9	4	150	0	1	5	3	4
9	5	7936	0	1	2	1	0
9	5	19300	0	1	2	3	4
9	5	2.84262e+06	0	1	2	5	4
9	5	50	0	1	5	3	4
9	6	11584	0	1	2	1	0
9	6	20800	0	1	2	3	4
9	6	3.77242e+06	0	1	2	5	4
9	6	50	0	1	5	3	4
9	7	8000	0	1	2	1	0
9	7	21100	0	1	2	3	4
9	7	3.54714e+06	0	1	2	5	4
9	7	100	0	1	5	3	4
9	8	9536	0	1	2	1	0
9	8	18300	0	1	2	3	4
9	8	3.30138e+06	0	1	2	5	4
9	8	50	0	1	5	3	4
