1000	100000	100000	10000	100000	1000	100000	1000	100000	100000	10000	1000	1000	10000	1000	100000	10000	100000	1000	10000	100000	10000	10000	10000	1000	1000
0	1	1.14252e+07	25	25	21	17	0
0	2	1.1002e+07	25	25	21	17	0
0	3	1.10514e+07	25	25	21	17	0
0	4	1.0794e+07	25	25	21	17	0
0	5	1.09562e+07	25	25	21	17	0
0	6	1.08081e+07	25	25	21	17	0
0	7	1.1129e+07	25	25	21	17	0
0	8	1.0935e+07	25	25	21	17	0
0	9	1.1129e+07	25	25	21	17	0
1	0	1.07975e+07	25	25	21	17	0
1	2	1.10091e+07	25	25	21	17	0
1	3	1.1404e+07	25	25	21	17	0
1	4	1.1062e+07	25	25	21	17	0
1	5	1.11889e+07	25	25	21	17	0
1	6	1.11819e+07	25	25	21	17	0
1	7	1.10514e+07	25	25	21	17	0
1	8	1.10972e+07	25	25	21	17	0
1	9	1.12771e+07	25	25	21	17	0
2	0	1.09844e+07	25	25	21	17	0
2	1	1.15063e+07	25	25	21	17	0
2	3	1.11783e+07	25	25	21	17	0
2	4	1.14534e+07	25	25	21	17	0
2	5	1.12841e+07	25	25	21	17	0
2	6	1.10338e+07	25	25	21	17	0
2	7	1.08574e+07	25	25	21	17	0
2	8	1.13194e+07	25	25	21	17	0
2	9	1.13088e+07	25	25	21	17	0
3	0	1.0868e+07	25	25	21	17	0
3	1	1.11995e+07	25	25	21	17	0
3	2	1.0928e+07	25	25	21	17	0
3	4	1.08187e+07	25	25	21	17	0
3	5	1.11889e+07	25	25	21	17	0
3	6	1.09068e+07	25	25	21	17	0
3	7	1.13335e+07	25	25	21	17	0
3	8	1.12171e+07	25	25	21	17	0
3	9	1.13934e+07	25	25	21	17	0
4	0	1.11537e+07	25	25	21	17	0
4	1	1.0935e+07	25	25	21	17	0
4	2	1.12841e+07	25	25	21	17	0
4	3	1.08504e+07	25	25	21	17	0
4	5	1.1062e+07	25	25	21	17	0
4	6	1.133e+07	25	25	21	17	0
4	7	1.10937e+07	25	25	21	17	0
4	8	1.14252e+07	25	25	21	17	0
4	9	1.10655e+07	25	25	21	17	0
5	0	1.12877e+07	25	25	21	17	0
5	1	1.11078e+07	25	25	21	17	0
5	2	1.12065e+07	25	25	21	17	0
5	3	1.10655e+07	25	25	21	17	0
5	4	1.0995e+07	25	25	21	17	0
5	6	1.14957e+07	25	25	21	17	0
5	7	1.12136e+07	25	25	21	17	0
5	8	1.10902e+07	25	25	21	17	0
5	9	1.12242e+07	25	25	21	17	0
6	0	1.1062e+07	25	25	21	17	0
6	1	1.06106e+07	25	25	21	17	0
6	2	1.11078e+07	25	25	21	17	0
6	3	1.13123e+07	25	25	21	17	0
6	4	1.07587e+07	25	25	21	17	0
6	5	1.12242e+07	25	25	21	17	0
6	7	1.10937e+07	25	25	21	17	0
6	8	1.10902e+07	25	25	21	17	0
6	9	1.1263e+07	25	25	21	17	0
7	0	1.09985e+07	25	25	21	17	0
7	1	1.10796e+07	25	25	21	17	0
7	2	1.09174e+07	25	25	21	17	0
7	3	1.11219e+07	25	25	21	17	0
7	4	1.09209e+07	25	25	21	17	0
7	5	1.09844e+07	25	25	21	17	0
7	6	1.08222e+07	25	25	21	17	0
7	8	1.11537e+07	25	25	21	17	0
7	9	1.09209e+07	25	25	21	17	0
8	0	1.12065e+07	25	25	21	17	0
8	1	1.11466e+07	25	25	21	17	0
8	2	1.12312e+07	25	25	21	17	0
8	3	1.11713e+07	25	25	21	17	0
8	4	1.12841e+07	25	25	21	17	0
8	5	1.11819e+07	25	25	21	17	0
8	6	1.12101e+07	25	25	21	17	0
8	7	1.14957e+07	25	25	21	17	0
8	9	1.0734e+07	25	25	21	17	0
9	0	1.12207e+07	25	25	21	17	0
9	1	1.09491e+07	25	25	21	17	0
9	2	1.09421e+07	25	25	21	17	0
9	3	1.10937e+07	25	25	21	17	0
9	4	1.10302e+07	25	25	21	17	0
9	5	1.08857e+07	25	25	21	17	0
9	6	1.09632e+07	25	25	21	17	0
9	7	1.13723e+07	25	25	21	17	0
9	8	1.14781e+07	25	25	21	17	0
