10
0	1	1e+12
0	4	1e+12
0	7	1e+12
0	9	1e+12
1	0	1e+12
1	8	1e+12
2	5	1e+12
2	9	1e+12
3	5	1e+12
3	6	1e+12
4	0	1e+12
4	6	1e+12
5	2	1e+12
5	3	1e+12
6	3	1e+12
6	4	1e+12
7	0	1e+12
8	1	1e+12
9	0	1e+12
9	2	1e+12
