100000	100000	100000	10000	1000	1000
0	1	30080	0	1	2	1	0
0	1	71100	0	1	2	3	4
0	1	1.10838e+07	0	1	2	5	4
0	1	150	0	1	5	3	4
0	2	30720	0	1	2	1	0
0	2	67900	0	1	2	3	4
0	2	1.06045e+07	0	1	2	5	4
0	2	200	0	1	5	3	4
0	3	30720	0	1	2	1	0
0	3	69000	0	1	2	3	4
0	3	1.11411e+07	0	1	2	5	4
0	3	200	0	1	5	3	4
0	4	27968	0	1	2	1	0
0	4	71100	0	1	2	3	4
0	4	1.07643e+07	0	1	2	5	4
0	4	100	0	1	5	3	4
0	5	29696	0	1	2	1	0
0	5	69300	0	1	2	3	4
0	5	1.10182e+07	0	1	2	5	4
0	5	350	0	1	5	3	4
0	6	31744	0	1	2	1	0
0	6	72700	0	1	2	3	4
0	6	1.09732e+07	0	1	2	5	4
0	6	200	0	1	5	3	4
0	7	32064	0	1	2	1	0
0	7	72700	0	1	2	3	4
0	7	1.05349e+07	0	1	2	5	4
0	7	550	0	1	5	3	4
0	8	28928	0	1	2	1	0
0	8	68400	0	1	2	3	4
0	8	1.11944e+07	0	1	2	5	4
0	8	450	0	1	5	3	4
0	9	26880	0	1	2	1	0
0	9	66100	0	1	2	3	4
0	9	1.07807e+07	0	1	2	5	4
0	9	200	0	1	5	3	4
1	0	28608	0	1	2	1	0
1	0	69500	0	1	2	3	4
1	0	1.1006e+07	0	1	2	5	4
1	0	200	0	1	5	3	4
1	2	29120	0	1	2	1	0
1	2	69500	0	1	2	3	4
1	2	1.08421e+07	0	1	2	5	4
1	2	200	0	1	5	3	4
1	3	31104	0	1	2	1	0
1	3	70700	0	1	2	3	4
1	3	1.09896e+07	0	1	2	5	4
1	3	300	0	1	5	3	4
1	4	29568	0	1	2	1	0
1	4	67700	0	1	2	3	4
1	4	1.12353e+07	0	1	2	5	4
1	4	200	0	1	5	3	4
1	5	29952	0	1	2	1	0
1	5	66200	0	1	2	3	4
1	5	1.08585e+07	0	1	2	5	4
1	5	400	0	1	5	3	4
1	6	29888	0	1	2	1	0
1	6	73600	0	1	2	3	4
1	6	1.07602e+07	0	1	2	5	4
1	6	450	0	1	5	3	4
1	7	30656	0	1	2	1	0
1	7	73700	0	1	2	3	4
1	7	1.12108e+07	0	1	2	5	4
1	7	300	0	1	5	3	4
1	8	27072	0	1	2	1	0
1	8	67800	0	1	2	3	4
1	8	1.12189e+07	0	1	2	5	4
1	8	350	0	1	5	3	4
1	9	29696	0	1	2	1	0
1	9	72600	0	1	2	3	4
1	9	1.06127e+07	0	1	2	5	4
1	9	300	0	1	5	3	4
2	0	30208	0	1	2	1	0
2	0	66000	0	1	2	3	4
2	0	1.1264e+07	0	1	2	5	4
2	0	300	0	1	5	3	4
2	1	28032	0	1	2	1	0
2	1	68100	0	1	2	3	4
2	1	1.10223e+07	0	1	2	5	4
2	1	550	0	1	5	3	4
2	3	29760	0	1	2	1	0
2	3	71800	0	1	2	3	4
2	3	1.11944e+07	0	1	2	5	4
2	3	300	0	1	5	3	4
2	4	27008	0	1	2	1	0
2	4	73300	0	1	2	3	4
2	4	1.101e+07	0	1	2	5	4
2	4	150	0	1	5	3	4
2	5	30912	0	1	2	1	0
2	5	75100	0	1	2	3	4
2	5	1.11452e+07	0	1	2	5	4
2	5	150	0	1	5	3	4
2	6	28480	0	1	2	1	0
2	6	68700	0	1	2	3	4
2	6	1.10633e+07	0	1	2	5	4
2	6	350	0	1	5	3	4
2	7	31296	0	1	2	1	0
2	7	67000	0	1	2	3	4
2	7	1.05349e+07	0	1	2	5	4
2	7	300	0	1	5	3	4
2	8	29824	0	1	2	1	0
2	8	70600	0	1	2	3	4
2	8	1.10674e+07	0	1	2	5	4
2	8	400	0	1	5	3	4
2	9	29504	0	1	2	1	0
2	9	74300	0	1	2	3	4
2	9	1.10674e+07	0	1	2	5	4
2	9	200	0	1	5	3	4
3	0	29184	0	1	2	1	0
3	0	72300	0	1	2	3	4
3	0	1.12353e+07	0	1	2	5	4
3	0	250	0	1	5	3	4
3	1	30464	0	1	2	1	0
3	1	74300	0	1	2	3	4
3	1	1.08503e+07	0	1	2	5	4
3	1	150	0	1	5	3	4
3	2	27584	0	1	2	1	0
3	2	68100	0	1	2	3	4
3	2	1.09281e+07	0	1	2	5	4
3	2	100	0	1	5	3	4
3	4	28992	0	1	2	1	0
3	4	71900	0	1	2	3	4
3	4	1.11002e+07	0	1	2	5	4
3	4	500	0	1	5	3	4
3	5	27136	0	1	2	1	0
3	5	66600	0	1	2	3	4
3	5	1.10223e+07	0	1	2	5	4
3	5	250	0	1	5	3	4
3	6	29056	0	1	2	1	0
3	6	69100	0	1	2	3	4
3	6	1.12558e+07	0	1	2	5	4
3	6	500	0	1	5	3	4
3	7	27904	0	1	2	1	0
3	7	73500	0	1	2	3	4
3	7	1.1051e+07	0	1	2	5	4
3	7	450	0	1	5	3	4
3	8	28544	0	1	2	1	0
3	8	68600	0	1	2	3	4
3	8	1.08626e+07	0	1	2	5	4
3	8	400	0	1	5	3	4
3	9	30464	0	1	2	1	0
3	9	67700	0	1	2	3	4
3	9	1.08831e+07	0	1	2	5	4
3	9	150	0	1	5	3	4
4	0	30592	0	1	2	1	0
4	0	68500	0	1	2	3	4
4	0	1.09445e+07	0	1	2	5	4
4	0	350	0	1	5	3	4
4	1	30208	0	1	2	1	0
4	1	71600	0	1	2	3	4
4	1	1.15057e+07	0	1	2	5	4
4	1	300	0	1	5	3	4
4	2	28800	0	1	2	1	0
4	2	73200	0	1	2	3	4
4	2	1.07684e+07	0	1	2	5	4
4	2	350	0	1	5	3	4
4	3	30080	0	1	2	1	0
4	3	69400	0	1	2	3	4
4	3	1.08175e+07	0	1	2	5	4
4	3	250	0	1	5	3	4
4	5	29056	0	1	2	1	0
4	5	68100	0	1	2	3	4
4	5	1.13418e+07	0	1	2	5	4
4	5	100	0	1	5	3	4
4	6	27712	0	1	2	1	0
4	6	68300	0	1	2	3	4
4	6	1.05964e+07	0	1	2	5	4
4	6	250	0	1	5	3	4
4	7	27008	0	1	2	1	0
4	7	66900	0	1	2	3	4
4	7	1.11124e+07	0	1	2	5	4
4	7	200	0	1	5	3	4
4	8	30528	0	1	2	1	0
4	8	65500	0	1	2	3	4
4	8	1.13172e+07	0	1	2	5	4
4	8	350	0	1	5	3	4
4	9	29888	0	1	2	1	0
4	9	67800	0	1	2	3	4
4	9	1.09937e+07	0	1	2	5	4
4	9	300	0	1	5	3	4
5	0	27648	0	1	2	1	0
5	0	67900	0	1	2	3	4
5	0	1.06619e+07	0	1	2	5	4
5	0	550	0	1	5	3	4
5	1	29248	0	1	2	1	0
5	1	74400	0	1	2	3	4
5	1	1.11411e+07	0	1	2	5	4
5	1	500	0	1	5	3	4
5	2	29824	0	1	2	1	0
5	2	73300	0	1	2	3	4
5	2	1.12681e+07	0	1	2	5	4
5	2	100	0	1	5	3	4
5	3	28928	0	1	2	1	0
5	3	71700	0	1	2	3	4
5	3	1.13377e+07	0	1	2	5	4
5	3	100	0	1	5	3	4
5	4	29888	0	1	2	1	0
5	4	65700	0	1	2	3	4
5	4	1.05021e+07	0	1	2	5	4
5	4	250	0	1	5	3	4
5	6	28288	0	1	2	1	0
5	6	67600	0	1	2	3	4
5	6	1.07069e+07	0	1	2	5	4
5	6	150	0	1	5	3	4
5	7	28032	0	1	2	1	0
5	7	73300	0	1	2	3	4
5	7	1.08913e+07	0	1	2	5	4
5	7	500	0	1	5	3	4
5	8	27840	0	1	2	1	0
5	8	73800	0	1	2	3	4
5	8	1.05185e+07	0	1	2	5	4
5	8	250	0	1	5	3	4
5	9	28736	0	1	2	1	0
5	9	69100	0	1	2	3	4
5	9	1.08708e+07	0	1	2	5	4
5	9	250	0	1	5	3	4
6	0	28288	0	1	2	1	0
6	0	68400	0	1	2	3	4
6	0	1.10305e+07	0	1	2	5	4
6	0	300	0	1	5	3	4
6	1	29120	0	1	2	1	0
6	1	68400	0	1	2	3	4
6	1	1.12968e+07	0	1	2	5	4
6	1	600	0	1	5	3	4
6	2	29888	0	1	2	1	0
6	2	69500	0	1	2	3	4
6	2	1.09199e+07	0	1	2	5	4
6	2	350	0	1	5	3	4
6	3	27520	0	1	2	1	0
6	3	72100	0	1	2	3	4
6	3	1.11329e+07	0	1	2	5	4
6	3	400	0	1	5	3	4
6	4	30016	0	1	2	1	0
6	4	70200	0	1	2	3	4
6	4	1.16572e+07	0	1	2	5	4
6	4	150	0	1	5	3	4
6	5	27648	0	1	2	1	0
6	5	71500	0	1	2	3	4
6	5	1.09978e+07	0	1	2	5	4
6	5	300	0	1	5	3	4
6	7	28736	0	1	2	1	0
6	7	67400	0	1	2	3	4
6	7	1.0752e+07	0	1	2	5	4
6	7	600	0	1	5	3	4
6	8	27456	0	1	2	1	0
6	8	68800	0	1	2	3	4
6	8	1.12394e+07	0	1	2	5	4
6	8	350	0	1	5	3	4
6	9	28736	0	1	2	1	0
6	9	70700	0	1	2	3	4
6	9	1.07848e+07	0	1	2	5	4
6	9	200	0	1	5	3	4
7	0	30208	0	1	2	1	0
7	0	70600	0	1	2	3	4
7	0	1.0838e+07	0	1	2	5	4
7	0	300	0	1	5	3	4
7	1	26624	0	1	2	1	0
7	1	68400	0	1	2	3	4
7	1	1.06824e+07	0	1	2	5	4
7	1	300	0	1	5	3	4
7	2	29056	0	1	2	1	0
7	2	73700	0	1	2	3	4
7	2	1.1223e+07	0	1	2	5	4
7	2	150	0	1	5	3	4
7	3	28800	0	1	2	1	0
7	3	67700	0	1	2	3	4
7	3	1.11247e+07	0	1	2	5	4
7	3	150	0	1	5	3	4
7	4	28352	0	1	2	1	0
7	4	75100	0	1	2	3	4
7	4	1.11698e+07	0	1	2	5	4
7	4	50	0	1	5	3	4
7	5	31552	0	1	2	1	0
7	5	69200	0	1	2	3	4
7	5	1.10551e+07	0	1	2	5	4
7	5	200	0	1	5	3	4
7	6	29632	0	1	2	1	0
7	6	69800	0	1	2	3	4
7	6	1.13132e+07	0	1	2	5	4
7	6	300	0	1	5	3	4
7	8	28032	0	1	2	1	0
7	8	72500	0	1	2	3	4
7	8	1.11084e+07	0	1	2	5	4
7	8	200	0	1	5	3	4
7	9	30464	0	1	2	1	0
7	9	71400	0	1	2	3	4
7	9	1.13172e+07	0	1	2	5	4
7	9	250	0	1	5	3	4
8	0	27200	0	1	2	1	0
8	0	67400	0	1	2	3	4
8	0	1.12353e+07	0	1	2	5	4
8	0	300	0	1	5	3	4
8	1	31424	0	1	2	1	0
8	1	68500	0	1	2	3	4
8	1	1.13336e+07	0	1	2	5	4
8	1	350	0	1	5	3	4
8	2	26752	0	1	2	1	0
8	2	71600	0	1	2	3	4
8	2	1.1305e+07	0	1	2	5	4
8	2	350	0	1	5	3	4
8	3	32128	0	1	2	1	0
8	3	71100	0	1	2	3	4
8	3	1.07766e+07	0	1	2	5	4
8	3	250	0	1	5	3	4
8	4	30784	0	1	2	1	0
8	4	63700	0	1	2	3	4
8	4	1.0924e+07	0	1	2	5	4
8	4	100	0	1	5	3	4
8	5	30336	0	1	2	1	0
8	5	72200	0	1	2	3	4
8	5	1.10715e+07	0	1	2	5	4
8	5	450	0	1	5	3	4
8	6	27904	0	1	2	1	0
8	6	68700	0	1	2	3	4
8	6	1.08421e+07	0	1	2	5	4
8	6	700	0	1	5	3	4
8	7	27008	0	1	2	1	0
8	7	68200	0	1	2	3	4
8	7	1.12067e+07	0	1	2	5	4
8	7	300	0	1	5	3	4
8	9	29696	0	1	2	1	0
8	9	72800	0	1	2	3	4
8	9	1.10715e+07	0	1	2	5	4
8	9	350	0	1	5	3	4
9	0	28160	0	1	2	1	0
9	0	70400	0	1	2	3	4
9	0	1.10223e+07	0	1	2	5	4
9	0	200	0	1	5	3	4
9	1	30336	0	1	2	1	0
9	1	69100	0	1	2	3	4
9	1	1.08995e+07	0	1	2	5	4
9	1	300	0	1	5	3	4
9	2	30080	0	1	2	1	0
9	2	74300	0	1	2	3	4
9	2	1.09814e+07	0	1	2	5	4
9	2	250	0	1	5	3	4
9	3	28992	0	1	2	1	0
9	3	69600	0	1	2	3	4
9	3	1.10674e+07	0	1	2	5	4
9	3	300	0	1	5	3	4
9	4	27776	0	1	2	1	0
9	4	69500	0	1	2	3	4
9	4	1.13664e+07	0	1	2	5	4
9	4	350	0	1	5	3	4
9	5	29696	0	1	2	1	0
9	5	70000	0	1	2	3	4
9	5	1.05841e+07	0	1	2	5	4
9	5	300	0	1	5	3	4
9	6	29952	0	1	2	1	0
9	6	70600	0	1	2	3	4
9	6	1.09855e+07	0	1	2	5	4
9	6	250	0	1	5	3	4
9	7	27776	0	1	2	1	0
9	7	64100	0	1	2	3	4
9	7	1.09814e+07	0	1	2	5	4
9	7	400	0	1	5	3	4
9	8	29632	0	1	2	1	0
9	8	69000	0	1	2	3	4
9	8	1.10674e+07	0	1	2	5	4
9	8	250	0	1	5	3	4
