100000	100000	100000	10000	1000	1000
0	1	125696	0	1	2	1	0
0	1	309000	0	1	2	3	4
0	1	4.76447e+07	0	1	2	5	4
0	1	1150	0	1	5	3	4
0	2	50432	0	1	2	1	0
0	2	116200	0	1	2	3	4
0	2	1.96772e+07	0	1	2	5	4
0	2	300	0	1	5	3	4
0	3	47232	0	1	2	1	0
0	3	116400	0	1	2	3	4
0	3	1.77848e+07	0	1	2	5	4
0	3	500	0	1	5	3	4
0	4	35008	0	1	2	1	0
0	4	92000	0	1	2	3	4
0	4	1.49176e+07	0	1	2	5	4
0	4	300	0	1	5	3	4
0	5	126912	0	1	2	1	0
0	5	305200	0	1	2	3	4
0	5	4.81976e+07	0	1	2	5	4
0	5	1400	0	1	5	3	4
0	6	55808	0	1	2	1	0
0	6	128000	0	1	2	3	4
0	6	2.00663e+07	0	1	2	5	4
0	6	550	0	1	5	3	4
0	7	49664	0	1	2	1	0
0	7	105200	0	1	2	3	4
0	7	1.7666e+07	0	1	2	5	4
0	7	450	0	1	5	3	4
0	8	26240	0	1	2	1	0
0	8	69600	0	1	2	3	4
0	8	1.07889e+07	0	1	2	5	4
0	8	100	0	1	5	3	4
0	9	71936	0	1	2	1	0
0	9	182000	0	1	2	3	4
0	9	2.86065e+07	0	1	2	5	4
0	9	1000	0	1	5	3	4
1	0	126976	0	1	2	1	0
1	0	296800	0	1	2	3	4
1	0	4.73293e+07	0	1	2	5	4
1	0	550	0	1	5	3	4
1	2	43136	0	1	2	1	0
1	2	97300	0	1	2	3	4
1	2	1.56303e+07	0	1	2	5	4
1	2	200	0	1	5	3	4
1	3	93888	0	1	2	1	0
1	3	224300	0	1	2	3	4
1	3	3.48324e+07	0	1	2	5	4
1	3	1000	0	1	5	3	4
1	4	39936	0	1	2	1	0
1	4	91000	0	1	2	3	4
1	4	1.43196e+07	0	1	2	5	4
1	4	300	0	1	5	3	4
1	5	32448	0	1	2	1	0
1	5	78000	0	1	2	3	4
1	5	1.18948e+07	0	1	2	5	4
1	5	350	0	1	5	3	4
1	6	56448	0	1	2	1	0
1	6	131300	0	1	2	3	4
1	6	1.98287e+07	0	1	2	5	4
1	6	600	0	1	5	3	4
1	7	23744	0	1	2	1	0
1	7	56800	0	1	2	3	4
1	7	8.94157e+06	0	1	2	5	4
1	7	200	0	1	5	3	4
1	8	43200	0	1	2	1	0
1	8	97000	0	1	2	3	4
1	8	1.60276e+07	0	1	2	5	4
1	8	450	0	1	5	3	4
1	9	18752	0	1	2	1	0
1	9	46700	0	1	2	3	4
1	9	6.99597e+06	0	1	2	5	4
1	9	150	0	1	5	3	4
2	0	50560	0	1	2	1	0
2	0	118400	0	1	2	3	4
2	0	1.9202e+07	0	1	2	5	4
2	0	550	0	1	5	3	4
2	1	43264	0	1	2	1	0
2	1	98100	0	1	2	3	4
2	1	1.59252e+07	0	1	2	5	4
2	1	400	0	1	5	3	4
2	3	32384	0	1	2	1	0
2	3	80300	0	1	2	3	4
2	3	1.20914e+07	0	1	2	5	4
2	3	350	0	1	5	3	4
2	4	48704	0	1	2	1	0
2	4	119700	0	1	2	3	4
2	4	1.88703e+07	0	1	2	5	4
2	4	500	0	1	5	3	4
2	5	8896	0	1	2	1	0
2	5	23600	0	1	2	3	4
2	5	4.00998e+06	0	1	2	5	4
2	6	12096	0	1	2	1	0
2	6	28100	0	1	2	3	4
2	6	4.54246e+06	0	1	2	5	4
2	6	50	0	1	5	3	4
2	7	10432	0	1	2	1	0
2	7	23000	0	1	2	3	4
2	7	3.91578e+06	0	1	2	5	4
2	7	100	0	1	5	3	4
2	8	14144	0	1	2	1	0
2	8	34000	0	1	2	3	4
2	8	5.35757e+06	0	1	2	5	4
2	8	50	0	1	5	3	4
2	9	7104	0	1	2	1	0
2	9	14500	0	1	2	3	4
2	9	2.4535e+06	0	1	2	5	4
2	9	50	0	1	5	3	4
3	0	48768	0	1	2	1	0
3	0	109800	0	1	2	3	4
3	0	1.76128e+07	0	1	2	5	4
3	0	350	0	1	5	3	4
3	1	93632	0	1	2	1	0
3	1	226000	0	1	2	3	4
3	1	3.52092e+07	0	1	2	5	4
3	1	550	0	1	5	3	4
3	2	29632	0	1	2	1	0
3	2	72200	0	1	2	3	4
3	2	1.15958e+07	0	1	2	5	4
3	2	500	0	1	5	3	4
3	4	34816	0	1	2	1	0
3	4	88500	0	1	2	3	4
3	4	1.46309e+07	0	1	2	5	4
3	4	350	0	1	5	3	4
3	5	10688	0	1	2	1	0
3	5	27500	0	1	2	3	4
3	5	4.00179e+06	0	1	2	5	4
3	6	13696	0	1	2	1	0
3	6	30300	0	1	2	3	4
3	6	4.88653e+06	0	1	2	5	4
3	6	100	0	1	5	3	4
3	7	10816	0	1	2	1	0
3	7	32500	0	1	2	3	4
3	7	4.37862e+06	0	1	2	5	4
3	7	50	0	1	5	3	4
3	8	21888	0	1	2	1	0
3	8	53000	0	1	2	3	4
3	8	7.92576e+06	0	1	2	5	4
3	8	100	0	1	5	3	4
3	9	5632	0	1	2	1	0
3	9	14300	0	1	2	3	4
3	9	2.44122e+06	0	1	2	5	4
3	9	50	0	1	5	3	4
4	0	36992	0	1	2	1	0
4	0	90700	0	1	2	3	4
4	0	1.4422e+07	0	1	2	5	4
4	0	550	0	1	5	3	4
4	1	38656	0	1	2	1	0
4	1	93500	0	1	2	3	4
4	1	1.47743e+07	0	1	2	5	4
4	1	450	0	1	5	3	4
4	2	50112	0	1	2	1	0
4	2	123800	0	1	2	3	4
4	2	1.92225e+07	0	1	2	5	4
4	2	650	0	1	5	3	4
4	3	36352	0	1	2	1	0
4	3	95500	0	1	2	3	4
4	3	1.37175e+07	0	1	2	5	4
4	3	250	0	1	5	3	4
4	5	8640	0	1	2	1	0
4	5	21900	0	1	2	3	4
4	5	3.1785e+06	0	1	2	5	4
4	5	50	0	1	5	3	4
4	6	10432	0	1	2	1	0
4	6	26400	0	1	2	3	4
4	6	3.83795e+06	0	1	2	5	4
4	6	150	0	1	5	3	4
4	7	9920	0	1	2	1	0
4	7	21200	0	1	2	3	4
4	7	3.51437e+06	0	1	2	5	4
4	7	100	0	1	5	3	4
4	8	17536	0	1	2	1	0
4	8	40900	0	1	2	3	4
4	8	6.2505e+06	0	1	2	5	4
4	9	4800	0	1	2	1	0
4	9	11800	0	1	2	3	4
4	9	1.93331e+06	0	1	2	5	4
5	0	127360	0	1	2	1	0
5	0	305100	0	1	2	3	4
5	0	4.77471e+07	0	1	2	5	4
5	0	1400	0	1	5	3	4
5	1	34112	0	1	2	1	0
5	1	75700	0	1	2	3	4
5	1	1.1776e+07	0	1	2	5	4
5	1	300	0	1	5	3	4
5	2	9728	0	1	2	1	0
5	2	24600	0	1	2	3	4
5	2	4.07552e+06	0	1	2	5	4
5	2	200	0	1	5	3	4
5	3	10688	0	1	2	1	0
5	3	27500	0	1	2	3	4
5	3	4.10419e+06	0	1	2	5	4
5	3	250	0	1	5	3	4
5	4	8768	0	1	2	1	0
5	4	21200	0	1	2	3	4
5	4	3.21126e+06	0	1	2	5	4
5	4	50	0	1	5	3	4
5	6	17856	0	1	2	1	0
5	6	40000	0	1	2	3	4
5	6	6.64781e+06	0	1	2	5	4
5	6	150	0	1	5	3	4
5	7	5440	0	1	2	1	0
5	7	12300	0	1	2	3	4
5	7	1.99066e+06	0	1	2	5	4
5	7	50	0	1	5	3	4
5	8	7296	0	1	2	1	0
5	8	16600	0	1	2	3	4
5	8	2.65421e+06	0	1	2	5	4
5	8	150	0	1	5	3	4
5	9	6080	0	1	2	1	0
5	9	16100	0	1	2	3	4
5	9	2.17498e+06	0	1	2	5	4
6	0	49664	0	1	2	1	0
6	0	130900	0	1	2	3	4
6	0	1.99229e+07	0	1	2	5	4
6	0	650	0	1	5	3	4
6	1	55488	0	1	2	1	0
6	1	124700	0	1	2	3	4
6	1	2.05087e+07	0	1	2	5	4
6	1	600	0	1	5	3	4
6	2	12736	0	1	2	1	0
6	2	31300	0	1	2	3	4
6	2	4.43597e+06	0	1	2	5	4
6	2	100	0	1	5	3	4
6	3	12416	0	1	2	1	0
6	3	33800	0	1	2	3	4
6	3	5.07494e+06	0	1	2	5	4
6	4	10752	0	1	2	1	0
6	4	25200	0	1	2	3	4
6	4	3.98541e+06	0	1	2	5	4
6	4	150	0	1	5	3	4
6	5	18496	0	1	2	1	0
6	5	41700	0	1	2	3	4
6	5	7.00006e+06	0	1	2	5	4
6	5	150	0	1	5	3	4
6	7	5376	0	1	2	1	0
6	7	17300	0	1	2	3	4
6	7	2.49037e+06	0	1	2	5	4
6	7	50	0	1	5	3	4
6	8	12736	0	1	2	1	0
6	8	28700	0	1	2	3	4
6	8	4.6121e+06	0	1	2	5	4
6	8	200	0	1	5	3	4
6	9	10752	0	1	2	1	0
6	9	26100	0	1	2	3	4
6	9	4.31718e+06	0	1	2	5	4
6	9	250	0	1	5	3	4
7	0	45952	0	1	2	1	0
7	0	115400	0	1	2	3	4
7	0	1.79487e+07	0	1	2	5	4
7	0	700	0	1	5	3	4
7	1	25408	0	1	2	1	0
7	1	56000	0	1	2	3	4
7	1	8.73677e+06	0	1	2	5	4
7	1	550	0	1	5	3	4
7	2	11648	0	1	2	1	0
7	2	24000	0	1	2	3	4
7	2	4.02227e+06	0	1	2	5	4
7	2	100	0	1	5	3	4
7	3	11264	0	1	2	1	0
7	3	31300	0	1	2	3	4
7	3	4.37453e+06	0	1	2	5	4
7	4	9600	0	1	2	1	0
7	4	23100	0	1	2	3	4
7	4	3.77651e+06	0	1	2	5	4
7	4	150	0	1	5	3	4
7	5	4736	0	1	2	1	0
7	5	12500	0	1	2	3	4
7	5	1.82682e+06	0	1	2	5	4
7	6	7872	0	1	2	1	0
7	6	15200	0	1	2	3	4
7	6	2.53952e+06	0	1	2	5	4
7	8	9856	0	1	2	1	0
7	8	23700	0	1	2	3	4
7	8	4.06323e+06	0	1	2	5	4
7	9	9728	0	1	2	1	0
7	9	21300	0	1	2	3	4
7	9	3.49798e+06	0	1	2	5	4
7	9	50	0	1	5	3	4
8	0	28736	0	1	2	1	0
8	0	66000	0	1	2	3	4
8	0	1.02851e+07	0	1	2	5	4
8	0	200	0	1	5	3	4
8	1	42752	0	1	2	1	0
8	1	101900	0	1	2	3	4
8	1	1.59826e+07	0	1	2	5	4
8	1	250	0	1	5	3	4
8	2	16064	0	1	2	1	0
8	2	36000	0	1	2	3	4
8	2	5.43539e+06	0	1	2	5	4
8	2	200	0	1	5	3	4
8	3	20864	0	1	2	1	0
8	3	54100	0	1	2	3	4
8	3	8.05274e+06	0	1	2	5	4
8	3	50	0	1	5	3	4
8	4	15680	0	1	2	1	0
8	4	38300	0	1	2	3	4
8	4	6.36518e+06	0	1	2	5	4
8	4	100	0	1	5	3	4
8	5	7360	0	1	2	1	0
8	5	15200	0	1	2	3	4
8	5	2.72384e+06	0	1	2	5	4
8	5	50	0	1	5	3	4
8	6	10816	0	1	2	1	0
8	6	29000	0	1	2	3	4
8	6	4.41139e+06	0	1	2	5	4
8	6	100	0	1	5	3	4
8	7	10752	0	1	2	1	0
8	7	26400	0	1	2	3	4
8	7	3.81747e+06	0	1	2	5	4
8	7	150	0	1	5	3	4
8	9	4864	0	1	2	1	0
8	9	11200	0	1	2	3	4
8	9	1.58925e+06	0	1	2	5	4
9	0	76032	0	1	2	1	0
9	0	182900	0	1	2	3	4
9	0	2.84303e+07	0	1	2	5	4
9	0	1000	0	1	5	3	4
9	1	22336	0	1	2	1	0
9	1	46000	0	1	2	3	4
9	1	7.02874e+06	0	1	2	5	4
9	1	200	0	1	5	3	4
9	2	6144	0	1	2	1	0
9	2	15500	0	1	2	3	4
9	2	2.59277e+06	0	1	2	5	4
9	2	100	0	1	5	3	4
9	3	6912	0	1	2	1	0
9	3	13700	0	1	2	3	4
9	3	2.42074e+06	0	1	2	5	4
9	3	50	0	1	5	3	4
9	4	5568	0	1	2	1	0
9	4	13700	0	1	2	3	4
9	4	1.87187e+06	0	1	2	5	4
9	5	6912	0	1	2	1	0
9	5	14800	0	1	2	3	4
9	5	2.27328e+06	0	1	2	5	4
9	6	10304	0	1	2	1	0
9	6	27000	0	1	2	3	4
9	6	4.07962e+06	0	1	2	5	4
9	7	9728	0	1	2	1	0
9	7	21100	0	1	2	3	4
9	7	3.61677e+06	0	1	2	5	4
9	7	100	0	1	5	3	4
9	8	4480	0	1	2	1	0
9	8	9500	0	1	2	3	4
9	8	1.49094e+06	0	1	2	5	4
9	8	150	0	1	5	3	4
