100000	10000	10000	100000	1000	1000
0	1	1.11653e+07	4	1	1	1	0	0	3	4
0	2	1.09857e+07	4	1	1	1	0	0	3	4
0	3	1.09876e+07	4	1	1	1	0	0	3	4
0	4	1.11819e+07	4	1	1	1	0	0	3	4
0	5	1.10426e+07	4	1	1	1	0	0	3	4
0	6	1.09808e+07	4	1	1	1	0	0	3	4
0	7	1.10926e+07	4	1	1	1	0	0	3	4
0	8	1.08139e+07	4	1	1	1	0	0	3	4
0	9	1.11103e+07	4	1	1	1	0	0	3	4
1	0	1.11731e+07	4	1	1	1	0	0	3	4
1	2	1.11623e+07	4	1	1	1	0	0	3	4
1	3	1.11643e+07	4	1	1	1	0	0	3	4
1	4	1.09945e+07	4	1	1	1	0	0	3	4
1	5	1.10573e+07	4	1	1	1	0	0	3	4
1	6	1.10661e+07	4	1	1	1	0	0	3	4
1	7	1.10308e+07	4	1	1	1	0	0	3	4
1	8	1.11005e+07	4	1	1	1	0	0	3	4
1	9	1.11878e+07	4	1	1	1	0	0	3	4
2	0	1.11172e+07	4	1	1	1	0	0	3	4
2	1	1.10033e+07	4	1	1	1	0	0	3	4
2	3	1.09729e+07	4	1	1	1	0	0	3	4
2	4	1.10583e+07	4	1	1	1	0	0	3	4
2	5	1.11535e+07	4	1	1	1	0	0	3	4
2	6	1.11466e+07	4	1	1	1	0	0	3	4
2	7	1.11191e+07	4	1	1	1	0	0	3	4
2	8	1.12487e+07	4	1	1	1	0	0	3	4
2	9	1.1071e+07	4	1	1	1	0	0	3	4
3	0	1.11515e+07	4	1	1	1	0	0	3	4
3	1	1.11496e+07	4	1	1	1	0	0	3	4
3	2	1.1075e+07	4	1	1	1	0	0	3	4
3	4	1.10936e+07	4	1	1	1	0	0	3	4
3	5	1.09818e+07	4	1	1	1	0	0	3	4
3	6	1.10926e+07	4	1	1	1	0	0	3	4
3	7	1.11329e+07	4	1	1	1	0	0	3	4
3	8	1.12143e+07	4	1	1	1	0	0	3	4
3	9	1.11172e+07	4	1	1	1	0	0	3	4
4	0	1.10652e+07	4	1	1	1	0	0	3	4
4	1	1.10132e+07	4	1	1	1	0	0	3	4
4	2	1.11545e+07	4	1	1	1	0	0	3	4
4	3	1.12595e+07	4	1	1	1	0	0	3	4
4	5	1.11025e+07	4	1	1	1	0	0	3	4
4	6	1.12634e+07	4	1	1	1	0	0	3	4
4	7	1.10053e+07	4	1	1	1	0	0	3	4
4	8	1.11309e+07	4	1	1	1	0	0	3	4
4	9	1.11299e+07	4	1	1	1	0	0	3	4
5	0	1.10485e+07	4	1	1	1	0	0	3	4
5	1	1.1281e+07	4	1	1	1	0	0	3	4
5	2	1.1125e+07	4	1	1	1	0	0	3	4
5	3	1.12536e+07	4	1	1	1	0	0	3	4
5	4	1.11868e+07	4	1	1	1	0	0	3	4
5	6	1.11721e+07	4	1	1	1	0	0	3	4
5	7	1.1073e+07	4	1	1	1	0	0	3	4
5	8	1.10897e+07	4	1	1	1	0	0	3	4
5	9	1.12261e+07	4	1	1	1	0	0	3	4
6	0	1.13703e+07	4	1	1	1	0	0	3	4
6	1	1.11054e+07	4	1	1	1	0	0	3	4
6	2	1.09925e+07	4	1	1	1	0	0	3	4
6	3	1.12114e+07	4	1	1	1	0	0	3	4
6	4	1.10357e+07	4	1	1	1	0	0	3	4
6	5	1.10897e+07	4	1	1	1	0	0	3	4
6	7	1.11162e+07	4	1	1	1	0	0	3	4
6	8	1.12379e+07	4	1	1	1	0	0	3	4
6	9	1.11819e+07	4	1	1	1	0	0	3	4
7	0	1.10024e+07	4	1	1	1	0	0	3	4
7	1	1.09356e+07	4	1	1	1	0	0	3	4
7	2	1.11721e+07	4	1	1	1	0	0	3	4
7	3	1.11093e+07	4	1	1	1	0	0	3	4
7	4	1.11123e+07	4	1	1	1	0	0	3	4
7	5	1.097e+07	4	1	1	1	0	0	3	4
7	6	1.10524e+07	4	1	1	1	0	0	3	4
7	8	1.11044e+07	4	1	1	1	0	0	3	4
7	9	1.10887e+07	4	1	1	1	0	0	3	4
8	0	1.09945e+07	4	1	1	1	0	0	3	4
8	1	1.09131e+07	4	1	1	1	0	0	3	4
8	2	1.12722e+07	4	1	1	1	0	0	3	4
8	3	1.11819e+07	4	1	1	1	0	0	3	4
8	4	1.11378e+07	4	1	1	1	0	0	3	4
8	5	1.12575e+07	4	1	1	1	0	0	3	4
8	6	1.1286e+07	4	1	1	1	0	0	3	4
8	7	1.13085e+07	4	1	1	1	0	0	3	4
8	9	1.13056e+07	4	1	1	1	0	0	3	4
9	0	1.10534e+07	4	1	1	1	0	0	3	4
9	1	1.10789e+07	4	1	1	1	0	0	3	4
9	2	1.1127e+07	4	1	1	1	0	0	3	4
9	3	1.11947e+07	4	1	1	1	0	0	3	4
9	4	1.09503e+07	4	1	1	1	0	0	3	4
9	5	1.11093e+07	4	1	1	1	0	0	3	4
9	6	1.10995e+07	4	1	1	1	0	0	3	4
9	7	1.11221e+07	4	1	1	1	0	0	3	4
9	8	1.09435e+07	4	1	1	1	0	0	3	4
