100000	100000	100000	10000	1000	1000
0	1	576	0	1	2	1	0
0	1	900	0	1	2	3	4
0	1	110592	0	1	2	5	4
0	2	128	0	1	2	1	0
0	2	1200	0	1	2	3	4
0	2	110592	0	1	2	5	4
0	3	192	0	1	2	1	0
0	3	700	0	1	2	3	4
0	3	143360	0	1	2	5	4
0	4	64	0	1	2	1	0
0	4	600	0	1	2	3	4
0	4	118784	0	1	2	5	4
0	5	128	0	1	2	1	0
0	5	700	0	1	2	3	4
0	5	118784	0	1	2	5	4
0	6	320	0	1	2	1	0
0	6	1000	0	1	2	3	4
0	6	94208	0	1	2	5	4
0	7	64	0	1	2	1	0
0	7	1100	0	1	2	3	4
0	7	114688	0	1	2	5	4
0	8	256	0	1	2	1	0
0	8	800	0	1	2	3	4
0	8	73728	0	1	2	5	4
0	9	192	0	1	2	1	0
0	9	1100	0	1	2	3	4
0	9	106496	0	1	2	5	4
1	0	128	0	1	2	1	0
1	0	800	0	1	2	3	4
1	0	131072	0	1	2	5	4
1	2	320	0	1	2	1	0
1	2	700	0	1	2	3	4
1	2	98304	0	1	2	5	4
1	3	320	0	1	2	1	0
1	3	1100	0	1	2	3	4
1	3	69632	0	1	2	5	4
1	4	320	0	1	2	1	0
1	4	100	0	1	2	3	4
1	4	143360	0	1	2	5	4
1	5	256	0	1	2	1	0
1	5	800	0	1	2	3	4
1	5	86016	0	1	2	5	4
1	6	64	0	1	2	1	0
1	6	100	0	1	2	3	4
1	6	98304	0	1	2	5	4
1	6	50	0	1	5	3	4
1	7	128	0	1	2	1	0
1	7	300	0	1	2	3	4
1	7	98304	0	1	2	5	4
1	8	320	0	1	2	1	0
1	8	300	0	1	2	3	4
1	8	135168	0	1	2	5	4
1	9	256	0	1	2	1	0
1	9	600	0	1	2	3	4
1	9	118784	0	1	2	5	4
2	0	320	0	1	2	1	0
2	0	600	0	1	2	3	4
2	0	118784	0	1	2	5	4
2	1	320	0	1	2	1	0
2	1	400	0	1	2	3	4
2	1	143360	0	1	2	5	4
2	3	512	0	1	2	1	0
2	3	200	0	1	2	3	4
2	3	147456	0	1	2	5	4
2	4	320	0	1	2	1	0
2	4	800	0	1	2	3	4
2	4	114688	0	1	2	5	4
2	5	256	0	1	2	1	0
2	5	800	0	1	2	3	4
2	5	102400	0	1	2	5	4
2	6	320	0	1	2	1	0
2	6	500	0	1	2	3	4
2	6	147456	0	1	2	5	4
2	7	576	0	1	2	1	0
2	7	500	0	1	2	3	4
2	7	98304	0	1	2	5	4
2	8	192	0	1	2	1	0
2	8	1100	0	1	2	3	4
2	8	114688	0	1	2	5	4
2	9	192	0	1	2	1	0
2	9	500	0	1	2	3	4
2	9	139264	0	1	2	5	4
3	0	576	0	1	2	1	0
3	0	400	0	1	2	3	4
3	0	126976	0	1	2	5	4
3	1	384	0	1	2	1	0
3	1	800	0	1	2	3	4
3	1	118784	0	1	2	5	4
3	2	320	0	1	2	1	0
3	2	800	0	1	2	3	4
3	2	126976	0	1	2	5	4
3	4	64	0	1	2	1	0
3	4	700	0	1	2	3	4
3	4	114688	0	1	2	5	4
3	5	128	0	1	2	1	0
3	5	800	0	1	2	3	4
3	5	135168	0	1	2	5	4
3	6	512	0	1	2	1	0
3	6	500	0	1	2	3	4
3	6	131072	0	1	2	5	4
3	6	50	0	1	5	3	4
3	7	128	0	1	2	1	0
3	7	900	0	1	2	3	4
3	7	94208	0	1	2	5	4
3	7	50	0	1	5	3	4
3	8	256	0	1	2	1	0
3	8	300	0	1	2	3	4
3	8	69632	0	1	2	5	4
3	9	384	0	1	2	1	0
3	9	900	0	1	2	3	4
3	9	98304	0	1	2	5	4
4	0	384	0	1	2	1	0
4	0	500	0	1	2	3	4
4	0	114688	0	1	2	5	4
4	1	256	0	1	2	1	0
4	1	800	0	1	2	3	4
4	1	77824	0	1	2	5	4
4	2	192	0	1	2	1	0
4	2	300	0	1	2	3	4
4	2	90112	0	1	2	5	4
4	3	320	0	1	2	1	0
4	3	600	0	1	2	3	4
4	3	110592	0	1	2	5	4
4	5	320	0	1	2	1	0
4	5	800	0	1	2	3	4
4	5	106496	0	1	2	5	4
4	6	320	0	1	2	1	0
4	6	1100	0	1	2	3	4
4	6	81920	0	1	2	5	4
4	7	320	0	1	2	1	0
4	7	700	0	1	2	3	4
4	7	90112	0	1	2	5	4
4	8	256	0	1	2	1	0
4	8	1100	0	1	2	3	4
4	8	86016	0	1	2	5	4
4	9	192	0	1	2	1	0
4	9	1000	0	1	2	3	4
4	9	122880	0	1	2	5	4
5	0	192	0	1	2	1	0
5	0	700	0	1	2	3	4
5	0	126976	0	1	2	5	4
5	1	256	0	1	2	1	0
5	1	300	0	1	2	3	4
5	1	126976	0	1	2	5	4
5	2	448	0	1	2	1	0
5	2	400	0	1	2	3	4
5	2	110592	0	1	2	5	4
5	3	448	0	1	2	1	0
5	3	400	0	1	2	3	4
5	3	114688	0	1	2	5	4
5	4	256	0	1	2	1	0
5	4	400	0	1	2	3	4
5	4	86016	0	1	2	5	4
5	6	384	0	1	2	1	0
5	6	1300	0	1	2	3	4
5	6	98304	0	1	2	5	4
5	7	192	0	1	2	1	0
5	7	300	0	1	2	3	4
5	7	77824	0	1	2	5	4
5	8	256	0	1	2	1	0
5	8	700	0	1	2	3	4
5	8	118784	0	1	2	5	4
5	9	192	0	1	2	1	0
5	9	500	0	1	2	3	4
5	9	110592	0	1	2	5	4
6	0	256	0	1	2	1	0
6	0	700	0	1	2	3	4
6	0	126976	0	1	2	5	4
6	1	192	0	1	2	1	0
6	1	100	0	1	2	3	4
6	1	118784	0	1	2	5	4
6	2	256	0	1	2	1	0
6	2	1100	0	1	2	3	4
6	2	90112	0	1	2	5	4
6	3	64	0	1	2	1	0
6	3	700	0	1	2	3	4
6	3	118784	0	1	2	5	4
6	4	384	0	1	2	1	0
6	4	1200	0	1	2	3	4
6	4	135168	0	1	2	5	4
6	5	256	0	1	2	1	0
6	5	700	0	1	2	3	4
6	5	102400	0	1	2	5	4
6	7	512	0	1	2	1	0
6	7	400	0	1	2	3	4
6	7	86016	0	1	2	5	4
6	8	320	0	1	2	1	0
6	8	800	0	1	2	3	4
6	8	73728	0	1	2	5	4
6	9	512	0	1	2	1	0
6	9	400	0	1	2	3	4
6	9	90112	0	1	2	5	4
7	0	64	0	1	2	1	0
7	0	1000	0	1	2	3	4
7	0	155648	0	1	2	5	4
7	1	256	0	1	2	1	0
7	1	1000	0	1	2	3	4
7	1	81920	0	1	2	5	4
7	2	192	0	1	2	1	0
7	2	700	0	1	2	3	4
7	2	139264	0	1	2	5	4
7	3	512	0	1	2	1	0
7	3	900	0	1	2	3	4
7	3	131072	0	1	2	5	4
7	4	448	0	1	2	1	0
7	4	400	0	1	2	3	4
7	4	122880	0	1	2	5	4
7	5	512	0	1	2	1	0
7	5	600	0	1	2	3	4
7	5	86016	0	1	2	5	4
7	6	256	0	1	2	1	0
7	6	400	0	1	2	3	4
7	6	106496	0	1	2	5	4
7	8	320	0	1	2	1	0
7	8	400	0	1	2	3	4
7	8	69632	0	1	2	5	4
7	9	128	0	1	2	1	0
7	9	700	0	1	2	3	4
7	9	110592	0	1	2	5	4
8	0	256	0	1	2	1	0
8	0	700	0	1	2	3	4
8	0	73728	0	1	2	5	4
8	1	256	0	1	2	1	0
8	1	1000	0	1	2	3	4
8	1	126976	0	1	2	5	4
8	2	320	0	1	2	1	0
8	2	900	0	1	2	3	4
8	2	69632	0	1	2	5	4
8	2	100	0	1	5	3	4
8	3	256	0	1	2	1	0
8	3	700	0	1	2	3	4
8	3	90112	0	1	2	5	4
8	4	64	0	1	2	1	0
8	4	400	0	1	2	3	4
8	4	94208	0	1	2	5	4
8	5	64	0	1	2	1	0
8	5	900	0	1	2	3	4
8	5	118784	0	1	2	5	4
8	6	320	0	1	2	1	0
8	6	500	0	1	2	3	4
8	6	110592	0	1	2	5	4
8	7	384	0	1	2	1	0
8	7	500	0	1	2	3	4
8	7	159744	0	1	2	5	4
8	9	192	0	1	2	1	0
8	9	300	0	1	2	3	4
8	9	131072	0	1	2	5	4
9	0	256	0	1	2	1	0
9	0	700	0	1	2	3	4
9	0	94208	0	1	2	5	4
9	1	192	0	1	2	1	0
9	1	800	0	1	2	3	4
9	1	86016	0	1	2	5	4
9	2	448	0	1	2	1	0
9	2	1000	0	1	2	3	4
9	2	122880	0	1	2	5	4
9	3	320	0	1	2	1	0
9	3	500	0	1	2	3	4
9	3	98304	0	1	2	5	4
9	4	192	0	1	2	1	0
9	4	500	0	1	2	3	4
9	4	110592	0	1	2	5	4
9	5	192	0	1	2	1	0
9	5	500	0	1	2	3	4
9	5	143360	0	1	2	5	4
9	6	384	0	1	2	1	0
9	6	600	0	1	2	3	4
9	6	114688	0	1	2	5	4
9	7	384	0	1	2	1	0
9	7	500	0	1	2	3	4
9	7	147456	0	1	2	5	4
9	8	192	0	1	2	1	0
9	8	300	0	1	2	3	4
9	8	114688	0	1	2	5	4
