16
0	1	1e+12
0	3	1e+12
0	11	1e+12
0	12	1e+12
0	15	1e+12
1	0	1e+12
1	2	1e+12
1	5	1e+12
1	14	1e+12
2	1	1e+12
2	8	1e+12
3	0	1e+12
3	5	1e+12
3	13	1e+12
4	7	1e+12
5	1	1e+12
5	3	1e+12
5	6	1e+12
5	11	1e+12
5	15	1e+12
6	5	1e+12
6	9	1e+12
6	12	1e+12
6	14	1e+12
7	4	1e+12
7	14	1e+12
8	2	1e+12
8	9	1e+12
8	13	1e+12
9	6	1e+12
9	8	1e+12
10	11	1e+12
11	0	1e+12
11	5	1e+12
11	10	1e+12
11	13	1e+12
12	0	1e+12
12	6	1e+12
12	15	1e+12
13	3	1e+12
13	8	1e+12
13	11	1e+12
14	1	1e+12
14	6	1e+12
14	7	1e+12
15	0	1e+12
15	5	1e+12
15	12	1e+12
