10
0	2	1e+12
0	8	1e+12
1	2	1e+12
1	8	1e+12
2	0	1e+12
2	1	1e+12
2	3	1e+12
2	7	1e+12
3	2	1e+12
3	5	1e+12
3	7	1e+12
4	6	1e+12
5	3	1e+12
5	6	1e+12
6	4	1e+12
6	5	1e+12
6	8	1e+12
6	9	1e+12
7	2	1e+12
7	3	1e+12
8	0	1e+12
8	1	1e+12
8	6	1e+12
9	6	1e+12
