100000	100000	100000	10000	1000	1000
0	1	320	0	1	2	1	0
0	1	1200	0	1	2	3	4
0	1	114688	0	1	2	5	4
0	2	320	0	1	2	1	0
0	2	1100	0	1	2	3	4
0	2	139264	0	1	2	5	4
0	3	256	0	1	2	1	0
0	3	800	0	1	2	3	4
0	3	126976	0	1	2	5	4
0	4	192	0	1	2	1	0
0	4	800	0	1	2	3	4
0	4	102400	0	1	2	5	4
0	5	320	0	1	2	1	0
0	5	800	0	1	2	3	4
0	5	126976	0	1	2	5	4
0	6	320	0	1	2	1	0
0	6	900	0	1	2	3	4
0	6	98304	0	1	2	5	4
0	7	192	0	1	2	1	0
0	7	500	0	1	2	3	4
0	7	176128	0	1	2	5	4
0	8	128	0	1	2	1	0
0	8	1100	0	1	2	3	4
0	8	98304	0	1	2	5	4
0	9	512	0	1	2	1	0
0	9	800	0	1	2	3	4
0	9	143360	0	1	2	5	4
1	0	448	0	1	2	1	0
1	0	500	0	1	2	3	4
1	0	106496	0	1	2	5	4
1	2	320	0	1	2	1	0
1	2	700	0	1	2	3	4
1	2	90112	0	1	2	5	4
1	3	320	0	1	2	1	0
1	3	1100	0	1	2	3	4
1	3	86016	0	1	2	5	4
1	4	448	0	1	2	1	0
1	4	800	0	1	2	3	4
1	4	98304	0	1	2	5	4
1	5	256	0	1	2	1	0
1	5	800	0	1	2	3	4
1	5	143360	0	1	2	5	4
1	6	192	0	1	2	1	0
1	6	600	0	1	2	3	4
1	6	90112	0	1	2	5	4
1	7	384	0	1	2	1	0
1	7	300	0	1	2	3	4
1	7	90112	0	1	2	5	4
1	8	192	0	1	2	1	0
1	8	600	0	1	2	3	4
1	8	114688	0	1	2	5	4
1	8	50	0	1	5	3	4
1	9	320	0	1	2	1	0
1	9	1600	0	1	2	3	4
1	9	94208	0	1	2	5	4
2	0	256	0	1	2	1	0
2	0	800	0	1	2	3	4
2	0	118784	0	1	2	5	4
2	1	128	0	1	2	1	0
2	1	700	0	1	2	3	4
2	1	143360	0	1	2	5	4
2	3	256	0	1	2	1	0
2	3	800	0	1	2	3	4
2	3	114688	0	1	2	5	4
2	3	50	0	1	5	3	4
2	4	320	0	1	2	1	0
2	4	600	0	1	2	3	4
2	4	102400	0	1	2	5	4
2	5	448	0	1	2	1	0
2	5	300	0	1	2	3	4
2	5	155648	0	1	2	5	4
2	6	320	0	1	2	1	0
2	6	500	0	1	2	3	4
2	6	131072	0	1	2	5	4
2	7	192	0	1	2	1	0
2	7	600	0	1	2	3	4
2	7	94208	0	1	2	5	4
2	8	320	0	1	2	1	0
2	8	500	0	1	2	3	4
2	8	118784	0	1	2	5	4
2	9	128	0	1	2	1	0
2	9	500	0	1	2	3	4
2	9	122880	0	1	2	5	4
3	0	128	0	1	2	1	0
3	0	800	0	1	2	3	4
3	0	98304	0	1	2	5	4
3	1	320	0	1	2	1	0
3	1	700	0	1	2	3	4
3	1	131072	0	1	2	5	4
3	2	128	0	1	2	1	0
3	2	1200	0	1	2	3	4
3	2	122880	0	1	2	5	4
3	4	320	0	1	2	1	0
3	4	500	0	1	2	3	4
3	4	81920	0	1	2	5	4
3	5	128	0	1	2	1	0
3	5	600	0	1	2	3	4
3	5	143360	0	1	2	5	4
3	6	448	0	1	2	1	0
3	6	700	0	1	2	3	4
3	6	94208	0	1	2	5	4
3	7	320	0	1	2	1	0
3	7	500	0	1	2	3	4
3	7	126976	0	1	2	5	4
3	8	640	0	1	2	1	0
3	8	900	0	1	2	3	4
3	8	102400	0	1	2	5	4
3	9	256	0	1	2	1	0
3	9	1100	0	1	2	3	4
3	9	126976	0	1	2	5	4
4	0	384	0	1	2	1	0
4	0	800	0	1	2	3	4
4	0	77824	0	1	2	5	4
4	1	192	0	1	2	1	0
4	1	1200	0	1	2	3	4
4	1	94208	0	1	2	5	4
4	2	256	0	1	2	1	0
4	2	800	0	1	2	3	4
4	2	110592	0	1	2	5	4
4	3	192	0	1	2	1	0
4	3	700	0	1	2	3	4
4	3	90112	0	1	2	5	4
4	5	384	0	1	2	1	0
4	5	1300	0	1	2	3	4
4	5	110592	0	1	2	5	4
4	6	448	0	1	2	1	0
4	6	300	0	1	2	3	4
4	6	122880	0	1	2	5	4
4	7	256	0	1	2	1	0
4	7	1000	0	1	2	3	4
4	7	77824	0	1	2	5	4
4	8	640	0	1	2	1	0
4	8	400	0	1	2	3	4
4	8	90112	0	1	2	5	4
4	9	448	0	1	2	1	0
4	9	700	0	1	2	3	4
4	9	90112	0	1	2	5	4
5	0	256	0	1	2	1	0
5	0	600	0	1	2	3	4
5	0	86016	0	1	2	5	4
5	1	320	0	1	2	1	0
5	1	500	0	1	2	3	4
5	1	114688	0	1	2	5	4
5	1	50	0	1	5	3	4
5	2	320	0	1	2	1	0
5	2	1200	0	1	2	3	4
5	2	126976	0	1	2	5	4
5	3	320	0	1	2	1	0
5	3	500	0	1	2	3	4
5	3	126976	0	1	2	5	4
5	4	64	0	1	2	1	0
5	4	800	0	1	2	3	4
5	4	65536	0	1	2	5	4
5	6	320	0	1	2	1	0
5	6	800	0	1	2	3	4
5	6	114688	0	1	2	5	4
5	7	384	0	1	2	1	0
5	7	800	0	1	2	3	4
5	7	81920	0	1	2	5	4
5	8	256	0	1	2	1	0
5	8	500	0	1	2	3	4
5	8	126976	0	1	2	5	4
5	9	384	0	1	2	1	0
5	9	500	0	1	2	3	4
5	9	73728	0	1	2	5	4
5	9	50	0	1	5	3	4
6	0	384	0	1	2	1	0
6	0	1300	0	1	2	3	4
6	0	90112	0	1	2	5	4
6	1	192	0	1	2	1	0
6	1	700	0	1	2	3	4
6	1	139264	0	1	2	5	4
6	2	640	0	1	2	1	0
6	2	700	0	1	2	3	4
6	2	114688	0	1	2	5	4
6	3	256	0	1	2	1	0
6	3	700	0	1	2	3	4
6	3	90112	0	1	2	5	4
6	4	320	0	1	2	1	0
6	4	500	0	1	2	3	4
6	4	143360	0	1	2	5	4
6	5	384	0	1	2	1	0
6	5	100	0	1	2	3	4
6	5	159744	0	1	2	5	4
6	7	192	0	1	2	1	0
6	7	900	0	1	2	3	4
6	7	139264	0	1	2	5	4
6	8	320	0	1	2	1	0
6	8	900	0	1	2	3	4
6	8	102400	0	1	2	5	4
6	9	448	0	1	2	1	0
6	9	800	0	1	2	3	4
6	9	106496	0	1	2	5	4
7	0	192	0	1	2	1	0
7	0	600	0	1	2	3	4
7	0	86016	0	1	2	5	4
7	0	50	0	1	5	3	4
7	1	448	0	1	2	1	0
7	1	800	0	1	2	3	4
7	1	73728	0	1	2	5	4
7	1	50	0	1	5	3	4
7	2	128	0	1	2	1	0
7	2	300	0	1	2	3	4
7	2	81920	0	1	2	5	4
7	3	256	0	1	2	1	0
7	3	1100	0	1	2	3	4
7	3	126976	0	1	2	5	4
7	4	128	0	1	2	1	0
7	4	800	0	1	2	3	4
7	4	135168	0	1	2	5	4
7	5	320	0	1	2	1	0
7	5	1000	0	1	2	3	4
7	5	106496	0	1	2	5	4
7	6	256	0	1	2	1	0
7	6	1300	0	1	2	3	4
7	6	98304	0	1	2	5	4
7	8	320	0	1	2	1	0
7	8	800	0	1	2	3	4
7	8	114688	0	1	2	5	4
7	9	320	0	1	2	1	0
7	9	700	0	1	2	3	4
7	9	81920	0	1	2	5	4
8	0	512	0	1	2	1	0
8	0	200	0	1	2	3	4
8	0	106496	0	1	2	5	4
8	1	128	0	1	2	1	0
8	1	600	0	1	2	3	4
8	1	98304	0	1	2	5	4
8	2	192	0	1	2	1	0
8	2	900	0	1	2	3	4
8	2	143360	0	1	2	5	4
8	3	320	0	1	2	1	0
8	3	1000	0	1	2	3	4
8	3	90112	0	1	2	5	4
8	4	256	0	1	2	1	0
8	4	800	0	1	2	3	4
8	4	98304	0	1	2	5	4
8	5	192	0	1	2	1	0
8	5	600	0	1	2	3	4
8	5	102400	0	1	2	5	4
8	6	128	0	1	2	1	0
8	6	500	0	1	2	3	4
8	6	94208	0	1	2	5	4
8	7	320	0	1	2	1	0
8	7	400	0	1	2	3	4
8	7	114688	0	1	2	5	4
8	9	64	0	1	2	1	0
8	9	900	0	1	2	3	4
8	9	86016	0	1	2	5	4
9	0	320	0	1	2	1	0
9	0	500	0	1	2	3	4
9	0	131072	0	1	2	5	4
9	1	448	0	1	2	1	0
9	1	600	0	1	2	3	4
9	1	90112	0	1	2	5	4
9	2	64	0	1	2	1	0
9	2	300	0	1	2	3	4
9	2	106496	0	1	2	5	4
9	3	576	0	1	2	1	0
9	3	400	0	1	2	3	4
9	3	114688	0	1	2	5	4
9	4	128	0	1	2	1	0
9	4	1200	0	1	2	3	4
9	4	122880	0	1	2	5	4
9	5	576	0	1	2	1	0
9	5	300	0	1	2	3	4
9	5	151552	0	1	2	5	4
9	5	50	0	1	5	3	4
9	6	320	0	1	2	1	0
9	6	600	0	1	2	3	4
9	6	98304	0	1	2	5	4
9	7	256	0	1	2	1	0
9	7	400	0	1	2	3	4
9	7	106496	0	1	2	5	4
9	8	64	0	1	2	1	0
9	8	800	0	1	2	3	4
9	8	110592	0	1	2	5	4
