100000	100000	100000	10000	1000	1000
0	1	627648	0	1	2	1	0
0	1	1.5395e+06	0	1	2	3	4
0	1	2.41652e+08	0	1	2	5	4
0	1	6550	0	1	5	3	4
0	2	493888	0	1	2	1	0
0	2	1.2096e+06	0	1	2	3	4
0	2	1.92279e+08	0	1	2	5	4
0	2	5000	0	1	5	3	4
0	3	54720	0	1	2	1	0
0	3	128700	0	1	2	3	4
0	3	1.99188e+07	0	1	2	5	4
0	3	350	0	1	5	3	4
0	4	62784	0	1	2	1	0
0	4	156400	0	1	2	3	4
0	4	2.47194e+07	0	1	2	5	4
0	4	800	0	1	5	3	4
0	5	14720	0	1	2	1	0
0	5	39900	0	1	2	3	4
0	5	5.74669e+06	0	1	2	5	4
0	5	200	0	1	5	3	4
0	6	8448	0	1	2	1	0
0	6	19000	0	1	2	3	4
0	6	3.42835e+06	0	1	2	5	4
0	6	50	0	1	5	3	4
0	7	3136	0	1	2	1	0
0	7	7500	0	1	2	3	4
0	7	1.29024e+06	0	1	2	5	4
0	7	100	0	1	5	3	4
0	8	2688	0	1	2	1	0
0	8	6700	0	1	2	3	4
0	8	1.024e+06	0	1	2	5	4
0	8	50	0	1	5	3	4
0	9	2368	0	1	2	1	0
0	9	4500	0	1	2	3	4
0	9	528384	0	1	2	5	4
0	9	50	0	1	5	3	4
1	0	631168	0	1	2	1	0
1	0	1.5342e+06	0	1	2	3	4
1	0	2.39919e+08	0	1	2	5	4
1	0	6200	0	1	5	3	4
1	2	8000	0	1	2	1	0
1	2	19000	0	1	2	3	4
1	2	3.15392e+06	0	1	2	5	4
1	2	100	0	1	5	3	4
1	3	5056	0	1	2	1	0
1	3	12400	0	1	2	3	4
1	3	1.86368e+06	0	1	2	5	4
1	3	100	0	1	5	3	4
1	4	1920	0	1	2	1	0
1	4	4000	0	1	2	3	4
1	4	471040	0	1	2	5	4
1	5	448	0	1	2	1	0
1	5	800	0	1	2	3	4
1	5	208896	0	1	2	5	4
1	6	512	0	1	2	1	0
1	6	1500	0	1	2	3	4
1	6	196608	0	1	2	5	4
1	7	704	0	1	2	1	0
1	7	1100	0	1	2	3	4
1	7	225280	0	1	2	5	4
1	8	512	0	1	2	1	0
1	8	900	0	1	2	3	4
1	8	24576	0	1	2	5	4
1	9	64	0	1	2	1	0
1	9	24576	0	1	2	5	4
2	0	506496	0	1	2	1	0
2	0	1.2051e+06	0	1	2	3	4
2	0	1.89727e+08	0	1	2	5	4
2	0	4200	0	1	5	3	4
2	1	6848	0	1	2	1	0
2	1	20100	0	1	2	3	4
2	1	2.91226e+06	0	1	2	5	4
2	1	50	0	1	5	3	4
2	3	832	0	1	2	1	0
2	3	2300	0	1	2	3	4
2	3	344064	0	1	2	5	4
2	4	256	0	1	2	1	0
2	4	1300	0	1	2	3	4
2	4	212992	0	1	2	5	4
2	5	320	0	1	2	1	0
2	5	1200	0	1	2	3	4
2	5	143360	0	1	2	5	4
2	6	200	0	1	2	3	4
2	6	45056	0	1	2	5	4
2	7	24576	0	1	2	5	4
2	8	192	0	1	2	1	0
2	8	45056	0	1	2	5	4
2	9	200	0	1	2	3	4
2	9	16384	0	1	2	5	4
3	0	54592	0	1	2	1	0
3	0	129800	0	1	2	3	4
3	0	2.01687e+07	0	1	2	5	4
3	0	400	0	1	5	3	4
3	1	4416	0	1	2	1	0
3	1	12300	0	1	2	3	4
3	1	1.89645e+06	0	1	2	5	4
3	1	50	0	1	5	3	4
3	2	1088	0	1	2	1	0
3	2	2200	0	1	2	3	4
3	2	393216	0	1	2	5	4
3	4	400	0	1	2	3	4
3	4	20480	0	1	2	5	4
3	5	64	0	1	2	1	0
3	5	24576	0	1	2	5	4
3	6	200	0	1	2	3	4
3	6	8192	0	1	2	5	4
3	7	64	0	1	2	1	0
3	7	100	0	1	2	3	4
3	7	20480	0	1	2	5	4
3	8	12288	0	1	2	5	4
4	0	65152	0	1	2	1	0
4	0	156400	0	1	2	3	4
4	0	2.49528e+07	0	1	2	5	4
4	0	700	0	1	5	3	4
4	1	1152	0	1	2	1	0
4	1	2300	0	1	2	3	4
4	1	430080	0	1	2	5	4
4	1	50	0	1	5	3	4
4	2	256	0	1	2	1	0
4	2	800	0	1	2	3	4
4	2	188416	0	1	2	5	4
4	3	200	0	1	2	3	4
4	3	40960	0	1	2	5	4
4	5	12288	0	1	2	5	4
4	6	200	0	1	2	3	4
4	6	8192	0	1	2	5	4
4	8	4096	0	1	2	5	4
5	0	17088	0	1	2	1	0
5	0	39700	0	1	2	3	4
5	0	5.52141e+06	0	1	2	5	4
5	0	100	0	1	5	3	4
5	1	448	0	1	2	1	0
5	1	1000	0	1	2	3	4
5	1	204800	0	1	2	5	4
5	2	576	0	1	2	1	0
5	2	700	0	1	2	3	4
5	2	110592	0	1	2	5	4
5	3	64	0	1	2	1	0
5	3	100	0	1	2	3	4
5	3	8192	0	1	2	5	4
5	4	128	0	1	2	1	0
5	4	200	0	1	2	3	4
5	4	24576	0	1	2	5	4
5	6	64	0	1	2	1	0
5	6	4096	0	1	2	5	4
5	7	64	0	1	2	1	0
5	8	64	0	1	2	1	0
5	8	4096	0	1	2	5	4
6	0	9536	0	1	2	1	0
6	0	18200	0	1	2	3	4
6	0	3.32186e+06	0	1	2	5	4
6	1	576	0	1	2	1	0
6	1	1300	0	1	2	3	4
6	1	159744	0	1	2	5	4
6	2	256	0	1	2	1	0
6	2	100	0	1	2	3	4
6	2	45056	0	1	2	5	4
6	3	64	0	1	2	1	0
6	3	20480	0	1	2	5	4
6	4	64	0	1	2	1	0
6	4	12288	0	1	2	5	4
6	5	4096	0	1	2	5	4
6	8	4096	0	1	2	5	4
7	0	2880	0	1	2	1	0
7	0	7500	0	1	2	3	4
7	0	1.25747e+06	0	1	2	5	4
7	0	50	0	1	5	3	4
7	1	384	0	1	2	1	0
7	1	1200	0	1	2	3	4
7	1	266240	0	1	2	5	4
7	1	50	0	1	5	3	4
7	2	16384	0	1	2	5	4
7	3	64	0	1	2	1	0
7	3	16384	0	1	2	5	4
7	4	8192	0	1	2	5	4
7	6	4096	0	1	2	5	4
7	9	4096	0	1	2	5	4
8	0	2624	0	1	2	1	0
8	0	8900	0	1	2	3	4
8	0	1.17146e+06	0	1	2	5	4
8	0	100	0	1	5	3	4
8	1	300	0	1	2	3	4
8	1	53248	0	1	2	5	4
8	2	128	0	1	2	1	0
8	2	100	0	1	2	3	4
8	2	24576	0	1	2	5	4
8	3	64	0	1	2	1	0
8	3	4096	0	1	2	5	4
8	4	64	0	1	2	1	0
8	6	4096	0	1	2	5	4
8	9	4096	0	1	2	5	4
9	0	1408	0	1	2	1	0
9	0	3400	0	1	2	3	4
9	0	421888	0	1	2	5	4
9	1	64	0	1	2	1	0
9	1	200	0	1	2	3	4
9	1	36864	0	1	2	5	4
9	2	300	0	1	2	3	4
9	2	12288	0	1	2	5	4
