100000	100000	100000	10000	1000	1000
0	1	493888	0	1	2	1	0
0	1	1.1663e+06	0	1	2	3	4
0	1	1.87421e+08	0	1	2	5	4
0	1	4450	0	1	5	3	4
0	2	219776	0	1	2	1	0
0	2	545100	0	1	2	3	4
0	2	8.2772e+07	0	1	2	5	4
0	2	2150	0	1	5	3	4
0	3	83776	0	1	2	1	0
0	3	200700	0	1	2	3	4
0	3	3.13958e+07	0	1	2	5	4
0	3	850	0	1	5	3	4
0	4	52032	0	1	2	1	0
0	4	128200	0	1	2	3	4
0	4	1.99393e+07	0	1	2	5	4
0	4	300	0	1	5	3	4
0	5	56448	0	1	2	1	0
0	5	130700	0	1	2	3	4
0	5	2.04472e+07	0	1	2	5	4
0	5	650	0	1	5	3	4
0	6	80256	0	1	2	1	0
0	6	196400	0	1	2	3	4
0	6	3.06627e+07	0	1	2	5	4
0	6	550	0	1	5	3	4
0	7	30656	0	1	2	1	0
0	7	74300	0	1	2	3	4
0	7	1.16122e+07	0	1	2	5	4
0	7	400	0	1	5	3	4
0	8	14592	0	1	2	1	0
0	8	38200	0	1	2	3	4
0	8	6.02112e+06	0	1	2	5	4
0	8	100	0	1	5	3	4
0	9	13760	0	1	2	1	0
0	9	33300	0	1	2	3	4
0	9	4.92339e+06	0	1	2	5	4
0	9	300	0	1	5	3	4
1	0	498688	0	1	2	1	0
1	0	1.2067e+06	0	1	2	3	4
1	0	1.86774e+08	0	1	2	5	4
1	0	5550	0	1	5	3	4
1	2	53056	0	1	2	1	0
1	2	130700	0	1	2	3	4
1	2	2.07012e+07	0	1	2	5	4
1	2	600	0	1	5	3	4
1	3	32000	0	1	2	1	0
1	3	70500	0	1	2	3	4
1	3	1.19439e+07	0	1	2	5	4
1	3	100	0	1	5	3	4
1	4	39232	0	1	2	1	0
1	4	92400	0	1	2	3	4
1	4	1.46964e+07	0	1	2	5	4
1	4	450	0	1	5	3	4
1	5	12288	0	1	2	1	0
1	5	34400	0	1	2	3	4
1	5	5.4231e+06	0	1	2	5	4
1	5	50	0	1	5	3	4
1	6	19776	0	1	2	1	0
1	6	48200	0	1	2	3	4
1	6	7.71686e+06	0	1	2	5	4
1	6	100	0	1	5	3	4
1	7	8256	0	1	2	1	0
1	7	19200	0	1	2	3	4
1	7	2.78938e+06	0	1	2	5	4
1	7	100	0	1	5	3	4
1	8	5056	0	1	2	1	0
1	8	9300	0	1	2	3	4
1	8	1.49504e+06	0	1	2	5	4
1	8	50	0	1	5	3	4
1	9	3072	0	1	2	1	0
1	9	7000	0	1	2	3	4
1	9	1.37216e+06	0	1	2	5	4
2	0	221504	0	1	2	1	0
2	0	532000	0	1	2	3	4
2	0	8.27679e+07	0	1	2	5	4
2	0	2000	0	1	5	3	4
2	1	55168	0	1	2	1	0
2	1	136200	0	1	2	3	4
2	1	2.08732e+07	0	1	2	5	4
2	1	350	0	1	5	3	4
2	3	14016	0	1	2	1	0
2	3	35500	0	1	2	3	4
2	3	5.05856e+06	0	1	2	5	4
2	3	100	0	1	5	3	4
2	4	6144	0	1	2	1	0
2	4	14100	0	1	2	3	4
2	4	2.24051e+06	0	1	2	5	4
2	4	100	0	1	5	3	4
2	5	11968	0	1	2	1	0
2	5	29700	0	1	2	3	4
2	5	4.62029e+06	0	1	2	5	4
2	5	100	0	1	5	3	4
2	6	8192	0	1	2	1	0
2	6	21500	0	1	2	3	4
2	6	3.73965e+06	0	1	2	5	4
2	6	200	0	1	5	3	4
2	7	3072	0	1	2	1	0
2	7	6900	0	1	2	3	4
2	7	1.27795e+06	0	1	2	5	4
2	8	5568	0	1	2	1	0
2	8	11600	0	1	2	3	4
2	8	1.92922e+06	0	1	2	5	4
2	8	50	0	1	5	3	4
2	9	4608	0	1	2	1	0
2	9	9900	0	1	2	3	4
2	9	1.6425e+06	0	1	2	5	4
2	9	50	0	1	5	3	4
3	0	84736	0	1	2	1	0
3	0	193100	0	1	2	3	4
3	0	3.11747e+07	0	1	2	5	4
3	0	1200	0	1	5	3	4
3	1	29696	0	1	2	1	0
3	1	71600	0	1	2	3	4
3	1	1.14852e+07	0	1	2	5	4
3	1	300	0	1	5	3	4
3	2	13376	0	1	2	1	0
3	2	31600	0	1	2	3	4
3	2	5.16506e+06	0	1	2	5	4
3	2	200	0	1	5	3	4
3	4	8512	0	1	2	1	0
3	4	22900	0	1	2	3	4
3	4	3.77651e+06	0	1	2	5	4
3	5	6976	0	1	2	1	0
3	5	16600	0	1	2	3	4
3	5	2.42074e+06	0	1	2	5	4
3	5	100	0	1	5	3	4
3	6	2688	0	1	2	1	0
3	6	5600	0	1	2	3	4
3	6	970752	0	1	2	5	4
3	7	1600	0	1	2	1	0
3	7	5300	0	1	2	3	4
3	7	745472	0	1	2	5	4
3	7	50	0	1	5	3	4
3	8	1088	0	1	2	1	0
3	8	2300	0	1	2	3	4
3	8	385024	0	1	2	5	4
3	8	50	0	1	5	3	4
3	9	1152	0	1	2	1	0
3	9	2200	0	1	2	3	4
3	9	258048	0	1	2	5	4
4	0	56640	0	1	2	1	0
4	0	120600	0	1	2	3	4
4	0	1.98902e+07	0	1	2	5	4
4	0	800	0	1	5	3	4
4	1	40384	0	1	2	1	0
4	1	93700	0	1	2	3	4
4	1	1.50692e+07	0	1	2	5	4
4	1	400	0	1	5	3	4
4	2	5248	0	1	2	1	0
4	2	13100	0	1	2	3	4
4	2	2.17498e+06	0	1	2	5	4
4	2	150	0	1	5	3	4
4	3	9664	0	1	2	1	0
4	3	22900	0	1	2	3	4
4	3	3.88301e+06	0	1	2	5	4
4	3	100	0	1	5	3	4
4	5	1920	0	1	2	1	0
4	5	5400	0	1	2	3	4
4	5	778240	0	1	2	5	4
4	5	200	0	1	5	3	4
4	6	1408	0	1	2	1	0
4	6	3400	0	1	2	3	4
4	6	634880	0	1	2	5	4
4	6	100	0	1	5	3	4
4	7	2304	0	1	2	1	0
4	7	5400	0	1	2	3	4
4	7	872448	0	1	2	5	4
4	8	512	0	1	2	1	0
4	8	1600	0	1	2	3	4
4	8	135168	0	1	2	5	4
4	9	448	0	1	2	1	0
4	9	600	0	1	2	3	4
4	9	110592	0	1	2	5	4
5	0	51712	0	1	2	1	0
5	0	124200	0	1	2	3	4
5	0	2.06848e+07	0	1	2	5	4
5	0	400	0	1	5	3	4
5	1	12928	0	1	2	1	0
5	1	34100	0	1	2	3	4
5	1	5.13229e+06	0	1	2	5	4
5	1	150	0	1	5	3	4
5	2	13888	0	1	2	1	0
5	2	31000	0	1	2	3	4
5	2	4.63258e+06	0	1	2	5	4
5	2	100	0	1	5	3	4
5	3	6592	0	1	2	1	0
5	3	17900	0	1	2	3	4
5	3	2.58867e+06	0	1	2	5	4
5	4	2496	0	1	2	1	0
5	4	5300	0	1	2	3	4
5	4	897024	0	1	2	5	4
5	6	1856	0	1	2	1	0
5	6	4700	0	1	2	3	4
5	6	864256	0	1	2	5	4
5	6	50	0	1	5	3	4
5	7	1856	0	1	2	1	0
5	7	4800	0	1	2	3	4
5	7	757760	0	1	2	5	4
5	7	50	0	1	5	3	4
5	8	512	0	1	2	1	0
5	8	2600	0	1	2	3	4
5	8	221184	0	1	2	5	4
5	9	384	0	1	2	1	0
5	9	1600	0	1	2	3	4
5	9	217088	0	1	2	5	4
5	9	50	0	1	5	3	4
6	0	79872	0	1	2	1	0
6	0	193300	0	1	2	3	4
6	0	2.99377e+07	0	1	2	5	4
6	0	650	0	1	5	3	4
6	1	21696	0	1	2	1	0
6	1	50100	0	1	2	3	4
6	1	7.72096e+06	0	1	2	5	4
6	1	250	0	1	5	3	4
6	2	9728	0	1	2	1	0
6	2	20200	0	1	2	3	4
6	2	3.28499e+06	0	1	2	5	4
6	2	50	0	1	5	3	4
6	3	2816	0	1	2	1	0
6	3	5400	0	1	2	3	4
6	3	876544	0	1	2	5	4
6	3	100	0	1	5	3	4
6	4	1856	0	1	2	1	0
6	4	4300	0	1	2	3	4
6	4	602112	0	1	2	5	4
6	5	1856	0	1	2	1	0
6	5	5300	0	1	2	3	4
6	5	921600	0	1	2	5	4
6	7	1152	0	1	2	1	0
6	7	2600	0	1	2	3	4
6	7	516096	0	1	2	5	4
6	8	192	0	1	2	1	0
6	8	1600	0	1	2	3	4
6	8	172032	0	1	2	5	4
6	9	320	0	1	2	1	0
6	9	1000	0	1	2	3	4
6	9	151552	0	1	2	5	4
7	0	31616	0	1	2	1	0
7	0	70100	0	1	2	3	4
7	0	1.1604e+07	0	1	2	5	4
7	0	200	0	1	5	3	4
7	1	7936	0	1	2	1	0
7	1	19400	0	1	2	3	4
7	1	2.8713e+06	0	1	2	5	4
7	1	150	0	1	5	3	4
7	2	3328	0	1	2	1	0
7	2	8600	0	1	2	3	4
7	2	1.31891e+06	0	1	2	5	4
7	3	1984	0	1	2	1	0
7	3	5100	0	1	2	3	4
7	3	749568	0	1	2	5	4
7	4	3008	0	1	2	1	0
7	4	4500	0	1	2	3	4
7	4	880640	0	1	2	5	4
7	5	1472	0	1	2	1	0
7	5	4000	0	1	2	3	4
7	5	700416	0	1	2	5	4
7	6	1216	0	1	2	1	0
7	6	2400	0	1	2	3	4
7	6	532480	0	1	2	5	4
7	6	50	0	1	5	3	4
7	8	320	0	1	2	1	0
7	8	500	0	1	2	3	4
7	8	86016	0	1	2	5	4
7	9	320	0	1	2	1	0
7	9	200	0	1	2	3	4
7	9	94208	0	1	2	5	4
8	0	15104	0	1	2	1	0
8	0	44700	0	1	2	3	4
8	0	6.22182e+06	0	1	2	5	4
8	0	200	0	1	5	3	4
8	1	4928	0	1	2	1	0
8	1	9600	0	1	2	3	4
8	1	1.60154e+06	0	1	2	5	4
8	1	100	0	1	5	3	4
8	2	5824	0	1	2	1	0
8	2	12100	0	1	2	3	4
8	2	1.87187e+06	0	1	2	5	4
8	2	50	0	1	5	3	4
8	3	1344	0	1	2	1	0
8	3	2500	0	1	2	3	4
8	3	372736	0	1	2	5	4
8	4	640	0	1	2	1	0
8	4	1100	0	1	2	3	4
8	4	196608	0	1	2	5	4
8	5	512	0	1	2	1	0
8	5	1500	0	1	2	3	4
8	5	270336	0	1	2	5	4
8	6	576	0	1	2	1	0
8	6	900	0	1	2	3	4
8	6	200704	0	1	2	5	4
8	7	256	0	1	2	1	0
8	7	400	0	1	2	3	4
8	7	69632	0	1	2	5	4
8	9	64	0	1	2	1	0
8	9	500	0	1	2	3	4
8	9	110592	0	1	2	5	4
9	0	13760	0	1	2	1	0
9	0	32500	0	1	2	3	4
9	0	4.97664e+06	0	1	2	5	4
9	0	200	0	1	5	3	4
9	1	3840	0	1	2	1	0
9	1	7200	0	1	2	3	4
9	1	1.2247e+06	0	1	2	5	4
9	1	50	0	1	5	3	4
9	2	4224	0	1	2	1	0
9	2	9100	0	1	2	3	4
9	2	1.67117e+06	0	1	2	5	4
9	3	704	0	1	2	1	0
9	3	2000	0	1	2	3	4
9	3	344064	0	1	2	5	4
9	4	448	0	1	2	1	0
9	4	400	0	1	2	3	4
9	4	180224	0	1	2	5	4
9	5	384	0	1	2	1	0
9	5	1900	0	1	2	3	4
9	5	204800	0	1	2	5	4
9	6	512	0	1	2	1	0
9	6	1600	0	1	2	3	4
9	6	147456	0	1	2	5	4
9	7	384	0	1	2	1	0
9	7	500	0	1	2	3	4
9	7	94208	0	1	2	5	4
9	8	256	0	1	2	1	0
9	8	400	0	1	2	3	4
9	8	81920	0	1	2	5	4
