100000	100000	100000	10000	1000	1000
0	1	109760	0	1	2	1	0
0	1	268600	0	1	2	3	4
0	1	4.08658e+07	0	1	2	5	4
0	1	1150	0	1	5	3	4
0	2	114880	0	1	2	1	0
0	2	255200	0	1	2	3	4
0	2	4.10665e+07	0	1	2	5	4
0	2	900	0	1	5	3	4
0	3	37376	0	1	2	1	0
0	3	97100	0	1	2	3	4
0	3	1.5233e+07	0	1	2	5	4
0	3	500	0	1	5	3	4
0	4	129472	0	1	2	1	0
0	4	312400	0	1	2	3	4
0	4	4.9451e+07	0	1	2	5	4
0	4	1650	0	1	5	3	4
0	5	57216	0	1	2	1	0
0	5	141100	0	1	2	3	4
0	5	2.07913e+07	0	1	2	5	4
0	5	600	0	1	5	3	4
0	6	93504	0	1	2	1	0
0	6	226800	0	1	2	3	4
0	6	3.51068e+07	0	1	2	5	4
0	6	1000	0	1	5	3	4
0	7	42432	0	1	2	1	0
0	7	102400	0	1	2	3	4
0	7	1.55443e+07	0	1	2	5	4
0	7	200	0	1	5	3	4
0	8	73472	0	1	2	1	0
0	8	173000	0	1	2	3	4
0	8	2.69025e+07	0	1	2	5	4
0	8	450	0	1	5	3	4
0	9	63680	0	1	2	1	0
0	9	155800	0	1	2	3	4
0	9	2.43589e+07	0	1	2	5	4
0	9	750	0	1	5	3	4
1	0	106176	0	1	2	1	0
1	0	258900	0	1	2	3	4
1	0	4.09682e+07	0	1	2	5	4
1	0	1050	0	1	5	3	4
1	2	108992	0	1	2	1	0
1	2	268000	0	1	2	3	4
1	2	4.10255e+07	0	1	2	5	4
1	2	850	0	1	5	3	4
1	3	80512	0	1	2	1	0
1	3	192000	0	1	2	3	4
1	3	3.05807e+07	0	1	2	5	4
1	3	900	0	1	5	3	4
1	4	32832	0	1	2	1	0
1	4	81400	0	1	2	3	4
1	4	1.23167e+07	0	1	2	5	4
1	4	400	0	1	5	3	4
1	5	19136	0	1	2	1	0
1	5	43300	0	1	2	3	4
1	5	6.71334e+06	0	1	2	5	4
1	5	200	0	1	5	3	4
1	6	11392	0	1	2	1	0
1	6	28000	0	1	2	3	4
1	6	4.3008e+06	0	1	2	5	4
1	6	150	0	1	5	3	4
1	7	38912	0	1	2	1	0
1	7	95400	0	1	2	3	4
1	7	1.55648e+07	0	1	2	5	4
1	7	450	0	1	5	3	4
1	8	16064	0	1	2	1	0
1	8	42100	0	1	2	3	4
1	8	6.80755e+06	0	1	2	5	4
1	8	100	0	1	5	3	4
1	9	16192	0	1	2	1	0
1	9	40900	0	1	2	3	4
1	9	6.04979e+06	0	1	2	5	4
1	9	250	0	1	5	3	4
2	0	107520	0	1	2	1	0
2	0	259500	0	1	2	3	4
2	0	4.14556e+07	0	1	2	5	4
2	0	1300	0	1	5	3	4
2	1	109120	0	1	2	1	0
2	1	266300	0	1	2	3	4
2	1	4.10337e+07	0	1	2	5	4
2	1	1000	0	1	5	3	4
2	3	25152	0	1	2	1	0
2	3	65300	0	1	2	3	4
2	3	1.05882e+07	0	1	2	5	4
2	3	300	0	1	5	3	4
2	4	15808	0	1	2	1	0
2	4	34500	0	1	2	3	4
2	4	5.48454e+06	0	1	2	5	4
2	4	150	0	1	5	3	4
2	5	18560	0	1	2	1	0
2	5	42900	0	1	2	3	4
2	5	6.83213e+06	0	1	2	5	4
2	5	300	0	1	5	3	4
2	6	10240	0	1	2	1	0
2	6	23800	0	1	2	3	4
2	6	3.67002e+06	0	1	2	5	4
2	6	150	0	1	5	3	4
2	7	12928	0	1	2	1	0
2	7	35700	0	1	2	3	4
2	7	4.88653e+06	0	1	2	5	4
2	7	50	0	1	5	3	4
2	8	24064	0	1	2	1	0
2	8	59600	0	1	2	3	4
2	8	8.87603e+06	0	1	2	5	4
2	8	150	0	1	5	3	4
2	9	21376	0	1	2	1	0
2	9	46800	0	1	2	3	4
2	9	8.2985e+06	0	1	2	5	4
2	9	100	0	1	5	3	4
3	0	41856	0	1	2	1	0
3	0	90100	0	1	2	3	4
3	0	1.5487e+07	0	1	2	5	4
3	0	450	0	1	5	3	4
3	1	81280	0	1	2	1	0
3	1	192000	0	1	2	3	4
3	1	3.09248e+07	0	1	2	5	4
3	1	850	0	1	5	3	4
3	2	24960	0	1	2	1	0
3	2	69600	0	1	2	3	4
3	2	1.01376e+07	0	1	2	5	4
3	2	150	0	1	5	3	4
3	4	11584	0	1	2	1	0
3	4	27400	0	1	2	3	4
3	4	3.94445e+06	0	1	2	5	4
3	4	150	0	1	5	3	4
3	5	5888	0	1	2	1	0
3	5	16100	0	1	2	3	4
3	5	2.71155e+06	0	1	2	5	4
3	5	50	0	1	5	3	4
3	6	4224	0	1	2	1	0
3	6	11700	0	1	2	3	4
3	6	1.67526e+06	0	1	2	5	4
3	7	9792	0	1	2	1	0
3	7	23000	0	1	2	3	4
3	7	3.81747e+06	0	1	2	5	4
3	7	150	0	1	5	3	4
3	8	5696	0	1	2	1	0
3	8	14900	0	1	2	3	4
3	8	2.23642e+06	0	1	2	5	4
3	8	50	0	1	5	3	4
3	9	4992	0	1	2	1	0
3	9	12500	0	1	2	3	4
3	9	2.10944e+06	0	1	2	5	4
3	9	50	0	1	5	3	4
4	0	126080	0	1	2	1	0
4	0	316600	0	1	2	3	4
4	0	4.88776e+07	0	1	2	5	4
4	0	1200	0	1	5	3	4
4	1	30272	0	1	2	1	0
4	1	73500	0	1	2	3	4
4	1	1.2673e+07	0	1	2	5	4
4	1	350	0	1	5	3	4
4	2	13504	0	1	2	1	0
4	2	32800	0	1	2	3	4
4	2	5.53779e+06	0	1	2	5	4
4	2	150	0	1	5	3	4
4	3	10112	0	1	2	1	0
4	3	25300	0	1	2	3	4
4	3	4.12877e+06	0	1	2	5	4
4	3	150	0	1	5	3	4
4	5	5888	0	1	2	1	0
4	5	17500	0	1	2	3	4
4	5	2.82214e+06	0	1	2	5	4
4	5	100	0	1	5	3	4
4	6	9920	0	1	2	1	0
4	6	21400	0	1	2	3	4
4	6	3.42835e+06	0	1	2	5	4
4	6	100	0	1	5	3	4
4	7	16896	0	1	2	1	0
4	7	37400	0	1	2	3	4
4	7	5.70982e+06	0	1	2	5	4
4	7	100	0	1	5	3	4
4	8	7616	0	1	2	1	0
4	8	17600	0	1	2	3	4
4	8	2.65011e+06	0	1	2	5	4
4	9	5184	0	1	2	1	0
4	9	15900	0	1	2	3	4
4	9	2.42483e+06	0	1	2	5	4
4	9	50	0	1	5	3	4
5	0	53696	0	1	2	1	0
5	0	133700	0	1	2	3	4
5	0	2.07012e+07	0	1	2	5	4
5	0	300	0	1	5	3	4
5	1	18048	0	1	2	1	0
5	1	44300	0	1	2	3	4
5	1	7.05741e+06	0	1	2	5	4
5	1	200	0	1	5	3	4
5	2	17920	0	1	2	1	0
5	2	44900	0	1	2	3	4
5	2	6.82394e+06	0	1	2	5	4
5	2	150	0	1	5	3	4
5	3	7168	0	1	2	1	0
5	3	14000	0	1	2	3	4
5	3	2.64192e+06	0	1	2	5	4
5	4	7872	0	1	2	1	0
5	4	16700	0	1	2	3	4
5	4	2.67469e+06	0	1	2	5	4
5	6	5504	0	1	2	1	0
5	6	13100	0	1	2	3	4
5	6	1.99066e+06	0	1	2	5	4
5	6	50	0	1	5	3	4
5	7	3712	0	1	2	1	0
5	7	8500	0	1	2	3	4
5	7	1.3353e+06	0	1	2	5	4
5	8	5760	0	1	2	1	0
5	8	13200	0	1	2	3	4
5	8	2.32653e+06	0	1	2	5	4
5	8	100	0	1	5	3	4
5	9	10624	0	1	2	1	0
5	9	24700	0	1	2	3	4
5	9	4.10419e+06	0	1	2	5	4
5	9	150	0	1	5	3	4
6	0	91840	0	1	2	1	0
6	0	220800	0	1	2	3	4
6	0	3.45006e+07	0	1	2	5	4
6	0	950	0	1	5	3	4
6	1	10176	0	1	2	1	0
6	1	22500	0	1	2	3	4
6	1	4.52608e+06	0	1	2	5	4
6	1	50	0	1	5	3	4
6	2	10368	0	1	2	1	0
6	2	26400	0	1	2	3	4
6	2	3.81338e+06	0	1	2	5	4
6	2	100	0	1	5	3	4
6	3	4416	0	1	2	1	0
6	3	8800	0	1	2	3	4
6	3	1.85549e+06	0	1	2	5	4
6	4	8128	0	1	2	1	0
6	4	20500	0	1	2	3	4
6	4	3.44474e+06	0	1	2	5	4
6	4	100	0	1	5	3	4
6	5	4736	0	1	2	1	0
6	5	11300	0	1	2	3	4
6	5	2.0439e+06	0	1	2	5	4
6	7	4032	0	1	2	1	0
6	7	10100	0	1	2	3	4
6	7	1.48685e+06	0	1	2	5	4
6	8	5184	0	1	2	1	0
6	8	13400	0	1	2	3	4
6	8	1.92512e+06	0	1	2	5	4
6	9	4992	0	1	2	1	0
6	9	11000	0	1	2	3	4
6	9	1.69984e+06	0	1	2	5	4
7	0	38720	0	1	2	1	0
7	0	95900	0	1	2	3	4
7	0	1.536e+07	0	1	2	5	4
7	0	350	0	1	5	3	4
7	1	41280	0	1	2	1	0
7	1	102900	0	1	2	3	4
7	1	1.54542e+07	0	1	2	5	4
7	1	350	0	1	5	3	4
7	2	13696	0	1	2	1	0
7	2	31900	0	1	2	3	4
7	2	5.09542e+06	0	1	2	5	4
7	2	50	0	1	5	3	4
7	3	9856	0	1	2	1	0
7	3	25700	0	1	2	3	4
7	3	4.03456e+06	0	1	2	5	4
7	3	250	0	1	5	3	4
7	4	14592	0	1	2	1	0
7	4	42200	0	1	2	3	4
7	4	6.19315e+06	0	1	2	5	4
7	4	200	0	1	5	3	4
7	5	3840	0	1	2	1	0
7	5	7800	0	1	2	3	4
7	5	1.29024e+06	0	1	2	5	4
7	6	3200	0	1	2	1	0
7	6	7800	0	1	2	3	4
7	6	1.50323e+06	0	1	2	5	4
7	6	50	0	1	5	3	4
7	8	3200	0	1	2	1	0
7	8	7000	0	1	2	3	4
7	8	1.11002e+06	0	1	2	5	4
7	9	1856	0	1	2	1	0
7	9	7300	0	1	2	3	4
7	9	753664	0	1	2	5	4
7	9	50	0	1	5	3	4
8	0	74368	0	1	2	1	0
8	0	175500	0	1	2	3	4
8	0	2.72261e+07	0	1	2	5	4
8	0	900	0	1	5	3	4
8	1	17728	0	1	2	1	0
8	1	42800	0	1	2	3	4
8	1	6.97139e+06	0	1	2	5	4
8	1	150	0	1	5	3	4
8	2	25088	0	1	2	1	0
8	2	58600	0	1	2	3	4
8	2	8.87603e+06	0	1	2	5	4
8	2	250	0	1	5	3	4
8	3	6656	0	1	2	1	0
8	3	15000	0	1	2	3	4
8	3	2.28557e+06	0	1	2	5	4
8	3	100	0	1	5	3	4
8	4	5568	0	1	2	1	0
8	4	17200	0	1	2	3	4
8	4	2.71974e+06	0	1	2	5	4
8	4	50	0	1	5	3	4
8	5	5696	0	1	2	1	0
8	5	12600	0	1	2	3	4
8	5	2.2487e+06	0	1	2	5	4
8	5	50	0	1	5	3	4
8	6	5504	0	1	2	1	0
8	6	10800	0	1	2	3	4
8	6	1.99885e+06	0	1	2	5	4
8	7	3072	0	1	2	1	0
8	7	6200	0	1	2	3	4
8	7	1.19194e+06	0	1	2	5	4
8	9	6976	0	1	2	1	0
8	9	18500	0	1	2	3	4
8	9	2.69107e+06	0	1	2	5	4
8	9	50	0	1	5	3	4
9	0	63104	0	1	2	1	0
9	0	156400	0	1	2	3	4
9	0	2.44326e+07	0	1	2	5	4
9	0	700	0	1	5	3	4
9	1	15936	0	1	2	1	0
9	1	42900	0	1	2	3	4
9	1	6.01702e+06	0	1	2	5	4
9	1	150	0	1	5	3	4
9	2	21952	0	1	2	1	0
9	2	51900	0	1	2	3	4
9	2	8.42138e+06	0	1	2	5	4
9	2	250	0	1	5	3	4
9	3	5440	0	1	2	1	0
9	3	12500	0	1	2	3	4
9	3	2.02342e+06	0	1	2	5	4
9	3	50	0	1	5	3	4
9	4	6400	0	1	2	1	0
9	4	14900	0	1	2	3	4
9	4	2.4617e+06	0	1	2	5	4
9	4	150	0	1	5	3	4
9	5	10560	0	1	2	1	0
9	5	24100	0	1	2	3	4
9	5	4.08781e+06	0	1	2	5	4
9	5	50	0	1	5	3	4
9	6	5120	0	1	2	1	0
9	6	10600	0	1	2	3	4
9	6	1.85549e+06	0	1	2	5	4
9	6	50	0	1	5	3	4
9	7	2496	0	1	2	1	0
9	7	7700	0	1	2	3	4
9	7	1.06496e+06	0	1	2	5	4
9	8	5888	0	1	2	1	0
9	8	20600	0	1	2	3	4
9	8	2.6665e+06	0	1	2	5	4
9	8	100	0	1	5	3	4
