100000	100000	100000	10000	1000	1000
0	1	29184	0	1	2	1	0
0	1	68700	0	1	2	3	4
0	1	1.14442e+07	0	1	2	5	4
0	1	400	0	1	5	3	4
0	2	31424	0	1	2	1	0
0	2	69900	0	1	2	3	4
0	2	1.10305e+07	0	1	2	5	4
0	2	350	0	1	5	3	4
0	3	28288	0	1	2	1	0
0	3	69900	0	1	2	3	4
0	3	1.09568e+07	0	1	2	5	4
0	3	300	0	1	5	3	4
0	4	30336	0	1	2	1	0
0	4	71300	0	1	2	3	4
0	4	1.11493e+07	0	1	2	5	4
0	4	150	0	1	5	3	4
0	5	28224	0	1	2	1	0
0	5	72300	0	1	2	3	4
0	5	1.07807e+07	0	1	2	5	4
0	5	100	0	1	5	3	4
0	6	26304	0	1	2	1	0
0	6	70100	0	1	2	3	4
0	6	1.11534e+07	0	1	2	5	4
0	6	350	0	1	5	3	4
0	7	29504	0	1	2	1	0
0	7	70100	0	1	2	3	4
0	7	1.14975e+07	0	1	2	5	4
0	7	650	0	1	5	3	4
0	8	30528	0	1	2	1	0
0	8	71400	0	1	2	3	4
0	8	1.11165e+07	0	1	2	5	4
0	8	250	0	1	5	3	4
0	9	31040	0	1	2	1	0
0	9	69700	0	1	2	3	4
0	9	1.12312e+07	0	1	2	5	4
0	9	350	0	1	5	3	4
1	0	29056	0	1	2	1	0
1	0	68800	0	1	2	3	4
1	0	1.10715e+07	0	1	2	5	4
1	0	300	0	1	5	3	4
1	2	29248	0	1	2	1	0
1	2	69400	0	1	2	3	4
1	2	1.09814e+07	0	1	2	5	4
1	2	500	0	1	5	3	4
1	3	28608	0	1	2	1	0
1	3	67300	0	1	2	3	4
1	3	1.12968e+07	0	1	2	5	4
1	3	250	0	1	5	3	4
1	4	26816	0	1	2	1	0
1	4	67300	0	1	2	3	4
1	4	1.09404e+07	0	1	2	5	4
1	4	350	0	1	5	3	4
1	5	28480	0	1	2	1	0
1	5	68000	0	1	2	3	4
1	5	1.13172e+07	0	1	2	5	4
1	5	150	0	1	5	3	4
1	6	28608	0	1	2	1	0
1	6	71800	0	1	2	3	4
1	6	1.1051e+07	0	1	2	5	4
1	6	350	0	1	5	3	4
1	7	28352	0	1	2	1	0
1	7	68800	0	1	2	3	4
1	7	1.12148e+07	0	1	2	5	4
1	7	250	0	1	5	3	4
1	8	28608	0	1	2	1	0
1	8	68600	0	1	2	3	4
1	8	1.09404e+07	0	1	2	5	4
1	8	300	0	1	5	3	4
1	9	26496	0	1	2	1	0
1	9	72600	0	1	2	3	4
1	9	1.09978e+07	0	1	2	5	4
1	9	100	0	1	5	3	4
2	0	28928	0	1	2	1	0
2	0	72800	0	1	2	3	4
2	0	1.12599e+07	0	1	2	5	4
2	0	500	0	1	5	3	4
2	1	28992	0	1	2	1	0
2	1	69200	0	1	2	3	4
2	1	1.0965e+07	0	1	2	5	4
2	1	300	0	1	5	3	4
2	3	28608	0	1	2	1	0
2	3	69700	0	1	2	3	4
2	3	1.10305e+07	0	1	2	5	4
2	3	350	0	1	5	3	4
2	4	28672	0	1	2	1	0
2	4	70700	0	1	2	3	4
2	4	1.10019e+07	0	1	2	5	4
2	4	400	0	1	5	3	4
2	5	27840	0	1	2	1	0
2	5	73100	0	1	2	3	4
2	5	1.08954e+07	0	1	2	5	4
2	5	300	0	1	5	3	4
2	6	28928	0	1	2	1	0
2	6	68900	0	1	2	3	4
2	6	1.10633e+07	0	1	2	5	4
2	6	150	0	1	5	3	4
2	7	29120	0	1	2	1	0
2	7	70500	0	1	2	3	4
2	7	1.06045e+07	0	1	2	5	4
2	7	450	0	1	5	3	4
2	8	29184	0	1	2	1	0
2	8	69800	0	1	2	3	4
2	8	1.08298e+07	0	1	2	5	4
2	8	450	0	1	5	3	4
2	9	28160	0	1	2	1	0
2	9	73300	0	1	2	3	4
2	9	1.08667e+07	0	1	2	5	4
2	9	200	0	1	5	3	4
3	0	28992	0	1	2	1	0
3	0	72000	0	1	2	3	4
3	0	1.08175e+07	0	1	2	5	4
3	0	350	0	1	5	3	4
3	1	26944	0	1	2	1	0
3	1	69400	0	1	2	3	4
3	1	1.09568e+07	0	1	2	5	4
3	1	250	0	1	5	3	4
3	2	29888	0	1	2	1	0
3	2	69100	0	1	2	3	4
3	2	1.09404e+07	0	1	2	5	4
3	2	50	0	1	5	3	4
3	4	29952	0	1	2	1	0
3	4	68200	0	1	2	3	4
3	4	1.12271e+07	0	1	2	5	4
3	4	500	0	1	5	3	4
3	5	28928	0	1	2	1	0
3	5	67600	0	1	2	3	4
3	5	1.11124e+07	0	1	2	5	4
3	5	300	0	1	5	3	4
3	6	30080	0	1	2	1	0
3	6	67400	0	1	2	3	4
3	6	1.13377e+07	0	1	2	5	4
3	6	450	0	1	5	3	4
3	7	28800	0	1	2	1	0
3	7	68000	0	1	2	3	4
3	7	1.10633e+07	0	1	2	5	4
3	7	350	0	1	5	3	4
3	8	26048	0	1	2	1	0
3	8	67500	0	1	2	3	4
3	8	1.1006e+07	0	1	2	5	4
3	8	200	0	1	5	3	4
3	9	30272	0	1	2	1	0
3	9	71400	0	1	2	3	4
3	9	1.11206e+07	0	1	2	5	4
3	9	150	0	1	5	3	4
4	0	28544	0	1	2	1	0
4	0	70200	0	1	2	3	4
4	0	1.12927e+07	0	1	2	5	4
4	0	250	0	1	5	3	4
4	1	26880	0	1	2	1	0
4	1	73500	0	1	2	3	4
4	1	1.08954e+07	0	1	2	5	4
4	1	350	0	1	5	3	4
4	2	32704	0	1	2	1	0
4	2	69900	0	1	2	3	4
4	2	1.07889e+07	0	1	2	5	4
4	2	300	0	1	5	3	4
4	3	30336	0	1	2	1	0
4	3	70500	0	1	2	3	4
4	3	1.11944e+07	0	1	2	5	4
4	3	350	0	1	5	3	4
4	5	28288	0	1	2	1	0
4	5	67800	0	1	2	3	4
4	5	1.08995e+07	0	1	2	5	4
4	5	350	0	1	5	3	4
4	6	29952	0	1	2	1	0
4	6	67500	0	1	2	3	4
4	6	1.08872e+07	0	1	2	5	4
4	6	150	0	1	5	3	4
4	7	26368	0	1	2	1	0
4	7	67500	0	1	2	3	4
4	7	1.05431e+07	0	1	2	5	4
4	7	300	0	1	5	3	4
4	8	28032	0	1	2	1	0
4	8	68900	0	1	2	3	4
4	8	1.11124e+07	0	1	2	5	4
4	8	200	0	1	5	3	4
4	9	30080	0	1	2	1	0
4	9	74600	0	1	2	3	4
4	9	1.06783e+07	0	1	2	5	4
4	9	400	0	1	5	3	4
5	0	28928	0	1	2	1	0
5	0	68100	0	1	2	3	4
5	0	1.08052e+07	0	1	2	5	4
5	0	150	0	1	5	3	4
5	1	30272	0	1	2	1	0
5	1	71600	0	1	2	3	4
5	1	1.09609e+07	0	1	2	5	4
5	1	350	0	1	5	3	4
5	2	28480	0	1	2	1	0
5	2	68100	0	1	2	3	4
5	2	1.08749e+07	0	1	2	5	4
5	2	150	0	1	5	3	4
5	3	30848	0	1	2	1	0
5	3	67600	0	1	2	3	4
5	3	1.11002e+07	0	1	2	5	4
5	3	100	0	1	5	3	4
5	4	26304	0	1	2	1	0
5	4	71900	0	1	2	3	4
5	4	1.13541e+07	0	1	2	5	4
5	4	450	0	1	5	3	4
5	6	28608	0	1	2	1	0
5	6	70100	0	1	2	3	4
5	6	1.0924e+07	0	1	2	5	4
5	6	300	0	1	5	3	4
5	7	30144	0	1	2	1	0
5	7	68000	0	1	2	3	4
5	7	1.10633e+07	0	1	2	5	4
5	7	200	0	1	5	3	4
5	8	30400	0	1	2	1	0
5	8	65900	0	1	2	3	4
5	8	1.13091e+07	0	1	2	5	4
5	8	400	0	1	5	3	4
5	9	27200	0	1	2	1	0
5	9	72300	0	1	2	3	4
5	9	1.12353e+07	0	1	2	5	4
5	9	450	0	1	5	3	4
6	0	28480	0	1	2	1	0
6	0	71700	0	1	2	3	4
6	0	1.13705e+07	0	1	2	5	4
6	0	350	0	1	5	3	4
6	1	30784	0	1	2	1	0
6	1	70900	0	1	2	3	4
6	1	1.08421e+07	0	1	2	5	4
6	1	450	0	1	5	3	4
6	2	28288	0	1	2	1	0
6	2	69600	0	1	2	3	4
6	2	1.08339e+07	0	1	2	5	4
6	2	200	0	1	5	3	4
6	3	27776	0	1	2	1	0
6	3	68600	0	1	2	3	4
6	3	1.11043e+07	0	1	2	5	4
6	3	150	0	1	5	3	4
6	4	26944	0	1	2	1	0
6	4	67800	0	1	2	3	4
6	4	1.05472e+07	0	1	2	5	4
6	4	250	0	1	5	3	4
6	5	29312	0	1	2	1	0
6	5	73900	0	1	2	3	4
6	5	1.07028e+07	0	1	2	5	4
6	5	350	0	1	5	3	4
6	7	30464	0	1	2	1	0
6	7	67000	0	1	2	3	4
6	7	1.09691e+07	0	1	2	5	4
6	7	350	0	1	5	3	4
6	8	32320	0	1	2	1	0
6	8	68400	0	1	2	3	4
6	8	1.12148e+07	0	1	2	5	4
6	8	450	0	1	5	3	4
6	9	29312	0	1	2	1	0
6	9	68400	0	1	2	3	4
6	9	1.09281e+07	0	1	2	5	4
6	9	200	0	1	5	3	4
7	0	26432	0	1	2	1	0
7	0	69200	0	1	2	3	4
7	0	1.08954e+07	0	1	2	5	4
7	0	400	0	1	5	3	4
7	1	29376	0	1	2	1	0
7	1	67700	0	1	2	3	4
7	1	1.10879e+07	0	1	2	5	4
7	1	300	0	1	5	3	4
7	2	30720	0	1	2	1	0
7	2	66300	0	1	2	3	4
7	2	1.10264e+07	0	1	2	5	4
7	2	200	0	1	5	3	4
7	3	27776	0	1	2	1	0
7	3	71800	0	1	2	3	4
7	3	1.09691e+07	0	1	2	5	4
7	3	350	0	1	5	3	4
7	4	28736	0	1	2	1	0
7	4	73100	0	1	2	3	4
7	4	1.11616e+07	0	1	2	5	4
7	4	300	0	1	5	3	4
7	5	29952	0	1	2	1	0
7	5	72100	0	1	2	3	4
7	5	1.09363e+07	0	1	2	5	4
7	5	300	0	1	5	3	4
7	6	31360	0	1	2	1	0
7	6	69500	0	1	2	3	4
7	6	1.12394e+07	0	1	2	5	4
7	6	500	0	1	5	3	4
7	8	29056	0	1	2	1	0
7	8	66900	0	1	2	3	4
7	8	1.13992e+07	0	1	2	5	4
7	8	200	0	1	5	3	4
7	9	30144	0	1	2	1	0
7	9	69000	0	1	2	3	4
7	9	1.09978e+07	0	1	2	5	4
7	9	150	0	1	5	3	4
8	0	28352	0	1	2	1	0
8	0	66500	0	1	2	3	4
8	0	1.06947e+07	0	1	2	5	4
8	0	450	0	1	5	3	4
8	1	31872	0	1	2	1	0
8	1	64100	0	1	2	3	4
8	1	1.0625e+07	0	1	2	5	4
8	1	300	0	1	5	3	4
8	2	27904	0	1	2	1	0
8	2	70600	0	1	2	3	4
8	2	1.10633e+07	0	1	2	5	4
8	2	600	0	1	5	3	4
8	3	27456	0	1	2	1	0
8	3	66600	0	1	2	3	4
8	3	1.09322e+07	0	1	2	5	4
8	3	200	0	1	5	3	4
8	4	28928	0	1	2	1	0
8	4	69400	0	1	2	3	4
8	4	1.07315e+07	0	1	2	5	4
8	4	450	0	1	5	3	4
8	5	29824	0	1	2	1	0
8	5	70300	0	1	2	3	4
8	5	1.05472e+07	0	1	2	5	4
8	5	350	0	1	5	3	4
8	6	30016	0	1	2	1	0
8	6	69800	0	1	2	3	4
8	6	1.07356e+07	0	1	2	5	4
8	6	250	0	1	5	3	4
8	7	27968	0	1	2	1	0
8	7	67700	0	1	2	3	4
8	7	1.10715e+07	0	1	2	5	4
8	7	250	0	1	5	3	4
8	9	29824	0	1	2	1	0
8	9	69500	0	1	2	3	4
8	9	1.07438e+07	0	1	2	5	4
8	9	250	0	1	5	3	4
9	0	29568	0	1	2	1	0
9	0	71300	0	1	2	3	4
9	0	1.12067e+07	0	1	2	5	4
9	0	150	0	1	5	3	4
9	1	28224	0	1	2	1	0
9	1	70400	0	1	2	3	4
9	1	1.0924e+07	0	1	2	5	4
9	1	200	0	1	5	3	4
9	2	29248	0	1	2	1	0
9	2	74200	0	1	2	3	4
9	2	1.10756e+07	0	1	2	5	4
9	2	250	0	1	5	3	4
9	3	30848	0	1	2	1	0
9	3	68900	0	1	2	3	4
9	3	1.10387e+07	0	1	2	5	4
9	3	300	0	1	5	3	4
9	4	29632	0	1	2	1	0
9	4	69500	0	1	2	3	4
9	4	1.09609e+07	0	1	2	5	4
9	4	200	0	1	5	3	4
9	5	27200	0	1	2	1	0
9	5	75800	0	1	2	3	4
9	5	1.11534e+07	0	1	2	5	4
9	5	350	0	1	5	3	4
9	6	29376	0	1	2	1	0
9	6	72200	0	1	2	3	4
9	6	1.12558e+07	0	1	2	5	4
9	6	300	0	1	5	3	4
9	7	29952	0	1	2	1	0
9	7	72200	0	1	2	3	4
9	7	1.08544e+07	0	1	2	5	4
9	7	400	0	1	5	3	4
9	8	29760	0	1	2	1	0
9	8	64300	0	1	2	3	4
9	8	1.10592e+07	0	1	2	5	4
9	8	350	0	1	5	3	4
