14
0	5	1e+12
0	7	1e+12
0	13	1e+12
1	3	1e+12
1	5	1e+12
1	11	1e+12
1	13	1e+12
2	8	1e+12
2	12	1e+12
3	1	1e+12
3	5	1e+12
3	9	1e+12
3	10	1e+12
4	6	1e+12
4	8	1e+12
5	0	1e+12
5	1	1e+12
5	3	1e+12
5	9	1e+12
5	10	1e+12
6	4	1e+12
6	12	1e+12
7	0	1e+12
7	9	1e+12
8	2	1e+12
8	4	1e+12
8	10	1e+12
8	11	1e+12
9	3	1e+12
9	5	1e+12
9	7	1e+12
10	3	1e+12
10	5	1e+12
10	8	1e+12
10	12	1e+12
11	1	1e+12
11	8	1e+12
11	12	1e+12
12	2	1e+12
12	6	1e+12
12	10	1e+12
12	11	1e+12
13	0	1e+12
13	1	1e+12
