1000	1000	10000	10000	100000	1000	1000	1000	100000	100000	100000
0	1	1.12353e+07	5	8	6	9	6
0	2	1.11056e+07	5	8	6	9	6
0	3	1.13186e+07	5	8	6	9	6
0	4	1.12699e+07	5	8	6	9	6
0	5	1.11358e+07	5	8	6	9	6
0	6	1.1005e+07	5	8	6	9	6
0	7	1.1324e+07	5	8	6	9	6
0	8	1.12191e+07	5	8	6	9	6
0	9	1.09369e+07	5	8	6	9	6
1	0	1.10656e+07	5	8	6	9	6
1	2	1.10126e+07	5	8	6	9	6
1	3	1.09726e+07	5	8	6	9	6
1	4	1.1178e+07	5	8	6	9	6
1	5	1.10007e+07	5	8	6	9	6
1	6	1.09423e+07	5	8	6	9	6
1	7	1.12191e+07	5	8	6	9	6
1	8	1.11986e+07	5	8	6	9	6
1	9	1.10937e+07	5	8	6	9	6
2	0	1.11585e+07	5	8	6	9	6
2	1	1.10493e+07	5	8	6	9	6
2	3	1.10915e+07	5	8	6	9	6
2	4	1.12267e+07	5	8	6	9	6
2	5	1.09498e+07	5	8	6	9	6
2	6	1.11521e+07	5	8	6	9	6
2	7	1.11121e+07	5	8	6	9	6
2	8	1.10666e+07	5	8	6	9	6
2	9	1.1151e+07	5	8	6	9	6
3	0	1.11229e+07	5	8	6	9	6
3	1	1.12775e+07	5	8	6	9	6
3	2	1.10472e+07	5	8	6	9	6
3	4	1.11975e+07	5	8	6	9	6
3	5	1.1205e+07	5	8	6	9	6
3	6	1.08925e+07	5	8	6	9	6
3	7	1.11391e+07	5	8	6	9	6
3	8	1.1151e+07	5	8	6	9	6
3	9	1.09477e+07	5	8	6	9	6
4	0	1.10601e+07	5	8	6	9	6
4	1	1.10396e+07	5	8	6	9	6
4	2	1.11618e+07	5	8	6	9	6
4	3	1.09953e+07	5	8	6	9	6
4	5	1.09736e+07	5	8	6	9	6
4	6	1.11467e+07	5	8	6	9	6
4	7	1.09758e+07	5	8	6	9	6
4	8	1.10872e+07	5	8	6	9	6
4	9	1.10699e+07	5	8	6	9	6
5	0	1.10061e+07	5	8	6	9	6
5	1	1.10785e+07	5	8	6	9	6
5	2	1.09563e+07	5	8	6	9	6
5	3	1.12332e+07	5	8	6	9	6
5	4	1.10699e+07	5	8	6	9	6
5	6	1.12278e+07	5	8	6	9	6
5	7	1.09682e+07	5	8	6	9	6
5	8	1.11099e+07	5	8	6	9	6
5	9	1.13878e+07	5	8	6	9	6
6	0	1.11661e+07	5	8	6	9	6
6	1	1.09509e+07	5	8	6	9	6
6	2	1.10007e+07	5	8	6	9	6
6	3	1.1284e+07	5	8	6	9	6
6	4	1.12332e+07	5	8	6	9	6
6	5	1.12072e+07	5	8	6	9	6
6	7	1.11553e+07	5	8	6	9	6
6	8	1.11975e+07	5	8	6	9	6
6	9	1.10601e+07	5	8	6	9	6
7	0	1.1072e+07	5	8	6	9	6
7	1	1.11142e+07	5	8	6	9	6
7	2	1.11834e+07	5	8	6	9	6
7	3	1.10255e+07	5	8	6	9	6
7	4	1.13013e+07	5	8	6	9	6
7	5	1.10785e+07	5	8	6	9	6
7	6	1.10764e+07	5	8	6	9	6
7	8	1.1218e+07	5	8	6	9	6
7	9	1.12494e+07	5	8	6	9	6
8	0	1.11456e+07	5	8	6	9	6
8	1	1.11737e+07	5	8	6	9	6
8	2	1.09953e+07	5	8	6	9	6
8	3	1.0819e+07	5	8	6	9	6
8	4	1.11045e+07	5	8	6	9	6
8	5	1.10472e+07	5	8	6	9	6
8	6	1.1311e+07	5	8	6	9	6
8	7	1.11553e+07	5	8	6	9	6
8	9	1.09055e+07	5	8	6	9	6
9	0	1.11304e+07	5	8	6	9	6
9	1	1.1244e+07	5	8	6	9	6
9	2	1.11759e+07	5	8	6	9	6
9	3	1.11326e+07	5	8	6	9	6
9	4	1.10266e+07	5	8	6	9	6
9	5	1.10731e+07	5	8	6	9	6
9	6	1.12797e+07	5	8	6	9	6
9	7	1.0925e+07	5	8	6	9	6
9	8	1.10634e+07	5	8	6	9	6
