20
0	4	1e+12
0	10	1e+12
1	3	1e+12
1	11	1e+12
1	16	1e+12
1	18	1e+12
2	9	1e+12
2	10	1e+12
2	11	1e+12
2	12	1e+12
2	15	1e+12
2	16	1e+12
2	19	1e+12
3	1	1e+12
3	6	1e+12
3	18	1e+12
4	0	1e+12
4	6	1e+12
5	9	1e+12
5	19	1e+12
6	3	1e+12
6	4	1e+12
6	7	1e+12
6	10	1e+12
6	13	1e+12
6	14	1e+12
7	6	1e+12
7	11	1e+12
7	14	1e+12
7	15	1e+12
8	16	1e+12
8	19	1e+12
9	2	1e+12
9	5	1e+12
9	12	1e+12
9	14	1e+12
9	17	1e+12
10	0	1e+12
10	2	1e+12
10	6	1e+12
10	12	1e+12
10	16	1e+12
10	17	1e+12
11	1	1e+12
11	2	1e+12
11	7	1e+12
11	15	1e+12
11	16	1e+12
12	2	1e+12
12	9	1e+12
12	10	1e+12
12	19	1e+12
13	6	1e+12
13	16	1e+12
13	17	1e+12
13	18	1e+12
14	6	1e+12
14	7	1e+12
14	9	1e+12
15	2	1e+12
15	7	1e+12
15	11	1e+12
15	18	1e+12
16	1	1e+12
16	2	1e+12
16	8	1e+12
16	10	1e+12
16	11	1e+12
16	13	1e+12
16	18	1e+12
16	19	1e+12
17	9	1e+12
17	10	1e+12
17	13	1e+12
17	19	1e+12
18	1	1e+12
18	3	1e+12
18	13	1e+12
18	15	1e+12
18	16	1e+12
19	2	1e+12
19	5	1e+12
19	8	1e+12
19	12	1e+12
19	16	1e+12
19	17	1e+12
