10
0	1	1e+12
0	2	1e+12
0	5	1e+12
1	0	1e+12
2	0	1e+12
2	8	1e+12
3	5	1e+12
3	7	1e+12
4	6	1e+12
5	0	1e+12
5	3	1e+12
5	9	1e+12
6	4	1e+12
6	7	1e+12
6	9	1e+12
7	3	1e+12
7	6	1e+12
8	2	1e+12
9	5	1e+12
9	6	1e+12
