10
0	2	1e+12
0	6	1e+12
0	7	1e+12
1	4	1e+12
1	5	1e+12
1	9	1e+12
2	0	1e+12
2	3	1e+12
3	2	1e+12
3	7	1e+12
4	1	1e+12
4	8	1e+12
5	1	1e+12
5	9	1e+12
6	0	1e+12
7	0	1e+12
7	3	1e+12
7	8	1e+12
7	9	1e+12
8	4	1e+12
8	7	1e+12
9	1	1e+12
9	5	1e+12
9	7	1e+12
