100000	100000	100000	10000	1000	1000
0	1	854144	0	1	2	1	0
0	1	2.0491e+06	0	1	2	3	4
0	1	3.23174e+08	0	1	2	5	4
0	1	9350	0	1	5	3	4
0	2	337728	0	1	2	1	0
0	2	813400	0	1	2	3	4
0	2	1.27451e+08	0	1	2	5	4
0	2	3300	0	1	5	3	4
0	3	51712	0	1	2	1	0
0	3	134000	0	1	2	3	4
0	3	2.01769e+07	0	1	2	5	4
0	3	350	0	1	5	3	4
0	4	15552	0	1	2	1	0
0	4	33400	0	1	2	3	4
0	4	5.4231e+06	0	1	2	5	4
0	4	100	0	1	5	3	4
0	5	6400	0	1	2	1	0
0	5	16400	0	1	2	3	4
0	5	2.57229e+06	0	1	2	5	4
0	5	100	0	1	5	3	4
0	6	5888	0	1	2	1	0
0	6	14100	0	1	2	3	4
0	6	2.08896e+06	0	1	2	5	4
0	6	50	0	1	5	3	4
0	7	2944	0	1	2	1	0
0	7	9300	0	1	2	3	4
0	7	1.27795e+06	0	1	2	5	4
0	7	100	0	1	5	3	4
0	8	4992	0	1	2	1	0
0	8	10100	0	1	2	3	4
0	8	1.62202e+06	0	1	2	5	4
0	9	1024	0	1	2	1	0
0	9	2200	0	1	2	3	4
0	9	339968	0	1	2	5	4
0	9	50	0	1	5	3	4
1	0	866368	0	1	2	1	0
1	0	2.0534e+06	0	1	2	3	4
1	0	3.2358e+08	0	1	2	5	4
1	0	7200	0	1	5	3	4
1	2	22848	0	1	2	1	0
1	2	48700	0	1	2	3	4
1	2	7.93805e+06	0	1	2	5	4
1	2	400	0	1	5	3	4
1	3	3008	0	1	2	1	0
1	3	8900	0	1	2	3	4
1	3	1.29843e+06	0	1	2	5	4
1	4	1472	0	1	2	1	0
1	4	1600	0	1	2	3	4
1	4	380928	0	1	2	5	4
1	5	384	0	1	2	1	0
1	5	1200	0	1	2	3	4
1	5	159744	0	1	2	5	4
1	6	320	0	1	2	1	0
1	6	900	0	1	2	3	4
1	6	118784	0	1	2	5	4
1	7	128	0	1	2	1	0
1	7	500	0	1	2	3	4
1	7	110592	0	1	2	5	4
1	8	192	0	1	2	1	0
1	8	500	0	1	2	3	4
1	8	139264	0	1	2	5	4
1	9	200	0	1	2	3	4
1	9	16384	0	1	2	5	4
2	0	332096	0	1	2	1	0
2	0	806000	0	1	2	3	4
2	0	1.27705e+08	0	1	2	5	4
2	0	3200	0	1	5	3	4
2	1	22272	0	1	2	1	0
2	1	54500	0	1	2	3	4
2	1	7.86022e+06	0	1	2	5	4
2	1	250	0	1	5	3	4
2	3	1152	0	1	2	1	0
2	3	5000	0	1	2	3	4
2	3	606208	0	1	2	5	4
2	3	50	0	1	5	3	4
2	4	256	0	1	2	1	0
2	4	300	0	1	2	3	4
2	4	53248	0	1	2	5	4
2	5	64	0	1	2	1	0
2	5	400	0	1	2	3	4
2	5	45056	0	1	2	5	4
2	6	300	0	1	2	3	4
2	6	16384	0	1	2	5	4
2	7	64	0	1	2	1	0
2	7	200	0	1	2	3	4
2	7	45056	0	1	2	5	4
2	8	28672	0	1	2	5	4
2	9	8192	0	1	2	5	4
3	0	51904	0	1	2	1	0
3	0	124800	0	1	2	3	4
3	0	2.03653e+07	0	1	2	5	4
3	0	450	0	1	5	3	4
3	1	3712	0	1	2	1	0
3	1	6700	0	1	2	3	4
3	1	1.3271e+06	0	1	2	5	4
3	1	100	0	1	5	3	4
3	2	1408	0	1	2	1	0
3	2	3000	0	1	2	3	4
3	2	491520	0	1	2	5	4
3	4	49152	0	1	2	5	4
3	5	64	0	1	2	1	0
3	5	100	0	1	2	3	4
3	5	40960	0	1	2	5	4
3	7	64	0	1	2	1	0
3	7	100	0	1	2	3	4
3	7	4096	0	1	2	5	4
3	8	4096	0	1	2	5	4
4	0	12864	0	1	2	1	0
4	0	34600	0	1	2	3	4
4	0	5.56646e+06	0	1	2	5	4
4	0	100	0	1	5	3	4
4	1	448	0	1	2	1	0
4	1	1800	0	1	2	3	4
4	1	344064	0	1	2	5	4
4	2	192	0	1	2	1	0
4	2	200	0	1	2	3	4
4	2	57344	0	1	2	5	4
4	3	100	0	1	2	3	4
4	3	32768	0	1	2	5	4
4	5	4096	0	1	2	5	4
4	6	16384	0	1	2	5	4
4	7	4096	0	1	2	5	4
4	9	100	0	1	2	3	4
5	0	7744	0	1	2	1	0
5	0	17800	0	1	2	3	4
5	0	2.6665e+06	0	1	2	5	4
5	0	200	0	1	5	3	4
5	1	320	0	1	2	1	0
5	1	1300	0	1	2	3	4
5	1	159744	0	1	2	5	4
5	2	64	0	1	2	1	0
5	2	100	0	1	2	3	4
5	2	57344	0	1	2	5	4
5	3	128	0	1	2	1	0
5	3	200	0	1	2	3	4
5	3	24576	0	1	2	5	4
5	4	4096	0	1	2	5	4
5	6	64	0	1	2	1	0
5	6	4096	0	1	2	5	4
6	0	6272	0	1	2	1	0
6	0	12200	0	1	2	3	4
6	0	2.06029e+06	0	1	2	5	4
6	0	50	0	1	5	3	4
6	1	256	0	1	2	1	0
6	1	500	0	1	2	3	4
6	1	126976	0	1	2	5	4
6	2	128	0	1	2	1	0
6	2	12288	0	1	2	5	4
6	3	100	0	1	2	3	4
6	3	16384	0	1	2	5	4
6	4	8192	0	1	2	5	4
6	5	8192	0	1	2	5	4
6	8	100	0	1	2	3	4
7	0	4224	0	1	2	1	0
7	0	8600	0	1	2	3	4
7	0	1.26566e+06	0	1	2	5	4
7	0	50	0	1	5	3	4
7	1	192	0	1	2	1	0
7	1	700	0	1	2	3	4
7	1	73728	0	1	2	5	4
7	2	128	0	1	2	1	0
7	2	200	0	1	2	3	4
7	2	16384	0	1	2	5	4
7	3	4096	0	1	2	5	4
8	0	3968	0	1	2	1	0
8	0	11300	0	1	2	3	4
8	0	1.51962e+06	0	1	2	5	4
8	1	256	0	1	2	1	0
8	1	600	0	1	2	3	4
8	1	57344	0	1	2	5	4
8	2	64	0	1	2	1	0
8	2	100	0	1	2	3	4
8	2	12288	0	1	2	5	4
8	3	4096	0	1	2	5	4
9	0	1536	0	1	2	1	0
9	0	2600	0	1	2	3	4
9	0	356352	0	1	2	5	4
9	1	128	0	1	2	1	0
9	1	100	0	1	2	3	4
9	1	45056	0	1	2	5	4
9	2	100	0	1	2	3	4
9	4	8192	0	1	2	5	4
