100000	1000
0	1	1.1464e+07	1	0	0	0	0
0	2	1.11724e+07	1	0	0	0	0
0	3	1.10201e+07	1	0	0	0	0
0	4	1.13402e+07	1	0	0	0	0
0	5	1.10176e+07	1	0	0	0	0
0	6	1.1144e+07	1	0	0	0	0
0	7	1.14769e+07	1	0	0	0	0
0	8	1.1224e+07	1	0	0	0	0
0	9	1.13634e+07	1	0	0	0	0
1	0	1.11724e+07	1	0	0	0	0
1	2	1.11466e+07	1	0	0	0	0
1	3	1.12292e+07	1	0	0	0	0
1	4	1.09143e+07	1	0	0	0	0
1	5	1.12498e+07	1	0	0	0	0
1	6	1.11079e+07	1	0	0	0	0
1	7	1.11982e+07	1	0	0	0	0
1	8	1.10434e+07	1	0	0	0	0
1	9	1.10898e+07	1	0	0	0	0
2	0	1.13608e+07	1	0	0	0	0
2	1	1.11027e+07	1	0	0	0	0
2	3	1.10588e+07	1	0	0	0	0
2	4	1.11724e+07	1	0	0	0	0
2	5	1.10408e+07	1	0	0	0	0
2	6	1.09814e+07	1	0	0	0	0
2	7	1.08524e+07	1	0	0	0	0
2	8	1.09788e+07	1	0	0	0	0
2	9	1.10563e+07	1	0	0	0	0
3	0	1.10769e+07	1	0	0	0	0
3	1	1.10124e+07	1	0	0	0	0
3	2	1.10563e+07	1	0	0	0	0
3	4	1.13195e+07	1	0	0	0	0
3	5	1.11543e+07	1	0	0	0	0
3	6	1.12782e+07	1	0	0	0	0
3	7	1.10769e+07	1	0	0	0	0
3	8	1.1015e+07	1	0	0	0	0
3	9	1.12576e+07	1	0	0	0	0
4	0	1.12524e+07	1	0	0	0	0
4	1	1.09685e+07	1	0	0	0	0
4	2	1.1224e+07	1	0	0	0	0
4	3	1.13298e+07	1	0	0	0	0
4	5	1.10176e+07	1	0	0	0	0
4	6	1.09427e+07	1	0	0	0	0
4	7	1.06124e+07	1	0	0	0	0
4	8	1.11079e+07	1	0	0	0	0
4	9	1.10666e+07	1	0	0	0	0
5	0	1.08627e+07	1	0	0	0	0
5	1	1.11776e+07	1	0	0	0	0
5	2	1.10485e+07	1	0	0	0	0
5	3	1.1175e+07	1	0	0	0	0
5	4	1.12137e+07	1	0	0	0	0
5	6	1.09892e+07	1	0	0	0	0
5	7	1.12292e+07	1	0	0	0	0
5	8	1.11879e+07	1	0	0	0	0
5	9	1.11105e+07	1	0	0	0	0
6	0	1.13969e+07	1	0	0	0	0
6	1	1.11543e+07	1	0	0	0	0
6	2	1.10046e+07	1	0	0	0	0
6	3	1.09995e+07	1	0	0	0	0
6	4	1.07491e+07	1	0	0	0	0
6	5	1.10511e+07	1	0	0	0	0
6	7	1.09943e+07	1	0	0	0	0
6	8	1.13273e+07	1	0	0	0	0
6	9	1.10201e+07	1	0	0	0	0
7	0	1.08963e+07	1	0	0	0	0
7	1	1.11466e+07	1	0	0	0	0
7	2	1.11672e+07	1	0	0	0	0
7	3	1.11105e+07	1	0	0	0	0
7	4	1.12318e+07	1	0	0	0	0
7	5	1.11672e+07	1	0	0	0	0
7	6	1.12524e+07	1	0	0	0	0
7	8	1.13608e+07	1	0	0	0	0
7	9	1.1095e+07	1	0	0	0	0
8	0	1.08162e+07	1	0	0	0	0
8	1	1.08162e+07	1	0	0	0	0
8	2	1.11414e+07	1	0	0	0	0
8	3	1.09092e+07	1	0	0	0	0
8	4	1.09582e+07	1	0	0	0	0
8	5	1.09634e+07	1	0	0	0	0
8	6	1.09608e+07	1	0	0	0	0
8	7	1.10227e+07	1	0	0	0	0
8	9	1.09634e+07	1	0	0	0	0
9	0	1.13969e+07	1	0	0	0	0
9	1	1.10511e+07	1	0	0	0	0
9	2	1.12189e+07	1	0	0	0	0
9	3	1.11569e+07	1	0	0	0	0
9	4	1.12008e+07	1	0	0	0	0
9	5	1.12318e+07	1	0	0	0	0
9	6	1.13247e+07	1	0	0	0	0
9	7	1.10692e+07	1	0	0	0	0
9	8	1.09324e+07	1	0	0	0	0
