10
0	2	1e+12
0	4	1e+12
1	7	1e+12
2	0	1e+12
2	5	1e+12
2	8	1e+12
3	7	1e+12
3	8	1e+12
4	0	1e+12
4	5	1e+12
4	6	1e+12
5	2	1e+12
5	4	1e+12
5	9	1e+12
6	4	1e+12
6	7	1e+12
6	8	1e+12
7	1	1e+12
7	3	1e+12
7	6	1e+12
8	2	1e+12
8	3	1e+12
8	6	1e+12
8	9	1e+12
9	5	1e+12
9	8	1e+12
