100000	100000	100000	10000	1000	1000
0	1	831168	0	1	2	1	0
0	1	1.9737e+06	0	1	2	3	4
0	1	3.09199e+08	0	1	2	5	4
0	1	9050	0	1	5	3	4
0	2	315840	0	1	2	1	0
0	2	783400	0	1	2	3	4
0	2	1.23613e+08	0	1	2	5	4
0	2	4800	0	1	5	3	4
0	3	104192	0	1	2	1	0
0	3	242300	0	1	2	3	4
0	3	3.77938e+07	0	1	2	5	4
0	3	400	0	1	5	3	4
0	4	14464	0	1	2	1	0
0	4	32100	0	1	2	3	4
0	4	5.15686e+06	0	1	2	5	4
0	4	100	0	1	5	3	4
0	5	19520	0	1	2	1	0
0	5	46500	0	1	2	3	4
0	5	7.75782e+06	0	1	2	5	4
0	5	250	0	1	5	3	4
0	6	5632	0	1	2	1	0
0	6	11000	0	1	2	3	4
0	6	1.89235e+06	0	1	2	5	4
0	7	3072	0	1	2	1	0
0	7	9600	0	1	2	3	4
0	7	1.2247e+06	0	1	2	5	4
0	8	2368	0	1	2	1	0
0	8	4100	0	1	2	3	4
0	8	753664	0	1	2	5	4
0	9	1600	0	1	2	1	0
0	9	2300	0	1	2	3	4
0	9	434176	0	1	2	5	4
1	0	813888	0	1	2	1	0
1	0	1.9316e+06	0	1	2	3	4
1	0	3.10501e+08	0	1	2	5	4
1	0	7700	0	1	5	3	4
1	2	8896	0	1	2	1	0
1	2	23700	0	1	2	3	4
1	2	3.67002e+06	0	1	2	5	4
1	2	200	0	1	5	3	4
1	3	1728	0	1	2	1	0
1	3	5000	0	1	2	3	4
1	3	856064	0	1	2	5	4
1	3	50	0	1	5	3	4
1	4	3392	0	1	2	1	0
1	4	6000	0	1	2	3	4
1	4	1.05677e+06	0	1	2	5	4
1	4	50	0	1	5	3	4
1	5	1664	0	1	2	1	0
1	5	3600	0	1	2	3	4
1	5	438272	0	1	2	5	4
1	6	128	0	1	2	1	0
1	6	1200	0	1	2	3	4
1	6	73728	0	1	2	5	4
1	7	256	0	1	2	1	0
1	7	700	0	1	2	3	4
1	7	163840	0	1	2	5	4
1	8	45056	0	1	2	5	4
1	9	100	0	1	2	3	4
1	9	12288	0	1	2	5	4
2	0	327488	0	1	2	1	0
2	0	777200	0	1	2	3	4
2	0	1.23286e+08	0	1	2	5	4
2	0	3200	0	1	5	3	4
2	1	10944	0	1	2	1	0
2	1	27500	0	1	2	3	4
2	1	3.7929e+06	0	1	2	5	4
2	1	50	0	1	5	3	4
2	3	704	0	1	2	1	0
2	3	1200	0	1	2	3	4
2	3	253952	0	1	2	5	4
2	4	192	0	1	2	1	0
2	4	300	0	1	2	3	4
2	4	77824	0	1	2	5	4
2	5	448	0	1	2	1	0
2	5	600	0	1	2	3	4
2	5	77824	0	1	2	5	4
2	6	64	0	1	2	1	0
2	6	400	0	1	2	3	4
2	6	40960	0	1	2	5	4
2	7	200	0	1	2	3	4
2	7	24576	0	1	2	5	4
2	8	128	0	1	2	1	0
2	8	100	0	1	2	3	4
2	8	8192	0	1	2	5	4
2	9	200	0	1	2	3	4
2	9	4096	0	1	2	5	4
3	0	107968	0	1	2	1	0
3	0	236700	0	1	2	3	4
3	0	3.82116e+07	0	1	2	5	4
3	0	1150	0	1	5	3	4
3	1	2752	0	1	2	1	0
3	1	5400	0	1	2	3	4
3	1	704512	0	1	2	5	4
3	2	320	0	1	2	1	0
3	2	1600	0	1	2	3	4
3	2	217088	0	1	2	5	4
3	4	100	0	1	2	3	4
3	4	8192	0	1	2	5	4
3	5	64	0	1	2	1	0
3	5	200	0	1	2	3	4
3	5	16384	0	1	2	5	4
3	6	4096	0	1	2	5	4
3	7	100	0	1	2	3	4
3	9	100	0	1	2	3	4
3	9	4096	0	1	2	5	4
4	0	14528	0	1	2	1	0
4	0	37500	0	1	2	3	4
4	0	5.25107e+06	0	1	2	5	4
4	0	200	0	1	5	3	4
4	1	2944	0	1	2	1	0
4	1	6600	0	1	2	3	4
4	1	1.01581e+06	0	1	2	5	4
4	2	448	0	1	2	1	0
4	2	400	0	1	2	3	4
4	2	69632	0	1	2	5	4
4	3	64	0	1	2	1	0
4	3	100	0	1	2	3	4
4	3	32768	0	1	2	5	4
4	5	64	0	1	2	1	0
4	5	8192	0	1	2	5	4
4	6	4096	0	1	2	5	4
4	7	8192	0	1	2	5	4
5	0	20224	0	1	2	1	0
5	0	44700	0	1	2	3	4
5	0	7.94624e+06	0	1	2	5	4
5	0	300	0	1	5	3	4
5	1	1216	0	1	2	1	0
5	1	3300	0	1	2	3	4
5	1	434176	0	1	2	5	4
5	1	50	0	1	5	3	4
5	2	400	0	1	2	3	4
5	2	94208	0	1	2	5	4
5	3	128	0	1	2	1	0
5	3	200	0	1	2	3	4
5	3	20480	0	1	2	5	4
5	4	100	0	1	2	3	4
6	0	4608	0	1	2	1	0
6	0	12700	0	1	2	3	4
6	0	2.06438e+06	0	1	2	5	4
6	1	320	0	1	2	1	0
6	1	300	0	1	2	3	4
6	1	98304	0	1	2	5	4
6	2	128	0	1	2	1	0
6	2	100	0	1	2	3	4
6	2	40960	0	1	2	5	4
6	3	64	0	1	2	1	0
7	0	3200	0	1	2	1	0
7	0	7400	0	1	2	3	4
7	0	1.17965e+06	0	1	2	5	4
7	0	100	0	1	5	3	4
7	1	320	0	1	2	1	0
7	1	1100	0	1	2	3	4
7	1	139264	0	1	2	5	4
7	2	200	0	1	2	3	4
7	2	32768	0	1	2	5	4
8	0	2240	0	1	2	1	0
8	0	5300	0	1	2	3	4
8	0	741376	0	1	2	5	4
8	1	192	0	1	2	1	0
8	1	500	0	1	2	3	4
8	1	53248	0	1	2	5	4
8	2	4096	0	1	2	5	4
9	0	1920	0	1	2	1	0
9	0	4600	0	1	2	3	4
9	0	450560	0	1	2	5	4
9	1	64	0	1	2	1	0
9	1	100	0	1	2	3	4
9	1	20480	0	1	2	5	4
9	2	64	0	1	2	1	0
9	2	100	0	1	2	3	4
9	2	4096	0	1	2	5	4
9	3	64	0	1	2	1	0
9	3	200	0	1	2	3	4
