100000	100000	100000	10000	1000	1000
0	1	1.22131e+06	0	1	2	1	0
0	1	2.944e+06	0	1	2	3	4
0	1	4.6542e+08	0	1	2	5	4
0	1	13000	0	1	5	3	4
0	2	74560	0	1	2	1	0
0	2	168100	0	1	2	3	4
0	2	2.72998e+07	0	1	2	5	4
0	2	850	0	1	5	3	4
0	3	6976	0	1	2	1	0
0	3	15900	0	1	2	3	4
0	3	2.72794e+06	0	1	2	5	4
0	3	100	0	1	5	3	4
0	4	320	0	1	2	1	0
0	4	1500	0	1	2	3	4
0	4	245760	0	1	2	5	4
0	5	256	0	1	2	1	0
0	5	1000	0	1	2	3	4
0	5	204800	0	1	2	5	4
0	6	64	0	1	2	1	0
0	6	200	0	1	2	3	4
0	6	24576	0	1	2	5	4
0	7	100	0	1	2	3	4
0	7	12288	0	1	2	5	4
0	8	100	0	1	2	3	4
0	9	100	0	1	2	3	4
1	0	1.22854e+06	0	1	2	1	0
1	0	2.939e+06	0	1	2	3	4
1	0	4.63524e+08	0	1	2	5	4
1	0	13250	0	1	5	3	4
1	2	704	0	1	2	1	0
1	2	1800	0	1	2	3	4
1	2	188416	0	1	2	5	4
1	3	8192	0	1	2	5	4
2	0	76224	0	1	2	1	0
2	0	172100	0	1	2	3	4
2	0	2.80453e+07	0	1	2	5	4
2	0	900	0	1	5	3	4
2	1	640	0	1	2	1	0
2	1	800	0	1	2	3	4
2	1	192512	0	1	2	5	4
2	3	8192	0	1	2	5	4
3	0	7744	0	1	2	1	0
3	0	15900	0	1	2	3	4
3	0	2.6624e+06	0	1	2	5	4
3	0	50	0	1	5	3	4
3	1	100	0	1	2	3	4
3	1	16384	0	1	2	5	4
4	0	768	0	1	2	1	0
4	0	1800	0	1	2	3	4
4	0	266240	0	1	2	5	4
5	0	640	0	1	2	1	0
5	0	1000	0	1	2	3	4
5	0	221184	0	1	2	5	4
6	0	64	0	1	2	1	0
6	0	12288	0	1	2	5	4
7	0	100	0	1	2	3	4
7	0	4096	0	1	2	5	4
8	0	100	0	1	2	3	4
8	0	8192	0	1	2	5	4
