100000	100000	100000	10000	1000	1000
0	1	2624	0	1	2	1	0
0	1	5800	0	1	2	3	4
0	1	1.0281e+06	0	1	2	5	4
0	1	100	0	1	5	3	4
0	2	3072	0	1	2	1	0
0	2	6000	0	1	2	3	4
0	2	1.16326e+06	0	1	2	5	4
0	3	2816	0	1	2	1	0
0	3	6700	0	1	2	3	4
0	3	1.08134e+06	0	1	2	5	4
0	4	2752	0	1	2	1	0
0	4	7000	0	1	2	3	4
0	4	1.11411e+06	0	1	2	5	4
0	5	2304	0	1	2	1	0
0	5	7800	0	1	2	3	4
0	5	966656	0	1	2	5	4
0	6	3136	0	1	2	1	0
0	6	7600	0	1	2	3	4
0	6	1.08954e+06	0	1	2	5	4
0	7	2624	0	1	2	1	0
0	7	6900	0	1	2	3	4
0	7	1.1305e+06	0	1	2	5	4
0	8	3712	0	1	2	1	0
0	8	9100	0	1	2	3	4
0	8	1.1223e+06	0	1	2	5	4
0	9	2240	0	1	2	1	0
0	9	8500	0	1	2	3	4
0	9	1.25338e+06	0	1	2	5	4
1	0	3072	0	1	2	1	0
1	0	7600	0	1	2	3	4
1	0	1.1223e+06	0	1	2	5	4
1	2	2944	0	1	2	1	0
1	2	6800	0	1	2	3	4
1	2	1.1264e+06	0	1	2	5	4
1	3	2560	0	1	2	1	0
1	3	7300	0	1	2	3	4
1	3	1.09773e+06	0	1	2	5	4
1	4	2752	0	1	2	1	0
1	4	6000	0	1	2	3	4
1	4	1.17555e+06	0	1	2	5	4
1	5	2688	0	1	2	1	0
1	5	6400	0	1	2	3	4
1	5	1.1305e+06	0	1	2	5	4
1	6	3008	0	1	2	1	0
1	6	7600	0	1	2	3	4
1	6	1.14688e+06	0	1	2	5	4
1	7	2880	0	1	2	1	0
1	7	7600	0	1	2	3	4
1	7	995328	0	1	2	5	4
1	7	50	0	1	5	3	4
1	8	2496	0	1	2	1	0
1	8	7500	0	1	2	3	4
1	8	1.15507e+06	0	1	2	5	4
1	9	2560	0	1	2	1	0
1	9	7000	0	1	2	3	4
1	9	1.08544e+06	0	1	2	5	4
1	9	100	0	1	5	3	4
2	0	3584	0	1	2	1	0
2	0	7100	0	1	2	3	4
2	0	1.04038e+06	0	1	2	5	4
2	0	50	0	1	5	3	4
2	1	3008	0	1	2	1	0
2	1	8100	0	1	2	3	4
2	1	1.09773e+06	0	1	2	5	4
2	1	50	0	1	5	3	4
2	3	3584	0	1	2	1	0
2	3	7700	0	1	2	3	4
2	3	1.17555e+06	0	1	2	5	4
2	4	2816	0	1	2	1	0
2	4	9000	0	1	2	3	4
2	4	1.16326e+06	0	1	2	5	4
2	5	1792	0	1	2	1	0
2	5	6700	0	1	2	3	4
2	5	1.13869e+06	0	1	2	5	4
2	6	2432	0	1	2	1	0
2	6	5100	0	1	2	3	4
2	6	1.17555e+06	0	1	2	5	4
2	7	2112	0	1	2	1	0
2	7	7600	0	1	2	3	4
2	7	1.16736e+06	0	1	2	5	4
2	8	3008	0	1	2	1	0
2	8	7000	0	1	2	3	4
2	8	1.1264e+06	0	1	2	5	4
2	9	2496	0	1	2	1	0
2	9	6900	0	1	2	3	4
2	9	1.15917e+06	0	1	2	5	4
2	9	100	0	1	5	3	4
3	0	3200	0	1	2	1	0
3	0	6300	0	1	2	3	4
3	0	1.1223e+06	0	1	2	5	4
3	1	2624	0	1	2	1	0
3	1	6500	0	1	2	3	4
3	1	1.08954e+06	0	1	2	5	4
3	2	2816	0	1	2	1	0
3	2	6600	0	1	2	3	4
3	2	1.11821e+06	0	1	2	5	4
3	2	50	0	1	5	3	4
3	4	2880	0	1	2	1	0
3	4	6500	0	1	2	3	4
3	4	1.16736e+06	0	1	2	5	4
3	5	2880	0	1	2	1	0
3	5	6500	0	1	2	3	4
3	5	1.07315e+06	0	1	2	5	4
3	6	3264	0	1	2	1	0
3	6	5600	0	1	2	3	4
3	6	1.1223e+06	0	1	2	5	4
3	7	2880	0	1	2	1	0
3	7	6200	0	1	2	3	4
3	7	1.06086e+06	0	1	2	5	4
3	8	3584	0	1	2	1	0
3	8	5400	0	1	2	3	4
3	8	1.06496e+06	0	1	2	5	4
3	9	1920	0	1	2	1	0
3	9	7700	0	1	2	3	4
3	9	1.04038e+06	0	1	2	5	4
4	0	3072	0	1	2	1	0
4	0	10300	0	1	2	3	4
4	0	1.13869e+06	0	1	2	5	4
4	1	2560	0	1	2	1	0
4	1	6400	0	1	2	3	4
4	1	1.17146e+06	0	1	2	5	4
4	1	50	0	1	5	3	4
4	2	2368	0	1	2	1	0
4	2	7600	0	1	2	3	4
4	2	1.04858e+06	0	1	2	5	4
4	2	100	0	1	5	3	4
4	3	3456	0	1	2	1	0
4	3	7700	0	1	2	3	4
4	3	1.14688e+06	0	1	2	5	4
4	5	2880	0	1	2	1	0
4	5	8600	0	1	2	3	4
4	5	1.07725e+06	0	1	2	5	4
4	6	1856	0	1	2	1	0
4	6	5900	0	1	2	3	4
4	6	1.08954e+06	0	1	2	5	4
4	7	2048	0	1	2	1	0
4	7	6500	0	1	2	3	4
4	7	1.07725e+06	0	1	2	5	4
4	8	2624	0	1	2	1	0
4	8	6800	0	1	2	3	4
4	8	1.06496e+06	0	1	2	5	4
4	9	3392	0	1	2	1	0
4	9	6400	0	1	2	3	4
4	9	1.06906e+06	0	1	2	5	4
5	0	3392	0	1	2	1	0
5	0	7400	0	1	2	3	4
5	0	1.0199e+06	0	1	2	5	4
5	0	50	0	1	5	3	4
5	1	3264	0	1	2	1	0
5	1	7900	0	1	2	3	4
5	1	921600	0	1	2	5	4
5	1	50	0	1	5	3	4
5	2	3520	0	1	2	1	0
5	2	8000	0	1	2	3	4
5	2	1.21242e+06	0	1	2	5	4
5	2	50	0	1	5	3	4
5	3	3392	0	1	2	1	0
5	3	8200	0	1	2	3	4
5	3	1.19194e+06	0	1	2	5	4
5	3	100	0	1	5	3	4
5	4	3456	0	1	2	1	0
5	4	7800	0	1	2	3	4
5	4	1.03219e+06	0	1	2	5	4
5	4	50	0	1	5	3	4
5	6	2816	0	1	2	1	0
5	6	6700	0	1	2	3	4
5	6	1.11411e+06	0	1	2	5	4
5	7	3264	0	1	2	1	0
5	7	8100	0	1	2	3	4
5	7	1.20422e+06	0	1	2	5	4
5	8	3776	0	1	2	1	0
5	8	8100	0	1	2	3	4
5	8	1.05677e+06	0	1	2	5	4
5	8	50	0	1	5	3	4
5	9	2176	0	1	2	1	0
5	9	9100	0	1	2	3	4
5	9	1.06906e+06	0	1	2	5	4
6	0	2688	0	1	2	1	0
6	0	7100	0	1	2	3	4
6	0	983040	0	1	2	5	4
6	0	50	0	1	5	3	4
6	1	3968	0	1	2	1	0
6	1	5100	0	1	2	3	4
6	1	1.2247e+06	0	1	2	5	4
6	1	50	0	1	5	3	4
6	2	2112	0	1	2	1	0
6	2	7400	0	1	2	3	4
6	2	1.0281e+06	0	1	2	5	4
6	2	50	0	1	5	3	4
6	3	3072	0	1	2	1	0
6	3	7700	0	1	2	3	4
6	3	1.05677e+06	0	1	2	5	4
6	3	150	0	1	5	3	4
6	4	3264	0	1	2	1	0
6	4	8100	0	1	2	3	4
6	4	1.00352e+06	0	1	2	5	4
6	4	50	0	1	5	3	4
6	5	3520	0	1	2	1	0
6	5	5300	0	1	2	3	4
6	5	1.18374e+06	0	1	2	5	4
6	5	50	0	1	5	3	4
6	7	3008	0	1	2	1	0
6	7	7500	0	1	2	3	4
6	7	1.04448e+06	0	1	2	5	4
6	8	2304	0	1	2	1	0
6	8	6500	0	1	2	3	4
6	8	995328	0	1	2	5	4
6	8	100	0	1	5	3	4
6	9	3840	0	1	2	1	0
6	9	6600	0	1	2	3	4
6	9	1.20013e+06	0	1	2	5	4
6	9	100	0	1	5	3	4
7	0	3008	0	1	2	1	0
7	0	7600	0	1	2	3	4
7	0	1.15917e+06	0	1	2	5	4
7	1	3456	0	1	2	1	0
7	1	7100	0	1	2	3	4
7	1	1.0281e+06	0	1	2	5	4
7	1	50	0	1	5	3	4
7	2	2688	0	1	2	1	0
7	2	7200	0	1	2	3	4
7	2	1.06906e+06	0	1	2	5	4
7	3	2496	0	1	2	1	0
7	3	6800	0	1	2	3	4
7	3	1.10182e+06	0	1	2	5	4
7	3	150	0	1	5	3	4
7	4	2816	0	1	2	1	0
7	4	5800	0	1	2	3	4
7	4	1.06496e+06	0	1	2	5	4
7	5	3520	0	1	2	1	0
7	5	7800	0	1	2	3	4
7	5	1.06496e+06	0	1	2	5	4
7	6	3072	0	1	2	1	0
7	6	6700	0	1	2	3	4
7	6	1.06086e+06	0	1	2	5	4
7	6	50	0	1	5	3	4
7	8	2752	0	1	2	1	0
7	8	6800	0	1	2	3	4
7	8	1.06496e+06	0	1	2	5	4
7	9	3328	0	1	2	1	0
7	9	6900	0	1	2	3	4
7	9	974848	0	1	2	5	4
8	0	2880	0	1	2	1	0
8	0	5400	0	1	2	3	4
8	0	1.10182e+06	0	1	2	5	4
8	0	50	0	1	5	3	4
8	1	2240	0	1	2	1	0
8	1	6400	0	1	2	3	4
8	1	1.1305e+06	0	1	2	5	4
8	2	2560	0	1	2	1	0
8	2	6400	0	1	2	3	4
8	2	1.17146e+06	0	1	2	5	4
8	3	3776	0	1	2	1	0
8	3	7100	0	1	2	3	4
8	3	1.11821e+06	0	1	2	5	4
8	4	2560	0	1	2	1	0
8	4	7400	0	1	2	3	4
8	4	1.26566e+06	0	1	2	5	4
8	4	250	0	1	5	3	4
8	5	3392	0	1	2	1	0
8	5	7800	0	1	2	3	4
8	5	1.05267e+06	0	1	2	5	4
8	6	2432	0	1	2	1	0
8	6	5500	0	1	2	3	4
8	6	1.11002e+06	0	1	2	5	4
8	6	50	0	1	5	3	4
8	7	2688	0	1	2	1	0
8	7	6800	0	1	2	3	4
8	7	1.05267e+06	0	1	2	5	4
8	9	2816	0	1	2	1	0
8	9	7800	0	1	2	3	4
8	9	1.25338e+06	0	1	2	5	4
9	0	2624	0	1	2	1	0
9	0	8200	0	1	2	3	4
9	0	1.00352e+06	0	1	2	5	4
9	1	3072	0	1	2	1	0
9	1	6900	0	1	2	3	4
9	1	1.03219e+06	0	1	2	5	4
9	2	2368	0	1	2	1	0
9	2	6700	0	1	2	3	4
9	2	1.14278e+06	0	1	2	5	4
9	2	50	0	1	5	3	4
9	3	2624	0	1	2	1	0
9	3	6400	0	1	2	3	4
9	3	1.1223e+06	0	1	2	5	4
9	3	50	0	1	5	3	4
9	4	3008	0	1	2	1	0
9	4	6300	0	1	2	3	4
9	4	1.15917e+06	0	1	2	5	4
9	4	100	0	1	5	3	4
9	5	3328	0	1	2	1	0
9	5	4900	0	1	2	3	4
9	5	1.08954e+06	0	1	2	5	4
9	6	2624	0	1	2	1	0
9	6	6700	0	1	2	3	4
9	6	987136	0	1	2	5	4
9	7	2880	0	1	2	1	0
9	7	7100	0	1	2	3	4
9	7	1.1305e+06	0	1	2	5	4
9	8	2496	0	1	2	1	0
9	8	6800	0	1	2	3	4
9	8	1.08134e+06	0	1	2	5	4
9	8	100	0	1	5	3	4
