10
0	5	1e+12
0	9	1e+12
1	2	1e+12
1	8	1e+12
2	1	1e+12
2	5	1e+12
2	7	1e+12
3	6	1e+12
3	7	1e+12
3	8	1e+12
3	9	1e+12
4	6	1e+12
5	0	1e+12
5	2	1e+12
5	7	1e+12
5	8	1e+12
6	3	1e+12
6	4	1e+12
6	8	1e+12
7	2	1e+12
7	3	1e+12
7	5	1e+12
8	1	1e+12
8	3	1e+12
8	5	1e+12
8	6	1e+12
9	0	1e+12
9	3	1e+12
