100000	100000	100000	10000	1000	1000
0	1	1.19949e+06	0	1	2	1	0
0	1	2.8798e+06	0	1	2	3	4
0	1	4.5151e+08	0	1	2	5	4
0	1	12100	0	1	5	3	4
0	2	90112	0	1	2	1	0
0	2	230900	0	1	2	3	4
0	2	3.5414e+07	0	1	2	5	4
0	2	850	0	1	5	3	4
0	3	18624	0	1	2	1	0
0	3	48600	0	1	2	3	4
0	3	6.99597e+06	0	1	2	5	4
0	3	200	0	1	5	3	4
0	4	2880	0	1	2	1	0
0	4	6900	0	1	2	3	4
0	4	1.15098e+06	0	1	2	5	4
0	4	50	0	1	5	3	4
0	5	512	0	1	2	1	0
0	5	1000	0	1	2	3	4
0	5	131072	0	1	2	5	4
0	6	64	0	1	2	1	0
0	6	40960	0	1	2	5	4
0	7	128	0	1	2	1	0
0	7	4096	0	1	2	5	4
0	8	64	0	1	2	1	0
0	8	4096	0	1	2	5	4
1	0	1.1943e+06	0	1	2	1	0
1	0	2.8947e+06	0	1	2	3	4
1	0	4.52448e+08	0	1	2	5	4
1	0	11300	0	1	5	3	4
1	2	64	0	1	2	1	0
1	2	500	0	1	2	3	4
1	2	65536	0	1	2	5	4
1	4	12288	0	1	2	5	4
2	0	93760	0	1	2	1	0
2	0	229600	0	1	2	3	4
2	0	3.47341e+07	0	1	2	5	4
2	0	1100	0	1	5	3	4
2	1	256	0	1	2	1	0
2	1	600	0	1	2	3	4
2	1	65536	0	1	2	5	4
3	0	17152	0	1	2	1	0
3	0	44900	0	1	2	3	4
3	0	7.09427e+06	0	1	2	5	4
3	0	150	0	1	5	3	4
3	1	100	0	1	2	3	4
3	1	12288	0	1	2	5	4
3	2	4096	0	1	2	5	4
4	0	3392	0	1	2	1	0
4	0	8300	0	1	2	3	4
4	0	1.14688e+06	0	1	2	5	4
4	0	50	0	1	5	3	4
4	1	100	0	1	2	3	4
5	0	192	0	1	2	1	0
5	0	800	0	1	2	3	4
5	0	126976	0	1	2	5	4
6	0	128	0	1	2	1	0
6	0	100	0	1	2	3	4
6	0	20480	0	1	2	5	4
6	1	64	0	1	2	1	0
7	0	16384	0	1	2	5	4
8	0	100	0	1	2	3	4
8	0	8192	0	1	2	5	4
