15
0	3	1e+12
0	4	1e+12
0	5	1e+12
0	6	1e+12
0	8	1e+12
0	10	1e+12
0	12	1e+12
1	2	1e+12
1	6	1e+12
1	9	1e+12
2	1	1e+12
2	3	1e+12
2	7	1e+12
3	0	1e+12
3	2	1e+12
3	5	1e+12
3	10	1e+12
3	12	1e+12
4	0	1e+12
4	6	1e+12
4	14	1e+12
5	0	1e+12
5	3	1e+12
5	7	1e+12
5	9	1e+12
5	10	1e+12
5	12	1e+12
6	0	1e+12
6	1	1e+12
6	4	1e+12
6	10	1e+12
7	2	1e+12
7	5	1e+12
8	0	1e+12
8	14	1e+12
9	1	1e+12
9	5	1e+12
10	0	1e+12
10	3	1e+12
10	5	1e+12
10	6	1e+12
10	14	1e+12
11	13	1e+12
12	0	1e+12
12	3	1e+12
12	5	1e+12
12	13	1e+12
13	11	1e+12
13	12	1e+12
13	14	1e+12
14	4	1e+12
14	8	1e+12
14	10	1e+12
14	13	1e+12
