100000	100000	100000	10000	1000	1000
0	1	20032	0	1	2	1	0
0	1	48400	0	1	2	3	4
0	1	7.6841e+06	0	1	2	5	4
0	1	50	0	1	5	3	4
0	2	19072	0	1	2	1	0
0	2	47200	0	1	2	3	4
0	2	7.54483e+06	0	1	2	5	4
0	2	300	0	1	5	3	4
0	3	20160	0	1	2	1	0
0	3	48700	0	1	2	3	4
0	3	7.60627e+06	0	1	2	5	4
0	3	150	0	1	5	3	4
0	4	20608	0	1	2	1	0
0	4	47200	0	1	2	3	4
0	4	7.90528e+06	0	1	2	5	4
0	4	250	0	1	5	3	4
0	5	20352	0	1	2	1	0
0	5	51400	0	1	2	3	4
0	5	7.39738e+06	0	1	2	5	4
0	5	250	0	1	5	3	4
0	6	19712	0	1	2	1	0
0	6	48700	0	1	2	3	4
0	6	7.48749e+06	0	1	2	5	4
0	6	50	0	1	5	3	4
0	7	20224	0	1	2	1	0
0	7	50300	0	1	2	3	4
0	7	7.54074e+06	0	1	2	5	4
0	7	250	0	1	5	3	4
0	8	19648	0	1	2	1	0
0	8	45200	0	1	2	3	4
0	8	7.11885e+06	0	1	2	5	4
0	8	250	0	1	5	3	4
0	9	18944	0	1	2	1	0
0	9	45100	0	1	2	3	4
0	9	7.7783e+06	0	1	2	5	4
0	9	150	0	1	5	3	4
0	10	19456	0	1	2	1	0
0	10	49300	0	1	2	3	4
0	10	7.28269e+06	0	1	2	5	4
0	10	300	0	1	5	3	4
0	11	20032	0	1	2	1	0
0	11	52500	0	1	2	3	4
0	11	7.86432e+06	0	1	2	5	4
0	11	200	0	1	5	3	4
1	0	18880	0	1	2	1	0
1	0	50000	0	1	2	3	4
1	0	7.56531e+06	0	1	2	5	4
1	0	250	0	1	5	3	4
1	2	21440	0	1	2	1	0
1	2	51300	0	1	2	3	4
1	2	7.83565e+06	0	1	2	5	4
1	2	350	0	1	5	3	4
1	3	19328	0	1	2	1	0
1	3	47300	0	1	2	3	4
1	3	7.40557e+06	0	1	2	5	4
1	3	150	0	1	5	3	4
1	4	19072	0	1	2	1	0
1	4	48100	0	1	2	3	4
1	4	7.73734e+06	0	1	2	5	4
1	4	200	0	1	5	3	4
1	5	20800	0	1	2	1	0
1	5	49800	0	1	2	3	4
1	5	7.40966e+06	0	1	2	5	4
1	5	150	0	1	5	3	4
1	6	20160	0	1	2	1	0
1	6	49400	0	1	2	3	4
1	6	7.74144e+06	0	1	2	5	4
1	6	250	0	1	5	3	4
1	7	20864	0	1	2	1	0
1	7	47400	0	1	2	3	4
1	7	7.7824e+06	0	1	2	5	4
1	7	200	0	1	5	3	4
1	8	19072	0	1	2	1	0
1	8	48100	0	1	2	3	4
1	8	7.67181e+06	0	1	2	5	4
1	8	200	0	1	5	3	4
1	9	21952	0	1	2	1	0
1	9	47600	0	1	2	3	4
1	9	7.48339e+06	0	1	2	5	4
1	9	200	0	1	5	3	4
1	10	19776	0	1	2	1	0
1	10	44300	0	1	2	3	4
1	10	7.51616e+06	0	1	2	5	4
1	10	100	0	1	5	3	4
1	11	20608	0	1	2	1	0
1	11	47100	0	1	2	3	4
1	11	7.42195e+06	0	1	2	5	4
1	11	250	0	1	5	3	4
2	0	19648	0	1	2	1	0
2	0	45200	0	1	2	3	4
2	0	7.79469e+06	0	1	2	5	4
2	0	250	0	1	5	3	4
2	1	18560	0	1	2	1	0
2	1	48300	0	1	2	3	4
2	1	7.73734e+06	0	1	2	5	4
2	1	150	0	1	5	3	4
2	3	20096	0	1	2	1	0
2	3	50500	0	1	2	3	4
2	3	6.94682e+06	0	1	2	5	4
2	3	150	0	1	5	3	4
2	4	20800	0	1	2	1	0
2	4	47300	0	1	2	3	4
2	4	7.50797e+06	0	1	2	5	4
2	4	50	0	1	5	3	4
2	5	20032	0	1	2	1	0
2	5	45800	0	1	2	3	4
2	5	7.36051e+06	0	1	2	5	4
2	5	150	0	1	5	3	4
2	6	21632	0	1	2	1	0
2	6	43900	0	1	2	3	4
2	6	7.15981e+06	0	1	2	5	4
2	6	250	0	1	5	3	4
2	7	20864	0	1	2	1	0
2	7	49200	0	1	2	3	4
2	7	7.52435e+06	0	1	2	5	4
2	7	100	0	1	5	3	4
2	8	19264	0	1	2	1	0
2	8	45900	0	1	2	3	4
2	8	7.30726e+06	0	1	2	5	4
2	8	150	0	1	5	3	4
2	9	19904	0	1	2	1	0
2	9	44300	0	1	2	3	4
2	9	7.64723e+06	0	1	2	5	4
2	9	250	0	1	5	3	4
2	10	19520	0	1	2	1	0
2	10	47300	0	1	2	3	4
2	10	7.49978e+06	0	1	2	5	4
2	10	300	0	1	5	3	4
2	11	18368	0	1	2	1	0
2	11	47600	0	1	2	3	4
2	11	7.56122e+06	0	1	2	5	4
2	11	150	0	1	5	3	4
3	0	20288	0	1	2	1	0
3	0	51700	0	1	2	3	4
3	0	7.55712e+06	0	1	2	5	4
3	0	250	0	1	5	3	4
3	1	19392	0	1	2	1	0
3	1	49000	0	1	2	3	4
3	1	7.31136e+06	0	1	2	5	4
3	1	200	0	1	5	3	4
3	2	19072	0	1	2	1	0
3	2	47100	0	1	2	3	4
3	2	7.45882e+06	0	1	2	5	4
3	2	100	0	1	5	3	4
3	4	21376	0	1	2	1	0
3	4	47700	0	1	2	3	4
3	4	7.43014e+06	0	1	2	5	4
3	4	200	0	1	5	3	4
3	5	19136	0	1	2	1	0
3	5	46700	0	1	2	3	4
3	5	7.4752e+06	0	1	2	5	4
3	5	300	0	1	5	3	4
3	6	20224	0	1	2	1	0
3	6	48400	0	1	2	3	4
3	6	7.60627e+06	0	1	2	5	4
3	6	500	0	1	5	3	4
3	7	18432	0	1	2	1	0
3	7	48000	0	1	2	3	4
3	7	7.4752e+06	0	1	2	5	4
3	7	100	0	1	5	3	4
3	8	18880	0	1	2	1	0
3	8	49200	0	1	2	3	4
3	8	7.43014e+06	0	1	2	5	4
3	8	250	0	1	5	3	4
3	9	19456	0	1	2	1	0
3	9	45900	0	1	2	3	4
3	9	7.46701e+06	0	1	2	5	4
3	9	100	0	1	5	3	4
3	10	18048	0	1	2	1	0
3	10	50300	0	1	2	3	4
3	10	7.35232e+06	0	1	2	5	4
3	10	100	0	1	5	3	4
3	11	18560	0	1	2	1	0
3	11	48700	0	1	2	3	4
3	11	7.43424e+06	0	1	2	5	4
3	11	400	0	1	5	3	4
4	0	19136	0	1	2	1	0
4	0	47900	0	1	2	3	4
4	0	7.81517e+06	0	1	2	5	4
4	0	300	0	1	5	3	4
4	1	18944	0	1	2	1	0
4	1	47400	0	1	2	3	4
4	1	7.58989e+06	0	1	2	5	4
4	1	350	0	1	5	3	4
4	2	19840	0	1	2	1	0
4	2	44000	0	1	2	3	4
4	2	7.27859e+06	0	1	2	5	4
4	2	450	0	1	5	3	4
4	3	20032	0	1	2	1	0
4	3	46000	0	1	2	3	4
4	3	7.41376e+06	0	1	2	5	4
4	3	250	0	1	5	3	4
4	5	18944	0	1	2	1	0
4	5	48400	0	1	2	3	4
4	5	7.4752e+06	0	1	2	5	4
4	5	100	0	1	5	3	4
4	6	20864	0	1	2	1	0
4	6	46900	0	1	2	3	4
4	6	7.36461e+06	0	1	2	5	4
4	6	150	0	1	5	3	4
4	7	19008	0	1	2	1	0
4	7	48900	0	1	2	3	4
4	7	7.58989e+06	0	1	2	5	4
4	7	250	0	1	5	3	4
4	8	19136	0	1	2	1	0
4	8	46600	0	1	2	3	4
4	8	7.7783e+06	0	1	2	5	4
4	8	250	0	1	5	3	4
4	9	18240	0	1	2	1	0
4	9	43900	0	1	2	3	4
4	9	7.53254e+06	0	1	2	5	4
4	9	150	0	1	5	3	4
4	10	17408	0	1	2	1	0
4	10	53100	0	1	2	3	4
4	10	7.45882e+06	0	1	2	5	4
4	10	100	0	1	5	3	4
4	11	19136	0	1	2	1	0
4	11	48800	0	1	2	3	4
4	11	7.6759e+06	0	1	2	5	4
4	11	350	0	1	5	3	4
5	0	19136	0	1	2	1	0
5	0	46800	0	1	2	3	4
5	0	7.52026e+06	0	1	2	5	4
5	0	200	0	1	5	3	4
5	1	19648	0	1	2	1	0
5	1	49700	0	1	2	3	4
5	1	7.36051e+06	0	1	2	5	4
5	1	50	0	1	5	3	4
5	2	18752	0	1	2	1	0
5	2	47400	0	1	2	3	4
5	2	7.42195e+06	0	1	2	5	4
5	2	200	0	1	5	3	4
5	3	21888	0	1	2	1	0
5	3	47500	0	1	2	3	4
5	3	7.71686e+06	0	1	2	5	4
5	3	300	0	1	5	3	4
5	4	21120	0	1	2	1	0
5	4	49400	0	1	2	3	4
5	4	7.69229e+06	0	1	2	5	4
5	4	150	0	1	5	3	4
5	6	20480	0	1	2	1	0
5	6	48300	0	1	2	3	4
5	6	7.52435e+06	0	1	2	5	4
5	6	250	0	1	5	3	4
5	7	19328	0	1	2	1	0
5	7	52200	0	1	2	3	4
5	7	7.44243e+06	0	1	2	5	4
5	7	350	0	1	5	3	4
5	8	19840	0	1	2	1	0
5	8	46900	0	1	2	3	4
5	8	7.31955e+06	0	1	2	5	4
5	8	200	0	1	5	3	4
5	9	16448	0	1	2	1	0
5	9	48400	0	1	2	3	4
5	9	7.168e+06	0	1	2	5	4
5	9	300	0	1	5	3	4
5	10	19264	0	1	2	1	0
5	10	53800	0	1	2	3	4
5	10	7.4793e+06	0	1	2	5	4
5	10	150	0	1	5	3	4
5	11	18880	0	1	2	1	0
5	11	46700	0	1	2	3	4
5	11	7.40966e+06	0	1	2	5	4
5	11	100	0	1	5	3	4
6	0	20864	0	1	2	1	0
6	0	46900	0	1	2	3	4
6	0	7.72506e+06	0	1	2	5	4
6	0	600	0	1	5	3	4
6	1	19904	0	1	2	1	0
6	1	45600	0	1	2	3	4
6	1	7.50797e+06	0	1	2	5	4
6	1	150	0	1	5	3	4
6	2	18048	0	1	2	1	0
6	2	46200	0	1	2	3	4
6	2	7.58579e+06	0	1	2	5	4
6	2	150	0	1	5	3	4
6	3	18752	0	1	2	1	0
6	3	49900	0	1	2	3	4
6	3	7.24173e+06	0	1	2	5	4
6	3	300	0	1	5	3	4
6	4	19072	0	1	2	1	0
6	4	47500	0	1	2	3	4
6	4	7.69229e+06	0	1	2	5	4
6	4	250	0	1	5	3	4
6	5	21312	0	1	2	1	0
6	5	49000	0	1	2	3	4
6	5	7.35642e+06	0	1	2	5	4
6	5	200	0	1	5	3	4
6	7	21376	0	1	2	1	0
6	7	50600	0	1	2	3	4
6	7	7.45882e+06	0	1	2	5	4
6	7	50	0	1	5	3	4
6	8	19968	0	1	2	1	0
6	8	49100	0	1	2	3	4
6	8	7.56531e+06	0	1	2	5	4
6	8	200	0	1	5	3	4
6	9	18432	0	1	2	1	0
6	9	48200	0	1	2	3	4
6	9	7.31136e+06	0	1	2	5	4
6	9	550	0	1	5	3	4
6	10	18112	0	1	2	1	0
6	10	47000	0	1	2	3	4
6	10	7.66771e+06	0	1	2	5	4
6	10	200	0	1	5	3	4
6	11	20992	0	1	2	1	0
6	11	47800	0	1	2	3	4
6	11	7.63904e+06	0	1	2	5	4
6	11	50	0	1	5	3	4
7	0	20480	0	1	2	1	0
7	0	45300	0	1	2	3	4
7	0	7.24173e+06	0	1	2	5	4
7	0	100	0	1	5	3	4
7	1	18176	0	1	2	1	0
7	1	48300	0	1	2	3	4
7	1	7.80288e+06	0	1	2	5	4
7	1	200	0	1	5	3	4
7	2	20352	0	1	2	1	0
7	2	46900	0	1	2	3	4
7	2	7.4752e+06	0	1	2	5	4
7	2	100	0	1	5	3	4
7	3	20992	0	1	2	1	0
7	3	47100	0	1	2	3	4
7	3	7.39328e+06	0	1	2	5	4
7	4	18560	0	1	2	1	0
7	4	49700	0	1	2	3	4
7	4	7.70867e+06	0	1	2	5	4
7	4	350	0	1	5	3	4
7	5	20864	0	1	2	1	0
7	5	48900	0	1	2	3	4
7	5	7.43834e+06	0	1	2	5	4
7	5	50	0	1	5	3	4
7	6	19648	0	1	2	1	0
7	6	45500	0	1	2	3	4
7	6	7.50387e+06	0	1	2	5	4
7	6	100	0	1	5	3	4
7	8	21376	0	1	2	1	0
7	8	49100	0	1	2	3	4
7	8	7.59808e+06	0	1	2	5	4
7	8	150	0	1	5	3	4
7	9	19328	0	1	2	1	0
7	9	45500	0	1	2	3	4
7	9	7.40966e+06	0	1	2	5	4
7	9	300	0	1	5	3	4
7	10	20544	0	1	2	1	0
7	10	50000	0	1	2	3	4
7	10	7.59398e+06	0	1	2	5	4
7	10	400	0	1	5	3	4
7	11	18880	0	1	2	1	0
7	11	48600	0	1	2	3	4
7	11	7.43014e+06	0	1	2	5	4
7	11	100	0	1	5	3	4
8	0	18496	0	1	2	1	0
8	0	48400	0	1	2	3	4
8	0	7.44243e+06	0	1	2	5	4
8	0	200	0	1	5	3	4
8	1	20160	0	1	2	1	0
8	1	48600	0	1	2	3	4
8	1	7.24582e+06	0	1	2	5	4
8	1	100	0	1	5	3	4
8	2	18304	0	1	2	1	0
8	2	46700	0	1	2	3	4
8	2	7.58579e+06	0	1	2	5	4
8	2	300	0	1	5	3	4
8	3	19968	0	1	2	1	0
8	3	47500	0	1	2	3	4
8	3	7.56122e+06	0	1	2	5	4
8	3	200	0	1	5	3	4
8	4	19520	0	1	2	1	0
8	4	46000	0	1	2	3	4
8	4	7.50797e+06	0	1	2	5	4
8	4	150	0	1	5	3	4
8	5	21184	0	1	2	1	0
8	5	46100	0	1	2	3	4
8	5	7.56531e+06	0	1	2	5	4
8	5	150	0	1	5	3	4
8	6	20992	0	1	2	1	0
8	6	46700	0	1	2	3	4
8	6	7.56122e+06	0	1	2	5	4
8	6	100	0	1	5	3	4
8	7	18432	0	1	2	1	0
8	7	46200	0	1	2	3	4
8	7	7.40557e+06	0	1	2	5	4
8	7	300	0	1	5	3	4
8	9	20352	0	1	2	1	0
8	9	43900	0	1	2	3	4
8	9	7.29498e+06	0	1	2	5	4
8	9	200	0	1	5	3	4
8	10	20800	0	1	2	1	0
8	10	47100	0	1	2	3	4
8	10	7.4793e+06	0	1	2	5	4
8	10	350	0	1	5	3	4
8	11	20800	0	1	2	1	0
8	11	48000	0	1	2	3	4
8	11	7.29498e+06	0	1	2	5	4
8	11	200	0	1	5	3	4
9	0	19904	0	1	2	1	0
9	0	47500	0	1	2	3	4
9	0	7.62266e+06	0	1	2	5	4
9	0	300	0	1	5	3	4
9	1	21120	0	1	2	1	0
9	1	46900	0	1	2	3	4
9	1	7.80698e+06	0	1	2	5	4
9	1	150	0	1	5	3	4
9	2	19008	0	1	2	1	0
9	2	46000	0	1	2	3	4
9	2	7.50387e+06	0	1	2	5	4
9	2	200	0	1	5	3	4
9	3	20992	0	1	2	1	0
9	3	45300	0	1	2	3	4
9	3	7.42605e+06	0	1	2	5	4
9	3	150	0	1	5	3	4
9	4	20928	0	1	2	1	0
9	4	48800	0	1	2	3	4
9	4	7.92166e+06	0	1	2	5	4
9	4	200	0	1	5	3	4
9	5	20288	0	1	2	1	0
9	5	47300	0	1	2	3	4
9	5	7.46291e+06	0	1	2	5	4
9	5	300	0	1	5	3	4
9	6	19584	0	1	2	1	0
9	6	47400	0	1	2	3	4
9	6	7.4752e+06	0	1	2	5	4
9	6	200	0	1	5	3	4
9	7	20224	0	1	2	1	0
9	7	47200	0	1	2	3	4
9	7	7.2704e+06	0	1	2	5	4
9	7	300	0	1	5	3	4
9	8	20096	0	1	2	1	0
9	8	47000	0	1	2	3	4
9	8	7.52845e+06	0	1	2	5	4
9	8	150	0	1	5	3	4
9	10	20032	0	1	2	1	0
9	10	46600	0	1	2	3	4
9	10	7.28269e+06	0	1	2	5	4
9	10	250	0	1	5	3	4
9	11	19456	0	1	2	1	0
9	11	48900	0	1	2	3	4
9	11	7.54483e+06	0	1	2	5	4
9	11	250	0	1	5	3	4
10	0	18816	0	1	2	1	0
10	0	44900	0	1	2	3	4
10	0	7.33184e+06	0	1	2	5	4
10	0	100	0	1	5	3	4
10	1	19840	0	1	2	1	0
10	1	46500	0	1	2	3	4
10	1	7.62675e+06	0	1	2	5	4
10	1	100	0	1	5	3	4
10	2	21184	0	1	2	1	0
10	2	47300	0	1	2	3	4
10	2	7.91347e+06	0	1	2	5	4
10	2	150	0	1	5	3	4
10	3	19776	0	1	2	1	0
10	3	50000	0	1	2	3	4
10	3	7.71277e+06	0	1	2	5	4
10	3	200	0	1	5	3	4
10	4	21248	0	1	2	1	0
10	4	49500	0	1	2	3	4
10	4	7.59808e+06	0	1	2	5	4
10	4	100	0	1	5	3	4
10	5	18432	0	1	2	1	0
10	5	47800	0	1	2	3	4
10	5	7.63085e+06	0	1	2	5	4
10	5	150	0	1	5	3	4
10	6	19072	0	1	2	1	0
10	6	47400	0	1	2	3	4
10	6	7.6759e+06	0	1	2	5	4
10	6	350	0	1	5	3	4
10	7	19968	0	1	2	1	0
10	7	44700	0	1	2	3	4
10	7	7.24173e+06	0	1	2	5	4
10	7	200	0	1	5	3	4
10	8	19712	0	1	2	1	0
10	8	46800	0	1	2	3	4
10	8	7.1721e+06	0	1	2	5	4
10	8	350	0	1	5	3	4
10	9	20160	0	1	2	1	0
10	9	49100	0	1	2	3	4
10	9	7.76602e+06	0	1	2	5	4
10	9	150	0	1	5	3	4
10	11	21568	0	1	2	1	0
10	11	46700	0	1	2	3	4
10	11	7.20077e+06	0	1	2	5	4
10	11	100	0	1	5	3	4
11	0	19328	0	1	2	1	0
11	0	45100	0	1	2	3	4
11	0	7.52435e+06	0	1	2	5	4
11	0	250	0	1	5	3	4
11	1	18944	0	1	2	1	0
11	1	45500	0	1	2	3	4
11	1	7.41786e+06	0	1	2	5	4
11	1	100	0	1	5	3	4
11	2	20096	0	1	2	1	0
11	2	46900	0	1	2	3	4
11	2	7.32365e+06	0	1	2	5	4
11	2	300	0	1	5	3	4
11	3	17600	0	1	2	1	0
11	3	44300	0	1	2	3	4
11	3	7.50387e+06	0	1	2	5	4
11	3	50	0	1	5	3	4
11	4	19712	0	1	2	1	0
11	4	47700	0	1	2	3	4
11	4	7.55712e+06	0	1	2	5	4
11	4	300	0	1	5	3	4
11	5	19584	0	1	2	1	0
11	5	49400	0	1	2	3	4
11	5	7.24173e+06	0	1	2	5	4
11	5	250	0	1	5	3	4
11	6	18176	0	1	2	1	0
11	6	44600	0	1	2	3	4
11	6	7.60218e+06	0	1	2	5	4
11	6	300	0	1	5	3	4
11	7	21184	0	1	2	1	0
11	7	47100	0	1	2	3	4
11	7	7.63904e+06	0	1	2	5	4
11	7	200	0	1	5	3	4
11	8	17728	0	1	2	1	0
11	8	47300	0	1	2	3	4
11	8	7.26221e+06	0	1	2	5	4
11	8	200	0	1	5	3	4
11	9	19904	0	1	2	1	0
11	9	46700	0	1	2	3	4
11	9	7.43424e+06	0	1	2	5	4
11	9	50	0	1	5	3	4
11	10	19712	0	1	2	1	0
11	10	48300	0	1	2	3	4
11	10	7.70867e+06	0	1	2	5	4
11	10	150	0	1	5	3	4
