100000	100000	100000	10000	1000	1000
0	1	29632	0	1	2	1	0
0	1	71900	0	1	2	3	4
0	1	1.10592e+07	0	1	2	5	4
0	1	550	0	1	5	3	4
0	2	31936	0	1	2	1	0
0	2	69900	0	1	2	3	4
0	2	1.11124e+07	0	1	2	5	4
0	2	250	0	1	5	3	4
0	3	28224	0	1	2	1	0
0	3	72700	0	1	2	3	4
0	3	1.08995e+07	0	1	2	5	4
0	3	150	0	1	5	3	4
0	4	29760	0	1	2	1	0
0	4	68800	0	1	2	3	4
0	4	1.09527e+07	0	1	2	5	4
0	4	250	0	1	5	3	4
0	5	29504	0	1	2	1	0
0	5	69400	0	1	2	3	4
0	5	1.10469e+07	0	1	2	5	4
0	5	150	0	1	5	3	4
0	6	29376	0	1	2	1	0
0	6	68500	0	1	2	3	4
0	6	1.12763e+07	0	1	2	5	4
0	6	350	0	1	5	3	4
0	7	28864	0	1	2	1	0
0	7	70300	0	1	2	3	4
0	7	1.14319e+07	0	1	2	5	4
0	7	500	0	1	5	3	4
0	8	30848	0	1	2	1	0
0	8	68900	0	1	2	3	4
0	8	1.135e+07	0	1	2	5	4
0	8	400	0	1	5	3	4
0	9	27008	0	1	2	1	0
0	9	67100	0	1	2	3	4
0	9	1.09322e+07	0	1	2	5	4
0	9	250	0	1	5	3	4
1	0	29504	0	1	2	1	0
1	0	65500	0	1	2	3	4
1	0	1.09199e+07	0	1	2	5	4
1	0	200	0	1	5	3	4
1	2	27520	0	1	2	1	0
1	2	72000	0	1	2	3	4
1	2	1.08831e+07	0	1	2	5	4
1	2	350	0	1	5	3	4
1	3	27328	0	1	2	1	0
1	3	68500	0	1	2	3	4
1	3	1.0793e+07	0	1	2	5	4
1	3	350	0	1	5	3	4
1	4	28032	0	1	2	1	0
1	4	71700	0	1	2	3	4
1	4	1.08667e+07	0	1	2	5	4
1	4	100	0	1	5	3	4
1	5	28224	0	1	2	1	0
1	5	70500	0	1	2	3	4
1	5	1.09773e+07	0	1	2	5	4
1	5	100	0	1	5	3	4
1	6	26240	0	1	2	1	0
1	6	66900	0	1	2	3	4
1	6	1.13295e+07	0	1	2	5	4
1	6	400	0	1	5	3	4
1	7	30464	0	1	2	1	0
1	7	69400	0	1	2	3	4
1	7	1.08913e+07	0	1	2	5	4
1	7	400	0	1	5	3	4
1	8	29888	0	1	2	1	0
1	8	70600	0	1	2	3	4
1	8	1.10879e+07	0	1	2	5	4
1	8	150	0	1	5	3	4
1	9	28416	0	1	2	1	0
1	9	69700	0	1	2	3	4
1	9	1.12681e+07	0	1	2	5	4
1	9	250	0	1	5	3	4
2	0	32256	0	1	2	1	0
2	0	66100	0	1	2	3	4
2	0	1.10838e+07	0	1	2	5	4
2	0	350	0	1	5	3	4
2	1	26240	0	1	2	1	0
2	1	71000	0	1	2	3	4
2	1	1.12026e+07	0	1	2	5	4
2	1	200	0	1	5	3	4
2	3	28736	0	1	2	1	0
2	3	69700	0	1	2	3	4
2	3	1.10879e+07	0	1	2	5	4
2	3	350	0	1	5	3	4
2	4	27072	0	1	2	1	0
2	4	71400	0	1	2	3	4
2	4	1.07397e+07	0	1	2	5	4
2	4	350	0	1	5	3	4
2	5	26880	0	1	2	1	0
2	5	65300	0	1	2	3	4
2	5	1.06619e+07	0	1	2	5	4
2	5	200	0	1	5	3	4
2	6	30336	0	1	2	1	0
2	6	68000	0	1	2	3	4
2	6	1.10428e+07	0	1	2	5	4
2	6	250	0	1	5	3	4
2	7	29760	0	1	2	1	0
2	7	69800	0	1	2	3	4
2	7	1.09404e+07	0	1	2	5	4
2	7	600	0	1	5	3	4
2	8	29312	0	1	2	1	0
2	8	69200	0	1	2	3	4
2	8	1.09363e+07	0	1	2	5	4
2	8	150	0	1	5	3	4
2	9	30848	0	1	2	1	0
2	9	71400	0	1	2	3	4
2	9	1.11985e+07	0	1	2	5	4
2	9	150	0	1	5	3	4
3	0	27840	0	1	2	1	0
3	0	72300	0	1	2	3	4
3	0	1.14729e+07	0	1	2	5	4
3	0	100	0	1	5	3	4
3	1	27904	0	1	2	1	0
3	1	70000	0	1	2	3	4
3	1	1.10838e+07	0	1	2	5	4
3	1	250	0	1	5	3	4
3	2	30144	0	1	2	1	0
3	2	72000	0	1	2	3	4
3	2	1.09691e+07	0	1	2	5	4
3	2	300	0	1	5	3	4
3	4	29440	0	1	2	1	0
3	4	73100	0	1	2	3	4
3	4	1.0965e+07	0	1	2	5	4
3	4	350	0	1	5	3	4
3	5	29312	0	1	2	1	0
3	5	70600	0	1	2	3	4
3	5	1.08954e+07	0	1	2	5	4
3	5	300	0	1	5	3	4
3	6	27776	0	1	2	1	0
3	6	73300	0	1	2	3	4
3	6	1.06947e+07	0	1	2	5	4
3	6	350	0	1	5	3	4
3	7	30144	0	1	2	1	0
3	7	67500	0	1	2	3	4
3	7	1.12763e+07	0	1	2	5	4
3	7	250	0	1	5	3	4
3	8	30272	0	1	2	1	0
3	8	68100	0	1	2	3	4
3	8	1.13418e+07	0	1	2	5	4
3	8	100	0	1	5	3	4
3	9	30592	0	1	2	1	0
3	9	75600	0	1	2	3	4
3	9	1.07233e+07	0	1	2	5	4
3	9	450	0	1	5	3	4
4	0	29952	0	1	2	1	0
4	0	70900	0	1	2	3	4
4	0	1.12353e+07	0	1	2	5	4
4	0	250	0	1	5	3	4
4	1	28416	0	1	2	1	0
4	1	70200	0	1	2	3	4
4	1	1.10387e+07	0	1	2	5	4
4	1	350	0	1	5	3	4
4	2	30912	0	1	2	1	0
4	2	66600	0	1	2	3	4
4	2	1.09691e+07	0	1	2	5	4
4	2	300	0	1	5	3	4
4	3	26752	0	1	2	1	0
4	3	68100	0	1	2	3	4
4	3	1.10182e+07	0	1	2	5	4
4	3	400	0	1	5	3	4
4	5	29376	0	1	2	1	0
4	5	65700	0	1	2	3	4
4	5	1.12681e+07	0	1	2	5	4
4	5	250	0	1	5	3	4
4	6	26880	0	1	2	1	0
4	6	74900	0	1	2	3	4
4	6	1.10756e+07	0	1	2	5	4
4	6	300	0	1	5	3	4
4	7	28736	0	1	2	1	0
4	7	70000	0	1	2	3	4
4	7	1.11084e+07	0	1	2	5	4
4	7	250	0	1	5	3	4
4	8	27776	0	1	2	1	0
4	8	69800	0	1	2	3	4
4	8	1.10551e+07	0	1	2	5	4
4	8	450	0	1	5	3	4
4	9	28864	0	1	2	1	0
4	9	72100	0	1	2	3	4
4	9	1.08708e+07	0	1	2	5	4
4	9	200	0	1	5	3	4
5	0	26816	0	1	2	1	0
5	0	70900	0	1	2	3	4
5	0	1.09978e+07	0	1	2	5	4
5	0	300	0	1	5	3	4
5	1	29568	0	1	2	1	0
5	1	71800	0	1	2	3	4
5	1	1.05677e+07	0	1	2	5	4
5	1	250	0	1	5	3	4
5	2	28160	0	1	2	1	0
5	2	68500	0	1	2	3	4
5	2	1.09691e+07	0	1	2	5	4
5	2	150	0	1	5	3	4
5	3	29888	0	1	2	1	0
5	3	70000	0	1	2	3	4
5	3	1.12108e+07	0	1	2	5	4
5	3	350	0	1	5	3	4
5	4	30400	0	1	2	1	0
5	4	73600	0	1	2	3	4
5	4	1.10264e+07	0	1	2	5	4
5	4	300	0	1	5	3	4
5	6	27008	0	1	2	1	0
5	6	68900	0	1	2	3	4
5	6	1.1223e+07	0	1	2	5	4
5	6	400	0	1	5	3	4
5	7	25920	0	1	2	1	0
5	7	71400	0	1	2	3	4
5	7	1.07684e+07	0	1	2	5	4
5	7	250	0	1	5	3	4
5	8	30528	0	1	2	1	0
5	8	72300	0	1	2	3	4
5	8	1.06824e+07	0	1	2	5	4
5	8	300	0	1	5	3	4
5	9	28672	0	1	2	1	0
5	9	68400	0	1	2	3	4
5	9	1.10756e+07	0	1	2	5	4
5	9	200	0	1	5	3	4
6	0	28288	0	1	2	1	0
6	0	67900	0	1	2	3	4
6	0	1.08913e+07	0	1	2	5	4
6	0	500	0	1	5	3	4
6	1	30080	0	1	2	1	0
6	1	72800	0	1	2	3	4
6	1	1.10838e+07	0	1	2	5	4
6	1	400	0	1	5	3	4
6	2	28288	0	1	2	1	0
6	2	67000	0	1	2	3	4
6	2	1.12312e+07	0	1	2	5	4
6	2	150	0	1	5	3	4
6	3	29888	0	1	2	1	0
6	3	65400	0	1	2	3	4
6	3	1.11288e+07	0	1	2	5	4
6	3	500	0	1	5	3	4
6	4	29120	0	1	2	1	0
6	4	67300	0	1	2	3	4
6	4	1.09814e+07	0	1	2	5	4
6	4	250	0	1	5	3	4
6	5	29760	0	1	2	1	0
6	5	72500	0	1	2	3	4
6	5	1.07397e+07	0	1	2	5	4
6	5	650	0	1	5	3	4
6	7	29888	0	1	2	1	0
6	7	67800	0	1	2	3	4
6	7	1.07971e+07	0	1	2	5	4
6	7	300	0	1	5	3	4
6	8	26304	0	1	2	1	0
6	8	70000	0	1	2	3	4
6	8	1.13787e+07	0	1	2	5	4
6	8	50	0	1	5	3	4
6	9	26112	0	1	2	1	0
6	9	70500	0	1	2	3	4
6	9	1.11616e+07	0	1	2	5	4
6	9	300	0	1	5	3	4
7	0	27840	0	1	2	1	0
7	0	71000	0	1	2	3	4
7	0	1.08585e+07	0	1	2	5	4
7	0	100	0	1	5	3	4
7	1	28032	0	1	2	1	0
7	1	71800	0	1	2	3	4
7	1	1.08995e+07	0	1	2	5	4
7	1	600	0	1	5	3	4
7	2	29952	0	1	2	1	0
7	2	66500	0	1	2	3	4
7	2	1.09978e+07	0	1	2	5	4
7	2	250	0	1	5	3	4
7	3	31424	0	1	2	1	0
7	3	69900	0	1	2	3	4
7	3	1.12517e+07	0	1	2	5	4
7	3	200	0	1	5	3	4
7	4	29184	0	1	2	1	0
7	4	70300	0	1	2	3	4
7	4	1.09158e+07	0	1	2	5	4
7	4	200	0	1	5	3	4
7	5	28096	0	1	2	1	0
7	5	71100	0	1	2	3	4
7	5	1.10633e+07	0	1	2	5	4
7	5	450	0	1	5	3	4
7	6	27520	0	1	2	1	0
7	6	68800	0	1	2	3	4
7	6	1.07971e+07	0	1	2	5	4
7	6	100	0	1	5	3	4
7	8	30400	0	1	2	1	0
7	8	73300	0	1	2	3	4
7	8	1.07684e+07	0	1	2	5	4
7	8	450	0	1	5	3	4
7	9	26944	0	1	2	1	0
7	9	71000	0	1	2	3	4
7	9	1.09773e+07	0	1	2	5	4
7	9	200	0	1	5	3	4
8	0	28672	0	1	2	1	0
8	0	66800	0	1	2	3	4
8	0	1.09117e+07	0	1	2	5	4
8	0	150	0	1	5	3	4
8	1	29376	0	1	2	1	0
8	1	65800	0	1	2	3	4
8	1	1.10141e+07	0	1	2	5	4
8	1	300	0	1	5	3	4
8	2	25920	0	1	2	1	0
8	2	70200	0	1	2	3	4
8	2	1.11862e+07	0	1	2	5	4
8	2	100	0	1	5	3	4
8	3	27584	0	1	2	1	0
8	3	67400	0	1	2	3	4
8	3	1.07356e+07	0	1	2	5	4
8	3	250	0	1	5	3	4
8	4	33088	0	1	2	1	0
8	4	70400	0	1	2	3	4
8	4	1.06045e+07	0	1	2	5	4
8	4	350	0	1	5	3	4
8	5	30208	0	1	2	1	0
8	5	66500	0	1	2	3	4
8	5	1.09445e+07	0	1	2	5	4
8	5	100	0	1	5	3	4
8	6	28736	0	1	2	1	0
8	6	69100	0	1	2	3	4
8	6	1.09937e+07	0	1	2	5	4
8	6	550	0	1	5	3	4
8	7	30400	0	1	2	1	0
8	7	66900	0	1	2	3	4
8	7	1.10756e+07	0	1	2	5	4
8	7	400	0	1	5	3	4
8	9	29632	0	1	2	1	0
8	9	69100	0	1	2	3	4
8	9	1.10756e+07	0	1	2	5	4
8	9	600	0	1	5	3	4
9	0	29312	0	1	2	1	0
9	0	68700	0	1	2	3	4
9	0	1.10019e+07	0	1	2	5	4
9	0	400	0	1	5	3	4
9	1	28800	0	1	2	1	0
9	1	70700	0	1	2	3	4
9	1	1.12067e+07	0	1	2	5	4
9	1	450	0	1	5	3	4
9	2	29312	0	1	2	1	0
9	2	65100	0	1	2	3	4
9	2	1.05759e+07	0	1	2	5	4
9	2	350	0	1	5	3	4
9	3	27904	0	1	2	1	0
9	3	71000	0	1	2	3	4
9	3	1.13869e+07	0	1	2	5	4
9	3	150	0	1	5	3	4
9	4	28352	0	1	2	1	0
9	4	68200	0	1	2	3	4
9	4	1.0752e+07	0	1	2	5	4
9	4	400	0	1	5	3	4
9	5	31232	0	1	2	1	0
9	5	71500	0	1	2	3	4
9	5	1.09158e+07	0	1	2	5	4
9	5	250	0	1	5	3	4
9	6	30784	0	1	2	1	0
9	6	66700	0	1	2	3	4
9	6	1.09568e+07	0	1	2	5	4
9	6	450	0	1	5	3	4
9	7	28544	0	1	2	1	0
9	7	71200	0	1	2	3	4
9	7	1.1264e+07	0	1	2	5	4
9	7	100	0	1	5	3	4
9	8	29376	0	1	2	1	0
9	8	71100	0	1	2	3	4
9	8	1.10182e+07	0	1	2	5	4
9	8	300	0	1	5	3	4
