100000	100000	100000	10000	1000	1000
0	1	10624	0	1	2	1	0
0	1	24200	0	1	2	3	4
0	1	4.10829e+06	0	1	2	5	4
0	2	11136	0	1	2	1	0
0	2	23600	0	1	2	3	4
0	2	4.1001e+06	0	1	2	5	4
0	2	50	0	1	5	3	4
0	3	10240	0	1	2	1	0
0	3	27000	0	1	2	3	4
0	3	4.01408e+06	0	1	2	5	4
0	3	100	0	1	5	3	4
0	4	11840	0	1	2	1	0
0	4	26200	0	1	2	3	4
0	4	4.06323e+06	0	1	2	5	4
0	4	50	0	1	5	3	4
0	5	11904	0	1	2	1	0
0	5	26300	0	1	2	3	4
0	5	4.23526e+06	0	1	2	5	4
0	5	150	0	1	5	3	4
0	6	11968	0	1	2	1	0
0	6	27800	0	1	2	3	4
0	6	4.13696e+06	0	1	2	5	4
0	6	150	0	1	5	3	4
0	7	10432	0	1	2	1	0
0	7	26000	0	1	2	3	4
0	7	4.19021e+06	0	1	2	5	4
0	7	100	0	1	5	3	4
0	8	11136	0	1	2	1	0
0	8	27500	0	1	2	3	4
0	8	4.21888e+06	0	1	2	5	4
0	8	100	0	1	5	3	4
0	9	11392	0	1	2	1	0
0	9	27000	0	1	2	3	4
0	9	4.23936e+06	0	1	2	5	4
0	9	100	0	1	5	3	4
0	10	11776	0	1	2	1	0
0	10	24300	0	1	2	3	4
0	10	4.06733e+06	0	1	2	5	4
0	11	11456	0	1	2	1	0
0	11	26600	0	1	2	3	4
0	11	4.13286e+06	0	1	2	5	4
0	11	50	0	1	5	3	4
0	12	11712	0	1	2	1	0
0	12	25700	0	1	2	3	4
0	12	4.18611e+06	0	1	2	5	4
0	13	10048	0	1	2	1	0
0	13	24000	0	1	2	3	4
0	13	4.26803e+06	0	1	2	5	4
0	13	150	0	1	5	3	4
0	14	10368	0	1	2	1	0
0	14	28000	0	1	2	3	4
0	14	4.20659e+06	0	1	2	5	4
0	14	100	0	1	5	3	4
0	15	10496	0	1	2	1	0
0	15	26200	0	1	2	3	4
0	15	4.03456e+06	0	1	2	5	4
0	15	50	0	1	5	3	4
1	0	10240	0	1	2	1	0
1	0	27300	0	1	2	3	4
1	0	4.18202e+06	0	1	2	5	4
1	0	150	0	1	5	3	4
1	2	9792	0	1	2	1	0
1	2	23900	0	1	2	3	4
1	2	4.00998e+06	0	1	2	5	4
1	2	100	0	1	5	3	4
1	3	11200	0	1	2	1	0
1	3	25900	0	1	2	3	4
1	3	4.37862e+06	0	1	2	5	4
1	3	50	0	1	5	3	4
1	4	10880	0	1	2	1	0
1	4	26800	0	1	2	3	4
1	4	4.08781e+06	0	1	2	5	4
1	4	150	0	1	5	3	4
1	5	10560	0	1	2	1	0
1	5	25700	0	1	2	3	4
1	5	4.00179e+06	0	1	2	5	4
1	5	50	0	1	5	3	4
1	6	11072	0	1	2	1	0
1	6	25700	0	1	2	3	4
1	6	3.88301e+06	0	1	2	5	4
1	6	100	0	1	5	3	4
1	7	11776	0	1	2	1	0
1	7	25900	0	1	2	3	4
1	7	4.23117e+06	0	1	2	5	4
1	7	200	0	1	5	3	4
1	8	10624	0	1	2	1	0
1	8	27200	0	1	2	3	4
1	8	4.03046e+06	0	1	2	5	4
1	8	50	0	1	5	3	4
1	9	10688	0	1	2	1	0
1	9	27000	0	1	2	3	4
1	9	4.16154e+06	0	1	2	5	4
1	9	50	0	1	5	3	4
1	10	10944	0	1	2	1	0
1	10	26500	0	1	2	3	4
1	10	4.26803e+06	0	1	2	5	4
1	10	100	0	1	5	3	4
1	11	10624	0	1	2	1	0
1	11	26500	0	1	2	3	4
1	11	4.03866e+06	0	1	2	5	4
1	11	50	0	1	5	3	4
1	12	11648	0	1	2	1	0
1	12	27700	0	1	2	3	4
1	12	4.14106e+06	0	1	2	5	4
1	12	50	0	1	5	3	4
1	13	11200	0	1	2	1	0
1	13	27600	0	1	2	3	4
1	13	4.14925e+06	0	1	2	5	4
1	13	50	0	1	5	3	4
1	14	12160	0	1	2	1	0
1	14	24400	0	1	2	3	4
1	14	4.08781e+06	0	1	2	5	4
1	15	10880	0	1	2	1	0
1	15	27400	0	1	2	3	4
1	15	4.08781e+06	0	1	2	5	4
1	15	100	0	1	5	3	4
2	0	10368	0	1	2	1	0
2	0	25700	0	1	2	3	4
2	0	4.32128e+06	0	1	2	5	4
2	0	150	0	1	5	3	4
2	1	8704	0	1	2	1	0
2	1	27000	0	1	2	3	4
2	1	4.24755e+06	0	1	2	5	4
2	1	100	0	1	5	3	4
2	3	11712	0	1	2	1	0
2	3	26100	0	1	2	3	4
2	3	4.17792e+06	0	1	2	5	4
2	3	300	0	1	5	3	4
2	4	9728	0	1	2	1	0
2	4	27800	0	1	2	3	4
2	4	4.0919e+06	0	1	2	5	4
2	4	150	0	1	5	3	4
2	5	10304	0	1	2	1	0
2	5	24300	0	1	2	3	4
2	5	4.21888e+06	0	1	2	5	4
2	5	150	0	1	5	3	4
2	6	9600	0	1	2	1	0
2	6	26700	0	1	2	3	4
2	6	3.98131e+06	0	1	2	5	4
2	6	100	0	1	5	3	4
2	7	9728	0	1	2	1	0
2	7	27100	0	1	2	3	4
2	7	3.93216e+06	0	1	2	5	4
2	7	50	0	1	5	3	4
2	8	10880	0	1	2	1	0
2	8	27400	0	1	2	3	4
2	8	4.12877e+06	0	1	2	5	4
2	8	100	0	1	5	3	4
2	9	10624	0	1	2	1	0
2	9	26900	0	1	2	3	4
2	9	4.02637e+06	0	1	2	5	4
2	10	10560	0	1	2	1	0
2	10	26200	0	1	2	3	4
2	10	4.21478e+06	0	1	2	5	4
2	11	10368	0	1	2	1	0
2	11	28600	0	1	2	3	4
2	11	4.10419e+06	0	1	2	5	4
2	11	50	0	1	5	3	4
2	12	9792	0	1	2	1	0
2	12	24200	0	1	2	3	4
2	12	4.16973e+06	0	1	2	5	4
2	12	100	0	1	5	3	4
2	13	12096	0	1	2	1	0
2	13	26500	0	1	2	3	4
2	13	3.97722e+06	0	1	2	5	4
2	13	300	0	1	5	3	4
2	14	11072	0	1	2	1	0
2	14	24800	0	1	2	3	4
2	14	4.03046e+06	0	1	2	5	4
2	14	50	0	1	5	3	4
2	15	12160	0	1	2	1	0
2	15	23900	0	1	2	3	4
2	15	4.01818e+06	0	1	2	5	4
2	15	150	0	1	5	3	4
3	0	13184	0	1	2	1	0
3	0	27600	0	1	2	3	4
3	0	4.1943e+06	0	1	2	5	4
3	0	50	0	1	5	3	4
3	1	10688	0	1	2	1	0
3	1	24100	0	1	2	3	4
3	1	4.26394e+06	0	1	2	5	4
3	1	100	0	1	5	3	4
3	2	10496	0	1	2	1	0
3	2	28300	0	1	2	3	4
3	2	4.00179e+06	0	1	2	5	4
3	2	50	0	1	5	3	4
3	4	9344	0	1	2	1	0
3	4	24600	0	1	2	3	4
3	4	4.15334e+06	0	1	2	5	4
3	4	300	0	1	5	3	4
3	5	10944	0	1	2	1	0
3	5	28100	0	1	2	3	4
3	5	3.98541e+06	0	1	2	5	4
3	5	100	0	1	5	3	4
3	6	10944	0	1	2	1	0
3	6	27100	0	1	2	3	4
3	6	4.2025e+06	0	1	2	5	4
3	6	150	0	1	5	3	4
3	7	9408	0	1	2	1	0
3	7	26800	0	1	2	3	4
3	7	3.91168e+06	0	1	2	5	4
3	7	50	0	1	5	3	4
3	8	13312	0	1	2	1	0
3	8	23200	0	1	2	3	4
3	8	4.07962e+06	0	1	2	5	4
3	8	150	0	1	5	3	4
3	9	10240	0	1	2	1	0
3	9	29600	0	1	2	3	4
3	9	4.14106e+06	0	1	2	5	4
3	9	250	0	1	5	3	4
3	10	10368	0	1	2	1	0
3	10	26900	0	1	2	3	4
3	10	4.15334e+06	0	1	2	5	4
3	10	250	0	1	5	3	4
3	11	11712	0	1	2	1	0
3	11	28200	0	1	2	3	4
3	11	4.21888e+06	0	1	2	5	4
3	11	100	0	1	5	3	4
3	12	10176	0	1	2	1	0
3	12	25700	0	1	2	3	4
3	12	4.12058e+06	0	1	2	5	4
3	12	100	0	1	5	3	4
3	13	11648	0	1	2	1	0
3	13	26400	0	1	2	3	4
3	13	3.85024e+06	0	1	2	5	4
3	13	150	0	1	5	3	4
3	14	12096	0	1	2	1	0
3	14	26500	0	1	2	3	4
3	14	4.23936e+06	0	1	2	5	4
3	15	12160	0	1	2	1	0
3	15	27800	0	1	2	3	4
3	15	4.28851e+06	0	1	2	5	4
3	15	200	0	1	5	3	4
4	0	11328	0	1	2	1	0
4	0	27300	0	1	2	3	4
4	0	4.03456e+06	0	1	2	5	4
4	0	350	0	1	5	3	4
4	1	10944	0	1	2	1	0
4	1	25500	0	1	2	3	4
4	1	4.08781e+06	0	1	2	5	4
4	1	150	0	1	5	3	4
4	2	10624	0	1	2	1	0
4	2	26400	0	1	2	3	4
4	2	4.28032e+06	0	1	2	5	4
4	2	100	0	1	5	3	4
4	3	11712	0	1	2	1	0
4	3	26300	0	1	2	3	4
4	3	4.03046e+06	0	1	2	5	4
4	3	150	0	1	5	3	4
4	5	10688	0	1	2	1	0
4	5	27700	0	1	2	3	4
4	5	4.25984e+06	0	1	2	5	4
4	5	150	0	1	5	3	4
4	6	12672	0	1	2	1	0
4	6	25700	0	1	2	3	4
4	6	4.11648e+06	0	1	2	5	4
4	7	10304	0	1	2	1	0
4	7	29300	0	1	2	3	4
4	7	3.8912e+06	0	1	2	5	4
4	8	9408	0	1	2	1	0
4	8	26200	0	1	2	3	4
4	8	4.23526e+06	0	1	2	5	4
4	8	150	0	1	5	3	4
4	9	10176	0	1	2	1	0
4	9	25100	0	1	2	3	4
4	9	3.8953e+06	0	1	2	5	4
4	9	100	0	1	5	3	4
4	10	10304	0	1	2	1	0
4	10	26200	0	1	2	3	4
4	10	4.05504e+06	0	1	2	5	4
4	10	50	0	1	5	3	4
4	11	10496	0	1	2	1	0
4	11	24900	0	1	2	3	4
4	11	3.96083e+06	0	1	2	5	4
4	11	50	0	1	5	3	4
4	12	11776	0	1	2	1	0
4	12	25100	0	1	2	3	4
4	12	3.84614e+06	0	1	2	5	4
4	12	50	0	1	5	3	4
4	13	11776	0	1	2	1	0
4	13	31500	0	1	2	3	4
4	13	4.23526e+06	0	1	2	5	4
4	13	50	0	1	5	3	4
4	14	11840	0	1	2	1	0
4	14	25400	0	1	2	3	4
4	14	4.29261e+06	0	1	2	5	4
4	14	50	0	1	5	3	4
4	15	10240	0	1	2	1	0
4	15	27200	0	1	2	3	4
4	15	4.44006e+06	0	1	2	5	4
4	15	150	0	1	5	3	4
5	0	11136	0	1	2	1	0
5	0	27500	0	1	2	3	4
5	0	4.10829e+06	0	1	2	5	4
5	0	200	0	1	5	3	4
5	1	10112	0	1	2	1	0
5	1	25500	0	1	2	3	4
5	1	4.13696e+06	0	1	2	5	4
5	1	100	0	1	5	3	4
5	2	10048	0	1	2	1	0
5	2	27400	0	1	2	3	4
5	2	3.98541e+06	0	1	2	5	4
5	2	50	0	1	5	3	4
5	3	10176	0	1	2	1	0
5	3	28600	0	1	2	3	4
5	3	4.00998e+06	0	1	2	5	4
5	3	100	0	1	5	3	4
5	4	10752	0	1	2	1	0
5	4	27600	0	1	2	3	4
5	4	3.96902e+06	0	1	2	5	4
5	4	250	0	1	5	3	4
5	6	10752	0	1	2	1	0
5	6	26600	0	1	2	3	4
5	6	4.32947e+06	0	1	2	5	4
5	6	100	0	1	5	3	4
5	7	10880	0	1	2	1	0
5	7	24800	0	1	2	3	4
5	7	3.8912e+06	0	1	2	5	4
5	7	200	0	1	5	3	4
5	8	9664	0	1	2	1	0
5	8	30600	0	1	2	3	4
5	8	4.27213e+06	0	1	2	5	4
5	8	150	0	1	5	3	4
5	9	9600	0	1	2	1	0
5	9	28600	0	1	2	3	4
5	9	4.3049e+06	0	1	2	5	4
5	9	100	0	1	5	3	4
5	10	12416	0	1	2	1	0
5	10	27600	0	1	2	3	4
5	10	4.17382e+06	0	1	2	5	4
5	10	150	0	1	5	3	4
5	11	9920	0	1	2	1	0
5	11	25500	0	1	2	3	4
5	11	4.18611e+06	0	1	2	5	4
5	11	150	0	1	5	3	4
5	12	10304	0	1	2	1	0
5	12	26400	0	1	2	3	4
5	12	4.0919e+06	0	1	2	5	4
5	12	250	0	1	5	3	4
5	13	11008	0	1	2	1	0
5	13	27200	0	1	2	3	4
5	13	4.3049e+06	0	1	2	5	4
5	13	100	0	1	5	3	4
5	14	11904	0	1	2	1	0
5	14	24200	0	1	2	3	4
5	14	4.17792e+06	0	1	2	5	4
5	14	50	0	1	5	3	4
5	15	11200	0	1	2	1	0
5	15	28100	0	1	2	3	4
5	15	4.13696e+06	0	1	2	5	4
6	0	8960	0	1	2	1	0
6	0	25700	0	1	2	3	4
6	0	4.00998e+06	0	1	2	5	4
6	0	200	0	1	5	3	4
6	1	10816	0	1	2	1	0
6	1	26700	0	1	2	3	4
6	1	4.1001e+06	0	1	2	5	4
6	1	50	0	1	5	3	4
6	2	11264	0	1	2	1	0
6	2	26200	0	1	2	3	4
6	2	4.05914e+06	0	1	2	5	4
6	2	50	0	1	5	3	4
6	3	9920	0	1	2	1	0
6	3	28300	0	1	2	3	4
6	3	4.16973e+06	0	1	2	5	4
6	4	11456	0	1	2	1	0
6	4	23400	0	1	2	3	4
6	4	4.16563e+06	0	1	2	5	4
6	4	150	0	1	5	3	4
6	5	9856	0	1	2	1	0
6	5	24900	0	1	2	3	4
6	5	3.8953e+06	0	1	2	5	4
6	5	100	0	1	5	3	4
6	7	11200	0	1	2	1	0
6	7	24600	0	1	2	3	4
6	7	4.03046e+06	0	1	2	5	4
6	7	250	0	1	5	3	4
6	8	11456	0	1	2	1	0
6	8	25500	0	1	2	3	4
6	8	4.10419e+06	0	1	2	5	4
6	8	50	0	1	5	3	4
6	9	10432	0	1	2	1	0
6	9	26600	0	1	2	3	4
6	9	4.14106e+06	0	1	2	5	4
6	9	100	0	1	5	3	4
6	10	9728	0	1	2	1	0
6	10	23100	0	1	2	3	4
6	10	4.12467e+06	0	1	2	5	4
6	10	150	0	1	5	3	4
6	11	10944	0	1	2	1	0
6	11	24800	0	1	2	3	4
6	11	4.22298e+06	0	1	2	5	4
6	11	50	0	1	5	3	4
6	12	11648	0	1	2	1	0
6	12	26800	0	1	2	3	4
6	12	4.00589e+06	0	1	2	5	4
6	12	50	0	1	5	3	4
6	13	10880	0	1	2	1	0
6	13	25200	0	1	2	3	4
6	13	3.93626e+06	0	1	2	5	4
6	14	11136	0	1	2	1	0
6	14	25400	0	1	2	3	4
6	14	4.46464e+06	0	1	2	5	4
6	14	100	0	1	5	3	4
6	15	10752	0	1	2	1	0
6	15	28100	0	1	2	3	4
6	15	4.11238e+06	0	1	2	5	4
7	0	9920	0	1	2	1	0
7	0	26600	0	1	2	3	4
7	0	4.1001e+06	0	1	2	5	4
7	0	100	0	1	5	3	4
7	1	9024	0	1	2	1	0
7	1	28600	0	1	2	3	4
7	1	4.1984e+06	0	1	2	5	4
7	2	11200	0	1	2	1	0
7	2	24500	0	1	2	3	4
7	2	4.00179e+06	0	1	2	5	4
7	3	12032	0	1	2	1	0
7	3	28500	0	1	2	3	4
7	3	4.1001e+06	0	1	2	5	4
7	3	100	0	1	5	3	4
7	4	9728	0	1	2	1	0
7	4	26700	0	1	2	3	4
7	4	4.16154e+06	0	1	2	5	4
7	4	150	0	1	5	3	4
7	5	11712	0	1	2	1	0
7	5	25300	0	1	2	3	4
7	5	4.18202e+06	0	1	2	5	4
7	5	250	0	1	5	3	4
7	6	9600	0	1	2	1	0
7	6	24300	0	1	2	3	4
7	6	4.15334e+06	0	1	2	5	4
7	6	50	0	1	5	3	4
7	8	10176	0	1	2	1	0
7	8	28300	0	1	2	3	4
7	8	4.20659e+06	0	1	2	5	4
7	8	50	0	1	5	3	4
7	9	10368	0	1	2	1	0
7	9	24800	0	1	2	3	4
7	9	4.14925e+06	0	1	2	5	4
7	9	250	0	1	5	3	4
7	10	11008	0	1	2	1	0
7	10	26100	0	1	2	3	4
7	10	4.37862e+06	0	1	2	5	4
7	10	200	0	1	5	3	4
7	11	11840	0	1	2	1	0
7	11	27500	0	1	2	3	4
7	11	4.1001e+06	0	1	2	5	4
7	11	150	0	1	5	3	4
7	12	11008	0	1	2	1	0
7	12	26000	0	1	2	3	4
7	12	4.10829e+06	0	1	2	5	4
7	12	50	0	1	5	3	4
7	13	10816	0	1	2	1	0
7	13	25600	0	1	2	3	4
7	13	4.22707e+06	0	1	2	5	4
7	13	100	0	1	5	3	4
7	14	10880	0	1	2	1	0
7	14	25600	0	1	2	3	4
7	14	3.97312e+06	0	1	2	5	4
7	14	100	0	1	5	3	4
7	15	10752	0	1	2	1	0
7	15	24900	0	1	2	3	4
7	15	3.80518e+06	0	1	2	5	4
7	15	50	0	1	5	3	4
8	0	9856	0	1	2	1	0
8	0	24100	0	1	2	3	4
8	0	3.9895e+06	0	1	2	5	4
8	1	11008	0	1	2	1	0
8	1	25800	0	1	2	3	4
8	1	4.25984e+06	0	1	2	5	4
8	2	10112	0	1	2	1	0
8	2	23800	0	1	2	3	4
8	2	4.12058e+06	0	1	2	5	4
8	2	150	0	1	5	3	4
8	3	9280	0	1	2	1	0
8	3	26600	0	1	2	3	4
8	3	4.22298e+06	0	1	2	5	4
8	4	10240	0	1	2	1	0
8	4	26600	0	1	2	3	4
8	4	4.27622e+06	0	1	2	5	4
8	4	150	0	1	5	3	4
8	5	10944	0	1	2	1	0
8	5	28100	0	1	2	3	4
8	5	4.12877e+06	0	1	2	5	4
8	5	50	0	1	5	3	4
8	6	11520	0	1	2	1	0
8	6	27200	0	1	2	3	4
8	6	4.00589e+06	0	1	2	5	4
8	6	150	0	1	5	3	4
8	7	12288	0	1	2	1	0
8	7	24400	0	1	2	3	4
8	7	4.31309e+06	0	1	2	5	4
8	9	9472	0	1	2	1	0
8	9	26200	0	1	2	3	4
8	9	4.37043e+06	0	1	2	5	4
8	9	50	0	1	5	3	4
8	10	10112	0	1	2	1	0
8	10	27800	0	1	2	3	4
8	10	4.07962e+06	0	1	2	5	4
8	10	150	0	1	5	3	4
8	11	11328	0	1	2	1	0
8	11	25200	0	1	2	3	4
8	11	4.17382e+06	0	1	2	5	4
8	11	150	0	1	5	3	4
8	12	11648	0	1	2	1	0
8	12	24600	0	1	2	3	4
8	12	4.15744e+06	0	1	2	5	4
8	12	150	0	1	5	3	4
8	13	9408	0	1	2	1	0
8	13	22200	0	1	2	3	4
8	13	3.95674e+06	0	1	2	5	4
8	13	100	0	1	5	3	4
8	14	11840	0	1	2	1	0
8	14	25400	0	1	2	3	4
8	14	4.41139e+06	0	1	2	5	4
8	14	50	0	1	5	3	4
8	15	10944	0	1	2	1	0
8	15	25800	0	1	2	3	4
8	15	4.23526e+06	0	1	2	5	4
8	15	100	0	1	5	3	4
9	0	12480	0	1	2	1	0
9	0	24000	0	1	2	3	4
9	0	4.1984e+06	0	1	2	5	4
9	0	150	0	1	5	3	4
9	1	9600	0	1	2	1	0
9	1	25600	0	1	2	3	4
9	1	3.97722e+06	0	1	2	5	4
9	1	150	0	1	5	3	4
9	2	9792	0	1	2	1	0
9	2	28500	0	1	2	3	4
9	2	4.15334e+06	0	1	2	5	4
9	2	200	0	1	5	3	4
9	3	11008	0	1	2	1	0
9	3	25300	0	1	2	3	4
9	3	3.94035e+06	0	1	2	5	4
9	3	250	0	1	5	3	4
9	4	11520	0	1	2	1	0
9	4	25800	0	1	2	3	4
9	4	4.25574e+06	0	1	2	5	4
9	4	50	0	1	5	3	4
9	5	10880	0	1	2	1	0
9	5	27300	0	1	2	3	4
9	5	3.94035e+06	0	1	2	5	4
9	6	11456	0	1	2	1	0
9	6	23800	0	1	2	3	4
9	6	4.1943e+06	0	1	2	5	4
9	6	250	0	1	5	3	4
9	7	9728	0	1	2	1	0
9	7	22600	0	1	2	3	4
9	7	4.11648e+06	0	1	2	5	4
9	7	100	0	1	5	3	4
9	8	10432	0	1	2	1	0
9	8	25200	0	1	2	3	4
9	8	4.16973e+06	0	1	2	5	4
9	8	250	0	1	5	3	4
9	10	11200	0	1	2	1	0
9	10	25300	0	1	2	3	4
9	10	4.13696e+06	0	1	2	5	4
9	11	9216	0	1	2	1	0
9	11	27600	0	1	2	3	4
9	11	4.37043e+06	0	1	2	5	4
9	11	100	0	1	5	3	4
9	12	10176	0	1	2	1	0
9	12	28400	0	1	2	3	4
9	12	4.13286e+06	0	1	2	5	4
9	12	200	0	1	5	3	4
9	13	9600	0	1	2	1	0
9	13	29000	0	1	2	3	4
9	13	4.10829e+06	0	1	2	5	4
9	13	200	0	1	5	3	4
9	14	10944	0	1	2	1	0
9	14	22600	0	1	2	3	4
9	14	4.28851e+06	0	1	2	5	4
9	15	10176	0	1	2	1	0
9	15	26400	0	1	2	3	4
9	15	4.23117e+06	0	1	2	5	4
9	15	50	0	1	5	3	4
10	0	10560	0	1	2	1	0
10	0	26900	0	1	2	3	4
10	0	4.1984e+06	0	1	2	5	4
10	0	150	0	1	5	3	4
10	1	10880	0	1	2	1	0
10	1	26500	0	1	2	3	4
10	1	4.03866e+06	0	1	2	5	4
10	1	100	0	1	5	3	4
10	2	10496	0	1	2	1	0
10	2	25900	0	1	2	3	4
10	2	3.9895e+06	0	1	2	5	4
10	2	100	0	1	5	3	4
10	3	10240	0	1	2	1	0
10	3	26600	0	1	2	3	4
10	3	3.95264e+06	0	1	2	5	4
10	4	11584	0	1	2	1	0
10	4	24900	0	1	2	3	4
10	4	4.07962e+06	0	1	2	5	4
10	4	100	0	1	5	3	4
10	5	11456	0	1	2	1	0
10	5	27400	0	1	2	3	4
10	5	4.15744e+06	0	1	2	5	4
10	5	100	0	1	5	3	4
10	6	11328	0	1	2	1	0
10	6	25200	0	1	2	3	4
10	6	4.1001e+06	0	1	2	5	4
10	7	9792	0	1	2	1	0
10	7	26300	0	1	2	3	4
10	7	4.08781e+06	0	1	2	5	4
10	7	150	0	1	5	3	4
10	8	12032	0	1	2	1	0
10	8	24800	0	1	2	3	4
10	8	4.10829e+06	0	1	2	5	4
10	8	100	0	1	5	3	4
10	9	10112	0	1	2	1	0
10	9	26000	0	1	2	3	4
10	9	3.91987e+06	0	1	2	5	4
10	9	50	0	1	5	3	4
10	11	9216	0	1	2	1	0
10	11	22700	0	1	2	3	4
10	11	4.15744e+06	0	1	2	5	4
10	11	50	0	1	5	3	4
10	12	11648	0	1	2	1	0
10	12	25000	0	1	2	3	4
10	12	3.92397e+06	0	1	2	5	4
10	12	50	0	1	5	3	4
10	13	12160	0	1	2	1	0
10	13	27800	0	1	2	3	4
10	13	4.17382e+06	0	1	2	5	4
10	13	100	0	1	5	3	4
10	14	9728	0	1	2	1	0
10	14	27600	0	1	2	3	4
10	14	4.1001e+06	0	1	2	5	4
10	14	150	0	1	5	3	4
10	15	10560	0	1	2	1	0
10	15	28700	0	1	2	3	4
10	15	4.32947e+06	0	1	2	5	4
10	15	150	0	1	5	3	4
11	0	10432	0	1	2	1	0
11	0	27500	0	1	2	3	4
11	0	4.25574e+06	0	1	2	5	4
11	0	100	0	1	5	3	4
11	1	10176	0	1	2	1	0
11	1	25400	0	1	2	3	4
11	1	4.15744e+06	0	1	2	5	4
11	1	200	0	1	5	3	4
11	2	10688	0	1	2	1	0
11	2	25400	0	1	2	3	4
11	2	4.19021e+06	0	1	2	5	4
11	2	100	0	1	5	3	4
11	3	11136	0	1	2	1	0
11	3	25000	0	1	2	3	4
11	3	4.08371e+06	0	1	2	5	4
11	3	100	0	1	5	3	4
11	4	10304	0	1	2	1	0
11	4	27200	0	1	2	3	4
11	4	4.17792e+06	0	1	2	5	4
11	4	100	0	1	5	3	4
11	5	13568	0	1	2	1	0
11	5	26600	0	1	2	3	4
11	5	4.11648e+06	0	1	2	5	4
11	5	100	0	1	5	3	4
11	6	10112	0	1	2	1	0
11	6	24600	0	1	2	3	4
11	6	4.25165e+06	0	1	2	5	4
11	6	200	0	1	5	3	4
11	7	11264	0	1	2	1	0
11	7	25100	0	1	2	3	4
11	7	3.95674e+06	0	1	2	5	4
11	7	150	0	1	5	3	4
11	8	11648	0	1	2	1	0
11	8	27300	0	1	2	3	4
11	8	4.16973e+06	0	1	2	5	4
11	8	150	0	1	5	3	4
11	9	10496	0	1	2	1	0
11	9	26100	0	1	2	3	4
11	9	3.90758e+06	0	1	2	5	4
11	9	150	0	1	5	3	4
11	10	9600	0	1	2	1	0
11	10	25600	0	1	2	3	4
11	10	4.25165e+06	0	1	2	5	4
11	10	300	0	1	5	3	4
11	12	11648	0	1	2	1	0
11	12	30000	0	1	2	3	4
11	12	4.096e+06	0	1	2	5	4
11	13	12352	0	1	2	1	0
11	13	25500	0	1	2	3	4
11	13	3.87891e+06	0	1	2	5	4
11	13	200	0	1	5	3	4
11	14	9600	0	1	2	1	0
11	14	26800	0	1	2	3	4
11	14	4.096e+06	0	1	2	5	4
11	14	50	0	1	5	3	4
11	15	11392	0	1	2	1	0
11	15	26300	0	1	2	3	4
11	15	4.37862e+06	0	1	2	5	4
11	15	50	0	1	5	3	4
12	0	12032	0	1	2	1	0
12	0	27400	0	1	2	3	4
12	0	4.34995e+06	0	1	2	5	4
12	0	50	0	1	5	3	4
12	1	10240	0	1	2	1	0
12	1	25100	0	1	2	3	4
12	1	4.04275e+06	0	1	2	5	4
12	1	150	0	1	5	3	4
12	2	10688	0	1	2	1	0
12	2	22400	0	1	2	3	4
12	2	4.24346e+06	0	1	2	5	4
12	2	50	0	1	5	3	4
12	3	10816	0	1	2	1	0
12	3	26700	0	1	2	3	4
12	3	3.93216e+06	0	1	2	5	4
12	4	9856	0	1	2	1	0
12	4	24600	0	1	2	3	4
12	4	3.97722e+06	0	1	2	5	4
12	4	250	0	1	5	3	4
12	5	9920	0	1	2	1	0
12	5	24600	0	1	2	3	4
12	5	4.16973e+06	0	1	2	5	4
12	5	100	0	1	5	3	4
12	6	12032	0	1	2	1	0
12	6	24800	0	1	2	3	4
12	6	3.95264e+06	0	1	2	5	4
12	6	100	0	1	5	3	4
12	7	10816	0	1	2	1	0
12	7	27900	0	1	2	3	4
12	7	4.07962e+06	0	1	2	5	4
12	7	50	0	1	5	3	4
12	8	11328	0	1	2	1	0
12	8	26600	0	1	2	3	4
12	8	4.01818e+06	0	1	2	5	4
12	8	100	0	1	5	3	4
12	9	10752	0	1	2	1	0
12	9	25600	0	1	2	3	4
12	9	4.2025e+06	0	1	2	5	4
12	9	200	0	1	5	3	4
12	10	11200	0	1	2	1	0
12	10	24700	0	1	2	3	4
12	10	4.07962e+06	0	1	2	5	4
12	10	150	0	1	5	3	4
12	11	10880	0	1	2	1	0
12	11	25000	0	1	2	3	4
12	11	4.15334e+06	0	1	2	5	4
12	11	50	0	1	5	3	4
12	13	11520	0	1	2	1	0
12	13	27400	0	1	2	3	4
12	13	4.07962e+06	0	1	2	5	4
12	13	50	0	1	5	3	4
12	14	9728	0	1	2	1	0
12	14	23700	0	1	2	3	4
12	14	4.25984e+06	0	1	2	5	4
12	14	50	0	1	5	3	4
12	15	10880	0	1	2	1	0
12	15	24800	0	1	2	3	4
12	15	4.17792e+06	0	1	2	5	4
12	15	50	0	1	5	3	4
13	0	10304	0	1	2	1	0
13	0	24200	0	1	2	3	4
13	0	4.08781e+06	0	1	2	5	4
13	1	11968	0	1	2	1	0
13	1	27200	0	1	2	3	4
13	1	4.28442e+06	0	1	2	5	4
13	2	11840	0	1	2	1	0
13	2	25500	0	1	2	3	4
13	2	4.13696e+06	0	1	2	5	4
13	3	11776	0	1	2	1	0
13	3	23500	0	1	2	3	4
13	3	4.07962e+06	0	1	2	5	4
13	3	200	0	1	5	3	4
13	4	10432	0	1	2	1	0
13	4	24700	0	1	2	3	4
13	4	4.24755e+06	0	1	2	5	4
13	4	300	0	1	5	3	4
13	5	10560	0	1	2	1	0
13	5	26200	0	1	2	3	4
13	5	3.91168e+06	0	1	2	5	4
13	5	100	0	1	5	3	4
13	6	10240	0	1	2	1	0
13	6	25100	0	1	2	3	4
13	6	4.31718e+06	0	1	2	5	4
13	6	150	0	1	5	3	4
13	7	11648	0	1	2	1	0
13	7	26200	0	1	2	3	4
13	7	4.3008e+06	0	1	2	5	4
13	7	100	0	1	5	3	4
13	8	9984	0	1	2	1	0
13	8	28000	0	1	2	3	4
13	8	4.22298e+06	0	1	2	5	4
13	9	10880	0	1	2	1	0
13	9	23300	0	1	2	3	4
13	9	4.06733e+06	0	1	2	5	4
13	9	150	0	1	5	3	4
13	10	9984	0	1	2	1	0
13	10	23700	0	1	2	3	4
13	10	4.20659e+06	0	1	2	5	4
13	10	150	0	1	5	3	4
13	11	11136	0	1	2	1	0
13	11	24300	0	1	2	3	4
13	11	4.23526e+06	0	1	2	5	4
13	11	100	0	1	5	3	4
13	12	9600	0	1	2	1	0
13	12	24800	0	1	2	3	4
13	12	4.04685e+06	0	1	2	5	4
13	12	150	0	1	5	3	4
13	14	10496	0	1	2	1	0
13	14	27000	0	1	2	3	4
13	14	4.24346e+06	0	1	2	5	4
13	14	100	0	1	5	3	4
13	15	11008	0	1	2	1	0
13	15	26500	0	1	2	3	4
13	15	4.11648e+06	0	1	2	5	4
13	15	150	0	1	5	3	4
14	0	9408	0	1	2	1	0
14	0	23500	0	1	2	3	4
14	0	4.1943e+06	0	1	2	5	4
14	0	100	0	1	5	3	4
14	1	10880	0	1	2	1	0
14	1	25600	0	1	2	3	4
14	1	4.03046e+06	0	1	2	5	4
14	1	200	0	1	5	3	4
14	2	11712	0	1	2	1	0
14	2	24000	0	1	2	3	4
14	2	3.9977e+06	0	1	2	5	4
14	2	250	0	1	5	3	4
14	3	11392	0	1	2	1	0
14	3	23600	0	1	2	3	4
14	3	3.96902e+06	0	1	2	5	4
14	3	100	0	1	5	3	4
14	4	11712	0	1	2	1	0
14	4	26300	0	1	2	3	4
14	4	3.96493e+06	0	1	2	5	4
14	4	100	0	1	5	3	4
14	5	11776	0	1	2	1	0
14	5	21800	0	1	2	3	4
14	5	4.3049e+06	0	1	2	5	4
14	5	200	0	1	5	3	4
14	6	11712	0	1	2	1	0
14	6	24800	0	1	2	3	4
14	6	3.93626e+06	0	1	2	5	4
14	6	50	0	1	5	3	4
14	7	9792	0	1	2	1	0
14	7	25900	0	1	2	3	4
14	7	3.93626e+06	0	1	2	5	4
14	7	50	0	1	5	3	4
14	8	12096	0	1	2	1	0
14	8	23900	0	1	2	3	4
14	8	4.29261e+06	0	1	2	5	4
14	8	100	0	1	5	3	4
14	9	9664	0	1	2	1	0
14	9	26600	0	1	2	3	4
14	9	4.31718e+06	0	1	2	5	4
14	9	200	0	1	5	3	4
14	10	9984	0	1	2	1	0
14	10	25700	0	1	2	3	4
14	10	4.34995e+06	0	1	2	5	4
14	10	100	0	1	5	3	4
14	11	10816	0	1	2	1	0
14	11	26400	0	1	2	3	4
14	11	4.23117e+06	0	1	2	5	4
14	11	100	0	1	5	3	4
14	12	9984	0	1	2	1	0
14	12	24900	0	1	2	3	4
14	12	4.17382e+06	0	1	2	5	4
14	12	50	0	1	5	3	4
14	13	10240	0	1	2	1	0
14	13	25800	0	1	2	3	4
14	13	4.07552e+06	0	1	2	5	4
14	13	150	0	1	5	3	4
14	15	11136	0	1	2	1	0
14	15	26300	0	1	2	3	4
14	15	4.25574e+06	0	1	2	5	4
14	15	150	0	1	5	3	4
15	0	11904	0	1	2	1	0
15	0	26600	0	1	2	3	4
15	0	4.11648e+06	0	1	2	5	4
15	0	150	0	1	5	3	4
15	1	9408	0	1	2	1	0
15	1	28100	0	1	2	3	4
15	1	4.17382e+06	0	1	2	5	4
15	1	100	0	1	5	3	4
15	2	10944	0	1	2	1	0
15	2	27000	0	1	2	3	4
15	2	3.88301e+06	0	1	2	5	4
15	2	250	0	1	5	3	4
15	3	11392	0	1	2	1	0
15	3	25500	0	1	2	3	4
15	3	4.12058e+06	0	1	2	5	4
15	3	50	0	1	5	3	4
15	4	9792	0	1	2	1	0
15	4	26100	0	1	2	3	4
15	4	4.23526e+06	0	1	2	5	4
15	4	50	0	1	5	3	4
15	5	10688	0	1	2	1	0
15	5	25700	0	1	2	3	4
15	5	4.04275e+06	0	1	2	5	4
15	5	100	0	1	5	3	4
15	6	11712	0	1	2	1	0
15	6	25000	0	1	2	3	4
15	6	4.37862e+06	0	1	2	5	4
15	6	50	0	1	5	3	4
15	7	11520	0	1	2	1	0
15	7	27600	0	1	2	3	4
15	7	4.01408e+06	0	1	2	5	4
15	8	10496	0	1	2	1	0
15	8	25900	0	1	2	3	4
15	8	4.16973e+06	0	1	2	5	4
15	8	50	0	1	5	3	4
15	9	9088	0	1	2	1	0
15	9	26600	0	1	2	3	4
15	9	4.03866e+06	0	1	2	5	4
15	9	150	0	1	5	3	4
15	10	9792	0	1	2	1	0
15	10	27100	0	1	2	3	4
15	10	4.02227e+06	0	1	2	5	4
15	10	150	0	1	5	3	4
15	11	9856	0	1	2	1	0
15	11	28000	0	1	2	3	4
15	11	4.08781e+06	0	1	2	5	4
15	12	10176	0	1	2	1	0
15	12	25300	0	1	2	3	4
15	12	4.52608e+06	0	1	2	5	4
15	12	100	0	1	5	3	4
15	13	10304	0	1	2	1	0
15	13	25300	0	1	2	3	4
15	13	4.13696e+06	0	1	2	5	4
15	13	200	0	1	5	3	4
15	14	8768	0	1	2	1	0
15	14	25900	0	1	2	3	4
15	14	4.21888e+06	0	1	2	5	4
15	14	100	0	1	5	3	4
