100000	100000	100000	10000	1000	1000
0	1	4096	0	1	2	5	4
0	4	100	0	1	2	3	4
0	4	4096	0	1	2	5	4
0	5	4096	0	1	2	5	4
1	2	100	0	1	2	3	4
1	9	4096	0	1	2	5	4
2	1	4096	0	1	2	5	4
2	6	4096	0	1	2	5	4
2	8	100	0	1	2	3	4
3	0	100	0	1	2	3	4
3	7	8192	0	1	2	5	4
3	8	12288	0	1	2	5	4
4	2	100	0	1	2	3	4
4	9	100	0	1	2	3	4
5	3	64	0	1	2	1	0
5	3	4096	0	1	2	5	4
6	5	4096	0	1	2	5	4
6	8	4096	0	1	2	5	4
6	9	4096	0	1	2	5	4
7	4	4096	0	1	2	5	4
7	6	4096	0	1	2	5	4
7	8	200	0	1	2	3	4
7	9	64	0	1	2	1	0
8	0	64	0	1	2	1	0
8	0	4096	0	1	2	5	4
8	1	64	0	1	2	1	0
8	2	12288	0	1	2	5	4
8	7	4096	0	1	2	5	4
9	3	4096	0	1	2	5	4
9	6	4096	0	1	2	5	4
9	8	4096	0	1	2	5	4
