100000	100000	100000	10000	1000	1000
0	1	384	0	1	2	1	0
0	1	400	0	1	2	3	4
0	1	94208	0	1	2	5	4
0	2	256	0	1	2	1	0
0	2	600	0	1	2	3	4
0	2	77824	0	1	2	5	4
0	2	50	0	1	5	3	4
0	3	320	0	1	2	1	0
0	3	100	0	1	2	3	4
0	3	118784	0	1	2	5	4
0	4	64	0	1	2	1	0
0	4	900	0	1	2	3	4
0	4	126976	0	1	2	5	4
0	5	384	0	1	2	1	0
0	5	600	0	1	2	3	4
0	5	86016	0	1	2	5	4
0	6	128	0	1	2	1	0
0	6	800	0	1	2	3	4
0	6	106496	0	1	2	5	4
0	7	256	0	1	2	1	0
0	7	400	0	1	2	3	4
0	7	90112	0	1	2	5	4
0	8	256	0	1	2	1	0
0	8	800	0	1	2	3	4
0	8	86016	0	1	2	5	4
0	9	256	0	1	2	1	0
0	9	900	0	1	2	3	4
0	9	106496	0	1	2	5	4
1	0	192	0	1	2	1	0
1	0	400	0	1	2	3	4
1	0	94208	0	1	2	5	4
1	2	256	0	1	2	1	0
1	2	700	0	1	2	3	4
1	2	114688	0	1	2	5	4
1	3	128	0	1	2	1	0
1	3	400	0	1	2	3	4
1	3	118784	0	1	2	5	4
1	4	448	0	1	2	1	0
1	4	400	0	1	2	3	4
1	4	57344	0	1	2	5	4
1	5	320	0	1	2	1	0
1	5	1200	0	1	2	3	4
1	5	110592	0	1	2	5	4
1	6	384	0	1	2	1	0
1	6	600	0	1	2	3	4
1	6	90112	0	1	2	5	4
1	6	50	0	1	5	3	4
1	7	128	0	1	2	1	0
1	7	300	0	1	2	3	4
1	7	98304	0	1	2	5	4
1	8	64	0	1	2	1	0
1	8	500	0	1	2	3	4
1	8	86016	0	1	2	5	4
1	9	384	0	1	2	1	0
1	9	500	0	1	2	3	4
1	9	122880	0	1	2	5	4
2	0	384	0	1	2	1	0
2	0	600	0	1	2	3	4
2	0	106496	0	1	2	5	4
2	1	256	0	1	2	1	0
2	1	1000	0	1	2	3	4
2	1	81920	0	1	2	5	4
2	3	384	0	1	2	1	0
2	3	1000	0	1	2	3	4
2	3	90112	0	1	2	5	4
2	4	512	0	1	2	1	0
2	4	700	0	1	2	3	4
2	4	167936	0	1	2	5	4
2	5	64	0	1	2	1	0
2	5	300	0	1	2	3	4
2	5	98304	0	1	2	5	4
2	6	448	0	1	2	1	0
2	6	700	0	1	2	3	4
2	6	94208	0	1	2	5	4
2	7	256	0	1	2	1	0
2	7	600	0	1	2	3	4
2	7	126976	0	1	2	5	4
2	7	50	0	1	5	3	4
2	8	320	0	1	2	1	0
2	8	1000	0	1	2	3	4
2	8	106496	0	1	2	5	4
2	9	320	0	1	2	1	0
2	9	600	0	1	2	3	4
2	9	131072	0	1	2	5	4
3	0	256	0	1	2	1	0
3	0	800	0	1	2	3	4
3	0	73728	0	1	2	5	4
3	1	64	0	1	2	1	0
3	1	600	0	1	2	3	4
3	1	81920	0	1	2	5	4
3	2	448	0	1	2	1	0
3	2	800	0	1	2	3	4
3	2	114688	0	1	2	5	4
3	4	384	0	1	2	1	0
3	4	1100	0	1	2	3	4
3	4	131072	0	1	2	5	4
3	5	576	0	1	2	1	0
3	5	700	0	1	2	3	4
3	5	102400	0	1	2	5	4
3	6	256	0	1	2	1	0
3	6	500	0	1	2	3	4
3	6	122880	0	1	2	5	4
3	7	128	0	1	2	1	0
3	7	1000	0	1	2	3	4
3	7	126976	0	1	2	5	4
3	8	512	0	1	2	1	0
3	8	500	0	1	2	3	4
3	8	122880	0	1	2	5	4
3	9	128	0	1	2	1	0
3	9	700	0	1	2	3	4
3	9	106496	0	1	2	5	4
4	0	256	0	1	2	1	0
4	0	900	0	1	2	3	4
4	0	131072	0	1	2	5	4
4	1	320	0	1	2	1	0
4	1	600	0	1	2	3	4
4	1	98304	0	1	2	5	4
4	2	384	0	1	2	1	0
4	2	800	0	1	2	3	4
4	2	126976	0	1	2	5	4
4	3	192	0	1	2	1	0
4	3	400	0	1	2	3	4
4	3	155648	0	1	2	5	4
4	5	192	0	1	2	1	0
4	5	300	0	1	2	3	4
4	5	135168	0	1	2	5	4
4	6	128	0	1	2	1	0
4	6	1100	0	1	2	3	4
4	6	114688	0	1	2	5	4
4	7	128	0	1	2	1	0
4	7	700	0	1	2	3	4
4	7	86016	0	1	2	5	4
4	8	256	0	1	2	1	0
4	8	800	0	1	2	3	4
4	8	114688	0	1	2	5	4
4	9	320	0	1	2	1	0
4	9	400	0	1	2	3	4
4	9	184320	0	1	2	5	4
5	0	384	0	1	2	1	0
5	0	500	0	1	2	3	4
5	0	90112	0	1	2	5	4
5	1	320	0	1	2	1	0
5	1	300	0	1	2	3	4
5	1	118784	0	1	2	5	4
5	2	256	0	1	2	1	0
5	2	500	0	1	2	3	4
5	2	118784	0	1	2	5	4
5	3	320	0	1	2	1	0
5	3	600	0	1	2	3	4
5	3	126976	0	1	2	5	4
5	4	320	0	1	2	1	0
5	4	600	0	1	2	3	4
5	4	114688	0	1	2	5	4
5	6	512	0	1	2	1	0
5	6	300	0	1	2	3	4
5	6	102400	0	1	2	5	4
5	7	192	0	1	2	1	0
5	7	200	0	1	2	3	4
5	7	81920	0	1	2	5	4
5	8	384	0	1	2	1	0
5	8	500	0	1	2	3	4
5	8	118784	0	1	2	5	4
5	8	50	0	1	5	3	4
5	9	128	0	1	2	1	0
5	9	1000	0	1	2	3	4
5	9	98304	0	1	2	5	4
6	0	256	0	1	2	1	0
6	0	1000	0	1	2	3	4
6	0	143360	0	1	2	5	4
6	1	192	0	1	2	1	0
6	1	600	0	1	2	3	4
6	1	106496	0	1	2	5	4
6	2	192	0	1	2	1	0
6	2	600	0	1	2	3	4
6	2	155648	0	1	2	5	4
6	3	320	0	1	2	1	0
6	3	800	0	1	2	3	4
6	3	102400	0	1	2	5	4
6	4	192	0	1	2	1	0
6	4	800	0	1	2	3	4
6	4	69632	0	1	2	5	4
6	5	384	0	1	2	1	0
6	5	700	0	1	2	3	4
6	5	114688	0	1	2	5	4
6	7	128	0	1	2	1	0
6	7	900	0	1	2	3	4
6	7	110592	0	1	2	5	4
6	8	320	0	1	2	1	0
6	8	900	0	1	2	3	4
6	8	114688	0	1	2	5	4
6	9	384	0	1	2	1	0
6	9	300	0	1	2	3	4
6	9	110592	0	1	2	5	4
6	9	50	0	1	5	3	4
7	0	256	0	1	2	1	0
7	0	800	0	1	2	3	4
7	0	122880	0	1	2	5	4
7	1	384	0	1	2	1	0
7	1	800	0	1	2	3	4
7	1	122880	0	1	2	5	4
7	2	128	0	1	2	1	0
7	2	600	0	1	2	3	4
7	2	135168	0	1	2	5	4
7	3	384	0	1	2	1	0
7	3	300	0	1	2	3	4
7	3	102400	0	1	2	5	4
7	3	50	0	1	5	3	4
7	4	128	0	1	2	1	0
7	4	700	0	1	2	3	4
7	4	102400	0	1	2	5	4
7	5	320	0	1	2	1	0
7	5	300	0	1	2	3	4
7	5	106496	0	1	2	5	4
7	6	128	0	1	2	1	0
7	6	800	0	1	2	3	4
7	6	81920	0	1	2	5	4
7	8	256	0	1	2	1	0
7	8	600	0	1	2	3	4
7	8	131072	0	1	2	5	4
7	9	64	0	1	2	1	0
7	9	900	0	1	2	3	4
7	9	118784	0	1	2	5	4
8	0	192	0	1	2	1	0
8	0	400	0	1	2	3	4
8	0	114688	0	1	2	5	4
8	1	64	0	1	2	1	0
8	1	400	0	1	2	3	4
8	1	106496	0	1	2	5	4
8	1	50	0	1	5	3	4
8	2	384	0	1	2	1	0
8	2	800	0	1	2	3	4
8	2	143360	0	1	2	5	4
8	3	1000	0	1	2	3	4
8	3	90112	0	1	2	5	4
8	3	50	0	1	5	3	4
8	4	320	0	1	2	1	0
8	4	800	0	1	2	3	4
8	4	73728	0	1	2	5	4
8	5	320	0	1	2	1	0
8	5	800	0	1	2	3	4
8	5	81920	0	1	2	5	4
8	6	256	0	1	2	1	0
8	6	500	0	1	2	3	4
8	6	135168	0	1	2	5	4
8	7	256	0	1	2	1	0
8	7	1100	0	1	2	3	4
8	7	106496	0	1	2	5	4
8	9	192	0	1	2	1	0
8	9	400	0	1	2	3	4
8	9	122880	0	1	2	5	4
9	0	192	0	1	2	1	0
9	0	700	0	1	2	3	4
9	0	118784	0	1	2	5	4
9	1	384	0	1	2	1	0
9	1	800	0	1	2	3	4
9	1	114688	0	1	2	5	4
9	2	320	0	1	2	1	0
9	2	1000	0	1	2	3	4
9	2	69632	0	1	2	5	4
9	3	256	0	1	2	1	0
9	3	1000	0	1	2	3	4
9	3	139264	0	1	2	5	4
9	4	320	0	1	2	1	0
9	4	400	0	1	2	3	4
9	4	114688	0	1	2	5	4
9	5	192	0	1	2	1	0
9	5	500	0	1	2	3	4
9	5	86016	0	1	2	5	4
9	6	320	0	1	2	1	0
9	6	500	0	1	2	3	4
9	6	114688	0	1	2	5	4
9	7	256	0	1	2	1	0
9	7	400	0	1	2	3	4
9	7	122880	0	1	2	5	4
9	8	256	0	1	2	1	0
9	8	700	0	1	2	3	4
9	8	122880	0	1	2	5	4
